<?xml version="1.0"?>
<!DOCTYPE svg PUBLIC '-//W3C//DTD SVG 1.0//EN'
          'http://www.w3.org/TR/2001/REC-SVG-20010904/DTD/svg10.dtd'>
<svg xmlns:xlink="http://www.w3.org/1999/xlink" style="fill-opacity:1; color-rendering:auto; color-interpolation:auto; text-rendering:auto; stroke:black; stroke-linecap:square; stroke-miterlimit:10; shape-rendering:auto; stroke-opacity:1; fill:black; stroke-dasharray:none; font-weight:normal; stroke-width:1; font-family:'Dialog'; font-style:normal; stroke-linejoin:miter; font-size:12px; stroke-dashoffset:0; image-rendering:auto;" width="3696" height="1932" xmlns="http://www.w3.org/2000/svg"
><!--Generated by the Batik Graphics2D SVG Generator--><defs id="genericDefs"
  /><g
  ><defs id="defs1"
    ><clipPath clipPathUnits="userSpaceOnUse" id="clipPath1"
      ><path d="M0 0 L3696 0 L3696 1932 L0 1932 L0 0 Z"
      /></clipPath
    ></defs
    ><g style="fill:white; stroke:white;"
    ><rect x="0" y="0" width="3696" style="clip-path:url(#clipPath1); stroke:none;" height="1932"
    /></g
    ><g style="fill:white; text-rendering:optimizeSpeed; color-rendering:optimizeSpeed; image-rendering:optimizeSpeed; shape-rendering:crispEdges; stroke:white; color-interpolation:sRGB;"
    ><rect x="0" width="3696" height="1932" y="0" style="stroke:none;"
      /><path style="stroke:none;" d="M480 1719 L3345 1719 L3345 145 L480 145 Z"
    /></g
    ><g style="fill:rgb(38,38,38); text-rendering:geometricPrecision; color-rendering:optimizeQuality; image-rendering:optimizeQuality; stroke-linejoin:round; stroke:rgb(38,38,38); color-interpolation:linearRGB;"
    ><line y2="1719" style="fill:none;" x1="480" x2="3345" y1="1719"
      /><line y2="145" style="fill:none;" x1="480" x2="3345" y1="145"
      /><line y2="1690.35" style="fill:none;" x1="853.6957" x2="853.6957" y1="1719"
      /><line y2="1690.35" style="fill:none;" x1="1268.9131" x2="1268.9131" y1="1719"
      /><line y2="1690.35" style="fill:none;" x1="1684.1305" x2="1684.1305" y1="1719"
      /><line y2="1690.35" style="fill:none;" x1="2099.3479" x2="2099.3479" y1="1719"
      /><line y2="1690.35" style="fill:none;" x1="2514.5652" x2="2514.5652" y1="1719"
      /><line y2="1690.35" style="fill:none;" x1="2929.7827" x2="2929.7827" y1="1719"
      /><line y2="1690.35" style="fill:none;" x1="3345" x2="3345" y1="1719"
      /><line y2="173.65" style="fill:none;" x1="853.6957" x2="853.6957" y1="145"
      /><line y2="173.65" style="fill:none;" x1="1268.9131" x2="1268.9131" y1="145"
      /><line y2="173.65" style="fill:none;" x1="1684.1305" x2="1684.1305" y1="145"
      /><line y2="173.65" style="fill:none;" x1="2099.3479" x2="2099.3479" y1="145"
      /><line y2="173.65" style="fill:none;" x1="2514.5652" x2="2514.5652" y1="145"
      /><line y2="173.65" style="fill:none;" x1="2929.7827" x2="2929.7827" y1="145"
      /><line y2="173.65" style="fill:none;" x1="3345" x2="3345" y1="145"
    /></g
    ><g transform="translate(853.6957,1727)" style="font-size:20px; fill:rgb(38,38,38); text-rendering:geometricPrecision; image-rendering:optimizeQuality; color-rendering:optimizeQuality; font-family:'SansSerif'; stroke:rgb(38,38,38); color-interpolation:linearRGB;"
    ><path style="stroke:none;" d="M-10.5156 17.3438 L-7.2969 17.3438 L-7.2969 6.2188 L-10.7969 6.9219 L-10.7969 5.125 L-7.3125 4.4219 L-5.3438 4.4219 L-5.3438 17.3438 L-2.125 17.3438 L-2.125 19 L-10.5156 19 L-10.5156 17.3438 ZM6.084 5.7188 Q4.5527 5.7188 3.7871 7.2188 Q3.0215 8.7188 3.0215 11.7188 Q3.0215 14.7188 3.7871 16.2188 Q4.5527 17.7188 6.084 17.7188 Q7.6152 17.7188 8.3809 16.2188 Q9.1465 14.7188 9.1465 11.7188 Q9.1465 8.7188 8.3809 7.2188 Q7.6152 5.7188 6.084 5.7188 ZM6.084 4.1562 Q8.5371 4.1562 9.8262 6.0938 Q11.1152 8.0312 11.1152 11.7188 Q11.1152 15.4062 9.8262 17.3438 Q8.5371 19.2812 6.084 19.2812 Q3.6309 19.2812 2.334 17.3438 Q1.0371 15.4062 1.0371 11.7188 Q1.0371 8.0312 2.334 6.0938 Q3.6309 4.1562 6.084 4.1562 Z"
    /></g
    ><g transform="translate(1268.9131,1727)" style="font-size:20px; fill:rgb(38,38,38); text-rendering:geometricPrecision; image-rendering:optimizeQuality; color-rendering:optimizeQuality; font-family:'SansSerif'; stroke:rgb(38,38,38); color-interpolation:linearRGB;"
    ><path style="stroke:none;" d="M-9.1562 17.3438 L-2.2812 17.3438 L-2.2812 19 L-11.5312 19 L-11.5312 17.3438 Q-10.4062 16.1719 -8.4688 14.2188 Q-6.5312 12.2656 -6.0312 11.6875 Q-5.0938 10.625 -4.7188 9.8906 Q-4.3438 9.1562 -4.3438 8.4375 Q-4.3438 7.2812 -5.1562 6.5469 Q-5.9688 5.8125 -7.2812 5.8125 Q-8.2031 5.8125 -9.2344 6.1328 Q-10.2656 6.4531 -11.4375 7.1094 L-11.4375 5.125 Q-10.25 4.6406 -9.2109 4.3984 Q-8.1719 4.1562 -7.3125 4.1562 Q-5.0469 4.1562 -3.7031 5.2891 Q-2.3594 6.4219 -2.3594 8.3125 Q-2.3594 9.2188 -2.6953 10.0234 Q-3.0312 10.8281 -3.9219 11.9219 Q-4.1562 12.2031 -5.4688 13.5547 Q-6.7812 14.9062 -9.1562 17.3438 ZM6.084 5.7188 Q4.5527 5.7188 3.7871 7.2188 Q3.0215 8.7188 3.0215 11.7188 Q3.0215 14.7188 3.7871 16.2188 Q4.5527 17.7188 6.084 17.7188 Q7.6152 17.7188 8.3809 16.2188 Q9.1465 14.7188 9.1465 11.7188 Q9.1465 8.7188 8.3809 7.2188 Q7.6152 5.7188 6.084 5.7188 ZM6.084 4.1562 Q8.5371 4.1562 9.8262 6.0938 Q11.1152 8.0312 11.1152 11.7188 Q11.1152 15.4062 9.8262 17.3438 Q8.5371 19.2812 6.084 19.2812 Q3.6309 19.2812 2.334 17.3438 Q1.0371 15.4062 1.0371 11.7188 Q1.0371 8.0312 2.334 6.0938 Q3.6309 4.1562 6.084 4.1562 Z"
    /></g
    ><g transform="translate(1684.1305,1727)" style="font-size:20px; fill:rgb(38,38,38); text-rendering:geometricPrecision; image-rendering:optimizeQuality; color-rendering:optimizeQuality; font-family:'SansSerif'; stroke:rgb(38,38,38); color-interpolation:linearRGB;"
    ><path style="stroke:none;" d="M-4.8906 11.1406 Q-3.4688 11.4375 -2.6719 12.3984 Q-1.875 13.3594 -1.875 14.7656 Q-1.875 16.9219 -3.3594 18.1016 Q-4.8438 19.2812 -7.5781 19.2812 Q-8.5 19.2812 -9.4688 19.1016 Q-10.4375 18.9219 -11.4688 18.5625 L-11.4688 16.6562 Q-10.6562 17.1406 -9.6797 17.3828 Q-8.7031 17.625 -7.6406 17.625 Q-5.7812 17.625 -4.8125 16.8906 Q-3.8438 16.1562 -3.8438 14.7656 Q-3.8438 13.4688 -4.7422 12.7422 Q-5.6406 12.0156 -7.25 12.0156 L-8.9531 12.0156 L-8.9531 10.3906 L-7.1719 10.3906 Q-5.7188 10.3906 -4.9531 9.8125 Q-4.1875 9.2344 -4.1875 8.1406 Q-4.1875 7.0156 -4.9766 6.4141 Q-5.7656 5.8125 -7.25 5.8125 Q-8.0625 5.8125 -8.9922 5.9922 Q-9.9219 6.1719 -11.0312 6.5312 L-11.0312 4.7812 Q-9.9062 4.4688 -8.9297 4.3125 Q-7.9531 4.1562 -7.0781 4.1562 Q-4.8281 4.1562 -3.5234 5.1797 Q-2.2188 6.2031 -2.2188 7.9375 Q-2.2188 9.1406 -2.9141 9.9766 Q-3.6094 10.8125 -4.8906 11.1406 ZM6.084 5.7188 Q4.5527 5.7188 3.7871 7.2188 Q3.0215 8.7188 3.0215 11.7188 Q3.0215 14.7188 3.7871 16.2188 Q4.5527 17.7188 6.084 17.7188 Q7.6152 17.7188 8.3809 16.2188 Q9.1465 14.7188 9.1465 11.7188 Q9.1465 8.7188 8.3809 7.2188 Q7.6152 5.7188 6.084 5.7188 ZM6.084 4.1562 Q8.5371 4.1562 9.8262 6.0938 Q11.1152 8.0312 11.1152 11.7188 Q11.1152 15.4062 9.8262 17.3438 Q8.5371 19.2812 6.084 19.2812 Q3.6309 19.2812 2.334 17.3438 Q1.0371 15.4062 1.0371 11.7188 Q1.0371 8.0312 2.334 6.0938 Q3.6309 4.1562 6.084 4.1562 Z"
    /></g
    ><g transform="translate(2099.3479,1727)" style="font-size:20px; fill:rgb(38,38,38); text-rendering:geometricPrecision; image-rendering:optimizeQuality; color-rendering:optimizeQuality; font-family:'SansSerif'; stroke:rgb(38,38,38); color-interpolation:linearRGB;"
    ><path style="stroke:none;" d="M-5.4375 6.1406 L-10.4219 13.9219 L-5.4375 13.9219 L-5.4375 6.1406 ZM-5.9531 4.4219 L-3.4844 4.4219 L-3.4844 13.9219 L-1.3906 13.9219 L-1.3906 15.5625 L-3.4844 15.5625 L-3.4844 19 L-5.4375 19 L-5.4375 15.5625 L-12.0156 15.5625 L-12.0156 13.6562 L-5.9531 4.4219 ZM6.084 5.7188 Q4.5527 5.7188 3.7871 7.2188 Q3.0215 8.7188 3.0215 11.7188 Q3.0215 14.7188 3.7871 16.2188 Q4.5527 17.7188 6.084 17.7188 Q7.6152 17.7188 8.3809 16.2188 Q9.1465 14.7188 9.1465 11.7188 Q9.1465 8.7188 8.3809 7.2188 Q7.6152 5.7188 6.084 5.7188 ZM6.084 4.1562 Q8.5371 4.1562 9.8262 6.0938 Q11.1152 8.0312 11.1152 11.7188 Q11.1152 15.4062 9.8262 17.3438 Q8.5371 19.2812 6.084 19.2812 Q3.6309 19.2812 2.334 17.3438 Q1.0371 15.4062 1.0371 11.7188 Q1.0371 8.0312 2.334 6.0938 Q3.6309 4.1562 6.084 4.1562 Z"
    /></g
    ><g transform="translate(2514.5652,1727)" style="font-size:20px; fill:rgb(38,38,38); text-rendering:geometricPrecision; image-rendering:optimizeQuality; color-rendering:optimizeQuality; font-family:'SansSerif'; stroke:rgb(38,38,38); color-interpolation:linearRGB;"
    ><path style="stroke:none;" d="M-10.8438 4.4219 L-3.0938 4.4219 L-3.0938 6.0781 L-9.0312 6.0781 L-9.0312 9.6562 Q-8.6094 9.5 -8.1797 9.4297 Q-7.75 9.3594 -7.3125 9.3594 Q-4.875 9.3594 -3.4453 10.6953 Q-2.0156 12.0312 -2.0156 14.3281 Q-2.0156 16.6719 -3.4844 17.9766 Q-4.9531 19.2812 -7.625 19.2812 Q-8.5312 19.2812 -9.4844 19.125 Q-10.4375 18.9688 -11.4531 18.6562 L-11.4531 16.6719 Q-10.5781 17.1562 -9.6406 17.3906 Q-8.7031 17.625 -7.6562 17.625 Q-5.9688 17.625 -4.9844 16.7344 Q-4 15.8438 -4 14.3281 Q-4 12.7969 -4.9844 11.9062 Q-5.9688 11.0156 -7.6562 11.0156 Q-8.4531 11.0156 -9.2344 11.1953 Q-10.0156 11.375 -10.8438 11.75 L-10.8438 4.4219 ZM6.084 5.7188 Q4.5527 5.7188 3.7871 7.2188 Q3.0215 8.7188 3.0215 11.7188 Q3.0215 14.7188 3.7871 16.2188 Q4.5527 17.7188 6.084 17.7188 Q7.6152 17.7188 8.3809 16.2188 Q9.1465 14.7188 9.1465 11.7188 Q9.1465 8.7188 8.3809 7.2188 Q7.6152 5.7188 6.084 5.7188 ZM6.084 4.1562 Q8.5371 4.1562 9.8262 6.0938 Q11.1152 8.0312 11.1152 11.7188 Q11.1152 15.4062 9.8262 17.3438 Q8.5371 19.2812 6.084 19.2812 Q3.6309 19.2812 2.334 17.3438 Q1.0371 15.4062 1.0371 11.7188 Q1.0371 8.0312 2.334 6.0938 Q3.6309 4.1562 6.084 4.1562 Z"
    /></g
    ><g transform="translate(2929.7827,1727)" style="font-size:20px; fill:rgb(38,38,38); text-rendering:geometricPrecision; image-rendering:optimizeQuality; color-rendering:optimizeQuality; font-family:'SansSerif'; stroke:rgb(38,38,38); color-interpolation:linearRGB;"
    ><path style="stroke:none;" d="M-6.3906 10.9219 Q-7.7188 10.9219 -8.5 11.8281 Q-9.2812 12.7344 -9.2812 14.3281 Q-9.2812 15.8906 -8.5 16.8047 Q-7.7188 17.7188 -6.3906 17.7188 Q-5.0625 17.7188 -4.2891 16.8047 Q-3.5156 15.8906 -3.5156 14.3281 Q-3.5156 12.7344 -4.2891 11.8281 Q-5.0625 10.9219 -6.3906 10.9219 ZM-2.4844 4.7344 L-2.4844 6.5312 Q-3.2188 6.1875 -3.9766 6 Q-4.7344 5.8125 -5.4844 5.8125 Q-7.4375 5.8125 -8.4688 7.1328 Q-9.5 8.4531 -9.6406 11.125 Q-9.0625 10.2656 -8.1953 9.8125 Q-7.3281 9.3594 -6.2812 9.3594 Q-4.0781 9.3594 -2.8047 10.6953 Q-1.5312 12.0312 -1.5312 14.3281 Q-1.5312 16.5625 -2.8594 17.9219 Q-4.1875 19.2812 -6.3906 19.2812 Q-8.9219 19.2812 -10.2656 17.3438 Q-11.6094 15.4062 -11.6094 11.7188 Q-11.6094 8.2656 -9.9688 6.2109 Q-8.3281 4.1562 -5.5625 4.1562 Q-4.8125 4.1562 -4.0547 4.3047 Q-3.2969 4.4531 -2.4844 4.7344 ZM6.084 5.7188 Q4.5527 5.7188 3.7871 7.2188 Q3.0215 8.7188 3.0215 11.7188 Q3.0215 14.7188 3.7871 16.2188 Q4.5527 17.7188 6.084 17.7188 Q7.6152 17.7188 8.3809 16.2188 Q9.1465 14.7188 9.1465 11.7188 Q9.1465 8.7188 8.3809 7.2188 Q7.6152 5.7188 6.084 5.7188 ZM6.084 4.1562 Q8.5371 4.1562 9.8262 6.0938 Q11.1152 8.0312 11.1152 11.7188 Q11.1152 15.4062 9.8262 17.3438 Q8.5371 19.2812 6.084 19.2812 Q3.6309 19.2812 2.334 17.3438 Q1.0371 15.4062 1.0371 11.7188 Q1.0371 8.0312 2.334 6.0938 Q3.6309 4.1562 6.084 4.1562 Z"
    /></g
    ><g transform="translate(3345,1727)" style="font-size:20px; fill:rgb(38,38,38); text-rendering:geometricPrecision; image-rendering:optimizeQuality; color-rendering:optimizeQuality; font-family:'SansSerif'; stroke:rgb(38,38,38); color-interpolation:linearRGB;"
    ><path style="stroke:none;" d="M-11.3594 4.4219 L-1.9844 4.4219 L-1.9844 5.2656 L-7.2812 19 L-9.3438 19 L-4.3594 6.0781 L-11.3594 6.0781 L-11.3594 4.4219 ZM6.084 5.7188 Q4.5527 5.7188 3.7871 7.2188 Q3.0215 8.7188 3.0215 11.7188 Q3.0215 14.7188 3.7871 16.2188 Q4.5527 17.7188 6.084 17.7188 Q7.6152 17.7188 8.3809 16.2188 Q9.1465 14.7188 9.1465 11.7188 Q9.1465 8.7188 8.3809 7.2188 Q7.6152 5.7188 6.084 5.7188 ZM6.084 4.1562 Q8.5371 4.1562 9.8262 6.0938 Q11.1152 8.0312 11.1152 11.7188 Q11.1152 15.4062 9.8262 17.3438 Q8.5371 19.2812 6.084 19.2812 Q3.6309 19.2812 2.334 17.3438 Q1.0371 15.4062 1.0371 11.7188 Q1.0371 8.0312 2.334 6.0938 Q3.6309 4.1562 6.084 4.1562 Z"
    /></g
    ><g transform="translate(1912.5015,1753)" style="font-size:24px; fill:rgb(38,38,38); text-rendering:geometricPrecision; image-rendering:optimizeQuality; color-rendering:optimizeQuality; font-family:'Ubuntu'; stroke:rgb(38,38,38); color-interpolation:linearRGB;"
    ><path style="stroke:none;" d="M-45.4375 6.375 L-43.1094 6.375 L-43.1094 23 L-45.4375 23 L-45.4375 6.375 ZM-37.0319 10.5156 L-32.3132 10.5156 L-32.3132 12.3906 L-37.0319 12.3906 L-37.0319 18.1562 Q-37.0319 19.0938 -36.8913 19.7031 Q-36.7507 20.3125 -36.4616 20.6641 Q-36.1725 21.0156 -35.7429 21.1562 Q-35.3132 21.2969 -34.735 21.2969 Q-33.735 21.2969 -33.1179 21.0703 Q-32.5007 20.8438 -32.2663 20.75 L-31.8288 22.5938 Q-32.1725 22.7656 -33.0085 23.0156 Q-33.8444 23.2656 -34.9225 23.2656 Q-36.2038 23.2656 -37.0319 22.9375 Q-37.86 22.6094 -38.36 21.9609 Q-38.86 21.3125 -39.0632 20.3672 Q-39.2663 19.4219 -39.2663 18.1719 L-39.2663 7.0469 L-37.0319 6.6562 L-37.0319 10.5156 ZM-30.1861 16.7812 Q-30.1861 15.125 -29.7017 13.8906 Q-29.2173 12.6562 -28.4283 11.8438 Q-27.6392 11.0312 -26.608 10.6172 Q-25.5767 10.2031 -24.4986 10.2031 Q-21.9673 10.2031 -20.6236 11.7812 Q-19.2798 13.3594 -19.2798 16.5625 Q-19.2798 16.7188 -19.2798 16.9453 Q-19.2798 17.1719 -19.3111 17.3594 L-27.858 17.3594 Q-27.7017 19.2969 -26.7252 20.3047 Q-25.7486 21.3125 -23.6548 21.3125 Q-22.483 21.3125 -21.6783 21.1094 Q-20.8736 20.9062 -20.4673 20.7188 L-20.1548 22.5938 Q-20.5611 22.8125 -21.5767 23.0469 Q-22.5923 23.2812 -23.8892 23.2812 Q-25.5298 23.2812 -26.7173 22.7891 Q-27.9048 22.2969 -28.6705 21.4375 Q-29.4361 20.5781 -29.8111 19.3906 Q-30.1861 18.2031 -30.1861 16.7812 ZM-21.608 15.5625 Q-21.5923 14.0469 -22.3736 13.0781 Q-23.1548 12.1094 -24.5142 12.1094 Q-25.2798 12.1094 -25.8736 12.4062 Q-26.4673 12.7031 -26.8736 13.1797 Q-27.2798 13.6562 -27.5064 14.2812 Q-27.733 14.9062 -27.8111 15.5625 L-21.608 15.5625 ZM-11.465 10.25 Q-11.1837 10.25 -10.8087 10.2891 Q-10.4337 10.3281 -10.0743 10.3906 Q-9.715 10.4531 -9.4181 10.5078 Q-9.1212 10.5625 -8.965 10.6094 L-9.3556 12.5625 Q-9.6212 12.4688 -10.2306 12.3359 Q-10.84 12.2031 -11.8087 12.2031 Q-12.4337 12.2031 -13.0431 12.3359 Q-13.6525 12.4688 -13.84 12.5156 L-13.84 23 L-16.0743 23 L-16.0743 11.0469 Q-15.2775 10.7656 -14.1056 10.5078 Q-12.9337 10.25 -11.465 10.25 ZM-2.5967 21.3906 Q-1.7998 21.3906 -1.1904 21.3516 Q-0.5811 21.3125 -0.1748 21.2188 L-0.1748 17.5 Q-0.4092 17.3906 -0.9482 17.3047 Q-1.4873 17.2188 -2.2529 17.2188 Q-2.7686 17.2188 -3.3311 17.2891 Q-3.8936 17.3594 -4.3623 17.5859 Q-4.8311 17.8125 -5.1436 18.2109 Q-5.4561 18.6094 -5.4561 19.25 Q-5.4561 20.4531 -4.6826 20.9219 Q-3.9092 21.3906 -2.5967 21.3906 ZM-2.7842 10.2031 Q-1.4404 10.2031 -0.5186 10.5547 Q0.4033 10.9062 0.9658 11.5391 Q1.5283 12.1719 1.7705 13.0469 Q2.0127 13.9219 2.0127 14.9844 L2.0127 22.7812 Q1.7314 22.8281 1.2158 22.9141 Q0.7002 23 0.0518 23.0703 Q-0.5967 23.1406 -1.3545 23.2031 Q-2.1123 23.2656 -2.8623 23.2656 Q-3.9092 23.2656 -4.7998 23.0469 Q-5.6904 22.8281 -6.3389 22.3594 Q-6.9873 21.8906 -7.3467 21.125 Q-7.7061 20.3594 -7.7061 19.2812 Q-7.7061 18.25 -7.2842 17.5078 Q-6.8623 16.7656 -6.1436 16.3047 Q-5.4248 15.8438 -4.4639 15.6328 Q-3.5029 15.4219 -2.4561 15.4219 Q-2.1123 15.4219 -1.7529 15.4531 Q-1.3936 15.4844 -1.0732 15.5469 Q-0.7529 15.6094 -0.5107 15.6562 Q-0.2686 15.7031 -0.1748 15.7344 L-0.1748 15.1094 Q-0.1748 14.5469 -0.292 14.0078 Q-0.4092 13.4688 -0.7217 13.0469 Q-1.0342 12.625 -1.5732 12.375 Q-2.1123 12.125 -2.9717 12.125 Q-4.0811 12.125 -4.9092 12.2812 Q-5.7373 12.4375 -6.1436 12.6094 L-6.4092 10.7656 Q-5.9717 10.5625 -4.9639 10.3828 Q-3.9561 10.2031 -2.7842 10.2031 ZM7.7994 10.5156 L12.5182 10.5156 L12.5182 12.3906 L7.7994 12.3906 L7.7994 18.1562 Q7.7994 19.0938 7.9401 19.7031 Q8.0807 20.3125 8.3698 20.6641 Q8.6588 21.0156 9.0885 21.1562 Q9.5182 21.2969 10.0963 21.2969 Q11.0963 21.2969 11.7135 21.0703 Q12.3307 20.8438 12.5651 20.75 L13.0026 22.5938 Q12.6588 22.7656 11.8229 23.0156 Q10.9869 23.2656 9.9088 23.2656 Q8.6276 23.2656 7.7994 22.9375 Q6.9713 22.6094 6.4713 21.9609 Q5.9713 21.3125 5.7682 20.3672 Q5.5651 19.4219 5.5651 18.1719 L5.5651 7.0469 L7.7994 6.6562 L7.7994 10.5156 ZM17.5828 23 L15.3484 23 L15.3484 10.5156 L17.5828 10.5156 L17.5828 23 ZM16.4578 8.2656 Q15.8484 8.2656 15.4265 7.8672 Q15.0046 7.4688 15.0046 6.7969 Q15.0046 6.125 15.4265 5.7344 Q15.8484 5.3438 16.4578 5.3438 Q17.0515 5.3438 17.4734 5.7344 Q17.8953 6.125 17.8953 6.7969 Q17.8953 7.4688 17.4734 7.8672 Q17.0515 8.2656 16.4578 8.2656 ZM32.4327 16.7656 Q32.4327 18.25 32.003 19.4453 Q31.5733 20.6406 30.7921 21.5078 Q30.0108 22.375 28.9327 22.8438 Q27.8546 23.3125 26.5733 23.3125 Q25.3077 23.3125 24.2217 22.8438 Q23.1358 22.375 22.3624 21.5078 Q21.5889 20.6406 21.1514 19.4453 Q20.7139 18.25 20.7139 16.7656 Q20.7139 15.2969 21.1514 14.0859 Q21.5889 12.875 22.3624 12.0078 Q23.1358 11.1406 24.2217 10.6719 Q25.3077 10.2031 26.5733 10.2031 Q27.8546 10.2031 28.9327 10.6719 Q30.0108 11.1406 30.7921 12.0078 Q31.5733 12.875 32.003 14.0859 Q32.4327 15.2969 32.4327 16.7656 ZM30.1046 16.7656 Q30.1046 14.6406 29.1592 13.4062 Q28.2139 12.1719 26.5733 12.1719 Q24.9483 12.1719 23.9952 13.4062 Q23.0421 14.6406 23.0421 16.7656 Q23.0421 18.875 23.9952 20.1094 Q24.9483 21.3438 26.5733 21.3438 Q28.2139 21.3438 29.1592 20.1094 Q30.1046 18.875 30.1046 16.7656 ZM35.5693 10.875 Q36.3349 10.6875 37.6083 10.4688 Q38.8818 10.25 40.538 10.25 Q42.0224 10.25 43.0068 10.6719 Q43.9911 11.0938 44.5771 11.8516 Q45.163 12.6094 45.4052 13.6641 Q45.6474 14.7188 45.6474 15.9844 L45.6474 23 L43.413 23 L43.413 16.4688 Q43.413 15.3125 43.2568 14.5 Q43.1005 13.6875 42.7411 13.1875 Q42.3818 12.6875 41.7802 12.4531 Q41.1786 12.2188 40.288 12.2188 Q39.9286 12.2188 39.5458 12.2422 Q39.163 12.2656 38.8193 12.3047 Q38.4755 12.3438 38.1943 12.3906 Q37.913 12.4375 37.8036 12.4688 L37.8036 23 L35.5693 23 L35.5693 10.875 Z"
    /></g
    ><g style="fill:rgb(38,38,38); text-rendering:geometricPrecision; color-rendering:optimizeQuality; image-rendering:optimizeQuality; stroke-linejoin:round; stroke:rgb(38,38,38); color-interpolation:linearRGB;"
    ><line y2="145" style="fill:none;" x1="480" x2="480" y1="1719"
      /><line y2="145" style="fill:none;" x1="3345" x2="3345" y1="1719"
      /><line y2="1561.6" style="fill:none;" x1="480" x2="508.65" y1="1561.6"
      /><line y2="1404.2" style="fill:none;" x1="480" x2="508.65" y1="1404.2"
      /><line y2="1246.7999" style="fill:none;" x1="480" x2="508.65" y1="1246.7999"
      /><line y2="1089.4" style="fill:none;" x1="480" x2="508.65" y1="1089.4"
      /><line y2="932" style="fill:none;" x1="480" x2="508.65" y1="932"
      /><line y2="774.6" style="fill:none;" x1="480" x2="508.65" y1="774.6"
      /><line y2="617.2" style="fill:none;" x1="480" x2="508.65" y1="617.2"
      /><line y2="459.8" style="fill:none;" x1="480" x2="508.65" y1="459.8"
      /><line y2="302.4" style="fill:none;" x1="480" x2="508.65" y1="302.4"
      /><line y2="145" style="fill:none;" x1="480" x2="508.65" y1="145"
      /><line y2="1561.6" style="fill:none;" x1="3345" x2="3316.3499" y1="1561.6"
      /><line y2="1404.2" style="fill:none;" x1="3345" x2="3316.3499" y1="1404.2"
      /><line y2="1246.7999" style="fill:none;" x1="3345" x2="3316.3499" y1="1246.7999"
      /><line y2="1089.4" style="fill:none;" x1="3345" x2="3316.3499" y1="1089.4"
      /><line y2="932" style="fill:none;" x1="3345" x2="3316.3499" y1="932"
      /><line y2="774.6" style="fill:none;" x1="3345" x2="3316.3499" y1="774.6"
      /><line y2="617.2" style="fill:none;" x1="3345" x2="3316.3499" y1="617.2"
      /><line y2="459.8" style="fill:none;" x1="3345" x2="3316.3499" y1="459.8"
      /><line y2="302.4" style="fill:none;" x1="3345" x2="3316.3499" y1="302.4"
      /><line y2="145" style="fill:none;" x1="3345" x2="3316.3499" y1="145"
    /></g
    ><g transform="translate(472,1561.6)" style="font-size:20px; fill:rgb(38,38,38); text-rendering:geometricPrecision; image-rendering:optimizeQuality; color-rendering:optimizeQuality; font-family:'SansSerif'; stroke:rgb(38,38,38); color-interpolation:linearRGB;"
    ><path style="stroke:none;" d="M-38.6406 -6.2812 Q-40.1719 -6.2812 -40.9375 -4.7812 Q-41.7031 -3.2812 -41.7031 -0.2812 Q-41.7031 2.7188 -40.9375 4.2188 Q-40.1719 5.7188 -38.6406 5.7188 Q-37.1094 5.7188 -36.3438 4.2188 Q-35.5781 2.7188 -35.5781 -0.2812 Q-35.5781 -3.2812 -36.3438 -4.7812 Q-37.1094 -6.2812 -38.6406 -6.2812 ZM-38.6406 -7.8438 Q-36.1875 -7.8438 -34.8984 -5.9062 Q-33.6094 -3.9688 -33.6094 -0.2812 Q-33.6094 3.4062 -34.8984 5.3438 Q-36.1875 7.2812 -38.6406 7.2812 Q-41.0938 7.2812 -42.3906 5.3438 Q-43.6875 3.4062 -43.6875 -0.2812 Q-43.6875 -3.9688 -42.3906 -5.9062 Q-41.0938 -7.8438 -38.6406 -7.8438 ZM-30.1348 4.5156 L-28.0723 4.5156 L-28.0723 7 L-30.1348 7 L-30.1348 4.5156 ZM-19.5586 -6.2812 Q-21.0898 -6.2812 -21.8555 -4.7812 Q-22.6211 -3.2812 -22.6211 -0.2812 Q-22.6211 2.7188 -21.8555 4.2188 Q-21.0898 5.7188 -19.5586 5.7188 Q-18.0273 5.7188 -17.2617 4.2188 Q-16.4961 2.7188 -16.4961 -0.2812 Q-16.4961 -3.2812 -17.2617 -4.7812 Q-18.0273 -6.2812 -19.5586 -6.2812 ZM-19.5586 -7.8438 Q-17.1055 -7.8438 -15.8164 -5.9062 Q-14.5273 -3.9688 -14.5273 -0.2812 Q-14.5273 3.4062 -15.8164 5.3438 Q-17.1055 7.2812 -19.5586 7.2812 Q-22.0117 7.2812 -23.3086 5.3438 Q-24.6055 3.4062 -24.6055 -0.2812 Q-24.6055 -3.9688 -23.3086 -5.9062 Q-22.0117 -7.8438 -19.5586 -7.8438 ZM-11.0371 -7.5781 L-3.2871 -7.5781 L-3.2871 -5.9219 L-9.2246 -5.9219 L-9.2246 -2.3438 Q-8.8027 -2.5 -8.373 -2.5703 Q-7.9434 -2.6406 -7.5059 -2.6406 Q-5.0684 -2.6406 -3.6387 -1.3047 Q-2.209 0.0312 -2.209 2.3281 Q-2.209 4.6719 -3.6777 5.9766 Q-5.1465 7.2812 -7.8184 7.2812 Q-8.7246 7.2812 -9.6777 7.125 Q-10.6309 6.9688 -11.6465 6.6562 L-11.6465 4.6719 Q-10.7715 5.1562 -9.834 5.3906 Q-8.8965 5.625 -7.8496 5.625 Q-6.1621 5.625 -5.1777 4.7344 Q-4.1934 3.8438 -4.1934 2.3281 Q-4.1934 0.7969 -5.1777 -0.0938 Q-6.1621 -0.9844 -7.8496 -0.9844 Q-8.6465 -0.9844 -9.4277 -0.8047 Q-10.209 -0.625 -11.0371 -0.25 L-11.0371 -7.5781 Z"
    /></g
    ><g transform="translate(472,1404.2)" style="font-size:20px; fill:rgb(38,38,38); text-rendering:geometricPrecision; image-rendering:optimizeQuality; color-rendering:optimizeQuality; font-family:'SansSerif'; stroke:rgb(38,38,38); color-interpolation:linearRGB;"
    ><path style="stroke:none;" d="M-25.6406 -6.2812 Q-27.1719 -6.2812 -27.9375 -4.7812 Q-28.7031 -3.2812 -28.7031 -0.2812 Q-28.7031 2.7188 -27.9375 4.2188 Q-27.1719 5.7188 -25.6406 5.7188 Q-24.1094 5.7188 -23.3438 4.2188 Q-22.5781 2.7188 -22.5781 -0.2812 Q-22.5781 -3.2812 -23.3438 -4.7812 Q-24.1094 -6.2812 -25.6406 -6.2812 ZM-25.6406 -7.8438 Q-23.1875 -7.8438 -21.8984 -5.9062 Q-20.6094 -3.9688 -20.6094 -0.2812 Q-20.6094 3.4062 -21.8984 5.3438 Q-23.1875 7.2812 -25.6406 7.2812 Q-28.0938 7.2812 -29.3906 5.3438 Q-30.6875 3.4062 -30.6875 -0.2812 Q-30.6875 -3.9688 -29.3906 -5.9062 Q-28.0938 -7.8438 -25.6406 -7.8438 ZM-17.1348 4.5156 L-15.0723 4.5156 L-15.0723 7 L-17.1348 7 L-17.1348 4.5156 ZM-10.4336 5.3438 L-7.2148 5.3438 L-7.2148 -5.7812 L-10.7148 -5.0781 L-10.7148 -6.875 L-7.2305 -7.5781 L-5.2617 -7.5781 L-5.2617 5.3438 L-2.043 5.3438 L-2.043 7 L-10.4336 7 L-10.4336 5.3438 Z"
    /></g
    ><g transform="translate(472,1246.7999)" style="font-size:20px; fill:rgb(38,38,38); text-rendering:geometricPrecision; image-rendering:optimizeQuality; color-rendering:optimizeQuality; font-family:'SansSerif'; stroke:rgb(38,38,38); color-interpolation:linearRGB;"
    ><path style="stroke:none;" d="M-38.6406 -6.2812 Q-40.1719 -6.2812 -40.9375 -4.7812 Q-41.7031 -3.2812 -41.7031 -0.2812 Q-41.7031 2.7188 -40.9375 4.2188 Q-40.1719 5.7188 -38.6406 5.7188 Q-37.1094 5.7188 -36.3438 4.2188 Q-35.5781 2.7188 -35.5781 -0.2812 Q-35.5781 -3.2812 -36.3438 -4.7812 Q-37.1094 -6.2812 -38.6406 -6.2812 ZM-38.6406 -7.8438 Q-36.1875 -7.8438 -34.8984 -5.9062 Q-33.6094 -3.9688 -33.6094 -0.2812 Q-33.6094 3.4062 -34.8984 5.3438 Q-36.1875 7.2812 -38.6406 7.2812 Q-41.0938 7.2812 -42.3906 5.3438 Q-43.6875 3.4062 -43.6875 -0.2812 Q-43.6875 -3.9688 -42.3906 -5.9062 Q-41.0938 -7.8438 -38.6406 -7.8438 ZM-30.1348 4.5156 L-28.0723 4.5156 L-28.0723 7 L-30.1348 7 L-30.1348 4.5156 ZM-23.4336 5.3438 L-20.2148 5.3438 L-20.2148 -5.7812 L-23.7148 -5.0781 L-23.7148 -6.875 L-20.2305 -7.5781 L-18.2617 -7.5781 L-18.2617 5.3438 L-15.043 5.3438 L-15.043 7 L-23.4336 7 L-23.4336 5.3438 ZM-11.0371 -7.5781 L-3.2871 -7.5781 L-3.2871 -5.9219 L-9.2246 -5.9219 L-9.2246 -2.3438 Q-8.8027 -2.5 -8.373 -2.5703 Q-7.9434 -2.6406 -7.5059 -2.6406 Q-5.0684 -2.6406 -3.6387 -1.3047 Q-2.209 0.0312 -2.209 2.3281 Q-2.209 4.6719 -3.6777 5.9766 Q-5.1465 7.2812 -7.8184 7.2812 Q-8.7246 7.2812 -9.6777 7.125 Q-10.6309 6.9688 -11.6465 6.6562 L-11.6465 4.6719 Q-10.7715 5.1562 -9.834 5.3906 Q-8.8965 5.625 -7.8496 5.625 Q-6.1621 5.625 -5.1777 4.7344 Q-4.1934 3.8438 -4.1934 2.3281 Q-4.1934 0.7969 -5.1777 -0.0938 Q-6.1621 -0.9844 -7.8496 -0.9844 Q-8.6465 -0.9844 -9.4277 -0.8047 Q-10.209 -0.625 -11.0371 -0.25 L-11.0371 -7.5781 Z"
    /></g
    ><g transform="translate(472,1089.4)" style="font-size:20px; fill:rgb(38,38,38); text-rendering:geometricPrecision; image-rendering:optimizeQuality; color-rendering:optimizeQuality; font-family:'SansSerif'; stroke:rgb(38,38,38); color-interpolation:linearRGB;"
    ><path style="stroke:none;" d="M-25.6406 -6.2812 Q-27.1719 -6.2812 -27.9375 -4.7812 Q-28.7031 -3.2812 -28.7031 -0.2812 Q-28.7031 2.7188 -27.9375 4.2188 Q-27.1719 5.7188 -25.6406 5.7188 Q-24.1094 5.7188 -23.3438 4.2188 Q-22.5781 2.7188 -22.5781 -0.2812 Q-22.5781 -3.2812 -23.3438 -4.7812 Q-24.1094 -6.2812 -25.6406 -6.2812 ZM-25.6406 -7.8438 Q-23.1875 -7.8438 -21.8984 -5.9062 Q-20.6094 -3.9688 -20.6094 -0.2812 Q-20.6094 3.4062 -21.8984 5.3438 Q-23.1875 7.2812 -25.6406 7.2812 Q-28.0938 7.2812 -29.3906 5.3438 Q-30.6875 3.4062 -30.6875 -0.2812 Q-30.6875 -3.9688 -29.3906 -5.9062 Q-28.0938 -7.8438 -25.6406 -7.8438 ZM-17.1348 4.5156 L-15.0723 4.5156 L-15.0723 7 L-17.1348 7 L-17.1348 4.5156 ZM-9.0742 5.3438 L-2.1992 5.3438 L-2.1992 7 L-11.4492 7 L-11.4492 5.3438 Q-10.3242 4.1719 -8.3867 2.2188 Q-6.4492 0.2656 -5.9492 -0.3125 Q-5.0117 -1.375 -4.6367 -2.1094 Q-4.2617 -2.8438 -4.2617 -3.5625 Q-4.2617 -4.7188 -5.0742 -5.4531 Q-5.8867 -6.1875 -7.1992 -6.1875 Q-8.1211 -6.1875 -9.1523 -5.8672 Q-10.1836 -5.5469 -11.3555 -4.8906 L-11.3555 -6.875 Q-10.168 -7.3594 -9.1289 -7.6016 Q-8.0898 -7.8438 -7.2305 -7.8438 Q-4.9648 -7.8438 -3.6211 -6.7109 Q-2.2773 -5.5781 -2.2773 -3.6875 Q-2.2773 -2.7812 -2.6133 -1.9766 Q-2.9492 -1.1719 -3.8398 -0.0781 Q-4.0742 0.2031 -5.3867 1.5547 Q-6.6992 2.9062 -9.0742 5.3438 Z"
    /></g
    ><g transform="translate(472,932)" style="font-size:20px; fill:rgb(38,38,38); text-rendering:geometricPrecision; image-rendering:optimizeQuality; color-rendering:optimizeQuality; font-family:'SansSerif'; stroke:rgb(38,38,38); color-interpolation:linearRGB;"
    ><path style="stroke:none;" d="M-38.6406 -6.2812 Q-40.1719 -6.2812 -40.9375 -4.7812 Q-41.7031 -3.2812 -41.7031 -0.2812 Q-41.7031 2.7188 -40.9375 4.2188 Q-40.1719 5.7188 -38.6406 5.7188 Q-37.1094 5.7188 -36.3438 4.2188 Q-35.5781 2.7188 -35.5781 -0.2812 Q-35.5781 -3.2812 -36.3438 -4.7812 Q-37.1094 -6.2812 -38.6406 -6.2812 ZM-38.6406 -7.8438 Q-36.1875 -7.8438 -34.8984 -5.9062 Q-33.6094 -3.9688 -33.6094 -0.2812 Q-33.6094 3.4062 -34.8984 5.3438 Q-36.1875 7.2812 -38.6406 7.2812 Q-41.0938 7.2812 -42.3906 5.3438 Q-43.6875 3.4062 -43.6875 -0.2812 Q-43.6875 -3.9688 -42.3906 -5.9062 Q-41.0938 -7.8438 -38.6406 -7.8438 ZM-30.1348 4.5156 L-28.0723 4.5156 L-28.0723 7 L-30.1348 7 L-30.1348 4.5156 ZM-22.0742 5.3438 L-15.1992 5.3438 L-15.1992 7 L-24.4492 7 L-24.4492 5.3438 Q-23.3242 4.1719 -21.3867 2.2188 Q-19.4492 0.2656 -18.9492 -0.3125 Q-18.0117 -1.375 -17.6367 -2.1094 Q-17.2617 -2.8438 -17.2617 -3.5625 Q-17.2617 -4.7188 -18.0742 -5.4531 Q-18.8867 -6.1875 -20.1992 -6.1875 Q-21.1211 -6.1875 -22.1523 -5.8672 Q-23.1836 -5.5469 -24.3555 -4.8906 L-24.3555 -6.875 Q-23.168 -7.3594 -22.1289 -7.6016 Q-21.0898 -7.8438 -20.2305 -7.8438 Q-17.9648 -7.8438 -16.6211 -6.7109 Q-15.2773 -5.5781 -15.2773 -3.6875 Q-15.2773 -2.7812 -15.6133 -1.9766 Q-15.9492 -1.1719 -16.8398 -0.0781 Q-17.0742 0.2031 -18.3867 1.5547 Q-19.6992 2.9062 -22.0742 5.3438 ZM-11.0371 -7.5781 L-3.2871 -7.5781 L-3.2871 -5.9219 L-9.2246 -5.9219 L-9.2246 -2.3438 Q-8.8027 -2.5 -8.373 -2.5703 Q-7.9434 -2.6406 -7.5059 -2.6406 Q-5.0684 -2.6406 -3.6387 -1.3047 Q-2.209 0.0312 -2.209 2.3281 Q-2.209 4.6719 -3.6777 5.9766 Q-5.1465 7.2812 -7.8184 7.2812 Q-8.7246 7.2812 -9.6777 7.125 Q-10.6309 6.9688 -11.6465 6.6562 L-11.6465 4.6719 Q-10.7715 5.1562 -9.834 5.3906 Q-8.8965 5.625 -7.8496 5.625 Q-6.1621 5.625 -5.1777 4.7344 Q-4.1934 3.8438 -4.1934 2.3281 Q-4.1934 0.7969 -5.1777 -0.0938 Q-6.1621 -0.9844 -7.8496 -0.9844 Q-8.6465 -0.9844 -9.4277 -0.8047 Q-10.209 -0.625 -11.0371 -0.25 L-11.0371 -7.5781 Z"
    /></g
    ><g transform="translate(472,774.6)" style="font-size:20px; fill:rgb(38,38,38); text-rendering:geometricPrecision; image-rendering:optimizeQuality; color-rendering:optimizeQuality; font-family:'SansSerif'; stroke:rgb(38,38,38); color-interpolation:linearRGB;"
    ><path style="stroke:none;" d="M-25.6406 -6.2812 Q-27.1719 -6.2812 -27.9375 -4.7812 Q-28.7031 -3.2812 -28.7031 -0.2812 Q-28.7031 2.7188 -27.9375 4.2188 Q-27.1719 5.7188 -25.6406 5.7188 Q-24.1094 5.7188 -23.3438 4.2188 Q-22.5781 2.7188 -22.5781 -0.2812 Q-22.5781 -3.2812 -23.3438 -4.7812 Q-24.1094 -6.2812 -25.6406 -6.2812 ZM-25.6406 -7.8438 Q-23.1875 -7.8438 -21.8984 -5.9062 Q-20.6094 -3.9688 -20.6094 -0.2812 Q-20.6094 3.4062 -21.8984 5.3438 Q-23.1875 7.2812 -25.6406 7.2812 Q-28.0938 7.2812 -29.3906 5.3438 Q-30.6875 3.4062 -30.6875 -0.2812 Q-30.6875 -3.9688 -29.3906 -5.9062 Q-28.0938 -7.8438 -25.6406 -7.8438 ZM-17.1348 4.5156 L-15.0723 4.5156 L-15.0723 7 L-17.1348 7 L-17.1348 4.5156 ZM-4.8086 -0.8594 Q-3.3867 -0.5625 -2.5898 0.3984 Q-1.793 1.3594 -1.793 2.7656 Q-1.793 4.9219 -3.2773 6.1016 Q-4.7617 7.2812 -7.4961 7.2812 Q-8.418 7.2812 -9.3867 7.1016 Q-10.3555 6.9219 -11.3867 6.5625 L-11.3867 4.6562 Q-10.5742 5.1406 -9.5977 5.3828 Q-8.6211 5.625 -7.5586 5.625 Q-5.6992 5.625 -4.7305 4.8906 Q-3.7617 4.1562 -3.7617 2.7656 Q-3.7617 1.4688 -4.6602 0.7422 Q-5.5586 0.0156 -7.168 0.0156 L-8.8711 0.0156 L-8.8711 -1.6094 L-7.0898 -1.6094 Q-5.6367 -1.6094 -4.8711 -2.1875 Q-4.1055 -2.7656 -4.1055 -3.8594 Q-4.1055 -4.9844 -4.8945 -5.5859 Q-5.6836 -6.1875 -7.168 -6.1875 Q-7.9805 -6.1875 -8.9102 -6.0078 Q-9.8398 -5.8281 -10.9492 -5.4688 L-10.9492 -7.2188 Q-9.8242 -7.5312 -8.8477 -7.6875 Q-7.8711 -7.8438 -6.9961 -7.8438 Q-4.7461 -7.8438 -3.4414 -6.8203 Q-2.1367 -5.7969 -2.1367 -4.0625 Q-2.1367 -2.8594 -2.832 -2.0234 Q-3.5273 -1.1875 -4.8086 -0.8594 Z"
    /></g
    ><g transform="translate(472,617.2)" style="font-size:20px; fill:rgb(38,38,38); text-rendering:geometricPrecision; image-rendering:optimizeQuality; color-rendering:optimizeQuality; font-family:'SansSerif'; stroke:rgb(38,38,38); color-interpolation:linearRGB;"
    ><path style="stroke:none;" d="M-38.6406 -6.2812 Q-40.1719 -6.2812 -40.9375 -4.7812 Q-41.7031 -3.2812 -41.7031 -0.2812 Q-41.7031 2.7188 -40.9375 4.2188 Q-40.1719 5.7188 -38.6406 5.7188 Q-37.1094 5.7188 -36.3438 4.2188 Q-35.5781 2.7188 -35.5781 -0.2812 Q-35.5781 -3.2812 -36.3438 -4.7812 Q-37.1094 -6.2812 -38.6406 -6.2812 ZM-38.6406 -7.8438 Q-36.1875 -7.8438 -34.8984 -5.9062 Q-33.6094 -3.9688 -33.6094 -0.2812 Q-33.6094 3.4062 -34.8984 5.3438 Q-36.1875 7.2812 -38.6406 7.2812 Q-41.0938 7.2812 -42.3906 5.3438 Q-43.6875 3.4062 -43.6875 -0.2812 Q-43.6875 -3.9688 -42.3906 -5.9062 Q-41.0938 -7.8438 -38.6406 -7.8438 ZM-30.1348 4.5156 L-28.0723 4.5156 L-28.0723 7 L-30.1348 7 L-30.1348 4.5156 ZM-17.8086 -0.8594 Q-16.3867 -0.5625 -15.5898 0.3984 Q-14.793 1.3594 -14.793 2.7656 Q-14.793 4.9219 -16.2773 6.1016 Q-17.7617 7.2812 -20.4961 7.2812 Q-21.418 7.2812 -22.3867 7.1016 Q-23.3555 6.9219 -24.3867 6.5625 L-24.3867 4.6562 Q-23.5742 5.1406 -22.5977 5.3828 Q-21.6211 5.625 -20.5586 5.625 Q-18.6992 5.625 -17.7305 4.8906 Q-16.7617 4.1562 -16.7617 2.7656 Q-16.7617 1.4688 -17.6602 0.7422 Q-18.5586 0.0156 -20.168 0.0156 L-21.8711 0.0156 L-21.8711 -1.6094 L-20.0898 -1.6094 Q-18.6367 -1.6094 -17.8711 -2.1875 Q-17.1055 -2.7656 -17.1055 -3.8594 Q-17.1055 -4.9844 -17.8945 -5.5859 Q-18.6836 -6.1875 -20.168 -6.1875 Q-20.9805 -6.1875 -21.9102 -6.0078 Q-22.8398 -5.8281 -23.9492 -5.4688 L-23.9492 -7.2188 Q-22.8242 -7.5312 -21.8477 -7.6875 Q-20.8711 -7.8438 -19.9961 -7.8438 Q-17.7461 -7.8438 -16.4414 -6.8203 Q-15.1367 -5.7969 -15.1367 -4.0625 Q-15.1367 -2.8594 -15.832 -2.0234 Q-16.5273 -1.1875 -17.8086 -0.8594 ZM-11.0371 -7.5781 L-3.2871 -7.5781 L-3.2871 -5.9219 L-9.2246 -5.9219 L-9.2246 -2.3438 Q-8.8027 -2.5 -8.373 -2.5703 Q-7.9434 -2.6406 -7.5059 -2.6406 Q-5.0684 -2.6406 -3.6387 -1.3047 Q-2.209 0.0312 -2.209 2.3281 Q-2.209 4.6719 -3.6777 5.9766 Q-5.1465 7.2812 -7.8184 7.2812 Q-8.7246 7.2812 -9.6777 7.125 Q-10.6309 6.9688 -11.6465 6.6562 L-11.6465 4.6719 Q-10.7715 5.1562 -9.834 5.3906 Q-8.8965 5.625 -7.8496 5.625 Q-6.1621 5.625 -5.1777 4.7344 Q-4.1934 3.8438 -4.1934 2.3281 Q-4.1934 0.7969 -5.1777 -0.0938 Q-6.1621 -0.9844 -7.8496 -0.9844 Q-8.6465 -0.9844 -9.4277 -0.8047 Q-10.209 -0.625 -11.0371 -0.25 L-11.0371 -7.5781 Z"
    /></g
    ><g transform="translate(472,459.8)" style="font-size:20px; fill:rgb(38,38,38); text-rendering:geometricPrecision; image-rendering:optimizeQuality; color-rendering:optimizeQuality; font-family:'SansSerif'; stroke:rgb(38,38,38); color-interpolation:linearRGB;"
    ><path style="stroke:none;" d="M-25.6406 -6.2812 Q-27.1719 -6.2812 -27.9375 -4.7812 Q-28.7031 -3.2812 -28.7031 -0.2812 Q-28.7031 2.7188 -27.9375 4.2188 Q-27.1719 5.7188 -25.6406 5.7188 Q-24.1094 5.7188 -23.3438 4.2188 Q-22.5781 2.7188 -22.5781 -0.2812 Q-22.5781 -3.2812 -23.3438 -4.7812 Q-24.1094 -6.2812 -25.6406 -6.2812 ZM-25.6406 -7.8438 Q-23.1875 -7.8438 -21.8984 -5.9062 Q-20.6094 -3.9688 -20.6094 -0.2812 Q-20.6094 3.4062 -21.8984 5.3438 Q-23.1875 7.2812 -25.6406 7.2812 Q-28.0938 7.2812 -29.3906 5.3438 Q-30.6875 3.4062 -30.6875 -0.2812 Q-30.6875 -3.9688 -29.3906 -5.9062 Q-28.0938 -7.8438 -25.6406 -7.8438 ZM-17.1348 4.5156 L-15.0723 4.5156 L-15.0723 7 L-17.1348 7 L-17.1348 4.5156 ZM-5.3555 -5.8594 L-10.3398 1.9219 L-5.3555 1.9219 L-5.3555 -5.8594 ZM-5.8711 -7.5781 L-3.4023 -7.5781 L-3.4023 1.9219 L-1.3086 1.9219 L-1.3086 3.5625 L-3.4023 3.5625 L-3.4023 7 L-5.3555 7 L-5.3555 3.5625 L-11.9336 3.5625 L-11.9336 1.6562 L-5.8711 -7.5781 Z"
    /></g
    ><g transform="translate(472,302.4)" style="font-size:20px; fill:rgb(38,38,38); text-rendering:geometricPrecision; image-rendering:optimizeQuality; color-rendering:optimizeQuality; font-family:'SansSerif'; stroke:rgb(38,38,38); color-interpolation:linearRGB;"
    ><path style="stroke:none;" d="M-38.6406 -6.2812 Q-40.1719 -6.2812 -40.9375 -4.7812 Q-41.7031 -3.2812 -41.7031 -0.2812 Q-41.7031 2.7188 -40.9375 4.2188 Q-40.1719 5.7188 -38.6406 5.7188 Q-37.1094 5.7188 -36.3438 4.2188 Q-35.5781 2.7188 -35.5781 -0.2812 Q-35.5781 -3.2812 -36.3438 -4.7812 Q-37.1094 -6.2812 -38.6406 -6.2812 ZM-38.6406 -7.8438 Q-36.1875 -7.8438 -34.8984 -5.9062 Q-33.6094 -3.9688 -33.6094 -0.2812 Q-33.6094 3.4062 -34.8984 5.3438 Q-36.1875 7.2812 -38.6406 7.2812 Q-41.0938 7.2812 -42.3906 5.3438 Q-43.6875 3.4062 -43.6875 -0.2812 Q-43.6875 -3.9688 -42.3906 -5.9062 Q-41.0938 -7.8438 -38.6406 -7.8438 ZM-30.1348 4.5156 L-28.0723 4.5156 L-28.0723 7 L-30.1348 7 L-30.1348 4.5156 ZM-18.3555 -5.8594 L-23.3398 1.9219 L-18.3555 1.9219 L-18.3555 -5.8594 ZM-18.8711 -7.5781 L-16.4023 -7.5781 L-16.4023 1.9219 L-14.3086 1.9219 L-14.3086 3.5625 L-16.4023 3.5625 L-16.4023 7 L-18.3555 7 L-18.3555 3.5625 L-24.9336 3.5625 L-24.9336 1.6562 L-18.8711 -7.5781 ZM-11.0371 -7.5781 L-3.2871 -7.5781 L-3.2871 -5.9219 L-9.2246 -5.9219 L-9.2246 -2.3438 Q-8.8027 -2.5 -8.373 -2.5703 Q-7.9434 -2.6406 -7.5059 -2.6406 Q-5.0684 -2.6406 -3.6387 -1.3047 Q-2.209 0.0312 -2.209 2.3281 Q-2.209 4.6719 -3.6777 5.9766 Q-5.1465 7.2812 -7.8184 7.2812 Q-8.7246 7.2812 -9.6777 7.125 Q-10.6309 6.9688 -11.6465 6.6562 L-11.6465 4.6719 Q-10.7715 5.1562 -9.834 5.3906 Q-8.8965 5.625 -7.8496 5.625 Q-6.1621 5.625 -5.1777 4.7344 Q-4.1934 3.8438 -4.1934 2.3281 Q-4.1934 0.7969 -5.1777 -0.0938 Q-6.1621 -0.9844 -7.8496 -0.9844 Q-8.6465 -0.9844 -9.4277 -0.8047 Q-10.209 -0.625 -11.0371 -0.25 L-11.0371 -7.5781 Z"
    /></g
    ><g transform="translate(472,145)" style="font-size:20px; fill:rgb(38,38,38); text-rendering:geometricPrecision; image-rendering:optimizeQuality; color-rendering:optimizeQuality; font-family:'SansSerif'; stroke:rgb(38,38,38); color-interpolation:linearRGB;"
    ><path style="stroke:none;" d="M-25.6406 -6.2812 Q-27.1719 -6.2812 -27.9375 -4.7812 Q-28.7031 -3.2812 -28.7031 -0.2812 Q-28.7031 2.7188 -27.9375 4.2188 Q-27.1719 5.7188 -25.6406 5.7188 Q-24.1094 5.7188 -23.3438 4.2188 Q-22.5781 2.7188 -22.5781 -0.2812 Q-22.5781 -3.2812 -23.3438 -4.7812 Q-24.1094 -6.2812 -25.6406 -6.2812 ZM-25.6406 -7.8438 Q-23.1875 -7.8438 -21.8984 -5.9062 Q-20.6094 -3.9688 -20.6094 -0.2812 Q-20.6094 3.4062 -21.8984 5.3438 Q-23.1875 7.2812 -25.6406 7.2812 Q-28.0938 7.2812 -29.3906 5.3438 Q-30.6875 3.4062 -30.6875 -0.2812 Q-30.6875 -3.9688 -29.3906 -5.9062 Q-28.0938 -7.8438 -25.6406 -7.8438 ZM-17.1348 4.5156 L-15.0723 4.5156 L-15.0723 7 L-17.1348 7 L-17.1348 4.5156 ZM-10.7617 -7.5781 L-3.0117 -7.5781 L-3.0117 -5.9219 L-8.9492 -5.9219 L-8.9492 -2.3438 Q-8.5273 -2.5 -8.0977 -2.5703 Q-7.668 -2.6406 -7.2305 -2.6406 Q-4.793 -2.6406 -3.3633 -1.3047 Q-1.9336 0.0312 -1.9336 2.3281 Q-1.9336 4.6719 -3.4023 5.9766 Q-4.8711 7.2812 -7.543 7.2812 Q-8.4492 7.2812 -9.4023 7.125 Q-10.3555 6.9688 -11.3711 6.6562 L-11.3711 4.6719 Q-10.4961 5.1562 -9.5586 5.3906 Q-8.6211 5.625 -7.5742 5.625 Q-5.8867 5.625 -4.9023 4.7344 Q-3.918 3.8438 -3.918 2.3281 Q-3.918 0.7969 -4.9023 -0.0938 Q-5.8867 -0.9844 -7.5742 -0.9844 Q-8.3711 -0.9844 -9.1523 -0.8047 Q-9.9336 -0.625 -10.7617 -0.25 L-10.7617 -7.5781 Z"
    /></g
    ><g transform="translate(421,931.9993) rotate(-90)" style="font-size:24px; fill:rgb(38,38,38); text-rendering:geometricPrecision; image-rendering:optimizeQuality; color-rendering:optimizeQuality; font-family:'Ubuntu'; stroke:rgb(38,38,38); color-interpolation:linearRGB;"
    ><path style="stroke:none;" d="M-56.5156 -21.7969 Q-53.0156 -21.7969 -51.1328 -20.4688 Q-49.25 -19.1406 -49.25 -16.5 Q-49.25 -15.0625 -49.7656 -14.0391 Q-50.2812 -13.0156 -51.25 -12.3828 Q-52.2188 -11.75 -53.6172 -11.4609 Q-55.0156 -11.1719 -56.7656 -11.1719 L-58.6094 -11.1719 L-58.6094 -5 L-60.9375 -5 L-60.9375 -21.3906 Q-59.9531 -21.625 -58.7422 -21.7109 Q-57.5312 -21.7969 -56.5156 -21.7969 ZM-56.3281 -19.7656 Q-57.8125 -19.7656 -58.6094 -19.6875 L-58.6094 -13.1562 L-56.8594 -13.1562 Q-55.6562 -13.1562 -54.6953 -13.3125 Q-53.7344 -13.4688 -53.0781 -13.8438 Q-52.4219 -14.2188 -52.0625 -14.8672 Q-51.7031 -15.5156 -51.7031 -16.5156 Q-51.7031 -17.4844 -52.0703 -18.1094 Q-52.4375 -18.7344 -53.0781 -19.1016 Q-53.7188 -19.4688 -54.5547 -19.6172 Q-55.3906 -19.7656 -56.3281 -19.7656 ZM-35.4785 -11.2344 Q-35.4785 -9.75 -35.9082 -8.5547 Q-36.3379 -7.3594 -37.1191 -6.4922 Q-37.9004 -5.625 -38.9785 -5.1562 Q-40.0566 -4.6875 -41.3379 -4.6875 Q-42.6035 -4.6875 -43.6895 -5.1562 Q-44.7754 -5.625 -45.5488 -6.4922 Q-46.3223 -7.3594 -46.7598 -8.5547 Q-47.1973 -9.75 -47.1973 -11.2344 Q-47.1973 -12.7031 -46.7598 -13.9141 Q-46.3223 -15.125 -45.5488 -15.9922 Q-44.7754 -16.8594 -43.6895 -17.3281 Q-42.6035 -17.7969 -41.3379 -17.7969 Q-40.0566 -17.7969 -38.9785 -17.3281 Q-37.9004 -16.8594 -37.1191 -15.9922 Q-36.3379 -15.125 -35.9082 -13.9141 Q-35.4785 -12.7031 -35.4785 -11.2344 ZM-37.8066 -11.2344 Q-37.8066 -13.3594 -38.752 -14.5938 Q-39.6973 -15.8281 -41.3379 -15.8281 Q-42.9629 -15.8281 -43.916 -14.5938 Q-44.8691 -13.3594 -44.8691 -11.2344 Q-44.8691 -9.125 -43.916 -7.8906 Q-42.9629 -6.6562 -41.3379 -6.6562 Q-39.6973 -6.6562 -38.752 -7.8906 Q-37.8066 -9.125 -37.8066 -11.2344 ZM-28.6075 -4.7656 Q-30.67 -4.8125 -31.5294 -5.6484 Q-32.3888 -6.4844 -32.3888 -8.2656 L-32.3888 -23.2344 L-30.1544 -23.625 L-30.1544 -8.625 Q-30.1544 -8.0781 -30.0607 -7.7188 Q-29.9669 -7.3594 -29.7482 -7.1406 Q-29.5294 -6.9219 -29.17 -6.8125 Q-28.8107 -6.7031 -28.295 -6.625 L-28.6075 -4.7656 ZM-23.5591 -5 L-25.7935 -5 L-25.7935 -17.4844 L-23.5591 -17.4844 L-23.5591 -5 ZM-24.6841 -19.7344 Q-25.2935 -19.7344 -25.7154 -20.1328 Q-26.1373 -20.5312 -26.1373 -21.2031 Q-26.1373 -21.875 -25.7154 -22.2656 Q-25.2935 -22.6562 -24.6841 -22.6562 Q-24.0904 -22.6562 -23.6685 -22.2656 Q-23.2466 -21.875 -23.2466 -21.2031 Q-23.2466 -20.5312 -23.6685 -20.1328 Q-24.0904 -19.7344 -24.6841 -19.7344 ZM-14.303 -4.7188 Q-15.8186 -4.7188 -16.9592 -5.1953 Q-18.0999 -5.6719 -18.8811 -6.5391 Q-19.6624 -7.4062 -20.0452 -8.5938 Q-20.428 -9.7812 -20.428 -11.2188 Q-20.428 -12.6562 -20.0061 -13.8594 Q-19.5842 -15.0625 -18.8186 -15.9375 Q-18.053 -16.8125 -16.9358 -17.3047 Q-15.8186 -17.7969 -14.4436 -17.7969 Q-13.5999 -17.7969 -12.7639 -17.6484 Q-11.928 -17.5 -11.1624 -17.1875 L-11.6624 -15.2969 Q-12.1624 -15.5312 -12.8264 -15.6797 Q-13.4905 -15.8281 -14.2249 -15.8281 Q-16.0999 -15.8281 -17.0999 -14.6484 Q-18.0999 -13.4688 -18.0999 -11.2188 Q-18.0999 -10.2031 -17.8655 -9.3672 Q-17.6311 -8.5312 -17.1467 -7.9297 Q-16.6624 -7.3281 -15.8889 -7.0078 Q-15.1155 -6.6875 -14.0217 -6.6875 Q-13.1311 -6.6875 -12.4124 -6.8516 Q-11.6936 -7.0156 -11.2717 -7.2031 L-10.9592 -5.3438 Q-11.1624 -5.2188 -11.5217 -5.1094 Q-11.8811 -5 -12.3342 -4.9141 Q-12.7874 -4.8281 -13.303 -4.7734 Q-13.8186 -4.7188 -14.303 -4.7188 ZM-10.0397 -2.6719 Q-9.7741 -2.5469 -9.3522 -2.4453 Q-8.9304 -2.3438 -8.5241 -2.3438 Q-7.2116 -2.3438 -6.4616 -2.9297 Q-5.7116 -3.5156 -5.1179 -4.8281 Q-6.6335 -7.7188 -7.9382 -10.9453 Q-9.2429 -14.1719 -10.1022 -17.4844 L-7.7116 -17.4844 Q-7.446 -16.4062 -7.071 -15.1562 Q-6.696 -13.9062 -6.2429 -12.5859 Q-5.7897 -11.2656 -5.2585 -9.9453 Q-4.7272 -8.625 -4.1491 -7.4062 Q-3.2429 -9.9219 -2.571 -12.3906 Q-1.8991 -14.8594 -1.3054 -17.4844 L1.0071 -17.4844 Q0.1321 -13.9531 -0.9225 -10.7031 Q-1.9772 -7.4531 -3.196 -4.6094 Q-3.6804 -3.5312 -4.196 -2.75 Q-4.7116 -1.9688 -5.3366 -1.4688 Q-5.9616 -0.9688 -6.7429 -0.7266 Q-7.5241 -0.4844 -8.5085 -0.4844 Q-8.7585 -0.4844 -9.0475 -0.5234 Q-9.3366 -0.5625 -9.6179 -0.625 Q-9.8991 -0.6875 -10.1257 -0.7578 Q-10.3522 -0.8281 -10.446 -0.875 L-10.0397 -2.6719 ZM8.1883 -11.2188 Q8.1883 -12.875 8.6727 -14.1094 Q9.157 -15.3438 9.9461 -16.1562 Q10.7352 -16.9688 11.7664 -17.3828 Q12.7977 -17.7969 13.8758 -17.7969 Q16.407 -17.7969 17.7508 -16.2188 Q19.0945 -14.6406 19.0945 -11.4375 Q19.0945 -11.2812 19.0945 -11.0547 Q19.0945 -10.8281 19.0633 -10.6406 L10.5164 -10.6406 Q10.6727 -8.7031 11.6492 -7.6953 Q12.6258 -6.6875 14.7195 -6.6875 Q15.8914 -6.6875 16.6961 -6.8906 Q17.5008 -7.0938 17.907 -7.2812 L18.2195 -5.4062 Q17.8133 -5.1875 16.7977 -4.9531 Q15.782 -4.7188 14.4852 -4.7188 Q12.8445 -4.7188 11.657 -5.2109 Q10.4695 -5.7031 9.7039 -6.5625 Q8.9383 -7.4219 8.5633 -8.6094 Q8.1883 -9.7969 8.1883 -11.2188 ZM16.7664 -12.4375 Q16.782 -13.9531 16.0008 -14.9219 Q15.2195 -15.8906 13.8602 -15.8906 Q13.0945 -15.8906 12.5008 -15.5938 Q11.907 -15.2969 11.5008 -14.8203 Q11.0945 -14.3438 10.868 -13.7188 Q10.6414 -13.0938 10.5633 -12.4375 L16.7664 -12.4375 ZM26.9094 -17.75 Q27.1907 -17.75 27.5657 -17.7109 Q27.9407 -17.6719 28.3 -17.6094 Q28.6594 -17.5469 28.9563 -17.4922 Q29.2532 -17.4375 29.4094 -17.3906 L29.0188 -15.4375 Q28.7532 -15.5312 28.1438 -15.6641 Q27.5344 -15.7969 26.5657 -15.7969 Q25.9407 -15.7969 25.3313 -15.6641 Q24.7219 -15.5312 24.5344 -15.4844 L24.5344 -5 L22.3 -5 L22.3 -16.9531 Q23.0969 -17.2344 24.2688 -17.4922 Q25.4407 -17.75 26.9094 -17.75 ZM36.1683 -17.75 Q36.4496 -17.75 36.8246 -17.7109 Q37.1996 -17.6719 37.559 -17.6094 Q37.9183 -17.5469 38.2152 -17.4922 Q38.5121 -17.4375 38.6683 -17.3906 L38.2777 -15.4375 Q38.0121 -15.5312 37.4027 -15.6641 Q36.7933 -15.7969 35.8246 -15.7969 Q35.1996 -15.7969 34.5902 -15.6641 Q33.9808 -15.5312 33.7933 -15.4844 L33.7933 -5 L31.559 -5 L31.559 -16.9531 Q32.3558 -17.2344 33.5277 -17.4922 Q34.6996 -17.75 36.1683 -17.75 ZM51.8335 -11.2344 Q51.8335 -9.75 51.4038 -8.5547 Q50.9741 -7.3594 50.1929 -6.4922 Q49.4116 -5.625 48.3335 -5.1562 Q47.2554 -4.6875 45.9741 -4.6875 Q44.7085 -4.6875 43.6226 -5.1562 Q42.5366 -5.625 41.7632 -6.4922 Q40.9897 -7.3594 40.5522 -8.5547 Q40.1147 -9.75 40.1147 -11.2344 Q40.1147 -12.7031 40.5522 -13.9141 Q40.9897 -15.125 41.7632 -15.9922 Q42.5366 -16.8594 43.6226 -17.3281 Q44.7085 -17.7969 45.9741 -17.7969 Q47.2554 -17.7969 48.3335 -17.3281 Q49.4116 -16.8594 50.1929 -15.9922 Q50.9741 -15.125 51.4038 -13.9141 Q51.8335 -12.7031 51.8335 -11.2344 ZM49.5054 -11.2344 Q49.5054 -13.3594 48.5601 -14.5938 Q47.6147 -15.8281 45.9741 -15.8281 Q44.3491 -15.8281 43.396 -14.5938 Q42.4429 -13.3594 42.4429 -11.2344 Q42.4429 -9.125 43.396 -7.8906 Q44.3491 -6.6562 45.9741 -6.6562 Q47.6147 -6.6562 48.5601 -7.8906 Q49.5054 -9.125 49.5054 -11.2344 ZM59.5795 -17.75 Q59.8607 -17.75 60.2357 -17.7109 Q60.6107 -17.6719 60.9701 -17.6094 Q61.3295 -17.5469 61.6263 -17.4922 Q61.9232 -17.4375 62.0795 -17.3906 L61.6888 -15.4375 Q61.4232 -15.5312 60.8138 -15.6641 Q60.2045 -15.7969 59.2357 -15.7969 Q58.6107 -15.7969 58.0013 -15.6641 Q57.392 -15.5312 57.2045 -15.4844 L57.2045 -5 L54.9701 -5 L54.9701 -16.9531 Q55.767 -17.2344 56.9388 -17.4922 Q58.1107 -17.75 59.5795 -17.75 Z"
    /></g
    ><g transform="translate(1709,126)" style="font-size:24px; text-rendering:geometricPrecision; image-rendering:optimizeQuality; color-rendering:optimizeQuality; font-family:'Ubuntu'; color-interpolation:linearRGB; font-weight:bold;"
    ><path style="stroke:none;" d="M5.25 -8.0625 Q5.7812 -8.6406 6.3438 -9.2656 Q6.9062 -9.8906 7.4375 -10.5 Q7.9688 -11.1094 8.4375 -11.6641 Q8.9062 -12.2188 9.2344 -12.625 L13.4844 -12.625 Q12.2188 -11.1562 11.0078 -9.8281 Q9.7969 -8.5 8.3594 -7.0781 Q9.0781 -6.4375 9.8438 -5.5312 Q10.6094 -4.625 11.3281 -3.6719 Q12.0469 -2.7188 12.6484 -1.7578 Q13.25 -0.7969 13.6562 0 L9.5469 0 Q9.1719 -0.625 8.6797 -1.3828 Q8.1875 -2.1406 7.6328 -2.8906 Q7.0781 -3.6406 6.4688 -4.3438 Q5.8594 -5.0469 5.25 -5.5156 L5.25 0 L1.6875 0 L1.6875 -18.0469 L5.25 -18.625 L5.25 -8.0625 Z"
    /></g
    ><g transform="translate(1723,138)" style="font-size:19.2px; text-rendering:geometricPrecision; image-rendering:optimizeQuality; color-rendering:optimizeQuality; font-family:'Ubuntu'; color-interpolation:linearRGB; font-weight:bold;"
    ><path style="stroke:none;" d="M7.7344 -5.0781 Q7.7344 -7.8125 5.7188 -7.8125 Q5.2812 -7.8125 4.8516 -7.6953 Q4.4219 -7.5781 4.1562 -7.4062 L4.1562 -2.2656 Q4.375 -2.2188 4.6953 -2.1953 Q5.0156 -2.1719 5.3906 -2.1719 Q6.5625 -2.1719 7.1484 -2.9688 Q7.7344 -3.7656 7.7344 -5.0781 ZM10.625 -5 Q10.625 -3.7969 10.2734 -2.8281 Q9.9219 -1.8594 9.2578 -1.1797 Q8.5938 -0.5 7.625 -0.125 Q6.6562 0.25 5.4219 0.25 Q4.9062 0.25 4.3438 0.2031 Q3.7812 0.1562 3.2422 0.0781 Q2.7031 0 2.2031 -0.1016 Q1.7031 -0.2031 1.3281 -0.3281 L1.3281 -14.2812 L4.1562 -14.75 L4.1562 -9.7656 Q4.6406 -9.9688 5.1484 -10.0859 Q5.6562 -10.2031 6.25 -10.2031 Q7.3125 -10.2031 8.1328 -9.8359 Q8.9531 -9.4688 9.5 -8.7812 Q10.0469 -8.0938 10.3359 -7.1328 Q10.625 -6.1719 10.625 -5 ZM16.7504 -1.9688 Q17.1566 -1.9688 17.5394 -1.9922 Q17.9222 -2.0156 18.1566 -2.0469 L18.1566 -4.2031 Q17.9847 -4.2344 17.641 -4.2734 Q17.2972 -4.3125 17.016 -4.3125 Q16.6097 -4.3125 16.2582 -4.2656 Q15.9066 -4.2188 15.641 -4.0859 Q15.3754 -3.9531 15.2269 -3.7266 Q15.0785 -3.5 15.0785 -3.1562 Q15.0785 -2.4844 15.5238 -2.2266 Q15.9691 -1.9688 16.7504 -1.9688 ZM16.516 -10.2656 Q17.766 -10.2656 18.6019 -9.9766 Q19.4379 -9.6875 19.9457 -9.1562 Q20.4535 -8.625 20.6566 -7.8672 Q20.8597 -7.1094 20.8597 -6.1719 L20.8597 -0.2812 Q20.2504 -0.1562 19.1722 0.0234 Q18.0941 0.2031 16.5472 0.2031 Q15.5785 0.2031 14.7894 0.0312 Q14.0004 -0.1406 13.4301 -0.5234 Q12.8597 -0.9062 12.5629 -1.5391 Q12.266 -2.1719 12.266 -3.0781 Q12.266 -3.9531 12.6176 -4.5625 Q12.9691 -5.1719 13.5551 -5.5312 Q14.141 -5.8906 14.8988 -6.0547 Q15.6566 -6.2188 16.4847 -6.2188 Q17.0316 -6.2188 17.4535 -6.1719 Q17.8754 -6.125 18.1566 -6.0469 L18.1566 -6.3125 Q18.1566 -7.0312 17.7191 -7.4688 Q17.2816 -7.9062 16.1879 -7.9062 Q15.4691 -7.9062 14.766 -7.7969 Q14.0629 -7.6875 13.5472 -7.5 L13.1879 -9.7812 Q13.4379 -9.8594 13.8051 -9.9453 Q14.1722 -10.0312 14.6097 -10.1016 Q15.0472 -10.1719 15.5316 -10.2188 Q16.016 -10.2656 16.516 -10.2656 ZM29.5686 -7.4844 Q29.178 -7.5781 28.6702 -7.6875 Q28.1624 -7.7969 27.5686 -7.7969 Q27.303 -7.7969 26.928 -7.7422 Q26.553 -7.6875 26.3655 -7.6406 L26.3655 0 L23.5374 0 L23.5374 -9.4688 Q24.303 -9.7344 25.3343 -9.9688 Q26.3655 -10.2031 27.6468 -10.2031 Q27.8655 -10.2031 28.1936 -10.1719 Q28.5218 -10.1406 28.8421 -10.0938 Q29.1624 -10.0469 29.4827 -9.9844 Q29.803 -9.9219 30.0374 -9.8281 L29.5686 -7.4844 Z"
    /></g
    ><g transform="translate(1754,126)" style="font-size:24px; text-rendering:geometricPrecision; image-rendering:optimizeQuality; color-rendering:optimizeQuality; font-family:'Ubuntu'; color-interpolation:linearRGB; font-weight:bold;"
    ><path style="stroke:none;" d="M6.9287 -6.0312 L18.21 -6.0312 L18.21 -3.0312 L6.9287 -3.0312 L6.9287 -6.0312 ZM6.9287 -11.2812 L18.21 -11.2812 L18.21 -8.2812 L6.9287 -8.2812 L6.9287 -11.2812 ZM26.8257 -13.1719 Q27.5132 -13.4688 28.271 -13.8359 Q29.0288 -14.2031 29.7476 -14.6484 Q30.4663 -15.0938 31.1226 -15.5859 Q31.7788 -16.0781 32.3101 -16.625 L34.8101 -16.625 L34.8101 0 L31.2319 0 L31.2319 -11.9688 Q30.5132 -11.5 29.6226 -11.1016 Q28.7319 -10.7031 27.9038 -10.4219 L26.8257 -13.1719 ZM51.5752 -8.3594 Q51.5752 -4.1562 49.9814 -1.9062 Q48.3877 0.3438 45.5752 0.3438 Q42.7783 0.3438 41.1768 -1.9062 Q39.5752 -4.1562 39.5752 -8.3594 Q39.5752 -10.4375 39.9971 -12.0469 Q40.4189 -13.6562 41.208 -14.7578 Q41.9971 -15.8594 43.1064 -16.4375 Q44.2158 -17.0156 45.5752 -17.0156 Q48.3877 -17.0156 49.9814 -14.7734 Q51.5752 -12.5312 51.5752 -8.3594 ZM47.9346 -8.3594 Q47.9346 -9.5938 47.8096 -10.6172 Q47.6846 -11.6406 47.4268 -12.3828 Q47.1689 -13.125 46.708 -13.5312 Q46.2471 -13.9375 45.5752 -13.9375 Q44.9033 -13.9375 44.458 -13.5312 Q44.0127 -13.125 43.7393 -12.3828 Q43.4658 -11.6406 43.3486 -10.6172 Q43.2314 -9.5938 43.2314 -8.3594 Q43.2314 -7.1094 43.3486 -6.0781 Q43.4658 -5.0469 43.7393 -4.2969 Q44.0127 -3.5469 44.458 -3.1406 Q44.9033 -2.7344 45.5752 -2.7344 Q46.2471 -2.7344 46.708 -3.1406 Q47.1689 -3.5469 47.4268 -4.2969 Q47.6846 -5.0469 47.8096 -6.0781 Q47.9346 -7.1094 47.9346 -8.3594 ZM64.5972 -2.8594 Q65.394 -2.8594 65.9097 -2.9922 Q66.4253 -3.125 66.7378 -3.3516 Q67.0503 -3.5781 67.1675 -3.8906 Q67.2847 -4.2031 67.2847 -4.5781 Q67.2847 -5.4062 66.519 -5.9453 Q65.7534 -6.4844 63.8784 -7.1094 Q63.0659 -7.3906 62.2456 -7.7656 Q61.4253 -8.1406 60.7769 -8.7031 Q60.1284 -9.2656 59.7222 -10.0703 Q59.3159 -10.875 59.3159 -12.0312 Q59.3159 -13.1719 59.7534 -14.1016 Q60.1909 -15.0312 60.98 -15.6719 Q61.769 -16.3125 62.894 -16.6641 Q64.019 -17.0156 65.4409 -17.0156 Q67.1128 -17.0156 68.3394 -16.6562 Q69.5659 -16.2969 70.3628 -15.8594 L69.2847 -12.9062 Q68.5815 -13.2656 67.73 -13.5469 Q66.8784 -13.8281 65.6753 -13.8281 Q64.3315 -13.8281 63.7456 -13.4531 Q63.1597 -13.0781 63.1597 -12.3125 Q63.1597 -11.8594 63.3784 -11.5469 Q63.5972 -11.2344 63.9878 -10.9844 Q64.3784 -10.7344 64.894 -10.5234 Q65.4097 -10.3125 66.0347 -10.1094 Q67.3315 -9.625 68.2925 -9.1562 Q69.2534 -8.6875 69.894 -8.0625 Q70.5347 -7.4375 70.8472 -6.6016 Q71.1597 -5.7656 71.1597 -4.5625 Q71.1597 -2.2344 69.5269 -0.9453 Q67.894 0.3438 64.5972 0.3438 Q63.5034 0.3438 62.6128 0.2109 Q61.7222 0.0781 61.0347 -0.1172 Q60.3472 -0.3125 59.855 -0.5312 Q59.3628 -0.75 59.0347 -0.9375 L60.0815 -3.9062 Q60.8315 -3.5 61.9253 -3.1797 Q63.019 -2.8594 64.5972 -2.8594 ZM74.0262 0 L74.0262 -16.625 L85.2606 -16.625 L85.2606 -13.4844 L77.7606 -13.4844 L77.7606 -10.2188 L84.4169 -10.2188 L84.4169 -7.1562 L77.7606 -7.1562 L77.7606 -3.1406 L85.8075 -3.1406 L85.8075 0 L74.0262 0 ZM102.1628 -6.2188 Q102.1628 -7.875 101.4207 -8.8672 Q100.6785 -9.8594 99.2097 -9.8594 Q98.741 -9.8594 98.3269 -9.8281 Q97.9128 -9.7969 97.6472 -9.75 L97.6472 -3.2812 Q97.991 -3.0781 98.53 -2.9297 Q99.0691 -2.7812 99.616 -2.7812 Q102.1628 -2.7812 102.1628 -6.2188 ZM105.8191 -6.3125 Q105.8191 -4.8438 105.4597 -3.6484 Q105.1003 -2.4531 104.3972 -1.5859 Q103.6941 -0.7188 102.6628 -0.2422 Q101.6316 0.2344 100.2878 0.2344 Q99.5535 0.2344 98.905 0.0938 Q98.2566 -0.0469 97.6472 -0.3125 L97.6472 4.4375 L94.0847 4.4375 L94.0847 -12.1875 Q94.5535 -12.3438 95.1785 -12.4688 Q95.8035 -12.5938 96.491 -12.6953 Q97.1785 -12.7969 97.8816 -12.8516 Q98.5847 -12.9062 99.241 -12.9062 Q100.8035 -12.9062 102.0222 -12.4375 Q103.241 -11.9688 104.0847 -11.1172 Q104.9285 -10.2656 105.3738 -9.0469 Q105.8191 -7.8281 105.8191 -6.3125 ZM120.3696 -6.3438 Q120.3696 -4.8438 119.9399 -3.6094 Q119.5103 -2.375 118.6899 -1.5 Q117.8696 -0.625 116.7368 -0.1406 Q115.604 0.3438 114.1821 0.3438 Q112.7915 0.3438 111.6509 -0.1406 Q110.5103 -0.625 109.6899 -1.5 Q108.8696 -2.375 108.4165 -3.6094 Q107.9634 -4.8438 107.9634 -6.3438 Q107.9634 -7.8281 108.4321 -9.0469 Q108.9009 -10.2656 109.729 -11.1328 Q110.5571 -12 111.6978 -12.4766 Q112.8384 -12.9531 114.1821 -12.9531 Q115.5415 -12.9531 116.6821 -12.4766 Q117.8228 -12 118.6431 -11.1328 Q119.4634 -10.2656 119.9165 -9.0469 Q120.3696 -7.8281 120.3696 -6.3438 ZM116.729 -6.3438 Q116.729 -7.9844 116.0649 -8.9375 Q115.4009 -9.8906 114.1821 -9.8906 Q112.9634 -9.8906 112.2915 -8.9375 Q111.6196 -7.9844 111.6196 -6.3438 Q111.6196 -4.6875 112.2915 -3.7109 Q112.9634 -2.7344 114.1821 -2.7344 Q115.4009 -2.7344 116.0649 -3.7109 Q116.729 -4.6875 116.729 -6.3438 ZM128.164 0.2344 Q126.6015 0.2188 125.6328 -0.0938 Q124.664 -0.4062 124.1015 -0.9688 Q123.539 -1.5312 123.3359 -2.3359 Q123.1328 -3.1406 123.1328 -4.1562 L123.1328 -18.0469 L126.6953 -18.625 L126.6953 -4.875 Q126.6953 -4.3906 126.7734 -4.0078 Q126.8515 -3.625 127.0546 -3.3594 Q127.2578 -3.0938 127.6406 -2.9297 Q128.0234 -2.7656 128.664 -2.7188 L128.164 0.2344 ZM134.2751 0 L130.7126 0 L130.7126 -12.625 L134.2751 -12.625 L134.2751 0 ZM134.6188 -16.2656 Q134.6188 -15.2812 133.9782 -14.7188 Q133.3376 -14.1562 132.4782 -14.1562 Q131.6188 -14.1562 130.9782 -14.7188 Q130.3376 -15.2812 130.3376 -16.2656 Q130.3376 -17.25 130.9782 -17.8203 Q131.6188 -18.3906 132.4782 -18.3906 Q133.3376 -18.3906 133.9782 -17.8203 Q134.6188 -17.25 134.6188 -16.2656 ZM137.0354 -6.3125 Q137.0354 -7.6875 137.4807 -8.8984 Q137.926 -10.1094 138.762 -11.0078 Q139.5979 -11.9062 140.801 -12.4297 Q142.0042 -12.9531 143.5354 -12.9531 Q144.551 -12.9531 145.387 -12.7734 Q146.2229 -12.5938 147.0198 -12.2656 L146.2698 -9.4062 Q145.7698 -9.5938 145.1682 -9.7422 Q144.5667 -9.8906 143.8323 -9.8906 Q142.2385 -9.8906 141.4651 -8.9062 Q140.6917 -7.9219 140.6917 -6.3125 Q140.6917 -4.6094 141.4182 -3.6719 Q142.1448 -2.7344 143.9729 -2.7344 Q144.6135 -2.7344 145.3635 -2.8516 Q146.1135 -2.9688 146.7385 -3.2344 L147.2385 -0.3125 Q146.6135 -0.0469 145.676 0.1484 Q144.7385 0.3438 143.6135 0.3438 Q141.8792 0.3438 140.637 -0.1797 Q139.3948 -0.7031 138.5901 -1.5859 Q137.7854 -2.4688 137.4104 -3.6797 Q137.0354 -4.8906 137.0354 -6.3125 ZM160.8413 -12.625 Q159.7632 -8.9688 158.5835 -5.7812 Q157.4038 -2.5938 156.0132 0.4062 Q155.5132 1.4844 155.0054 2.2422 Q154.4976 3 153.9038 3.4922 Q153.3101 3.9844 152.5522 4.2109 Q151.7944 4.4375 150.7788 4.4375 Q149.9351 4.4375 149.2319 4.2812 Q148.5288 4.125 148.0757 3.9375 L148.7007 1.0781 Q149.2476 1.2656 149.6772 1.3438 Q150.1069 1.4219 150.5913 1.4219 Q151.5444 1.4219 152.0601 0.9062 Q152.5757 0.3906 152.9351 -0.5312 Q151.7163 -2.9219 150.4897 -5.9141 Q149.2632 -8.9062 148.1851 -12.625 L151.9819 -12.625 Q152.2163 -11.6875 152.5444 -10.5938 Q152.8726 -9.5 153.2319 -8.3828 Q153.5913 -7.2656 153.9663 -6.2109 Q154.3413 -5.1562 154.6694 -4.2969 Q154.9819 -5.1562 155.3179 -6.2109 Q155.6538 -7.2656 155.9819 -8.3828 Q156.3101 -9.5 156.6069 -10.5938 Q156.9038 -11.6875 157.1382 -12.625 L160.8413 -12.625 ZM167.9064 -6.2188 Q167.9064 -7.8906 168.4221 -9.1562 Q168.9377 -10.4219 169.7814 -11.2578 Q170.6252 -12.0938 171.7111 -12.5234 Q172.7971 -12.9531 173.9533 -12.9531 Q176.6408 -12.9531 178.2033 -11.3125 Q179.7658 -9.6719 179.7658 -6.4844 Q179.7658 -6.1719 179.7424 -5.7969 Q179.7189 -5.4219 179.6877 -5.1406 L171.5783 -5.1406 Q171.7033 -4.0312 172.6174 -3.3828 Q173.5314 -2.7344 175.0627 -2.7344 Q176.0471 -2.7344 176.9924 -2.9141 Q177.9377 -3.0938 178.5471 -3.3594 L179.0158 -0.4531 Q178.7346 -0.3125 178.2502 -0.1719 Q177.7658 -0.0312 177.1799 0.0781 Q176.5939 0.1875 175.9221 0.2656 Q175.2502 0.3438 174.5783 0.3438 Q172.8752 0.3438 171.6174 -0.1641 Q170.3596 -0.6719 169.5314 -1.5469 Q168.7033 -2.4219 168.3049 -3.625 Q167.9064 -4.8281 167.9064 -6.2188 ZM176.3127 -7.5781 Q176.2814 -8.0469 176.1486 -8.4766 Q176.0158 -8.9062 175.7424 -9.2422 Q175.4689 -9.5781 175.0471 -9.7969 Q174.6252 -10.0156 174.0002 -10.0156 Q173.4064 -10.0156 172.9767 -9.8047 Q172.5471 -9.5938 172.258 -9.2578 Q171.9689 -8.9219 171.8127 -8.4844 Q171.6564 -8.0469 171.5783 -7.5781 L176.3127 -7.5781 ZM190.1179 -9.4531 Q189.6491 -9.5781 189.0007 -9.7109 Q188.3522 -9.8438 187.6022 -9.8438 Q187.2741 -9.8438 186.8054 -9.7812 Q186.3366 -9.7188 186.0866 -9.6406 L186.0866 0 L182.5241 0 L182.5241 -11.9531 Q183.4772 -12.2812 184.7819 -12.5859 Q186.0866 -12.8906 187.696 -12.8906 Q187.9929 -12.8906 188.3991 -12.8516 Q188.8054 -12.8125 189.2116 -12.7578 Q189.6179 -12.7031 190.0241 -12.6172 Q190.4304 -12.5312 190.7272 -12.4062 L190.1179 -9.4531 ZM200.2403 -9.4531 Q199.7715 -9.5781 199.1231 -9.7109 Q198.4747 -9.8438 197.7247 -9.8438 Q197.3965 -9.8438 196.9278 -9.7812 Q196.459 -9.7188 196.209 -9.6406 L196.209 0 L192.6465 0 L192.6465 -11.9531 Q193.5997 -12.2812 194.9044 -12.5859 Q196.209 -12.8906 197.8184 -12.8906 Q198.1153 -12.8906 198.5215 -12.8516 Q198.9278 -12.8125 199.334 -12.7578 Q199.7403 -12.7031 200.1465 -12.6172 Q200.5528 -12.5312 200.8497 -12.4062 L200.2403 -9.4531 ZM214.5659 -6.3438 Q214.5659 -4.8438 214.1362 -3.6094 Q213.7065 -2.375 212.8862 -1.5 Q212.0659 -0.625 210.933 -0.1406 Q209.8002 0.3438 208.3784 0.3438 Q206.9877 0.3438 205.8471 -0.1406 Q204.7065 -0.625 203.8862 -1.5 Q203.0659 -2.375 202.6127 -3.6094 Q202.1596 -4.8438 202.1596 -6.3438 Q202.1596 -7.8281 202.6284 -9.0469 Q203.0971 -10.2656 203.9252 -11.1328 Q204.7534 -12 205.894 -12.4766 Q207.0346 -12.9531 208.3784 -12.9531 Q209.7377 -12.9531 210.8784 -12.4766 Q212.019 -12 212.8393 -11.1328 Q213.6596 -10.2656 214.1127 -9.0469 Q214.5659 -7.8281 214.5659 -6.3438 ZM210.9252 -6.3438 Q210.9252 -7.9844 210.2612 -8.9375 Q209.5971 -9.8906 208.3784 -9.8906 Q207.1596 -9.8906 206.4877 -8.9375 Q205.8159 -7.9844 205.8159 -6.3438 Q205.8159 -4.6875 206.4877 -3.7109 Q207.1596 -2.7344 208.3784 -2.7344 Q209.5971 -2.7344 210.2612 -3.7109 Q210.9252 -4.6875 210.9252 -6.3438 ZM224.9227 -9.4531 Q224.454 -9.5781 223.8055 -9.7109 Q223.1571 -9.8438 222.4071 -9.8438 Q222.079 -9.8438 221.6102 -9.7812 Q221.1415 -9.7188 220.8915 -9.6406 L220.8915 0 L217.329 0 L217.329 -11.9531 Q218.2821 -12.2812 219.5868 -12.5859 Q220.8915 -12.8906 222.5009 -12.8906 Q222.7977 -12.8906 223.204 -12.8516 Q223.6102 -12.8125 224.0165 -12.7578 Q224.4227 -12.7031 224.829 -12.6172 Q225.2352 -12.5312 225.5321 -12.4062 L224.9227 -9.4531 ZM238.677 -18.625 Q239.677 -18.625 240.5208 -18.4219 Q241.3645 -18.2188 241.8176 -18.0312 L241.1145 -15.1719 Q240.6458 -15.3906 240.0754 -15.4922 Q239.5051 -15.5938 239.0364 -15.5938 Q238.3801 -15.5938 237.9348 -15.4141 Q237.4895 -15.2344 237.2395 -14.9219 Q236.9895 -14.6094 236.8801 -14.1797 Q236.7708 -13.75 236.7708 -13.25 L236.7708 -12.625 L241.1926 -12.625 L241.1926 -9.6406 L236.7708 -9.6406 L236.7708 0 L233.2083 0 L233.2083 -13.2969 Q233.2083 -15.75 234.5833 -17.1875 Q235.9583 -18.625 238.677 -18.625 ZM255.1276 -6.3438 Q255.1276 -4.8438 254.6979 -3.6094 Q254.2682 -2.375 253.4479 -1.5 Q252.6276 -0.625 251.4948 -0.1406 Q250.3619 0.3438 248.9401 0.3438 Q247.5494 0.3438 246.4088 -0.1406 Q245.2682 -0.625 244.4479 -1.5 Q243.6276 -2.375 243.1744 -3.6094 Q242.7213 -4.8438 242.7213 -6.3438 Q242.7213 -7.8281 243.1901 -9.0469 Q243.6588 -10.2656 244.4869 -11.1328 Q245.3151 -12 246.4557 -12.4766 Q247.5963 -12.9531 248.9401 -12.9531 Q250.2994 -12.9531 251.4401 -12.4766 Q252.5807 -12 253.401 -11.1328 Q254.2213 -10.2656 254.6744 -9.0469 Q255.1276 -7.8281 255.1276 -6.3438 ZM251.4869 -6.3438 Q251.4869 -7.9844 250.8229 -8.9375 Q250.1588 -9.8906 248.9401 -9.8906 Q247.7213 -9.8906 247.0494 -8.9375 Q246.3776 -7.9844 246.3776 -6.3438 Q246.3776 -4.6875 247.0494 -3.7109 Q247.7213 -2.7344 248.9401 -2.7344 Q250.1588 -2.7344 250.8229 -3.7109 Q251.4869 -4.6875 251.4869 -6.3438 ZM265.4844 -9.4531 Q265.0157 -9.5781 264.3672 -9.7109 Q263.7188 -9.8438 262.9688 -9.8438 Q262.6407 -9.8438 262.1719 -9.7812 Q261.7032 -9.7188 261.4532 -9.6406 L261.4532 0 L257.8907 0 L257.8907 -11.9531 Q258.8438 -12.2812 260.1485 -12.5859 Q261.4532 -12.8906 263.0626 -12.8906 Q263.3594 -12.8906 263.7657 -12.8516 Q264.1719 -12.8125 264.5782 -12.7578 Q264.9844 -12.7031 265.3907 -12.6172 Q265.7969 -12.5312 266.0938 -12.4062 L265.4844 -9.4531 Z"
    /></g
    ><g transform="translate(2027,126)" style="font-size:24px; text-rendering:geometricPrecision; image-rendering:optimizeQuality; color-rendering:optimizeQuality; font-family:'mwb_cmmi10'; color-interpolation:linearRGB; font-weight:bold;"
    ><path style="stroke:none;" d="M4.8281 0.2656 Q3.6875 0.2656 2.8047 -0.2734 Q1.9219 -0.8125 1.4453 -1.7266 Q0.9688 -2.6406 0.9688 -3.7969 Q0.9688 -5.4219 1.875 -7.0156 Q2.7812 -8.6094 4.2891 -9.6094 Q5.7969 -10.6094 7.4375 -10.6094 Q9.6562 -10.6094 10.5859 -9.9688 Q11.5156 -9.3281 11.9922 -8.2656 Q12.4688 -7.2031 12.4688 -6 L12.4688 -5.125 Q12.4688 -5.5312 12.9609 -6.7578 Q13.4531 -7.9844 13.7656 -9.2969 Q13.8125 -9.4375 13.9531 -9.4375 L14.2344 -9.4375 Q15.4531 -9.4375 15.4531 -9.2188 Q15.4531 -9.1875 15.4219 -9.1406 Q15.1406 -8.0469 14.7188 -7.0312 Q14.2969 -6.0156 13.7344 -5.0625 Q13.1719 -4.1094 12.5 -3.3438 Q12.5 -0.3594 12.5 -0.3594 Q12.6406 -0.3594 12.9219 -0.625 Q13.2031 -0.8906 13.4219 -1.2812 Q13.6406 -1.6719 13.7031 -1.6719 L14 -1.6719 Q15.1875 -1.6719 15.1875 -1.4375 Q15.1875 -0.8438 14.5 -0.2891 Q13.8125 0.2656 12.1406 0.2656 Q11.2812 0.2656 10.7031 -0.2969 Q10.125 -0.8594 10.0781 -1.0312 Q9.7969 -0.7969 8.4844 -0.2656 Q7.1719 0.2656 4.8281 0.2656 ZM4.875 -0.3594 Q7.4375 -0.3594 9.7969 -2.4688 Q9.7812 -2.6094 9.7578 -2.8203 Q9.7344 -3.0312 9.7344 -3.0469 L9.7344 -5.6406 Q9.7344 -9.9844 7.3906 -9.9844 Q6.9844 -9.9844 5.9297 -8.7812 Q4.875 -7.5781 4.3438 -5.9141 Q3.8125 -4.25 3.8125 -2.8594 Q3.8125 -1.8125 4.3438 -1.0859 Q4.875 -0.3594 4.875 -0.3594 Z"
    /></g
    ><g transform="translate(2044,126)" style="font-size:24px; text-rendering:geometricPrecision; image-rendering:optimizeQuality; color-rendering:optimizeQuality; font-family:'Ubuntu'; color-interpolation:linearRGB; font-weight:bold;"
    ><path style="stroke:none;" d="M6.9287 -6.0312 L18.21 -6.0312 L18.21 -3.0312 L6.9287 -3.0312 L6.9287 -6.0312 ZM6.9287 -11.2812 L18.21 -11.2812 L18.21 -8.2812 L6.9287 -8.2812 L6.9287 -11.2812 ZM37.9507 -8.3594 Q37.9507 -4.1562 36.3569 -1.9062 Q34.7632 0.3438 31.9507 0.3438 Q29.1538 0.3438 27.5522 -1.9062 Q25.9507 -4.1562 25.9507 -8.3594 Q25.9507 -10.4375 26.3726 -12.0469 Q26.7944 -13.6562 27.5835 -14.7578 Q28.3726 -15.8594 29.4819 -16.4375 Q30.5913 -17.0156 31.9507 -17.0156 Q34.7632 -17.0156 36.3569 -14.7734 Q37.9507 -12.5312 37.9507 -8.3594 ZM34.3101 -8.3594 Q34.3101 -9.5938 34.1851 -10.6172 Q34.0601 -11.6406 33.8022 -12.3828 Q33.5444 -13.125 33.0835 -13.5312 Q32.6226 -13.9375 31.9507 -13.9375 Q31.2788 -13.9375 30.8335 -13.5312 Q30.3882 -13.125 30.1147 -12.3828 Q29.8413 -11.6406 29.7241 -10.6172 Q29.6069 -9.5938 29.6069 -8.3594 Q29.6069 -7.1094 29.7241 -6.0781 Q29.8413 -5.0469 30.1147 -4.2969 Q30.3882 -3.5469 30.8335 -3.1406 Q31.2788 -2.7344 31.9507 -2.7344 Q32.6226 -2.7344 33.0835 -3.1406 Q33.5444 -3.5469 33.8022 -4.2969 Q34.0601 -5.0469 34.1851 -6.0781 Q34.3101 -7.1094 34.3101 -8.3594 ZM43.9502 -1.8906 Q43.9502 -0.8125 43.2627 -0.25 Q42.5752 0.3125 41.7158 0.3125 Q40.8564 0.3125 40.1689 -0.25 Q39.4814 -0.8125 39.4814 -1.8906 Q39.4814 -2.9688 40.1689 -3.5391 Q40.8564 -4.1094 41.7158 -4.1094 Q42.5752 -4.1094 43.2627 -3.5391 Q43.9502 -2.9688 43.9502 -1.8906 ZM51.601 -8.9219 Q52.1478 -8.9219 52.7494 -9.0312 Q53.351 -9.1406 53.6322 -9.3438 L53.6322 -9.5469 Q53.6322 -9.6406 53.6478 -9.7422 Q53.6635 -9.8438 53.6635 -9.9062 Q53.6322 -10.7812 53.515 -11.5312 Q53.3978 -12.2812 53.1088 -12.8516 Q52.8197 -13.4219 52.3275 -13.7422 Q51.8353 -14.0625 51.1166 -14.0625 Q50.5385 -14.0625 50.1088 -13.8203 Q49.6791 -13.5781 49.4135 -13.1953 Q49.1478 -12.8125 49.015 -12.3594 Q48.8822 -11.9062 48.8822 -11.4688 Q48.8822 -10.1719 49.5228 -9.5469 Q50.1635 -8.9219 51.601 -8.9219 ZM53.351 -6.5938 Q52.851 -6.3594 52.2338 -6.25 Q51.6166 -6.1406 51.1947 -6.1406 Q49.6322 -6.1406 48.5306 -6.5156 Q47.4291 -6.8906 46.7181 -7.5703 Q46.0072 -8.25 45.6713 -9.2109 Q45.3353 -10.1719 45.3353 -11.3281 Q45.3353 -12.2812 45.6556 -13.2891 Q45.976 -14.2969 46.6791 -15.125 Q47.3822 -15.9531 48.4447 -16.5 Q49.5072 -17.0469 51.0228 -17.0469 Q54.1166 -17.0469 55.6869 -15.1328 Q57.2572 -13.2188 57.2572 -9.6406 Q57.2572 -7.2969 56.6478 -5.5 Q56.0385 -3.7031 54.7572 -2.4766 Q53.476 -1.25 51.4838 -0.6094 Q49.4916 0.0312 46.7572 0.0469 Q46.726 -0.7188 46.6791 -1.4375 Q46.6322 -2.1562 46.5853 -2.9219 Q47.9447 -2.9531 49.0541 -3.1328 Q50.1635 -3.3125 50.9994 -3.7344 Q51.8353 -4.1562 52.4291 -4.8516 Q53.0228 -5.5469 53.351 -6.5938 ZM61.6942 0 Q61.8348 -1.75 62.2958 -3.6484 Q62.7567 -5.5469 63.413 -7.3672 Q64.0692 -9.1875 64.8895 -10.8125 Q65.7098 -12.4375 66.538 -13.6094 L59.3192 -13.6094 L59.3192 -16.6562 L70.9598 -16.6562 L70.9598 -14.0625 Q70.1942 -13.2188 69.2723 -11.7344 Q68.3505 -10.25 67.5223 -8.3672 Q66.6942 -6.4844 66.077 -4.3203 Q65.4598 -2.1562 65.3192 0 L61.6942 0 Z"
    /></g
    ><g style="stroke-linecap:butt; fill:red; text-rendering:geometricPrecision; image-rendering:optimizeQuality; color-rendering:optimizeQuality; stroke-linejoin:round; stroke:red; color-interpolation:linearRGB; stroke-width:4;"
    ><path d="M480 145 L521.5217 145 L563.0435 145 L604.5652 145 L646.087 145 L687.6087 932 L729.1304 169.5938 L770.6522 145 L812.1739 145 L853.6957 145 L895.2174 145 L936.7391 145 L978.2609 145 L1019.7826 145 L1061.3043 145 L1102.826 932 L1144.3478 145 L1185.8695 145 L1227.3914 145.006 L1268.9131 932.003 L1310.4348 145.0015 L1351.9565 932.0007 L1393.4783 1325.5004 L1435 145 L1476.5217 932 L1518.0435 145 L1559.5652 932 L1601.0869 145 L1642.6086 145 L1684.1305 145 L1725.6522 932 L1767.174 145.0961 L1808.6957 932.048 L1850.2174 1325.524 L1891.7391 1522.262 L1933.2609 1620.631 L1974.7826 1669.8156 L2016.3043 1694.4077 L2057.8262 1706.7039 L2099.3479 1712.8519 L2140.8696 1715.926 L2182.3914 1717.463 L2223.9131 1718.2314 L2265.4348 1718.6157 L2306.9565 1718.8079 L2348.4783 1718.9039 L2390 1718.952 L2431.5217 1718.976 L2473.0435 1718.988 L2514.5652 1718.994 L2556.0869 1718.9969 L2597.6086 1718.9985 L2639.1304 1718.9993 L2680.6521 1718.9996 L2722.1738 1718.9998 L2763.6956 1718.9999 L2805.2173 1719 L2846.739 1719 L2888.261 1719 L2929.7827 1719 L2971.3044 1719 L3012.8262 1719 L3054.3479 1719 L3095.8696 1719 L3137.3914 1719 L3178.9131 1719 L3220.4348 1719 L3261.9565 1719 L3303.4783 1719 L3345 1719" style="fill:none; fill-rule:evenodd;"
      /><path d="M-4.2426 -4.2426 L4.2426 4.2426 M-4.2426 4.2426 L4.2426 -4.2426" style="fill:none; stroke-linejoin:miter;" transform="translate(480,145)"
      /><path d="M-4.2426 -4.2426 L4.2426 4.2426 M-4.2426 4.2426 L4.2426 -4.2426" style="fill:none; stroke-linejoin:miter;" transform="translate(521.5217,145)"
      /><path d="M-4.2426 -4.2426 L4.2426 4.2426 M-4.2426 4.2426 L4.2426 -4.2426" style="fill:none; stroke-linejoin:miter;" transform="translate(563.0435,145)"
      /><path d="M-4.2426 -4.2426 L4.2426 4.2426 M-4.2426 4.2426 L4.2426 -4.2426" style="fill:none; stroke-linejoin:miter;" transform="translate(604.5652,145)"
      /><path d="M-4.2426 -4.2426 L4.2426 4.2426 M-4.2426 4.2426 L4.2426 -4.2426" style="fill:none; stroke-linejoin:miter;" transform="translate(646.087,145)"
      /><path d="M-4.2426 -4.2426 L4.2426 4.2426 M-4.2426 4.2426 L4.2426 -4.2426" style="fill:none; stroke-linejoin:miter;" transform="translate(687.6087,932)"
      /><path d="M-4.2426 -4.2426 L4.2426 4.2426 M-4.2426 4.2426 L4.2426 -4.2426" style="fill:none; stroke-linejoin:miter;" transform="translate(729.1304,169.5938)"
      /><path d="M-4.2426 -4.2426 L4.2426 4.2426 M-4.2426 4.2426 L4.2426 -4.2426" style="fill:none; stroke-linejoin:miter;" transform="translate(770.6522,145)"
      /><path d="M-4.2426 -4.2426 L4.2426 4.2426 M-4.2426 4.2426 L4.2426 -4.2426" style="fill:none; stroke-linejoin:miter;" transform="translate(812.1739,145)"
      /><path d="M-4.2426 -4.2426 L4.2426 4.2426 M-4.2426 4.2426 L4.2426 -4.2426" style="fill:none; stroke-linejoin:miter;" transform="translate(853.6957,145)"
      /><path d="M-4.2426 -4.2426 L4.2426 4.2426 M-4.2426 4.2426 L4.2426 -4.2426" style="fill:none; stroke-linejoin:miter;" transform="translate(895.2174,145)"
      /><path d="M-4.2426 -4.2426 L4.2426 4.2426 M-4.2426 4.2426 L4.2426 -4.2426" style="fill:none; stroke-linejoin:miter;" transform="translate(936.7391,145)"
      /><path d="M-4.2426 -4.2426 L4.2426 4.2426 M-4.2426 4.2426 L4.2426 -4.2426" style="fill:none; stroke-linejoin:miter;" transform="translate(978.2609,145)"
      /><path d="M-4.2426 -4.2426 L4.2426 4.2426 M-4.2426 4.2426 L4.2426 -4.2426" style="fill:none; stroke-linejoin:miter;" transform="translate(1019.7826,145)"
      /><path d="M-4.2426 -4.2426 L4.2426 4.2426 M-4.2426 4.2426 L4.2426 -4.2426" style="fill:none; stroke-linejoin:miter;" transform="translate(1061.3043,145)"
      /><path d="M-4.2426 -4.2426 L4.2426 4.2426 M-4.2426 4.2426 L4.2426 -4.2426" style="fill:none; stroke-linejoin:miter;" transform="translate(1102.826,932)"
      /><path d="M-4.2426 -4.2426 L4.2426 4.2426 M-4.2426 4.2426 L4.2426 -4.2426" style="fill:none; stroke-linejoin:miter;" transform="translate(1144.3478,145)"
      /><path d="M-4.2426 -4.2426 L4.2426 4.2426 M-4.2426 4.2426 L4.2426 -4.2426" style="fill:none; stroke-linejoin:miter;" transform="translate(1185.8695,145)"
      /><path d="M-4.2426 -4.2426 L4.2426 4.2426 M-4.2426 4.2426 L4.2426 -4.2426" style="fill:none; stroke-linejoin:miter;" transform="translate(1227.3914,145.006)"
      /><path d="M-4.2426 -4.2426 L4.2426 4.2426 M-4.2426 4.2426 L4.2426 -4.2426" style="fill:none; stroke-linejoin:miter;" transform="translate(1268.9131,932.003)"
      /><path d="M-4.2426 -4.2426 L4.2426 4.2426 M-4.2426 4.2426 L4.2426 -4.2426" style="fill:none; stroke-linejoin:miter;" transform="translate(1310.4348,145.0015)"
      /><path d="M-4.2426 -4.2426 L4.2426 4.2426 M-4.2426 4.2426 L4.2426 -4.2426" style="fill:none; stroke-linejoin:miter;" transform="translate(1351.9565,932.0007)"
      /><path d="M-4.2426 -4.2426 L4.2426 4.2426 M-4.2426 4.2426 L4.2426 -4.2426" style="fill:none; stroke-linejoin:miter;" transform="translate(1393.4783,1325.5004)"
      /><path d="M-4.2426 -4.2426 L4.2426 4.2426 M-4.2426 4.2426 L4.2426 -4.2426" style="fill:none; stroke-linejoin:miter;" transform="translate(1435,145)"
      /><path d="M-4.2426 -4.2426 L4.2426 4.2426 M-4.2426 4.2426 L4.2426 -4.2426" style="fill:none; stroke-linejoin:miter;" transform="translate(1476.5217,932)"
      /><path d="M-4.2426 -4.2426 L4.2426 4.2426 M-4.2426 4.2426 L4.2426 -4.2426" style="fill:none; stroke-linejoin:miter;" transform="translate(1518.0435,145)"
      /><path d="M-4.2426 -4.2426 L4.2426 4.2426 M-4.2426 4.2426 L4.2426 -4.2426" style="fill:none; stroke-linejoin:miter;" transform="translate(1559.5652,932)"
      /><path d="M-4.2426 -4.2426 L4.2426 4.2426 M-4.2426 4.2426 L4.2426 -4.2426" style="fill:none; stroke-linejoin:miter;" transform="translate(1601.0869,145)"
      /><path d="M-4.2426 -4.2426 L4.2426 4.2426 M-4.2426 4.2426 L4.2426 -4.2426" style="fill:none; stroke-linejoin:miter;" transform="translate(1642.6086,145)"
      /><path d="M-4.2426 -4.2426 L4.2426 4.2426 M-4.2426 4.2426 L4.2426 -4.2426" style="fill:none; stroke-linejoin:miter;" transform="translate(1684.1305,145)"
      /><path d="M-4.2426 -4.2426 L4.2426 4.2426 M-4.2426 4.2426 L4.2426 -4.2426" style="fill:none; stroke-linejoin:miter;" transform="translate(1725.6522,932)"
      /><path d="M-4.2426 -4.2426 L4.2426 4.2426 M-4.2426 4.2426 L4.2426 -4.2426" style="fill:none; stroke-linejoin:miter;" transform="translate(1767.174,145.0961)"
      /><path d="M-4.2426 -4.2426 L4.2426 4.2426 M-4.2426 4.2426 L4.2426 -4.2426" style="fill:none; stroke-linejoin:miter;" transform="translate(1808.6957,932.048)"
      /><path d="M-4.2426 -4.2426 L4.2426 4.2426 M-4.2426 4.2426 L4.2426 -4.2426" style="fill:none; stroke-linejoin:miter;" transform="translate(1850.2174,1325.524)"
      /><path d="M-4.2426 -4.2426 L4.2426 4.2426 M-4.2426 4.2426 L4.2426 -4.2426" style="fill:none; stroke-linejoin:miter;" transform="translate(1891.7391,1522.262)"
      /><path d="M-4.2426 -4.2426 L4.2426 4.2426 M-4.2426 4.2426 L4.2426 -4.2426" style="fill:none; stroke-linejoin:miter;" transform="translate(1933.2609,1620.631)"
      /><path d="M-4.2426 -4.2426 L4.2426 4.2426 M-4.2426 4.2426 L4.2426 -4.2426" style="fill:none; stroke-linejoin:miter;" transform="translate(1974.7826,1669.8156)"
      /><path d="M-4.2426 -4.2426 L4.2426 4.2426 M-4.2426 4.2426 L4.2426 -4.2426" style="fill:none; stroke-linejoin:miter;" transform="translate(2016.3043,1694.4077)"
      /><path d="M-4.2426 -4.2426 L4.2426 4.2426 M-4.2426 4.2426 L4.2426 -4.2426" style="fill:none; stroke-linejoin:miter;" transform="translate(2057.8262,1706.7039)"
      /><path d="M-4.2426 -4.2426 L4.2426 4.2426 M-4.2426 4.2426 L4.2426 -4.2426" style="fill:none; stroke-linejoin:miter;" transform="translate(2099.3479,1712.8519)"
      /><path d="M-4.2426 -4.2426 L4.2426 4.2426 M-4.2426 4.2426 L4.2426 -4.2426" style="fill:none; stroke-linejoin:miter;" transform="translate(2140.8696,1715.926)"
      /><path d="M-4.2426 -4.2426 L4.2426 4.2426 M-4.2426 4.2426 L4.2426 -4.2426" style="fill:none; stroke-linejoin:miter;" transform="translate(2182.3914,1717.463)"
      /><path d="M-4.2426 -4.2426 L4.2426 4.2426 M-4.2426 4.2426 L4.2426 -4.2426" style="fill:none; stroke-linejoin:miter;" transform="translate(2223.9131,1718.2314)"
      /><path d="M-4.2426 -4.2426 L4.2426 4.2426 M-4.2426 4.2426 L4.2426 -4.2426" style="fill:none; stroke-linejoin:miter;" transform="translate(2265.4348,1718.6157)"
      /><path d="M-4.2426 -4.2426 L4.2426 4.2426 M-4.2426 4.2426 L4.2426 -4.2426" style="fill:none; stroke-linejoin:miter;" transform="translate(2306.9565,1718.8079)"
      /><path d="M-4.2426 -4.2426 L4.2426 4.2426 M-4.2426 4.2426 L4.2426 -4.2426" style="fill:none; stroke-linejoin:miter;" transform="translate(2348.4783,1718.9039)"
      /><path d="M-4.2426 -4.2426 L4.2426 4.2426 M-4.2426 4.2426 L4.2426 -4.2426" style="fill:none; stroke-linejoin:miter;" transform="translate(2390,1718.952)"
      /><path d="M-4.2426 -4.2426 L4.2426 4.2426 M-4.2426 4.2426 L4.2426 -4.2426" style="fill:none; stroke-linejoin:miter;" transform="translate(2431.5217,1718.976)"
      /><path d="M-4.2426 -4.2426 L4.2426 4.2426 M-4.2426 4.2426 L4.2426 -4.2426" style="fill:none; stroke-linejoin:miter;" transform="translate(2473.0435,1718.988)"
      /><path d="M-4.2426 -4.2426 L4.2426 4.2426 M-4.2426 4.2426 L4.2426 -4.2426" style="fill:none; stroke-linejoin:miter;" transform="translate(2514.5652,1718.994)"
      /><path d="M-4.2426 -4.2426 L4.2426 4.2426 M-4.2426 4.2426 L4.2426 -4.2426" style="fill:none; stroke-linejoin:miter;" transform="translate(2556.0869,1718.9969)"
      /><path d="M-4.2426 -4.2426 L4.2426 4.2426 M-4.2426 4.2426 L4.2426 -4.2426" style="fill:none; stroke-linejoin:miter;" transform="translate(2597.6086,1718.9985)"
      /><path d="M-4.2426 -4.2426 L4.2426 4.2426 M-4.2426 4.2426 L4.2426 -4.2426" style="fill:none; stroke-linejoin:miter;" transform="translate(2639.1304,1718.9993)"
      /><path d="M-4.2426 -4.2426 L4.2426 4.2426 M-4.2426 4.2426 L4.2426 -4.2426" style="fill:none; stroke-linejoin:miter;" transform="translate(2680.6521,1718.9996)"
      /><path d="M-4.2426 -4.2426 L4.2426 4.2426 M-4.2426 4.2426 L4.2426 -4.2426" style="fill:none; stroke-linejoin:miter;" transform="translate(2722.1738,1718.9998)"
      /><path d="M-4.2426 -4.2426 L4.2426 4.2426 M-4.2426 4.2426 L4.2426 -4.2426" style="fill:none; stroke-linejoin:miter;" transform="translate(2763.6956,1718.9999)"
      /><path d="M-4.2426 -4.2426 L4.2426 4.2426 M-4.2426 4.2426 L4.2426 -4.2426" style="fill:none; stroke-linejoin:miter;" transform="translate(2805.2173,1719)"
      /><path d="M-4.2426 -4.2426 L4.2426 4.2426 M-4.2426 4.2426 L4.2426 -4.2426" style="fill:none; stroke-linejoin:miter;" transform="translate(2846.739,1719)"
      /><path d="M-4.2426 -4.2426 L4.2426 4.2426 M-4.2426 4.2426 L4.2426 -4.2426" style="fill:none; stroke-linejoin:miter;" transform="translate(2888.261,1719)"
      /><path d="M-4.2426 -4.2426 L4.2426 4.2426 M-4.2426 4.2426 L4.2426 -4.2426" style="fill:none; stroke-linejoin:miter;" transform="translate(2929.7827,1719)"
      /><path d="M-4.2426 -4.2426 L4.2426 4.2426 M-4.2426 4.2426 L4.2426 -4.2426" style="fill:none; stroke-linejoin:miter;" transform="translate(2971.3044,1719)"
      /><path d="M-4.2426 -4.2426 L4.2426 4.2426 M-4.2426 4.2426 L4.2426 -4.2426" style="fill:none; stroke-linejoin:miter;" transform="translate(3012.8262,1719)"
      /><path d="M-4.2426 -4.2426 L4.2426 4.2426 M-4.2426 4.2426 L4.2426 -4.2426" style="fill:none; stroke-linejoin:miter;" transform="translate(3054.3479,1719)"
      /><path d="M-4.2426 -4.2426 L4.2426 4.2426 M-4.2426 4.2426 L4.2426 -4.2426" style="fill:none; stroke-linejoin:miter;" transform="translate(3095.8696,1719)"
      /><path d="M-4.2426 -4.2426 L4.2426 4.2426 M-4.2426 4.2426 L4.2426 -4.2426" style="fill:none; stroke-linejoin:miter;" transform="translate(3137.3914,1719)"
      /><path d="M-4.2426 -4.2426 L4.2426 4.2426 M-4.2426 4.2426 L4.2426 -4.2426" style="fill:none; stroke-linejoin:miter;" transform="translate(3178.9131,1719)"
      /><path d="M-4.2426 -4.2426 L4.2426 4.2426 M-4.2426 4.2426 L4.2426 -4.2426" style="fill:none; stroke-linejoin:miter;" transform="translate(3220.4348,1719)"
      /><path d="M-4.2426 -4.2426 L4.2426 4.2426 M-4.2426 4.2426 L4.2426 -4.2426" style="fill:none; stroke-linejoin:miter;" transform="translate(3261.9565,1719)"
      /><path d="M-4.2426 -4.2426 L4.2426 4.2426 M-4.2426 4.2426 L4.2426 -4.2426" style="fill:none; stroke-linejoin:miter;" transform="translate(3303.4783,1719)"
      /><path d="M-4.2426 -4.2426 L4.2426 4.2426 M-4.2426 4.2426 L4.2426 -4.2426" style="fill:none; stroke-linejoin:miter;" transform="translate(3345,1719)"
    /></g
  ></g
></svg
>
