<?xml version="1.0"?>
<!DOCTYPE svg PUBLIC '-//W3C//DTD SVG 1.0//EN'
          'http://www.w3.org/TR/2001/REC-SVG-20010904/DTD/svg10.dtd'>
<svg xmlns:xlink="http://www.w3.org/1999/xlink" style="fill-opacity:1; color-rendering:auto; color-interpolation:auto; text-rendering:auto; stroke:black; stroke-linecap:square; stroke-miterlimit:10; shape-rendering:auto; stroke-opacity:1; fill:black; stroke-dasharray:none; font-weight:normal; stroke-width:1; font-family:'Dialog'; font-style:normal; stroke-linejoin:miter; font-size:12px; stroke-dashoffset:0; image-rendering:auto;" width="3696" height="1932" xmlns="http://www.w3.org/2000/svg"
><!--Generated by the Batik Graphics2D SVG Generator--><defs id="genericDefs"
  /><g
  ><defs id="defs1"
    ><clipPath clipPathUnits="userSpaceOnUse" id="clipPath1"
      ><path d="M0 0 L3696 0 L3696 1932 L0 1932 L0 0 Z"
      /></clipPath
    ></defs
    ><g style="fill:white; stroke:white;"
    ><rect x="0" y="0" width="3696" style="clip-path:url(#clipPath1); stroke:none;" height="1932"
    /></g
    ><g style="fill:white; text-rendering:optimizeSpeed; color-rendering:optimizeSpeed; image-rendering:optimizeSpeed; shape-rendering:crispEdges; stroke:white; color-interpolation:sRGB;"
    ><rect x="0" width="3696" height="1932" y="0" style="stroke:none;"
      /><path style="stroke:none;" d="M480 1719 L3182 1719 L3182 145 L480 145 Z"
    /></g
    ><g style="fill:rgb(38,38,38); text-rendering:geometricPrecision; color-rendering:optimizeQuality; image-rendering:optimizeQuality; stroke-linejoin:round; stroke:rgb(38,38,38); color-interpolation:linearRGB;"
    ><line y2="1719" style="fill:none;" x1="480" x2="3182" y1="1719"
      /><line y2="1691.98" style="fill:none;" x1="480" x2="480" y1="1719"
      /><line y2="1691.98" style="fill:none;" x1="750.2" x2="750.2" y1="1719"
      /><line y2="1691.98" style="fill:none;" x1="1020.4" x2="1020.4" y1="1719"
      /><line y2="1691.98" style="fill:none;" x1="1290.6" x2="1290.6" y1="1719"
      /><line y2="1691.98" style="fill:none;" x1="1560.8" x2="1560.8" y1="1719"
      /><line y2="1691.98" style="fill:none;" x1="1831" x2="1831" y1="1719"
      /><line y2="1691.98" style="fill:none;" x1="2101.2" x2="2101.2" y1="1719"
      /><line y2="1691.98" style="fill:none;" x1="2371.3999" x2="2371.3999" y1="1719"
      /><line y2="1691.98" style="fill:none;" x1="2641.6001" x2="2641.6001" y1="1719"
      /><line y2="1691.98" style="fill:none;" x1="2911.8" x2="2911.8" y1="1719"
      /><line y2="1691.98" style="fill:none;" x1="3182" x2="3182" y1="1719"
    /></g
    ><g transform="translate(480,1726.9998)" style="font-size:20px; fill:rgb(38,38,38); text-rendering:geometricPrecision; image-rendering:optimizeQuality; color-rendering:optimizeQuality; font-family:'SansSerif'; stroke:rgb(38,38,38); color-interpolation:linearRGB;"
    ><path style="stroke:none;" d="M-0.1406 5.7188 Q-1.6719 5.7188 -2.4375 7.2188 Q-3.2031 8.7188 -3.2031 11.7188 Q-3.2031 14.7188 -2.4375 16.2188 Q-1.6719 17.7188 -0.1406 17.7188 Q1.3906 17.7188 2.1562 16.2188 Q2.9219 14.7188 2.9219 11.7188 Q2.9219 8.7188 2.1562 7.2188 Q1.3906 5.7188 -0.1406 5.7188 ZM-0.1406 4.1562 Q2.3125 4.1562 3.6016 6.0938 Q4.8906 8.0312 4.8906 11.7188 Q4.8906 15.4062 3.6016 17.3438 Q2.3125 19.2812 -0.1406 19.2812 Q-2.5938 19.2812 -3.8906 17.3438 Q-5.1875 15.4062 -5.1875 11.7188 Q-5.1875 8.0312 -3.8906 6.0938 Q-2.5938 4.1562 -0.1406 4.1562 Z"
    /></g
    ><g transform="translate(750.2,1726.9998)" style="font-size:20px; fill:rgb(38,38,38); text-rendering:geometricPrecision; image-rendering:optimizeQuality; color-rendering:optimizeQuality; font-family:'SansSerif'; stroke:rgb(38,38,38); color-interpolation:linearRGB;"
    ><path style="stroke:none;" d="M-4.3438 4.4219 L3.4062 4.4219 L3.4062 6.0781 L-2.5312 6.0781 L-2.5312 9.6562 Q-2.1094 9.5 -1.6797 9.4297 Q-1.25 9.3594 -0.8125 9.3594 Q1.625 9.3594 3.0547 10.6953 Q4.4844 12.0312 4.4844 14.3281 Q4.4844 16.6719 3.0156 17.9766 Q1.5469 19.2812 -1.125 19.2812 Q-2.0312 19.2812 -2.9844 19.125 Q-3.9375 18.9688 -4.9531 18.6562 L-4.9531 16.6719 Q-4.0781 17.1562 -3.1406 17.3906 Q-2.2031 17.625 -1.1562 17.625 Q0.5312 17.625 1.5156 16.7344 Q2.5 15.8438 2.5 14.3281 Q2.5 12.7969 1.5156 11.9062 Q0.5312 11.0156 -1.1562 11.0156 Q-1.9531 11.0156 -2.7344 11.1953 Q-3.5156 11.375 -4.3438 11.75 L-4.3438 4.4219 Z"
    /></g
    ><g transform="translate(1020.4,1726.9998)" style="font-size:20px; fill:rgb(38,38,38); text-rendering:geometricPrecision; image-rendering:optimizeQuality; color-rendering:optimizeQuality; font-family:'SansSerif'; stroke:rgb(38,38,38); color-interpolation:linearRGB;"
    ><path style="stroke:none;" d="M-10.5156 17.3438 L-7.2969 17.3438 L-7.2969 6.2188 L-10.7969 6.9219 L-10.7969 5.125 L-7.3125 4.4219 L-5.3438 4.4219 L-5.3438 17.3438 L-2.125 17.3438 L-2.125 19 L-10.5156 19 L-10.5156 17.3438 ZM6.084 5.7188 Q4.5527 5.7188 3.7871 7.2188 Q3.0215 8.7188 3.0215 11.7188 Q3.0215 14.7188 3.7871 16.2188 Q4.5527 17.7188 6.084 17.7188 Q7.6152 17.7188 8.3809 16.2188 Q9.1465 14.7188 9.1465 11.7188 Q9.1465 8.7188 8.3809 7.2188 Q7.6152 5.7188 6.084 5.7188 ZM6.084 4.1562 Q8.5371 4.1562 9.8262 6.0938 Q11.1152 8.0312 11.1152 11.7188 Q11.1152 15.4062 9.8262 17.3438 Q8.5371 19.2812 6.084 19.2812 Q3.6309 19.2812 2.334 17.3438 Q1.0371 15.4062 1.0371 11.7188 Q1.0371 8.0312 2.334 6.0938 Q3.6309 4.1562 6.084 4.1562 Z"
    /></g
    ><g transform="translate(1290.6,1726.9998)" style="font-size:20px; fill:rgb(38,38,38); text-rendering:geometricPrecision; image-rendering:optimizeQuality; color-rendering:optimizeQuality; font-family:'SansSerif'; stroke:rgb(38,38,38); color-interpolation:linearRGB;"
    ><path style="stroke:none;" d="M-10.5156 17.3438 L-7.2969 17.3438 L-7.2969 6.2188 L-10.7969 6.9219 L-10.7969 5.125 L-7.3125 4.4219 L-5.3438 4.4219 L-5.3438 17.3438 L-2.125 17.3438 L-2.125 19 L-10.5156 19 L-10.5156 17.3438 ZM1.8809 4.4219 L9.6309 4.4219 L9.6309 6.0781 L3.6934 6.0781 L3.6934 9.6562 Q4.1152 9.5 4.5449 9.4297 Q4.9746 9.3594 5.4121 9.3594 Q7.8496 9.3594 9.2793 10.6953 Q10.709 12.0312 10.709 14.3281 Q10.709 16.6719 9.2402 17.9766 Q7.7715 19.2812 5.0996 19.2812 Q4.1934 19.2812 3.2402 19.125 Q2.2871 18.9688 1.2715 18.6562 L1.2715 16.6719 Q2.1465 17.1562 3.084 17.3906 Q4.0215 17.625 5.0684 17.625 Q6.7559 17.625 7.7402 16.7344 Q8.7246 15.8438 8.7246 14.3281 Q8.7246 12.7969 7.7402 11.9062 Q6.7559 11.0156 5.0684 11.0156 Q4.2715 11.0156 3.4902 11.1953 Q2.709 11.375 1.8809 11.75 L1.8809 4.4219 Z"
    /></g
    ><g transform="translate(1560.8,1726.9998)" style="font-size:20px; fill:rgb(38,38,38); text-rendering:geometricPrecision; image-rendering:optimizeQuality; color-rendering:optimizeQuality; font-family:'SansSerif'; stroke:rgb(38,38,38); color-interpolation:linearRGB;"
    ><path style="stroke:none;" d="M-9.1562 17.3438 L-2.2812 17.3438 L-2.2812 19 L-11.5312 19 L-11.5312 17.3438 Q-10.4062 16.1719 -8.4688 14.2188 Q-6.5312 12.2656 -6.0312 11.6875 Q-5.0938 10.625 -4.7188 9.8906 Q-4.3438 9.1562 -4.3438 8.4375 Q-4.3438 7.2812 -5.1562 6.5469 Q-5.9688 5.8125 -7.2812 5.8125 Q-8.2031 5.8125 -9.2344 6.1328 Q-10.2656 6.4531 -11.4375 7.1094 L-11.4375 5.125 Q-10.25 4.6406 -9.2109 4.3984 Q-8.1719 4.1562 -7.3125 4.1562 Q-5.0469 4.1562 -3.7031 5.2891 Q-2.3594 6.4219 -2.3594 8.3125 Q-2.3594 9.2188 -2.6953 10.0234 Q-3.0312 10.8281 -3.9219 11.9219 Q-4.1562 12.2031 -5.4688 13.5547 Q-6.7812 14.9062 -9.1562 17.3438 ZM6.084 5.7188 Q4.5527 5.7188 3.7871 7.2188 Q3.0215 8.7188 3.0215 11.7188 Q3.0215 14.7188 3.7871 16.2188 Q4.5527 17.7188 6.084 17.7188 Q7.6152 17.7188 8.3809 16.2188 Q9.1465 14.7188 9.1465 11.7188 Q9.1465 8.7188 8.3809 7.2188 Q7.6152 5.7188 6.084 5.7188 ZM6.084 4.1562 Q8.5371 4.1562 9.8262 6.0938 Q11.1152 8.0312 11.1152 11.7188 Q11.1152 15.4062 9.8262 17.3438 Q8.5371 19.2812 6.084 19.2812 Q3.6309 19.2812 2.334 17.3438 Q1.0371 15.4062 1.0371 11.7188 Q1.0371 8.0312 2.334 6.0938 Q3.6309 4.1562 6.084 4.1562 Z"
    /></g
    ><g transform="translate(1831,1726.9998)" style="font-size:20px; fill:rgb(38,38,38); text-rendering:geometricPrecision; image-rendering:optimizeQuality; color-rendering:optimizeQuality; font-family:'SansSerif'; stroke:rgb(38,38,38); color-interpolation:linearRGB;"
    ><path style="stroke:none;" d="M-9.1562 17.3438 L-2.2812 17.3438 L-2.2812 19 L-11.5312 19 L-11.5312 17.3438 Q-10.4062 16.1719 -8.4688 14.2188 Q-6.5312 12.2656 -6.0312 11.6875 Q-5.0938 10.625 -4.7188 9.8906 Q-4.3438 9.1562 -4.3438 8.4375 Q-4.3438 7.2812 -5.1562 6.5469 Q-5.9688 5.8125 -7.2812 5.8125 Q-8.2031 5.8125 -9.2344 6.1328 Q-10.2656 6.4531 -11.4375 7.1094 L-11.4375 5.125 Q-10.25 4.6406 -9.2109 4.3984 Q-8.1719 4.1562 -7.3125 4.1562 Q-5.0469 4.1562 -3.7031 5.2891 Q-2.3594 6.4219 -2.3594 8.3125 Q-2.3594 9.2188 -2.6953 10.0234 Q-3.0312 10.8281 -3.9219 11.9219 Q-4.1562 12.2031 -5.4688 13.5547 Q-6.7812 14.9062 -9.1562 17.3438 ZM1.8809 4.4219 L9.6309 4.4219 L9.6309 6.0781 L3.6934 6.0781 L3.6934 9.6562 Q4.1152 9.5 4.5449 9.4297 Q4.9746 9.3594 5.4121 9.3594 Q7.8496 9.3594 9.2793 10.6953 Q10.709 12.0312 10.709 14.3281 Q10.709 16.6719 9.2402 17.9766 Q7.7715 19.2812 5.0996 19.2812 Q4.1934 19.2812 3.2402 19.125 Q2.2871 18.9688 1.2715 18.6562 L1.2715 16.6719 Q2.1465 17.1562 3.084 17.3906 Q4.0215 17.625 5.0684 17.625 Q6.7559 17.625 7.7402 16.7344 Q8.7246 15.8438 8.7246 14.3281 Q8.7246 12.7969 7.7402 11.9062 Q6.7559 11.0156 5.0684 11.0156 Q4.2715 11.0156 3.4902 11.1953 Q2.709 11.375 1.8809 11.75 L1.8809 4.4219 Z"
    /></g
    ><g transform="translate(2101.2,1726.9998)" style="font-size:20px; fill:rgb(38,38,38); text-rendering:geometricPrecision; image-rendering:optimizeQuality; color-rendering:optimizeQuality; font-family:'SansSerif'; stroke:rgb(38,38,38); color-interpolation:linearRGB;"
    ><path style="stroke:none;" d="M-4.8906 11.1406 Q-3.4688 11.4375 -2.6719 12.3984 Q-1.875 13.3594 -1.875 14.7656 Q-1.875 16.9219 -3.3594 18.1016 Q-4.8438 19.2812 -7.5781 19.2812 Q-8.5 19.2812 -9.4688 19.1016 Q-10.4375 18.9219 -11.4688 18.5625 L-11.4688 16.6562 Q-10.6562 17.1406 -9.6797 17.3828 Q-8.7031 17.625 -7.6406 17.625 Q-5.7812 17.625 -4.8125 16.8906 Q-3.8438 16.1562 -3.8438 14.7656 Q-3.8438 13.4688 -4.7422 12.7422 Q-5.6406 12.0156 -7.25 12.0156 L-8.9531 12.0156 L-8.9531 10.3906 L-7.1719 10.3906 Q-5.7188 10.3906 -4.9531 9.8125 Q-4.1875 9.2344 -4.1875 8.1406 Q-4.1875 7.0156 -4.9766 6.4141 Q-5.7656 5.8125 -7.25 5.8125 Q-8.0625 5.8125 -8.9922 5.9922 Q-9.9219 6.1719 -11.0312 6.5312 L-11.0312 4.7812 Q-9.9062 4.4688 -8.9297 4.3125 Q-7.9531 4.1562 -7.0781 4.1562 Q-4.8281 4.1562 -3.5234 5.1797 Q-2.2188 6.2031 -2.2188 7.9375 Q-2.2188 9.1406 -2.9141 9.9766 Q-3.6094 10.8125 -4.8906 11.1406 ZM6.084 5.7188 Q4.5527 5.7188 3.7871 7.2188 Q3.0215 8.7188 3.0215 11.7188 Q3.0215 14.7188 3.7871 16.2188 Q4.5527 17.7188 6.084 17.7188 Q7.6152 17.7188 8.3809 16.2188 Q9.1465 14.7188 9.1465 11.7188 Q9.1465 8.7188 8.3809 7.2188 Q7.6152 5.7188 6.084 5.7188 ZM6.084 4.1562 Q8.5371 4.1562 9.8262 6.0938 Q11.1152 8.0312 11.1152 11.7188 Q11.1152 15.4062 9.8262 17.3438 Q8.5371 19.2812 6.084 19.2812 Q3.6309 19.2812 2.334 17.3438 Q1.0371 15.4062 1.0371 11.7188 Q1.0371 8.0312 2.334 6.0938 Q3.6309 4.1562 6.084 4.1562 Z"
    /></g
    ><g transform="translate(2371.3999,1726.9998)" style="font-size:20px; fill:rgb(38,38,38); text-rendering:geometricPrecision; image-rendering:optimizeQuality; color-rendering:optimizeQuality; font-family:'SansSerif'; stroke:rgb(38,38,38); color-interpolation:linearRGB;"
    ><path style="stroke:none;" d="M-4.8906 11.1406 Q-3.4688 11.4375 -2.6719 12.3984 Q-1.875 13.3594 -1.875 14.7656 Q-1.875 16.9219 -3.3594 18.1016 Q-4.8438 19.2812 -7.5781 19.2812 Q-8.5 19.2812 -9.4688 19.1016 Q-10.4375 18.9219 -11.4688 18.5625 L-11.4688 16.6562 Q-10.6562 17.1406 -9.6797 17.3828 Q-8.7031 17.625 -7.6406 17.625 Q-5.7812 17.625 -4.8125 16.8906 Q-3.8438 16.1562 -3.8438 14.7656 Q-3.8438 13.4688 -4.7422 12.7422 Q-5.6406 12.0156 -7.25 12.0156 L-8.9531 12.0156 L-8.9531 10.3906 L-7.1719 10.3906 Q-5.7188 10.3906 -4.9531 9.8125 Q-4.1875 9.2344 -4.1875 8.1406 Q-4.1875 7.0156 -4.9766 6.4141 Q-5.7656 5.8125 -7.25 5.8125 Q-8.0625 5.8125 -8.9922 5.9922 Q-9.9219 6.1719 -11.0312 6.5312 L-11.0312 4.7812 Q-9.9062 4.4688 -8.9297 4.3125 Q-7.9531 4.1562 -7.0781 4.1562 Q-4.8281 4.1562 -3.5234 5.1797 Q-2.2188 6.2031 -2.2188 7.9375 Q-2.2188 9.1406 -2.9141 9.9766 Q-3.6094 10.8125 -4.8906 11.1406 ZM1.8809 4.4219 L9.6309 4.4219 L9.6309 6.0781 L3.6934 6.0781 L3.6934 9.6562 Q4.1152 9.5 4.5449 9.4297 Q4.9746 9.3594 5.4121 9.3594 Q7.8496 9.3594 9.2793 10.6953 Q10.709 12.0312 10.709 14.3281 Q10.709 16.6719 9.2402 17.9766 Q7.7715 19.2812 5.0996 19.2812 Q4.1934 19.2812 3.2402 19.125 Q2.2871 18.9688 1.2715 18.6562 L1.2715 16.6719 Q2.1465 17.1562 3.084 17.3906 Q4.0215 17.625 5.0684 17.625 Q6.7559 17.625 7.7402 16.7344 Q8.7246 15.8438 8.7246 14.3281 Q8.7246 12.7969 7.7402 11.9062 Q6.7559 11.0156 5.0684 11.0156 Q4.2715 11.0156 3.4902 11.1953 Q2.709 11.375 1.8809 11.75 L1.8809 4.4219 Z"
    /></g
    ><g transform="translate(2641.6001,1726.9998)" style="font-size:20px; fill:rgb(38,38,38); text-rendering:geometricPrecision; image-rendering:optimizeQuality; color-rendering:optimizeQuality; font-family:'SansSerif'; stroke:rgb(38,38,38); color-interpolation:linearRGB;"
    ><path style="stroke:none;" d="M-5.4375 6.1406 L-10.4219 13.9219 L-5.4375 13.9219 L-5.4375 6.1406 ZM-5.9531 4.4219 L-3.4844 4.4219 L-3.4844 13.9219 L-1.3906 13.9219 L-1.3906 15.5625 L-3.4844 15.5625 L-3.4844 19 L-5.4375 19 L-5.4375 15.5625 L-12.0156 15.5625 L-12.0156 13.6562 L-5.9531 4.4219 ZM6.084 5.7188 Q4.5527 5.7188 3.7871 7.2188 Q3.0215 8.7188 3.0215 11.7188 Q3.0215 14.7188 3.7871 16.2188 Q4.5527 17.7188 6.084 17.7188 Q7.6152 17.7188 8.3809 16.2188 Q9.1465 14.7188 9.1465 11.7188 Q9.1465 8.7188 8.3809 7.2188 Q7.6152 5.7188 6.084 5.7188 ZM6.084 4.1562 Q8.5371 4.1562 9.8262 6.0938 Q11.1152 8.0312 11.1152 11.7188 Q11.1152 15.4062 9.8262 17.3438 Q8.5371 19.2812 6.084 19.2812 Q3.6309 19.2812 2.334 17.3438 Q1.0371 15.4062 1.0371 11.7188 Q1.0371 8.0312 2.334 6.0938 Q3.6309 4.1562 6.084 4.1562 Z"
    /></g
    ><g transform="translate(2911.8,1726.9998)" style="font-size:20px; fill:rgb(38,38,38); text-rendering:geometricPrecision; image-rendering:optimizeQuality; color-rendering:optimizeQuality; font-family:'SansSerif'; stroke:rgb(38,38,38); color-interpolation:linearRGB;"
    ><path style="stroke:none;" d="M-5.4375 6.1406 L-10.4219 13.9219 L-5.4375 13.9219 L-5.4375 6.1406 ZM-5.9531 4.4219 L-3.4844 4.4219 L-3.4844 13.9219 L-1.3906 13.9219 L-1.3906 15.5625 L-3.4844 15.5625 L-3.4844 19 L-5.4375 19 L-5.4375 15.5625 L-12.0156 15.5625 L-12.0156 13.6562 L-5.9531 4.4219 ZM1.8809 4.4219 L9.6309 4.4219 L9.6309 6.0781 L3.6934 6.0781 L3.6934 9.6562 Q4.1152 9.5 4.5449 9.4297 Q4.9746 9.3594 5.4121 9.3594 Q7.8496 9.3594 9.2793 10.6953 Q10.709 12.0312 10.709 14.3281 Q10.709 16.6719 9.2402 17.9766 Q7.7715 19.2812 5.0996 19.2812 Q4.1934 19.2812 3.2402 19.125 Q2.2871 18.9688 1.2715 18.6562 L1.2715 16.6719 Q2.1465 17.1562 3.084 17.3906 Q4.0215 17.625 5.0684 17.625 Q6.7559 17.625 7.7402 16.7344 Q8.7246 15.8438 8.7246 14.3281 Q8.7246 12.7969 7.7402 11.9062 Q6.7559 11.0156 5.0684 11.0156 Q4.2715 11.0156 3.4902 11.1953 Q2.709 11.375 1.8809 11.75 L1.8809 4.4219 Z"
    /></g
    ><g transform="translate(3182,1726.9998)" style="font-size:20px; fill:rgb(38,38,38); text-rendering:geometricPrecision; image-rendering:optimizeQuality; color-rendering:optimizeQuality; font-family:'SansSerif'; stroke:rgb(38,38,38); color-interpolation:linearRGB;"
    ><path style="stroke:none;" d="M-10.8438 4.4219 L-3.0938 4.4219 L-3.0938 6.0781 L-9.0312 6.0781 L-9.0312 9.6562 Q-8.6094 9.5 -8.1797 9.4297 Q-7.75 9.3594 -7.3125 9.3594 Q-4.875 9.3594 -3.4453 10.6953 Q-2.0156 12.0312 -2.0156 14.3281 Q-2.0156 16.6719 -3.4844 17.9766 Q-4.9531 19.2812 -7.625 19.2812 Q-8.5312 19.2812 -9.4844 19.125 Q-10.4375 18.9688 -11.4531 18.6562 L-11.4531 16.6719 Q-10.5781 17.1562 -9.6406 17.3906 Q-8.7031 17.625 -7.6562 17.625 Q-5.9688 17.625 -4.9844 16.7344 Q-4 15.8438 -4 14.3281 Q-4 12.7969 -4.9844 11.9062 Q-5.9688 11.0156 -7.6562 11.0156 Q-8.4531 11.0156 -9.2344 11.1953 Q-10.0156 11.375 -10.8438 11.75 L-10.8438 4.4219 ZM6.084 5.7188 Q4.5527 5.7188 3.7871 7.2188 Q3.0215 8.7188 3.0215 11.7188 Q3.0215 14.7188 3.7871 16.2188 Q4.5527 17.7188 6.084 17.7188 Q7.6152 17.7188 8.3809 16.2188 Q9.1465 14.7188 9.1465 11.7188 Q9.1465 8.7188 8.3809 7.2188 Q7.6152 5.7188 6.084 5.7188 ZM6.084 4.1562 Q8.5371 4.1562 9.8262 6.0938 Q11.1152 8.0312 11.1152 11.7188 Q11.1152 15.4062 9.8262 17.3438 Q8.5371 19.2812 6.084 19.2812 Q3.6309 19.2812 2.334 17.3438 Q1.0371 15.4062 1.0371 11.7188 Q1.0371 8.0312 2.334 6.0938 Q3.6309 4.1562 6.084 4.1562 Z"
    /></g
    ><g transform="translate(1831.0013,1753.0001)" style="font-size:24px; fill:rgb(38,38,38); text-rendering:geometricPrecision; image-rendering:optimizeQuality; color-rendering:optimizeQuality; font-family:'Ubuntu'; stroke:rgb(38,38,38); color-interpolation:linearRGB;"
    ><path style="stroke:none;" d="M-21.125 6.375 Q-21.875 7.1875 -22.8047 8.1797 Q-23.7344 9.1719 -24.7578 10.2188 Q-25.7812 11.2656 -26.7891 12.2734 Q-27.7969 13.2812 -28.6875 14.1406 Q-27.6562 14.8594 -26.5 15.9141 Q-25.3438 16.9688 -24.2422 18.1719 Q-23.1406 19.375 -22.1719 20.625 Q-21.2031 21.875 -20.5469 23 L-23.2812 23 Q-24 21.875 -24.9375 20.7344 Q-25.875 19.5938 -26.9219 18.5469 Q-27.9688 17.5 -29.0312 16.6172 Q-30.0938 15.7344 -31.1094 15.1094 L-31.1094 23 L-33.4375 23 L-33.4375 6.375 L-31.1094 6.375 L-31.1094 13.7188 Q-30.2656 12.9219 -29.2578 11.9219 Q-28.25 10.9219 -27.2656 9.9141 Q-26.2812 8.9062 -25.4062 7.9844 Q-24.5312 7.0625 -23.9375 6.375 L-21.125 6.375 ZM-14.2717 21.3906 Q-13.4748 21.3906 -12.8654 21.3516 Q-12.256 21.3125 -11.8498 21.2188 L-11.8498 17.5 Q-12.0842 17.3906 -12.6232 17.3047 Q-13.1623 17.2188 -13.9279 17.2188 Q-14.4435 17.2188 -15.006 17.2891 Q-15.5685 17.3594 -16.0373 17.5859 Q-16.506 17.8125 -16.8185 18.2109 Q-17.131 18.6094 -17.131 19.25 Q-17.131 20.4531 -16.3576 20.9219 Q-15.5842 21.3906 -14.2717 21.3906 ZM-14.4592 10.2031 Q-13.1154 10.2031 -12.1935 10.5547 Q-11.2717 10.9062 -10.7092 11.5391 Q-10.1467 12.1719 -9.9045 13.0469 Q-9.6623 13.9219 -9.6623 14.9844 L-9.6623 22.7812 Q-9.9435 22.8281 -10.4592 22.9141 Q-10.9748 23 -11.6232 23.0703 Q-12.2717 23.1406 -13.0295 23.2031 Q-13.7873 23.2656 -14.5373 23.2656 Q-15.5842 23.2656 -16.4748 23.0469 Q-17.3654 22.8281 -18.0139 22.3594 Q-18.6623 21.8906 -19.0217 21.125 Q-19.381 20.3594 -19.381 19.2812 Q-19.381 18.25 -18.9592 17.5078 Q-18.5373 16.7656 -17.8185 16.3047 Q-17.0998 15.8438 -16.1389 15.6328 Q-15.1779 15.4219 -14.131 15.4219 Q-13.7873 15.4219 -13.4279 15.4531 Q-13.0685 15.4844 -12.7482 15.5469 Q-12.4279 15.6094 -12.1857 15.6562 Q-11.9435 15.7031 -11.8498 15.7344 L-11.8498 15.1094 Q-11.8498 14.5469 -11.967 14.0078 Q-12.0842 13.4688 -12.3967 13.0469 Q-12.7092 12.625 -13.2482 12.375 Q-13.7873 12.125 -14.6467 12.125 Q-15.756 12.125 -16.5842 12.2812 Q-17.4123 12.4375 -17.8185 12.6094 L-18.0842 10.7656 Q-17.6467 10.5625 -16.6389 10.3828 Q-15.631 10.2031 -14.4592 10.2031 ZM-1.3599 10.25 Q-1.0787 10.25 -0.7037 10.2891 Q-0.3287 10.3281 0.0307 10.3906 Q0.3901 10.4531 0.687 10.5078 Q0.9838 10.5625 1.1401 10.6094 L0.7495 12.5625 Q0.4838 12.4688 -0.1255 12.3359 Q-0.7349 12.2031 -1.7037 12.2031 Q-2.3287 12.2031 -2.938 12.3359 Q-3.5474 12.4688 -3.7349 12.5156 L-3.7349 23 L-5.9693 23 L-5.9693 11.0469 Q-5.1724 10.7656 -4.0005 10.5078 Q-2.8287 10.25 -1.3599 10.25 ZM3.2896 10.875 Q4.0552 10.6875 5.313 10.4688 Q6.5709 10.25 8.2271 10.25 Q9.4302 10.25 10.2505 10.5781 Q11.0709 10.9062 11.6177 11.5312 Q11.7896 11.4062 12.149 11.1875 Q12.5084 10.9688 13.0318 10.7656 Q13.5552 10.5625 14.2037 10.4062 Q14.8521 10.25 15.6021 10.25 Q17.0396 10.25 17.9537 10.6719 Q18.8677 11.0938 19.3834 11.8594 Q19.899 12.625 20.0787 13.6875 Q20.2584 14.75 20.2584 15.9844 L20.2584 23 L18.024 23 L18.024 16.4688 Q18.024 15.375 17.9146 14.5781 Q17.8052 13.7812 17.5084 13.2578 Q17.2115 12.7344 16.6959 12.4766 Q16.1802 12.2188 15.3521 12.2188 Q14.2271 12.2188 13.5005 12.5234 Q12.774 12.8281 12.5084 13.0625 Q12.6959 13.6875 12.7896 14.4297 Q12.8834 15.1719 12.8834 15.9844 L12.8834 23 L10.649 23 L10.649 16.4688 Q10.649 15.375 10.5318 14.5781 Q10.4146 13.7812 10.1177 13.2578 Q9.8209 12.7344 9.3052 12.4766 Q8.7896 12.2188 7.9927 12.2188 Q7.649 12.2188 7.2662 12.2422 Q6.8834 12.2656 6.5396 12.3047 Q6.1959 12.3438 5.9068 12.3906 Q5.6177 12.4375 5.524 12.4688 L5.524 23 L3.2896 23 L3.2896 10.875 ZM28.161 21.3906 Q28.9579 21.3906 29.5673 21.3516 Q30.1766 21.3125 30.5829 21.2188 L30.5829 17.5 Q30.3485 17.3906 29.8094 17.3047 Q29.2704 17.2188 28.5048 17.2188 Q27.9891 17.2188 27.4266 17.2891 Q26.8641 17.3594 26.3954 17.5859 Q25.9266 17.8125 25.6141 18.2109 Q25.3016 18.6094 25.3016 19.25 Q25.3016 20.4531 26.0751 20.9219 Q26.8485 21.3906 28.161 21.3906 ZM27.9735 10.2031 Q29.3173 10.2031 30.2391 10.5547 Q31.161 10.9062 31.7235 11.5391 Q32.286 12.1719 32.5282 13.0469 Q32.7704 13.9219 32.7704 14.9844 L32.7704 22.7812 Q32.4891 22.8281 31.9735 22.9141 Q31.4579 23 30.8094 23.0703 Q30.161 23.1406 29.4032 23.2031 Q28.6454 23.2656 27.8954 23.2656 Q26.8485 23.2656 25.9579 23.0469 Q25.0673 22.8281 24.4188 22.3594 Q23.7704 21.8906 23.411 21.125 Q23.0516 20.3594 23.0516 19.2812 Q23.0516 18.25 23.4735 17.5078 Q23.8954 16.7656 24.6141 16.3047 Q25.3329 15.8438 26.2938 15.6328 Q27.2548 15.4219 28.3016 15.4219 Q28.6454 15.4219 29.0048 15.4531 Q29.3641 15.4844 29.6844 15.5469 Q30.0048 15.6094 30.2469 15.6562 Q30.4891 15.7031 30.5829 15.7344 L30.5829 15.1094 Q30.5829 14.5469 30.4657 14.0078 Q30.3485 13.4688 30.036 13.0469 Q29.7235 12.625 29.1844 12.375 Q28.6454 12.125 27.786 12.125 Q26.6766 12.125 25.8485 12.2812 Q25.0204 12.4375 24.6141 12.6094 L24.3485 10.7656 Q24.786 10.5625 25.7938 10.3828 Q26.8016 10.2031 27.9735 10.2031 Z"
    /></g
    ><g style="fill:rgb(38,38,38); text-rendering:geometricPrecision; color-rendering:optimizeQuality; image-rendering:optimizeQuality; stroke-linejoin:round; stroke:rgb(38,38,38); color-interpolation:linearRGB;"
    ><line y2="144.9999" style="fill:none;" x1="480" x2="480" y1="1719"
      /><line y2="1689.1783" style="fill:none;" x1="480" x2="507.02" y1="1689.1783"
      /><line y2="1496.5349" style="fill:none;" x1="480" x2="507.02" y1="1496.5349"
      /><line y2="1303.8915" style="fill:none;" x1="480" x2="507.02" y1="1303.8915"
      /><line y2="1111.248" style="fill:none;" x1="480" x2="507.02" y1="1111.248"
      /><line y2="918.6047" style="fill:none;" x1="480" x2="507.02" y1="918.6047"
      /><line y2="725.9613" style="fill:none;" x1="480" x2="507.02" y1="725.9613"
      /><line y2="533.3179" style="fill:none;" x1="480" x2="507.02" y1="533.3179"
      /><line y2="340.6745" style="fill:none;" x1="480" x2="507.02" y1="340.6745"
      /><line y2="148.0311" style="fill:none;" x1="480" x2="507.02" y1="148.0311"
    /></g
    ><g transform="translate(472,1689.1783)" style="font-size:20px; fill:rgb(38,38,38); text-rendering:geometricPrecision; image-rendering:optimizeQuality; color-rendering:optimizeQuality; font-family:'SansSerif'; stroke:rgb(38,38,38); color-interpolation:linearRGB;"
    ><path style="stroke:none;" d="M-32.0156 0.7188 L-26.7656 0.7188 L-26.7656 2.3281 L-32.0156 2.3281 L-32.0156 0.7188 ZM-23.2988 5.3438 L-20.0801 5.3438 L-20.0801 -5.7812 L-23.5801 -5.0781 L-23.5801 -6.875 L-20.0957 -7.5781 L-18.127 -7.5781 L-18.127 5.3438 L-14.9082 5.3438 L-14.9082 7 L-23.2988 7 L-23.2988 5.3438 ZM-10.5742 5.3438 L-7.3555 5.3438 L-7.3555 -5.7812 L-10.8555 -5.0781 L-10.8555 -6.875 L-7.3711 -7.5781 L-5.4023 -7.5781 L-5.4023 5.3438 L-2.1836 5.3438 L-2.1836 7 L-10.5742 7 L-10.5742 5.3438 Z"
    /></g
    ><g transform="translate(472,1496.5349)" style="font-size:20px; fill:rgb(38,38,38); text-rendering:geometricPrecision; image-rendering:optimizeQuality; color-rendering:optimizeQuality; font-family:'SansSerif'; stroke:rgb(38,38,38); color-interpolation:linearRGB;"
    ><path style="stroke:none;" d="M-51.0156 0.7188 L-45.7656 0.7188 L-45.7656 2.3281 L-51.0156 2.3281 L-51.0156 0.7188 ZM-42.2988 5.3438 L-39.0801 5.3438 L-39.0801 -5.7812 L-42.5801 -5.0781 L-42.5801 -6.875 L-39.0957 -7.5781 L-37.127 -7.5781 L-37.127 5.3438 L-33.9082 5.3438 L-33.9082 7 L-42.2988 7 L-42.2988 5.3438 ZM-25.6992 -6.2812 Q-27.2305 -6.2812 -27.9961 -4.7812 Q-28.7617 -3.2812 -28.7617 -0.2812 Q-28.7617 2.7188 -27.9961 4.2188 Q-27.2305 5.7188 -25.6992 5.7188 Q-24.168 5.7188 -23.4023 4.2188 Q-22.6367 2.7188 -22.6367 -0.2812 Q-22.6367 -3.2812 -23.4023 -4.7812 Q-24.168 -6.2812 -25.6992 -6.2812 ZM-25.6992 -7.8438 Q-23.2461 -7.8438 -21.957 -5.9062 Q-20.668 -3.9688 -20.668 -0.2812 Q-20.668 3.4062 -21.957 5.3438 Q-23.2461 7.2812 -25.6992 7.2812 Q-28.1523 7.2812 -29.4492 5.3438 Q-30.7461 3.4062 -30.7461 -0.2812 Q-30.7461 -3.9688 -29.4492 -5.9062 Q-28.1523 -7.8438 -25.6992 -7.8438 ZM-17.1934 4.5156 L-15.1309 4.5156 L-15.1309 7 L-17.1934 7 L-17.1934 4.5156 ZM-10.8203 -7.5781 L-3.0703 -7.5781 L-3.0703 -5.9219 L-9.0078 -5.9219 L-9.0078 -2.3438 Q-8.5859 -2.5 -8.1562 -2.5703 Q-7.7266 -2.6406 -7.2891 -2.6406 Q-4.8516 -2.6406 -3.4219 -1.3047 Q-1.9922 0.0312 -1.9922 2.3281 Q-1.9922 4.6719 -3.4609 5.9766 Q-4.9297 7.2812 -7.6016 7.2812 Q-8.5078 7.2812 -9.4609 7.125 Q-10.4141 6.9688 -11.4297 6.6562 L-11.4297 4.6719 Q-10.5547 5.1562 -9.6172 5.3906 Q-8.6797 5.625 -7.6328 5.625 Q-5.9453 5.625 -4.9609 4.7344 Q-3.9766 3.8438 -3.9766 2.3281 Q-3.9766 0.7969 -4.9609 -0.0938 Q-5.9453 -0.9844 -7.6328 -0.9844 Q-8.4297 -0.9844 -9.2109 -0.8047 Q-9.9922 -0.625 -10.8203 -0.25 L-10.8203 -7.5781 Z"
    /></g
    ><g transform="translate(472,1303.8915)" style="font-size:20px; fill:rgb(38,38,38); text-rendering:geometricPrecision; image-rendering:optimizeQuality; color-rendering:optimizeQuality; font-family:'SansSerif'; stroke:rgb(38,38,38); color-interpolation:linearRGB;"
    ><path style="stroke:none;" d="M-32.0156 0.7188 L-26.7656 0.7188 L-26.7656 2.3281 L-32.0156 2.3281 L-32.0156 0.7188 ZM-23.2988 5.3438 L-20.0801 5.3438 L-20.0801 -5.7812 L-23.5801 -5.0781 L-23.5801 -6.875 L-20.0957 -7.5781 L-18.127 -7.5781 L-18.127 5.3438 L-14.9082 5.3438 L-14.9082 7 L-23.2988 7 L-23.2988 5.3438 ZM-6.6992 -6.2812 Q-8.2305 -6.2812 -8.9961 -4.7812 Q-9.7617 -3.2812 -9.7617 -0.2812 Q-9.7617 2.7188 -8.9961 4.2188 Q-8.2305 5.7188 -6.6992 5.7188 Q-5.168 5.7188 -4.4023 4.2188 Q-3.6367 2.7188 -3.6367 -0.2812 Q-3.6367 -3.2812 -4.4023 -4.7812 Q-5.168 -6.2812 -6.6992 -6.2812 ZM-6.6992 -7.8438 Q-4.2461 -7.8438 -2.957 -5.9062 Q-1.668 -3.9688 -1.668 -0.2812 Q-1.668 3.4062 -2.957 5.3438 Q-4.2461 7.2812 -6.6992 7.2812 Q-9.1523 7.2812 -10.4492 5.3438 Q-11.7461 3.4062 -11.7461 -0.2812 Q-11.7461 -3.9688 -10.4492 -5.9062 Q-9.1523 -7.8438 -6.6992 -7.8438 Z"
    /></g
    ><g transform="translate(472,1111.248)" style="font-size:20px; fill:rgb(38,38,38); text-rendering:geometricPrecision; image-rendering:optimizeQuality; color-rendering:optimizeQuality; font-family:'SansSerif'; stroke:rgb(38,38,38); color-interpolation:linearRGB;"
    ><path style="stroke:none;" d="M-39.0156 0.7188 L-33.7656 0.7188 L-33.7656 2.3281 L-39.0156 2.3281 L-39.0156 0.7188 ZM-30.5801 6.7031 L-30.5801 4.9062 Q-29.8457 5.25 -29.0801 5.4375 Q-28.3145 5.625 -27.5801 5.625 Q-25.627 5.625 -24.6035 4.3125 Q-23.5801 3 -23.4238 0.3125 Q-23.9863 1.1562 -24.8613 1.6094 Q-25.7363 2.0625 -26.7832 2.0625 Q-28.9707 2.0625 -30.2441 0.7344 Q-31.5176 -0.5938 -31.5176 -2.8906 Q-31.5176 -5.125 -30.1895 -6.4844 Q-28.8613 -7.8438 -26.6582 -7.8438 Q-24.127 -7.8438 -22.7988 -5.9062 Q-21.4707 -3.9688 -21.4707 -0.2812 Q-21.4707 3.1719 -23.1035 5.2266 Q-24.7363 7.2812 -27.502 7.2812 Q-28.2363 7.2812 -29.002 7.1328 Q-29.7676 6.9844 -30.5801 6.7031 ZM-26.6582 0.5156 Q-25.3301 0.5156 -24.5566 -0.3906 Q-23.7832 -1.2969 -23.7832 -2.8906 Q-23.7832 -4.4531 -24.5566 -5.3672 Q-25.3301 -6.2812 -26.6582 -6.2812 Q-27.9863 -6.2812 -28.7598 -5.3672 Q-29.5332 -4.4531 -29.5332 -2.8906 Q-29.5332 -1.2969 -28.7598 -0.3906 Q-27.9863 0.5156 -26.6582 0.5156 ZM-17.918 4.5156 L-15.8555 4.5156 L-15.8555 7 L-17.918 7 L-17.918 4.5156 ZM-11.5449 -7.5781 L-3.7949 -7.5781 L-3.7949 -5.9219 L-9.7324 -5.9219 L-9.7324 -2.3438 Q-9.3105 -2.5 -8.8809 -2.5703 Q-8.4512 -2.6406 -8.0137 -2.6406 Q-5.5762 -2.6406 -4.1465 -1.3047 Q-2.7168 0.0312 -2.7168 2.3281 Q-2.7168 4.6719 -4.1855 5.9766 Q-5.6543 7.2812 -8.3262 7.2812 Q-9.2324 7.2812 -10.1855 7.125 Q-11.1387 6.9688 -12.1543 6.6562 L-12.1543 4.6719 Q-11.2793 5.1562 -10.3418 5.3906 Q-9.4043 5.625 -8.3574 5.625 Q-6.6699 5.625 -5.6855 4.7344 Q-4.7012 3.8438 -4.7012 2.3281 Q-4.7012 0.7969 -5.6855 -0.0938 Q-6.6699 -0.9844 -8.3574 -0.9844 Q-9.1543 -0.9844 -9.9355 -0.8047 Q-10.7168 -0.625 -11.5449 -0.25 L-11.5449 -7.5781 Z"
    /></g
    ><g transform="translate(472,918.6047)" style="font-size:20px; fill:rgb(38,38,38); text-rendering:geometricPrecision; image-rendering:optimizeQuality; color-rendering:optimizeQuality; font-family:'SansSerif'; stroke:rgb(38,38,38); color-interpolation:linearRGB;"
    ><path style="stroke:none;" d="M-19.0156 0.7188 L-13.7656 0.7188 L-13.7656 2.3281 L-19.0156 2.3281 L-19.0156 0.7188 ZM-10.5801 6.7031 L-10.5801 4.9062 Q-9.8457 5.25 -9.0801 5.4375 Q-8.3145 5.625 -7.5801 5.625 Q-5.627 5.625 -4.6035 4.3125 Q-3.5801 3 -3.4238 0.3125 Q-3.9863 1.1562 -4.8613 1.6094 Q-5.7363 2.0625 -6.7832 2.0625 Q-8.9707 2.0625 -10.2441 0.7344 Q-11.5176 -0.5938 -11.5176 -2.8906 Q-11.5176 -5.125 -10.1895 -6.4844 Q-8.8613 -7.8438 -6.6582 -7.8438 Q-4.127 -7.8438 -2.7988 -5.9062 Q-1.4707 -3.9688 -1.4707 -0.2812 Q-1.4707 3.1719 -3.1035 5.2266 Q-4.7363 7.2812 -7.502 7.2812 Q-8.2363 7.2812 -9.002 7.1328 Q-9.7676 6.9844 -10.5801 6.7031 ZM-6.6582 0.5156 Q-5.3301 0.5156 -4.5566 -0.3906 Q-3.7832 -1.2969 -3.7832 -2.8906 Q-3.7832 -4.4531 -4.5566 -5.3672 Q-5.3301 -6.2812 -6.6582 -6.2812 Q-7.9863 -6.2812 -8.7598 -5.3672 Q-9.5332 -4.4531 -9.5332 -2.8906 Q-9.5332 -1.2969 -8.7598 -0.3906 Q-7.9863 0.5156 -6.6582 0.5156 Z"
    /></g
    ><g transform="translate(472,725.9613)" style="font-size:20px; fill:rgb(38,38,38); text-rendering:geometricPrecision; image-rendering:optimizeQuality; color-rendering:optimizeQuality; font-family:'SansSerif'; stroke:rgb(38,38,38); color-interpolation:linearRGB;"
    ><path style="stroke:none;" d="M-39.0156 0.7188 L-33.7656 0.7188 L-33.7656 2.3281 L-39.0156 2.3281 L-39.0156 0.7188 ZM-26.4238 0.0781 Q-27.8301 0.0781 -28.6348 0.8281 Q-29.4395 1.5781 -29.4395 2.8906 Q-29.4395 4.2188 -28.6348 4.9688 Q-27.8301 5.7188 -26.4238 5.7188 Q-25.0176 5.7188 -24.2051 4.9609 Q-23.3926 4.2031 -23.3926 2.8906 Q-23.3926 1.5781 -24.1973 0.8281 Q-25.002 0.0781 -26.4238 0.0781 ZM-28.3926 -0.7656 Q-29.6738 -1.0781 -30.377 -1.9453 Q-31.0801 -2.8125 -31.0801 -4.0625 Q-31.0801 -5.8125 -29.8379 -6.8281 Q-28.5957 -7.8438 -26.4238 -7.8438 Q-24.252 -7.8438 -23.0098 -6.8281 Q-21.7676 -5.8125 -21.7676 -4.0625 Q-21.7676 -2.8125 -22.4785 -1.9453 Q-23.1895 -1.0781 -24.4395 -0.7656 Q-23.0176 -0.4375 -22.2207 0.5312 Q-21.4238 1.5 -21.4238 2.8906 Q-21.4238 5.0156 -22.7207 6.1484 Q-24.0176 7.2812 -26.4238 7.2812 Q-28.8301 7.2812 -30.127 6.1484 Q-31.4238 5.0156 -31.4238 2.8906 Q-31.4238 1.5 -30.627 0.5312 Q-29.8301 -0.4375 -28.3926 -0.7656 ZM-29.127 -3.875 Q-29.127 -2.75 -28.416 -2.1172 Q-27.7051 -1.4844 -26.4238 -1.4844 Q-25.1582 -1.4844 -24.4395 -2.1172 Q-23.7207 -2.75 -23.7207 -3.875 Q-23.7207 -5.0156 -24.4395 -5.6484 Q-25.1582 -6.2812 -26.4238 -6.2812 Q-27.7051 -6.2812 -28.416 -5.6484 Q-29.127 -5.0156 -29.127 -3.875 ZM-17.918 4.5156 L-15.8555 4.5156 L-15.8555 7 L-17.918 7 L-17.918 4.5156 ZM-11.5449 -7.5781 L-3.7949 -7.5781 L-3.7949 -5.9219 L-9.7324 -5.9219 L-9.7324 -2.3438 Q-9.3105 -2.5 -8.8809 -2.5703 Q-8.4512 -2.6406 -8.0137 -2.6406 Q-5.5762 -2.6406 -4.1465 -1.3047 Q-2.7168 0.0312 -2.7168 2.3281 Q-2.7168 4.6719 -4.1855 5.9766 Q-5.6543 7.2812 -8.3262 7.2812 Q-9.2324 7.2812 -10.1855 7.125 Q-11.1387 6.9688 -12.1543 6.6562 L-12.1543 4.6719 Q-11.2793 5.1562 -10.3418 5.3906 Q-9.4043 5.625 -8.3574 5.625 Q-6.6699 5.625 -5.6855 4.7344 Q-4.7012 3.8438 -4.7012 2.3281 Q-4.7012 0.7969 -5.6855 -0.0938 Q-6.6699 -0.9844 -8.3574 -0.9844 Q-9.1543 -0.9844 -9.9355 -0.8047 Q-10.7168 -0.625 -11.5449 -0.25 L-11.5449 -7.5781 Z"
    /></g
    ><g transform="translate(472,533.3179)" style="font-size:20px; fill:rgb(38,38,38); text-rendering:geometricPrecision; image-rendering:optimizeQuality; color-rendering:optimizeQuality; font-family:'SansSerif'; stroke:rgb(38,38,38); color-interpolation:linearRGB;"
    ><path style="stroke:none;" d="M-19.0156 0.7188 L-13.7656 0.7188 L-13.7656 2.3281 L-19.0156 2.3281 L-19.0156 0.7188 ZM-6.4238 0.0781 Q-7.8301 0.0781 -8.6348 0.8281 Q-9.4395 1.5781 -9.4395 2.8906 Q-9.4395 4.2188 -8.6348 4.9688 Q-7.8301 5.7188 -6.4238 5.7188 Q-5.0176 5.7188 -4.2051 4.9609 Q-3.3926 4.2031 -3.3926 2.8906 Q-3.3926 1.5781 -4.1973 0.8281 Q-5.002 0.0781 -6.4238 0.0781 ZM-8.3926 -0.7656 Q-9.6738 -1.0781 -10.377 -1.9453 Q-11.0801 -2.8125 -11.0801 -4.0625 Q-11.0801 -5.8125 -9.8379 -6.8281 Q-8.5957 -7.8438 -6.4238 -7.8438 Q-4.252 -7.8438 -3.0098 -6.8281 Q-1.7676 -5.8125 -1.7676 -4.0625 Q-1.7676 -2.8125 -2.4785 -1.9453 Q-3.1895 -1.0781 -4.4395 -0.7656 Q-3.0176 -0.4375 -2.2207 0.5312 Q-1.4238 1.5 -1.4238 2.8906 Q-1.4238 5.0156 -2.7207 6.1484 Q-4.0176 7.2812 -6.4238 7.2812 Q-8.8301 7.2812 -10.127 6.1484 Q-11.4238 5.0156 -11.4238 2.8906 Q-11.4238 1.5 -10.627 0.5312 Q-9.8301 -0.4375 -8.3926 -0.7656 ZM-9.127 -3.875 Q-9.127 -2.75 -8.416 -2.1172 Q-7.7051 -1.4844 -6.4238 -1.4844 Q-5.1582 -1.4844 -4.4395 -2.1172 Q-3.7207 -2.75 -3.7207 -3.875 Q-3.7207 -5.0156 -4.4395 -5.6484 Q-5.1582 -6.2812 -6.4238 -6.2812 Q-7.7051 -6.2812 -8.416 -5.6484 Q-9.127 -5.0156 -9.127 -3.875 Z"
    /></g
    ><g transform="translate(472,340.6745)" style="font-size:20px; fill:rgb(38,38,38); text-rendering:geometricPrecision; image-rendering:optimizeQuality; color-rendering:optimizeQuality; font-family:'SansSerif'; stroke:rgb(38,38,38); color-interpolation:linearRGB;"
    ><path style="stroke:none;" d="M-39.0156 0.7188 L-33.7656 0.7188 L-33.7656 2.3281 L-39.0156 2.3281 L-39.0156 0.7188 ZM-31.1426 -7.5781 L-21.7676 -7.5781 L-21.7676 -6.7344 L-27.0645 7 L-29.127 7 L-24.1426 -5.9219 L-31.1426 -5.9219 L-31.1426 -7.5781 ZM-17.918 4.5156 L-15.8555 4.5156 L-15.8555 7 L-17.918 7 L-17.918 4.5156 ZM-11.5449 -7.5781 L-3.7949 -7.5781 L-3.7949 -5.9219 L-9.7324 -5.9219 L-9.7324 -2.3438 Q-9.3105 -2.5 -8.8809 -2.5703 Q-8.4512 -2.6406 -8.0137 -2.6406 Q-5.5762 -2.6406 -4.1465 -1.3047 Q-2.7168 0.0312 -2.7168 2.3281 Q-2.7168 4.6719 -4.1855 5.9766 Q-5.6543 7.2812 -8.3262 7.2812 Q-9.2324 7.2812 -10.1855 7.125 Q-11.1387 6.9688 -12.1543 6.6562 L-12.1543 4.6719 Q-11.2793 5.1562 -10.3418 5.3906 Q-9.4043 5.625 -8.3574 5.625 Q-6.6699 5.625 -5.6855 4.7344 Q-4.7012 3.8438 -4.7012 2.3281 Q-4.7012 0.7969 -5.6855 -0.0938 Q-6.6699 -0.9844 -8.3574 -0.9844 Q-9.1543 -0.9844 -9.9355 -0.8047 Q-10.7168 -0.625 -11.5449 -0.25 L-11.5449 -7.5781 Z"
    /></g
    ><g transform="translate(472,148.0311)" style="font-size:20px; fill:rgb(38,38,38); text-rendering:geometricPrecision; image-rendering:optimizeQuality; color-rendering:optimizeQuality; font-family:'SansSerif'; stroke:rgb(38,38,38); color-interpolation:linearRGB;"
    ><path style="stroke:none;" d="M-19.0156 0.7188 L-13.7656 0.7188 L-13.7656 2.3281 L-19.0156 2.3281 L-19.0156 0.7188 ZM-11.1426 -7.5781 L-1.7676 -7.5781 L-1.7676 -6.7344 L-7.0645 7 L-9.127 7 L-4.1426 -5.9219 L-11.1426 -5.9219 L-11.1426 -7.5781 Z"
    /></g
    ><g transform="translate(414,931.9993) rotate(-90)" style="font-size:24px; fill:rgb(38,38,38); text-rendering:geometricPrecision; image-rendering:optimizeQuality; color-rendering:optimizeQuality; font-family:'Ubuntu'; stroke:rgb(38,38,38); color-interpolation:linearRGB;"
    ><path style="stroke:none;" d="M-25.25 -4.6406 Q-26.875 -4.6406 -28.0781 -5.1406 Q-29.2812 -5.6406 -30.0469 -6.5234 Q-30.8125 -7.4062 -31.1875 -8.6016 Q-31.5625 -9.7969 -31.5625 -11.1875 L-31.5625 -21.625 L-29.2344 -21.625 L-29.2344 -11.4531 Q-29.2344 -8.9531 -28.125 -7.8281 Q-27.0156 -6.7031 -25.25 -6.7031 Q-24.3594 -6.7031 -23.625 -6.9766 Q-22.8906 -7.25 -22.3672 -7.8281 Q-21.8438 -8.4062 -21.5547 -9.3047 Q-21.2656 -10.2031 -21.2656 -11.4531 L-21.2656 -21.625 L-18.9375 -21.625 L-18.9375 -11.1875 Q-18.9375 -9.7969 -19.3047 -8.6016 Q-19.6719 -7.4062 -20.4531 -6.5234 Q-21.2344 -5.6406 -22.4219 -5.1406 Q-23.6094 -4.6406 -25.25 -4.6406 ZM-12.9814 -17.4844 L-8.2627 -17.4844 L-8.2627 -15.6094 L-12.9814 -15.6094 L-12.9814 -9.8438 Q-12.9814 -8.9062 -12.8408 -8.2969 Q-12.7002 -7.6875 -12.4111 -7.3359 Q-12.1221 -6.9844 -11.6924 -6.8438 Q-11.2627 -6.7031 -10.6846 -6.7031 Q-9.6846 -6.7031 -9.0674 -6.9297 Q-8.4502 -7.1562 -8.2158 -7.25 L-7.7783 -5.4062 Q-8.1221 -5.2344 -8.958 -4.9844 Q-9.7939 -4.7344 -10.8721 -4.7344 Q-12.1533 -4.7344 -12.9814 -5.0625 Q-13.8096 -5.3906 -14.3096 -6.0391 Q-14.8096 -6.6875 -15.0127 -7.6328 Q-15.2158 -8.5781 -15.2158 -9.8281 L-15.2158 -20.9531 L-12.9814 -21.3438 L-12.9814 -17.4844 ZM-3.1981 -5 L-5.4325 -5 L-5.4325 -17.4844 L-3.1981 -17.4844 L-3.1981 -5 ZM-4.3231 -19.7344 Q-4.9325 -19.7344 -5.3544 -20.1328 Q-5.7762 -20.5312 -5.7762 -21.2031 Q-5.7762 -21.875 -5.3544 -22.2656 Q-4.9325 -22.6562 -4.3231 -22.6562 Q-3.7294 -22.6562 -3.3075 -22.2656 Q-2.8856 -21.875 -2.8856 -21.2031 Q-2.8856 -20.5312 -3.3075 -20.1328 Q-3.7294 -19.7344 -4.3231 -19.7344 ZM4.3705 -4.7656 Q2.308 -4.8125 1.4487 -5.6484 Q0.5893 -6.4844 0.5893 -8.2656 L0.5893 -23.2344 L2.8237 -23.625 L2.8237 -8.625 Q2.8237 -8.0781 2.9174 -7.7188 Q3.0112 -7.3594 3.2299 -7.1406 Q3.4487 -6.9219 3.808 -6.8125 Q4.1674 -6.7031 4.683 -6.625 L4.3705 -4.7656 ZM9.4189 -5 L7.1846 -5 L7.1846 -17.4844 L9.4189 -17.4844 L9.4189 -5 ZM8.2939 -19.7344 Q7.6846 -19.7344 7.2627 -20.1328 Q6.8408 -20.5312 6.8408 -21.2031 Q6.8408 -21.875 7.2627 -22.2656 Q7.6846 -22.6562 8.2939 -22.6562 Q8.8877 -22.6562 9.3096 -22.2656 Q9.7314 -21.875 9.7314 -21.2031 Q9.7314 -20.5312 9.3096 -20.1328 Q8.8877 -19.7344 8.2939 -19.7344 ZM15.347 -17.4844 L20.0657 -17.4844 L20.0657 -15.6094 L15.347 -15.6094 L15.347 -9.8438 Q15.347 -8.9062 15.4876 -8.2969 Q15.6282 -7.6875 15.9173 -7.3359 Q16.2064 -6.9844 16.636 -6.8438 Q17.0657 -6.7031 17.6439 -6.7031 Q18.6439 -6.7031 19.261 -6.9297 Q19.8782 -7.1562 20.1126 -7.25 L20.5501 -5.4062 Q20.2064 -5.2344 19.3704 -4.9844 Q18.5345 -4.7344 17.4564 -4.7344 Q16.1751 -4.7344 15.347 -5.0625 Q14.5189 -5.3906 14.0189 -6.0391 Q13.5189 -6.6875 13.3157 -7.6328 Q13.1126 -8.5781 13.1126 -9.8281 L13.1126 -20.9531 L15.347 -21.3438 L15.347 -17.4844 ZM21.4272 -2.6719 Q21.6928 -2.5469 22.1147 -2.4453 Q22.5366 -2.3438 22.9428 -2.3438 Q24.2553 -2.3438 25.0053 -2.9297 Q25.7553 -3.5156 26.3491 -4.8281 Q24.8334 -7.7188 23.5287 -10.9453 Q22.2241 -14.1719 21.3647 -17.4844 L23.7553 -17.4844 Q24.0209 -16.4062 24.3959 -15.1562 Q24.7709 -13.9062 25.2241 -12.5859 Q25.6772 -11.2656 26.2084 -9.9453 Q26.7397 -8.625 27.3178 -7.4062 Q28.2241 -9.9219 28.8959 -12.3906 Q29.5678 -14.8594 30.1616 -17.4844 L32.4741 -17.4844 Q31.5991 -13.9531 30.5444 -10.7031 Q29.4897 -7.4531 28.2709 -4.6094 Q27.7866 -3.5312 27.2709 -2.75 Q26.7553 -1.9688 26.1303 -1.4688 Q25.5053 -0.9688 24.7241 -0.7266 Q23.9428 -0.4844 22.9584 -0.4844 Q22.7084 -0.4844 22.4194 -0.5234 Q22.1303 -0.5625 21.8491 -0.625 Q21.5678 -0.6875 21.3412 -0.7578 Q21.1147 -0.8281 21.0209 -0.875 L21.4272 -2.6719 Z"
    /></g
    ><g transform="translate(1578,126)" style="font-size:24px; text-rendering:geometricPrecision; image-rendering:optimizeQuality; color-rendering:optimizeQuality; font-family:'Ubuntu'; color-interpolation:linearRGB; font-weight:bold;"
    ><path style="stroke:none;" d="M5.25 -8.0625 Q5.7812 -8.6406 6.3438 -9.2656 Q6.9062 -9.8906 7.4375 -10.5 Q7.9688 -11.1094 8.4375 -11.6641 Q8.9062 -12.2188 9.2344 -12.625 L13.4844 -12.625 Q12.2188 -11.1562 11.0078 -9.8281 Q9.7969 -8.5 8.3594 -7.0781 Q9.0781 -6.4375 9.8438 -5.5312 Q10.6094 -4.625 11.3281 -3.6719 Q12.0469 -2.7188 12.6484 -1.7578 Q13.25 -0.7969 13.6562 0 L9.5469 0 Q9.1719 -0.625 8.6797 -1.3828 Q8.1875 -2.1406 7.6328 -2.8906 Q7.0781 -3.6406 6.4688 -4.3438 Q5.8594 -5.0469 5.25 -5.5156 L5.25 0 L1.6875 0 L1.6875 -18.0469 L5.25 -18.625 L5.25 -8.0625 Z"
    /></g
    ><g transform="translate(1592,138)" style="font-size:19.2px; text-rendering:geometricPrecision; image-rendering:optimizeQuality; color-rendering:optimizeQuality; font-family:'Ubuntu'; color-interpolation:linearRGB; font-weight:bold;"
    ><path style="stroke:none;" d="M7.7344 -5.0781 Q7.7344 -7.8125 5.7188 -7.8125 Q5.2812 -7.8125 4.8516 -7.6953 Q4.4219 -7.5781 4.1562 -7.4062 L4.1562 -2.2656 Q4.375 -2.2188 4.6953 -2.1953 Q5.0156 -2.1719 5.3906 -2.1719 Q6.5625 -2.1719 7.1484 -2.9688 Q7.7344 -3.7656 7.7344 -5.0781 ZM10.625 -5 Q10.625 -3.7969 10.2734 -2.8281 Q9.9219 -1.8594 9.2578 -1.1797 Q8.5938 -0.5 7.625 -0.125 Q6.6562 0.25 5.4219 0.25 Q4.9062 0.25 4.3438 0.2031 Q3.7812 0.1562 3.2422 0.0781 Q2.7031 0 2.2031 -0.1016 Q1.7031 -0.2031 1.3281 -0.3281 L1.3281 -14.2812 L4.1562 -14.75 L4.1562 -9.7656 Q4.6406 -9.9688 5.1484 -10.0859 Q5.6562 -10.2031 6.25 -10.2031 Q7.3125 -10.2031 8.1328 -9.8359 Q8.9531 -9.4688 9.5 -8.7812 Q10.0469 -8.0938 10.3359 -7.1328 Q10.625 -6.1719 10.625 -5 ZM16.7504 -1.9688 Q17.1566 -1.9688 17.5394 -1.9922 Q17.9222 -2.0156 18.1566 -2.0469 L18.1566 -4.2031 Q17.9847 -4.2344 17.641 -4.2734 Q17.2972 -4.3125 17.016 -4.3125 Q16.6097 -4.3125 16.2582 -4.2656 Q15.9066 -4.2188 15.641 -4.0859 Q15.3754 -3.9531 15.2269 -3.7266 Q15.0785 -3.5 15.0785 -3.1562 Q15.0785 -2.4844 15.5238 -2.2266 Q15.9691 -1.9688 16.7504 -1.9688 ZM16.516 -10.2656 Q17.766 -10.2656 18.6019 -9.9766 Q19.4379 -9.6875 19.9457 -9.1562 Q20.4535 -8.625 20.6566 -7.8672 Q20.8597 -7.1094 20.8597 -6.1719 L20.8597 -0.2812 Q20.2504 -0.1562 19.1722 0.0234 Q18.0941 0.2031 16.5472 0.2031 Q15.5785 0.2031 14.7894 0.0312 Q14.0004 -0.1406 13.4301 -0.5234 Q12.8597 -0.9062 12.5629 -1.5391 Q12.266 -2.1719 12.266 -3.0781 Q12.266 -3.9531 12.6176 -4.5625 Q12.9691 -5.1719 13.5551 -5.5312 Q14.141 -5.8906 14.8988 -6.0547 Q15.6566 -6.2188 16.4847 -6.2188 Q17.0316 -6.2188 17.4535 -6.1719 Q17.8754 -6.125 18.1566 -6.0469 L18.1566 -6.3125 Q18.1566 -7.0312 17.7191 -7.4688 Q17.2816 -7.9062 16.1879 -7.9062 Q15.4691 -7.9062 14.766 -7.7969 Q14.0629 -7.6875 13.5472 -7.5 L13.1879 -9.7812 Q13.4379 -9.8594 13.8051 -9.9453 Q14.1722 -10.0312 14.6097 -10.1016 Q15.0472 -10.1719 15.5316 -10.2188 Q16.016 -10.2656 16.516 -10.2656 ZM29.5686 -7.4844 Q29.178 -7.5781 28.6702 -7.6875 Q28.1624 -7.7969 27.5686 -7.7969 Q27.303 -7.7969 26.928 -7.7422 Q26.553 -7.6875 26.3655 -7.6406 L26.3655 0 L23.5374 0 L23.5374 -9.4688 Q24.303 -9.7344 25.3343 -9.9688 Q26.3655 -10.2031 27.6468 -10.2031 Q27.8655 -10.2031 28.1936 -10.1719 Q28.5218 -10.1406 28.8421 -10.0938 Q29.1624 -10.0469 29.4827 -9.9844 Q29.803 -9.9219 30.0374 -9.8281 L29.5686 -7.4844 Z"
    /></g
    ><g transform="translate(1623,126)" style="font-size:24px; text-rendering:geometricPrecision; image-rendering:optimizeQuality; color-rendering:optimizeQuality; font-family:'Ubuntu'; color-interpolation:linearRGB; font-weight:bold;"
    ><path style="stroke:none;" d="M6.9287 -6.0312 L18.21 -6.0312 L18.21 -3.0312 L6.9287 -3.0312 L6.9287 -6.0312 ZM6.9287 -11.2812 L18.21 -11.2812 L18.21 -8.2812 L6.9287 -8.2812 L6.9287 -11.2812 ZM26.8257 -13.1719 Q27.5132 -13.4688 28.271 -13.8359 Q29.0288 -14.2031 29.7476 -14.6484 Q30.4663 -15.0938 31.1226 -15.5859 Q31.7788 -16.0781 32.3101 -16.625 L34.8101 -16.625 L34.8101 0 L31.2319 0 L31.2319 -11.9688 Q30.5132 -11.5 29.6226 -11.1016 Q28.7319 -10.7031 27.9038 -10.4219 L26.8257 -13.1719 ZM51.5752 -8.3594 Q51.5752 -4.1562 49.9814 -1.9062 Q48.3877 0.3438 45.5752 0.3438 Q42.7783 0.3438 41.1768 -1.9062 Q39.5752 -4.1562 39.5752 -8.3594 Q39.5752 -10.4375 39.9971 -12.0469 Q40.4189 -13.6562 41.208 -14.7578 Q41.9971 -15.8594 43.1064 -16.4375 Q44.2158 -17.0156 45.5752 -17.0156 Q48.3877 -17.0156 49.9814 -14.7734 Q51.5752 -12.5312 51.5752 -8.3594 ZM47.9346 -8.3594 Q47.9346 -9.5938 47.8096 -10.6172 Q47.6846 -11.6406 47.4268 -12.3828 Q47.1689 -13.125 46.708 -13.5312 Q46.2471 -13.9375 45.5752 -13.9375 Q44.9033 -13.9375 44.458 -13.5312 Q44.0127 -13.125 43.7393 -12.3828 Q43.4658 -11.6406 43.3486 -10.6172 Q43.2314 -9.5938 43.2314 -8.3594 Q43.2314 -7.1094 43.3486 -6.0781 Q43.4658 -5.0469 43.7393 -4.2969 Q44.0127 -3.5469 44.458 -3.1406 Q44.9033 -2.7344 45.5752 -2.7344 Q46.2471 -2.7344 46.708 -3.1406 Q47.1689 -3.5469 47.4268 -4.2969 Q47.6846 -5.0469 47.8096 -6.0781 Q47.9346 -7.1094 47.9346 -8.3594 ZM64.5972 -2.8594 Q65.394 -2.8594 65.9097 -2.9922 Q66.4253 -3.125 66.7378 -3.3516 Q67.0503 -3.5781 67.1675 -3.8906 Q67.2847 -4.2031 67.2847 -4.5781 Q67.2847 -5.4062 66.519 -5.9453 Q65.7534 -6.4844 63.8784 -7.1094 Q63.0659 -7.3906 62.2456 -7.7656 Q61.4253 -8.1406 60.7769 -8.7031 Q60.1284 -9.2656 59.7222 -10.0703 Q59.3159 -10.875 59.3159 -12.0312 Q59.3159 -13.1719 59.7534 -14.1016 Q60.1909 -15.0312 60.98 -15.6719 Q61.769 -16.3125 62.894 -16.6641 Q64.019 -17.0156 65.4409 -17.0156 Q67.1128 -17.0156 68.3394 -16.6562 Q69.5659 -16.2969 70.3628 -15.8594 L69.2847 -12.9062 Q68.5815 -13.2656 67.73 -13.5469 Q66.8784 -13.8281 65.6753 -13.8281 Q64.3315 -13.8281 63.7456 -13.4531 Q63.1597 -13.0781 63.1597 -12.3125 Q63.1597 -11.8594 63.3784 -11.5469 Q63.5972 -11.2344 63.9878 -10.9844 Q64.3784 -10.7344 64.894 -10.5234 Q65.4097 -10.3125 66.0347 -10.1094 Q67.3315 -9.625 68.2925 -9.1562 Q69.2534 -8.6875 69.894 -8.0625 Q70.5347 -7.4375 70.8472 -6.6016 Q71.1597 -5.7656 71.1597 -4.5625 Q71.1597 -2.2344 69.5269 -0.9453 Q67.894 0.3438 64.5972 0.3438 Q63.5034 0.3438 62.6128 0.2109 Q61.7222 0.0781 61.0347 -0.1172 Q60.3472 -0.3125 59.855 -0.5312 Q59.3628 -0.75 59.0347 -0.9375 L60.0815 -3.9062 Q60.8315 -3.5 61.9253 -3.1797 Q63.019 -2.8594 64.5972 -2.8594 ZM74.0262 0 L74.0262 -16.625 L85.2606 -16.625 L85.2606 -13.4844 L77.7606 -13.4844 L77.7606 -10.2188 L84.4169 -10.2188 L84.4169 -7.1562 L77.7606 -7.1562 L77.7606 -3.1406 L85.8075 -3.1406 L85.8075 0 L74.0262 0 ZM97.5066 0 Q96.2878 -2.4062 95.03 -5.6172 Q93.7722 -8.8281 92.6316 -12.625 L96.4285 -12.625 Q96.6628 -11.6875 96.991 -10.5938 Q97.3191 -9.5 97.6628 -8.3828 Q98.0066 -7.2656 98.3582 -6.2109 Q98.7097 -5.1562 99.0378 -4.2969 Q99.3503 -5.1562 99.7175 -6.2109 Q100.0847 -7.2656 100.4285 -8.3828 Q100.7722 -9.5 101.1003 -10.5938 Q101.4285 -11.6875 101.6628 -12.625 L105.3503 -12.625 Q104.2253 -8.8281 102.9675 -5.6172 Q101.7097 -2.4062 100.491 0 L97.5066 0 ZM112.09 -2.5 Q112.6212 -2.5 113.0978 -2.5234 Q113.5743 -2.5469 113.8712 -2.5938 L113.8712 -5.2969 Q113.6525 -5.3594 113.2228 -5.4062 Q112.7931 -5.4531 112.4337 -5.4531 Q111.9337 -5.4531 111.4884 -5.3906 Q111.0431 -5.3281 110.7072 -5.1562 Q110.3712 -4.9844 110.1759 -4.7031 Q109.9806 -4.4219 109.9806 -3.9844 Q109.9806 -3.1406 110.5431 -2.8203 Q111.1056 -2.5 112.09 -2.5 ZM111.8087 -12.9531 Q113.3868 -12.9531 114.4415 -12.5938 Q115.4962 -12.2344 116.1368 -11.5625 Q116.7775 -10.8906 117.0431 -9.9297 Q117.3087 -8.9688 117.3087 -7.7969 L117.3087 -0.3594 Q116.5275 -0.1875 115.1603 0.0391 Q113.7931 0.2656 111.8556 0.2656 Q110.6368 0.2656 109.6368 0.0469 Q108.6368 -0.1719 107.9181 -0.6641 Q107.1993 -1.1562 106.8165 -1.9453 Q106.4337 -2.7344 106.4337 -3.8906 Q106.4337 -4.9844 106.879 -5.7578 Q107.3243 -6.5312 108.0665 -6.9844 Q108.8087 -7.4375 109.7697 -7.6406 Q110.7306 -7.8438 111.7618 -7.8438 Q112.4493 -7.8438 112.9884 -7.7891 Q113.5275 -7.7344 113.8712 -7.625 L113.8712 -7.9688 Q113.8712 -8.875 113.3165 -9.4297 Q112.7618 -9.9844 111.4025 -9.9844 Q110.4806 -9.9844 109.5978 -9.8516 Q108.715 -9.7188 108.0587 -9.4844 L107.6056 -12.3594 Q107.9181 -12.4531 108.3868 -12.5625 Q108.8556 -12.6719 109.4103 -12.7578 Q109.965 -12.8438 110.5743 -12.8984 Q111.1837 -12.9531 111.8087 -12.9531 ZM125.5734 0.2344 Q124.0109 0.2188 123.0422 -0.0938 Q122.0734 -0.4062 121.5109 -0.9688 Q120.9484 -1.5312 120.7453 -2.3359 Q120.5422 -3.1406 120.5422 -4.1562 L120.5422 -18.0469 L124.1047 -18.625 L124.1047 -4.875 Q124.1047 -4.3906 124.1828 -4.0078 Q124.2609 -3.625 124.4641 -3.3594 Q124.6672 -3.0938 125.05 -2.9297 Q125.4328 -2.7656 126.0734 -2.7188 L125.5734 0.2344 ZM138.8876 -0.4375 Q137.9814 -0.1719 136.5361 0.0547 Q135.0908 0.2812 133.5126 0.2812 Q131.9033 0.2812 130.8408 -0.1484 Q129.7783 -0.5781 129.1533 -1.3594 Q128.5283 -2.1406 128.2626 -3.2188 Q127.997 -4.2969 127.997 -5.5938 L127.997 -12.625 L131.5751 -12.625 L131.5751 -6.0312 Q131.5751 -4.2969 132.0283 -3.5312 Q132.4814 -2.7656 133.7314 -2.7656 Q134.122 -2.7656 134.5517 -2.7969 Q134.9814 -2.8281 135.3095 -2.875 L135.3095 -12.625 L138.8876 -12.625 L138.8876 -0.4375 ZM141.6409 -6.2188 Q141.6409 -7.8906 142.1565 -9.1562 Q142.6721 -10.4219 143.5159 -11.2578 Q144.3596 -12.0938 145.4456 -12.5234 Q146.5315 -12.9531 147.6877 -12.9531 Q150.3752 -12.9531 151.9377 -11.3125 Q153.5002 -9.6719 153.5002 -6.4844 Q153.5002 -6.1719 153.4768 -5.7969 Q153.4534 -5.4219 153.4221 -5.1406 L145.3127 -5.1406 Q145.4377 -4.0312 146.3518 -3.3828 Q147.2659 -2.7344 148.7971 -2.7344 Q149.7815 -2.7344 150.7268 -2.9141 Q151.6721 -3.0938 152.2815 -3.3594 L152.7502 -0.4531 Q152.469 -0.3125 151.9846 -0.1719 Q151.5002 -0.0312 150.9143 0.0781 Q150.3284 0.1875 149.6565 0.2656 Q148.9846 0.3438 148.3127 0.3438 Q146.6096 0.3438 145.3518 -0.1641 Q144.094 -0.6719 143.2659 -1.5469 Q142.4377 -2.4219 142.0393 -3.625 Q141.6409 -4.8281 141.6409 -6.2188 ZM150.0471 -7.5781 Q150.0159 -8.0469 149.8831 -8.4766 Q149.7502 -8.9062 149.4768 -9.2422 Q149.2034 -9.5781 148.7815 -9.7969 Q148.3596 -10.0156 147.7346 -10.0156 Q147.1409 -10.0156 146.7112 -9.8047 Q146.2815 -9.5938 145.9924 -9.2578 Q145.7034 -8.9219 145.5471 -8.4844 Q145.3909 -8.0469 145.3127 -7.5781 L150.0471 -7.5781 ZM167.4841 -18.625 Q168.4841 -18.625 169.3279 -18.4219 Q170.1716 -18.2188 170.6248 -18.0312 L169.9216 -15.1719 Q169.4529 -15.3906 168.8826 -15.4922 Q168.3123 -15.5938 167.8435 -15.5938 Q167.1873 -15.5938 166.7419 -15.4141 Q166.2966 -15.2344 166.0466 -14.9219 Q165.7966 -14.6094 165.6873 -14.1797 Q165.5779 -13.75 165.5779 -13.25 L165.5779 -12.625 L169.9998 -12.625 L169.9998 -9.6406 L165.5779 -9.6406 L165.5779 0 L162.0154 0 L162.0154 -13.2969 Q162.0154 -15.75 163.3904 -17.1875 Q164.7654 -18.625 167.4841 -18.625 ZM182.9034 -0.4375 Q181.9972 -0.1719 180.5519 0.0547 Q179.1066 0.2812 177.5284 0.2812 Q175.9191 0.2812 174.8566 -0.1484 Q173.7941 -0.5781 173.1691 -1.3594 Q172.5441 -2.1406 172.2784 -3.2188 Q172.0128 -4.2969 172.0128 -5.5938 L172.0128 -12.625 L175.5909 -12.625 L175.5909 -6.0312 Q175.5909 -4.2969 176.0441 -3.5312 Q176.4972 -2.7656 177.7472 -2.7656 Q178.1378 -2.7656 178.5675 -2.7969 Q178.9972 -2.8281 179.3253 -2.875 L179.3253 -12.625 L182.9034 -12.625 L182.9034 -0.4375 ZM186.2661 -12.1875 Q187.1723 -12.4531 188.6098 -12.6797 Q190.0473 -12.9062 191.6411 -12.9062 Q193.2348 -12.9062 194.3051 -12.4922 Q195.3754 -12.0781 196.0004 -11.3047 Q196.6254 -10.5312 196.8911 -9.4766 Q197.1567 -8.4219 197.1567 -7.125 L197.1567 0 L193.5786 0 L193.5786 -6.7031 Q193.5786 -8.4219 193.1254 -9.1406 Q192.6723 -9.8594 191.4223 -9.8594 Q191.0317 -9.8594 190.602 -9.8281 Q190.1723 -9.7969 189.8286 -9.75 L189.8286 0 L186.2661 0 L186.2661 -12.1875 ZM199.7849 -6.3125 Q199.7849 -7.6875 200.2302 -8.8984 Q200.6755 -10.1094 201.5115 -11.0078 Q202.3474 -11.9062 203.5505 -12.4297 Q204.7537 -12.9531 206.2849 -12.9531 Q207.3005 -12.9531 208.1365 -12.7734 Q208.9724 -12.5938 209.7693 -12.2656 L209.0193 -9.4062 Q208.5193 -9.5938 207.9177 -9.7422 Q207.3162 -9.8906 206.5818 -9.8906 Q204.988 -9.8906 204.2146 -8.9062 Q203.4412 -7.9219 203.4412 -6.3125 Q203.4412 -4.6094 204.1677 -3.6719 Q204.8943 -2.7344 206.7224 -2.7344 Q207.363 -2.7344 208.113 -2.8516 Q208.863 -2.9688 209.488 -3.2344 L209.988 -0.3125 Q209.363 -0.0469 208.4255 0.1484 Q207.488 0.3438 206.363 0.3438 Q204.6287 0.3438 203.3865 -0.1797 Q202.1443 -0.7031 201.3396 -1.5859 Q200.5349 -2.4688 200.1599 -3.6797 Q199.7849 -4.8906 199.7849 -6.3125 ZM212.2627 -15.7656 L215.8408 -16.3438 L215.8408 -12.625 L220.1377 -12.625 L220.1377 -9.6406 L215.8408 -9.6406 L215.8408 -5.2031 Q215.8408 -4.0781 216.2314 -3.4062 Q216.6221 -2.7344 217.8252 -2.7344 Q218.4033 -2.7344 219.0127 -2.8438 Q219.6221 -2.9531 220.1377 -3.1406 L220.6377 -0.3594 Q219.9814 -0.0938 219.1924 0.0938 Q218.4033 0.2812 217.2471 0.2812 Q215.7939 0.2812 214.833 -0.1094 Q213.8721 -0.5 213.2939 -1.2109 Q212.7158 -1.9219 212.4893 -2.9297 Q212.2627 -3.9375 212.2627 -5.1562 L212.2627 -15.7656 ZM226.6003 0 L223.0378 0 L223.0378 -12.625 L226.6003 -12.625 L226.6003 0 ZM226.9441 -16.2656 Q226.9441 -15.2812 226.3035 -14.7188 Q225.6628 -14.1562 224.8035 -14.1562 Q223.9441 -14.1562 223.3035 -14.7188 Q222.6628 -15.2812 222.6628 -16.2656 Q222.6628 -17.25 223.3035 -17.8203 Q223.9441 -18.3906 224.8035 -18.3906 Q225.6628 -18.3906 226.3035 -17.8203 Q226.9441 -17.25 226.9441 -16.2656 ZM241.7669 -6.3438 Q241.7669 -4.8438 241.3372 -3.6094 Q240.9075 -2.375 240.0872 -1.5 Q239.2669 -0.625 238.1341 -0.1406 Q237.0013 0.3438 235.5794 0.3438 Q234.1888 0.3438 233.0482 -0.1406 Q231.9075 -0.625 231.0872 -1.5 Q230.2669 -2.375 229.8138 -3.6094 Q229.3607 -4.8438 229.3607 -6.3438 Q229.3607 -7.8281 229.8294 -9.0469 Q230.2982 -10.2656 231.1263 -11.1328 Q231.9544 -12 233.095 -12.4766 Q234.2357 -12.9531 235.5794 -12.9531 Q236.9388 -12.9531 238.0794 -12.4766 Q239.22 -12 240.0403 -11.1328 Q240.8607 -10.2656 241.3138 -9.0469 Q241.7669 -7.8281 241.7669 -6.3438 ZM238.1263 -6.3438 Q238.1263 -7.9844 237.4622 -8.9375 Q236.7982 -9.8906 235.5794 -9.8906 Q234.3607 -9.8906 233.6888 -8.9375 Q233.0169 -7.9844 233.0169 -6.3438 Q233.0169 -4.6875 233.6888 -3.7109 Q234.3607 -2.7344 235.5794 -2.7344 Q236.7982 -2.7344 237.4622 -3.7109 Q238.1263 -4.6875 238.1263 -6.3438 ZM244.53 -12.1875 Q245.4363 -12.4531 246.8738 -12.6797 Q248.3113 -12.9062 249.905 -12.9062 Q251.4988 -12.9062 252.5691 -12.4922 Q253.6394 -12.0781 254.2644 -11.3047 Q254.8894 -10.5312 255.155 -9.4766 Q255.4207 -8.4219 255.4207 -7.125 L255.4207 0 L251.8425 0 L251.8425 -6.7031 Q251.8425 -8.4219 251.3894 -9.1406 Q250.9363 -9.8594 249.6863 -9.8594 Q249.2957 -9.8594 248.866 -9.8281 Q248.4363 -9.7969 248.0925 -9.75 L248.0925 0 L244.53 0 L244.53 -12.1875 ZM269.8839 -18.625 Q270.8839 -18.625 271.7276 -18.4219 Q272.5714 -18.2188 273.0245 -18.0312 L272.3214 -15.1719 Q271.8526 -15.3906 271.2823 -15.4922 Q270.712 -15.5938 270.2432 -15.5938 Q269.587 -15.5938 269.1417 -15.4141 Q268.6964 -15.2344 268.4464 -14.9219 Q268.1964 -14.6094 268.087 -14.1797 Q267.9776 -13.75 267.9776 -13.25 L267.9776 -12.625 L272.3995 -12.625 L272.3995 -9.6406 L267.9776 -9.6406 L267.9776 0 L264.4151 0 L264.4151 -13.2969 Q264.4151 -15.75 265.7901 -17.1875 Q267.1651 -18.625 269.8839 -18.625 ZM286.3344 -6.3438 Q286.3344 -4.8438 285.9047 -3.6094 Q285.475 -2.375 284.6547 -1.5 Q283.8344 -0.625 282.7016 -0.1406 Q281.5688 0.3438 280.1469 0.3438 Q278.7563 0.3438 277.6157 -0.1406 Q276.475 -0.625 275.6547 -1.5 Q274.8344 -2.375 274.3813 -3.6094 Q273.9282 -4.8438 273.9282 -6.3438 Q273.9282 -7.8281 274.3969 -9.0469 Q274.8657 -10.2656 275.6938 -11.1328 Q276.5219 -12 277.6625 -12.4766 Q278.8032 -12.9531 280.1469 -12.9531 Q281.5063 -12.9531 282.6469 -12.4766 Q283.7875 -12 284.6078 -11.1328 Q285.4282 -10.2656 285.8813 -9.0469 Q286.3344 -7.8281 286.3344 -6.3438 ZM282.6938 -6.3438 Q282.6938 -7.9844 282.0297 -8.9375 Q281.3657 -9.8906 280.1469 -9.8906 Q278.9282 -9.8906 278.2563 -8.9375 Q277.5844 -7.9844 277.5844 -6.3438 Q277.5844 -4.6875 278.2563 -3.7109 Q278.9282 -2.7344 280.1469 -2.7344 Q281.3657 -2.7344 282.0297 -3.7109 Q282.6938 -4.6875 282.6938 -6.3438 ZM296.6913 -9.4531 Q296.2225 -9.5781 295.5741 -9.7109 Q294.9257 -9.8438 294.1757 -9.8438 Q293.8475 -9.8438 293.3788 -9.7812 Q292.91 -9.7188 292.66 -9.6406 L292.66 0 L289.0975 0 L289.0975 -11.9531 Q290.0507 -12.2812 291.3553 -12.5859 Q292.66 -12.8906 294.2694 -12.8906 Q294.5663 -12.8906 294.9725 -12.8516 Q295.3788 -12.8125 295.785 -12.7578 Q296.1913 -12.7031 296.5975 -12.6172 Q297.0038 -12.5312 297.3007 -12.4062 L296.6913 -9.4531 Z"
    /></g
    ><g transform="translate(1927,126)" style="font-size:24px; text-rendering:geometricPrecision; image-rendering:optimizeQuality; color-rendering:optimizeQuality; font-family:'mwb_cmmi10'; color-interpolation:linearRGB; font-weight:bold;"
    ><path style="stroke:none;" d="M0.6719 4.5156 Q0.6719 4.375 0.6875 4.3281 L4.2188 -9.8438 Q4.3281 -10.1875 4.6016 -10.3984 Q4.875 -10.6094 5.2344 -10.6094 Q6.5312 -10.6094 6.7422 -10.4297 Q6.9531 -10.25 6.9531 -9.9375 Q6.9531 -9.875 6.9453 -9.8281 Q6.9375 -9.7812 6.9375 -9.7344 L5.5156 -4.125 Q5.2812 -3.125 5.2812 -2.4062 Q5.2812 -1.5156 5.7031 -0.9375 Q6.125 -0.3594 6.125 -0.3594 Q7.7188 -0.3594 9.0469 -2.5469 Q9.0625 -2.5625 9.0703 -2.5781 Q9.0781 -2.5938 9.0781 -2.6094 L10.8125 -9.5781 Q10.8906 -9.8906 11.1797 -10.1172 Q11.4688 -10.3438 11.8125 -10.3438 Q13.0938 -10.3438 13.3125 -10.1562 Q13.5312 -9.9688 13.5312 -9.6719 Q13.5312 -9.5312 13.5 -9.4844 L11.7812 -2.5625 Q11.6094 -1.8906 11.6094 -1.3906 Q11.6094 -0.3594 11.6094 -0.3594 Q12.0625 -0.3594 12.4453 -1.2891 Q12.8281 -2.2188 13.1094 -3.5312 Q13.1562 -3.6719 13.2969 -3.6719 L13.5781 -3.6719 Q14.6719 -3.6719 14.7422 -3.5938 Q14.8125 -3.5156 14.8125 -3.4375 Q14.3906 -1.7656 13.8906 -0.75 Q13.3906 0.2656 11.2656 0.2656 Q10.4688 0.2656 9.8516 -0.1875 Q9.2344 -0.6406 9.2344 -0.6406 Q9.2344 -0.6406 8.5391 -0.1875 Q7.8438 0.2656 5.9531 0.2656 Q4.4531 0.2656 4.3125 0.1406 L3.375 4.4219 Q3.3125 4.7656 3.0312 4.9766 Q2.75 5.1875 1.3906 5.1875 Q1.1094 5.1875 0.8906 5 Q0.6719 4.8125 0.6719 4.5156 Z"
    /></g
    ><g transform="translate(1943,126)" style="font-size:24px; text-rendering:geometricPrecision; image-rendering:optimizeQuality; color-rendering:optimizeQuality; font-family:'Ubuntu'; color-interpolation:linearRGB; font-weight:bold;"
    ><path style="stroke:none;" d="M6.9287 -6.0312 L18.21 -6.0312 L18.21 -3.0312 L6.9287 -3.0312 L6.9287 -6.0312 ZM6.9287 -11.2812 L18.21 -11.2812 L18.21 -8.2812 L6.9287 -8.2812 L6.9287 -11.2812 ZM26.8257 -13.1719 Q27.5132 -13.4688 28.271 -13.8359 Q29.0288 -14.2031 29.7476 -14.6484 Q30.4663 -15.0938 31.1226 -15.5859 Q31.7788 -16.0781 32.3101 -16.625 L34.8101 -16.625 L34.8101 0 L31.2319 0 L31.2319 -11.9688 Q30.5132 -11.5 29.6226 -11.1016 Q28.7319 -10.7031 27.9038 -10.4219 L26.8257 -13.1719 ZM43.8252 -3.6406 Q43.8721 -3.0781 43.8877 -2.8359 Q43.9033 -2.5938 43.9033 -2.4219 Q43.9033 -1.7031 43.7705 -0.8984 Q43.6377 -0.0938 43.3955 0.7188 Q43.1533 1.5312 42.7939 2.3516 Q42.4346 3.1719 41.9814 3.9062 L39.1689 3.2188 Q39.7158 1.625 39.9346 0.2344 Q40.1533 -1.1562 40.1533 -2.0625 Q40.1533 -2.2031 40.1455 -2.4297 Q40.1377 -2.6562 40.1221 -2.8984 Q40.1064 -3.1406 40.0908 -3.3594 Q40.0752 -3.5781 40.0752 -3.6406 L43.8252 -3.6406 Z"
    /></g
    ><g transform="translate(1994,126)" style="font-size:24px; text-rendering:geometricPrecision; image-rendering:optimizeQuality; color-rendering:optimizeQuality; font-family:'mwb_cmmi10'; color-interpolation:linearRGB; font-weight:bold;"
    ><path style="stroke:none;" d="M4.8281 0.2656 Q3.6875 0.2656 2.8047 -0.2734 Q1.9219 -0.8125 1.4453 -1.7266 Q0.9688 -2.6406 0.9688 -3.7969 Q0.9688 -5.4219 1.875 -7.0156 Q2.7812 -8.6094 4.2891 -9.6094 Q5.7969 -10.6094 7.4375 -10.6094 Q9.6562 -10.6094 10.5859 -9.9688 Q11.5156 -9.3281 11.9922 -8.2656 Q12.4688 -7.2031 12.4688 -6 L12.4688 -5.125 Q12.4688 -5.5312 12.9609 -6.7578 Q13.4531 -7.9844 13.7656 -9.2969 Q13.8125 -9.4375 13.9531 -9.4375 L14.2344 -9.4375 Q15.4531 -9.4375 15.4531 -9.2188 Q15.4531 -9.1875 15.4219 -9.1406 Q15.1406 -8.0469 14.7188 -7.0312 Q14.2969 -6.0156 13.7344 -5.0625 Q13.1719 -4.1094 12.5 -3.3438 Q12.5 -0.3594 12.5 -0.3594 Q12.6406 -0.3594 12.9219 -0.625 Q13.2031 -0.8906 13.4219 -1.2812 Q13.6406 -1.6719 13.7031 -1.6719 L14 -1.6719 Q15.1875 -1.6719 15.1875 -1.4375 Q15.1875 -0.8438 14.5 -0.2891 Q13.8125 0.2656 12.1406 0.2656 Q11.2812 0.2656 10.7031 -0.2969 Q10.125 -0.8594 10.0781 -1.0312 Q9.7969 -0.7969 8.4844 -0.2656 Q7.1719 0.2656 4.8281 0.2656 ZM4.875 -0.3594 Q7.4375 -0.3594 9.7969 -2.4688 Q9.7812 -2.6094 9.7578 -2.8203 Q9.7344 -3.0312 9.7344 -3.0469 L9.7344 -5.6406 Q9.7344 -9.9844 7.3906 -9.9844 Q6.9844 -9.9844 5.9297 -8.7812 Q4.875 -7.5781 4.3438 -5.9141 Q3.8125 -4.25 3.8125 -2.8594 Q3.8125 -1.8125 4.3438 -1.0859 Q4.875 -0.3594 4.875 -0.3594 Z"
    /></g
    ><g transform="translate(2011,126)" style="font-size:24px; text-rendering:geometricPrecision; image-rendering:optimizeQuality; color-rendering:optimizeQuality; font-family:'Ubuntu'; color-interpolation:linearRGB; font-weight:bold;"
    ><path style="stroke:none;" d="M6.9287 -6.0312 L18.21 -6.0312 L18.21 -3.0312 L6.9287 -3.0312 L6.9287 -6.0312 ZM6.9287 -11.2812 L18.21 -11.2812 L18.21 -8.2812 L6.9287 -8.2812 L6.9287 -11.2812 ZM37.9507 -8.3594 Q37.9507 -4.1562 36.3569 -1.9062 Q34.7632 0.3438 31.9507 0.3438 Q29.1538 0.3438 27.5522 -1.9062 Q25.9507 -4.1562 25.9507 -8.3594 Q25.9507 -10.4375 26.3726 -12.0469 Q26.7944 -13.6562 27.5835 -14.7578 Q28.3726 -15.8594 29.4819 -16.4375 Q30.5913 -17.0156 31.9507 -17.0156 Q34.7632 -17.0156 36.3569 -14.7734 Q37.9507 -12.5312 37.9507 -8.3594 ZM34.3101 -8.3594 Q34.3101 -9.5938 34.1851 -10.6172 Q34.0601 -11.6406 33.8022 -12.3828 Q33.5444 -13.125 33.0835 -13.5312 Q32.6226 -13.9375 31.9507 -13.9375 Q31.2788 -13.9375 30.8335 -13.5312 Q30.3882 -13.125 30.1147 -12.3828 Q29.8413 -11.6406 29.7241 -10.6172 Q29.6069 -9.5938 29.6069 -8.3594 Q29.6069 -7.1094 29.7241 -6.0781 Q29.8413 -5.0469 30.1147 -4.2969 Q30.3882 -3.5469 30.8335 -3.1406 Q31.2788 -2.7344 31.9507 -2.7344 Q32.6226 -2.7344 33.0835 -3.1406 Q33.5444 -3.5469 33.8022 -4.2969 Q34.0601 -5.0469 34.1851 -6.0781 Q34.3101 -7.1094 34.3101 -8.3594 ZM43.9502 -1.8906 Q43.9502 -0.8125 43.2627 -0.25 Q42.5752 0.3125 41.7158 0.3125 Q40.8564 0.3125 40.1689 -0.25 Q39.4814 -0.8125 39.4814 -1.8906 Q39.4814 -2.9688 40.1689 -3.5391 Q40.8564 -4.1094 41.7158 -4.1094 Q42.5752 -4.1094 43.2627 -3.5391 Q43.9502 -2.9688 43.9502 -1.8906 ZM51.601 -8.9219 Q52.1478 -8.9219 52.7494 -9.0312 Q53.351 -9.1406 53.6322 -9.3438 L53.6322 -9.5469 Q53.6322 -9.6406 53.6478 -9.7422 Q53.6635 -9.8438 53.6635 -9.9062 Q53.6322 -10.7812 53.515 -11.5312 Q53.3978 -12.2812 53.1088 -12.8516 Q52.8197 -13.4219 52.3275 -13.7422 Q51.8353 -14.0625 51.1166 -14.0625 Q50.5385 -14.0625 50.1088 -13.8203 Q49.6791 -13.5781 49.4135 -13.1953 Q49.1478 -12.8125 49.015 -12.3594 Q48.8822 -11.9062 48.8822 -11.4688 Q48.8822 -10.1719 49.5228 -9.5469 Q50.1635 -8.9219 51.601 -8.9219 ZM53.351 -6.5938 Q52.851 -6.3594 52.2338 -6.25 Q51.6166 -6.1406 51.1947 -6.1406 Q49.6322 -6.1406 48.5306 -6.5156 Q47.4291 -6.8906 46.7181 -7.5703 Q46.0072 -8.25 45.6713 -9.2109 Q45.3353 -10.1719 45.3353 -11.3281 Q45.3353 -12.2812 45.6556 -13.2891 Q45.976 -14.2969 46.6791 -15.125 Q47.3822 -15.9531 48.4447 -16.5 Q49.5072 -17.0469 51.0228 -17.0469 Q54.1166 -17.0469 55.6869 -15.1328 Q57.2572 -13.2188 57.2572 -9.6406 Q57.2572 -7.2969 56.6478 -5.5 Q56.0385 -3.7031 54.7572 -2.4766 Q53.476 -1.25 51.4838 -0.6094 Q49.4916 0.0312 46.7572 0.0469 Q46.726 -0.7188 46.6791 -1.4375 Q46.6322 -2.1562 46.5853 -2.9219 Q47.9447 -2.9531 49.0541 -3.1328 Q50.1635 -3.3125 50.9994 -3.7344 Q51.8353 -4.1562 52.4291 -4.8516 Q53.0228 -5.5469 53.351 -6.5938 ZM66.9286 -4.8906 Q66.9286 -5.5938 66.6161 -6.1328 Q66.3036 -6.6719 65.538 -7.0312 Q64.7723 -7.3906 63.4755 -7.5859 Q62.1786 -7.7812 60.2098 -7.7812 Q60.4755 -10.0156 60.6395 -12.3125 Q60.8036 -14.6094 60.8973 -16.625 L69.8973 -16.625 L69.8973 -13.625 L63.8973 -13.625 Q63.8505 -12.7656 63.7958 -11.9609 Q63.7411 -11.1562 63.663 -10.5625 Q67.163 -10.3125 68.8348 -8.9141 Q70.5067 -7.5156 70.5067 -5.0156 Q70.5067 -3.8594 70.1005 -2.875 Q69.6942 -1.8906 68.8739 -1.1719 Q68.0536 -0.4531 66.8192 -0.0469 Q65.5848 0.3594 63.9286 0.3594 Q63.2723 0.3594 62.5692 0.2734 Q61.8661 0.1875 61.202 0.0547 Q60.538 -0.0781 60.0145 -0.2188 Q59.4911 -0.3594 59.1942 -0.5 L59.8505 -3.4531 Q60.4442 -3.1875 61.4286 -2.9375 Q62.413 -2.6875 63.788 -2.6875 Q65.4442 -2.6875 66.1864 -3.3516 Q66.9286 -4.0156 66.9286 -4.8906 Z"
    /></g
    ><g style="stroke-linecap:butt; fill:rgb(0,114,189); text-rendering:geometricPrecision; image-rendering:optimizeQuality; color-rendering:optimizeQuality; stroke-linejoin:round; stroke:rgb(0,114,189); color-interpolation:linearRGB; stroke-width:4;"
    ><path d="M480 1719 L534.04 1672.7454 L588.08 1628.2872 L642.12 1591.436 L696.16 1550.1093 L750.2 1501.499 L804.24 1452.5739 L858.28 1412.245 L912.32 1378.1349 L966.36 1340.0698 L1020.4 1300.334 L1074.4399 1257.8765 L1128.48 1221.8315 L1182.52 1188.9061 L1236.5601 1152.7437 L1290.6 1115.4744 L1344.64 1078.2136 L1398.6801 1045.0927 L1452.72 1013.6609 L1506.76 980.3718 L1560.8 946.2676 L1614.84 912.92 L1668.88 882.3926 L1722.92 852.8557 L1776.96 822.1647 L1831 791.0519 L1885.04 760.837 L1939.08 732.5965 L1993.12 704.9832 L2047.16 676.6827 L2101.2 648.0949 L2155.24 620.0303 L2209.28 593.7115 L2263.3201 567.7895 L2317.3601 541.5349 L2371.3999 511.9156 L2425.4399 485.4321 L2479.48 459.8378 L2533.52 434.9759 L2587.5601 410.0834 L2641.6001 384.0333 L2695.6399 358.0828 L2749.6799 330.6706 L2803.72 306.7172 L2857.76 283.13 L2911.8 259.2383 L2965.8401 234.9543 L3019.8799 211.2189 L3073.9199 187.8123 L3127.96 166.3652 L3182 144.9999" style="fill:none; fill-rule:evenodd;"
      /><path d="M-4.2426 -4.2426 L4.2426 4.2426 M-4.2426 4.2426 L4.2426 -4.2426" style="fill:none; stroke-linejoin:miter;" transform="translate(480,1719)"
      /><path d="M-4.2426 -4.2426 L4.2426 4.2426 M-4.2426 4.2426 L4.2426 -4.2426" style="fill:none; stroke-linejoin:miter;" transform="translate(534.04,1672.7454)"
      /><path d="M-4.2426 -4.2426 L4.2426 4.2426 M-4.2426 4.2426 L4.2426 -4.2426" style="fill:none; stroke-linejoin:miter;" transform="translate(588.08,1628.2872)"
      /><path d="M-4.2426 -4.2426 L4.2426 4.2426 M-4.2426 4.2426 L4.2426 -4.2426" style="fill:none; stroke-linejoin:miter;" transform="translate(642.12,1591.436)"
      /><path d="M-4.2426 -4.2426 L4.2426 4.2426 M-4.2426 4.2426 L4.2426 -4.2426" style="fill:none; stroke-linejoin:miter;" transform="translate(696.16,1550.1093)"
      /><path d="M-4.2426 -4.2426 L4.2426 4.2426 M-4.2426 4.2426 L4.2426 -4.2426" style="fill:none; stroke-linejoin:miter;" transform="translate(750.2,1501.499)"
      /><path d="M-4.2426 -4.2426 L4.2426 4.2426 M-4.2426 4.2426 L4.2426 -4.2426" style="fill:none; stroke-linejoin:miter;" transform="translate(804.24,1452.5739)"
      /><path d="M-4.2426 -4.2426 L4.2426 4.2426 M-4.2426 4.2426 L4.2426 -4.2426" style="fill:none; stroke-linejoin:miter;" transform="translate(858.28,1412.245)"
      /><path d="M-4.2426 -4.2426 L4.2426 4.2426 M-4.2426 4.2426 L4.2426 -4.2426" style="fill:none; stroke-linejoin:miter;" transform="translate(912.32,1378.1349)"
      /><path d="M-4.2426 -4.2426 L4.2426 4.2426 M-4.2426 4.2426 L4.2426 -4.2426" style="fill:none; stroke-linejoin:miter;" transform="translate(966.36,1340.0698)"
      /><path d="M-4.2426 -4.2426 L4.2426 4.2426 M-4.2426 4.2426 L4.2426 -4.2426" style="fill:none; stroke-linejoin:miter;" transform="translate(1020.4,1300.334)"
      /><path d="M-4.2426 -4.2426 L4.2426 4.2426 M-4.2426 4.2426 L4.2426 -4.2426" style="fill:none; stroke-linejoin:miter;" transform="translate(1074.4399,1257.8765)"
      /><path d="M-4.2426 -4.2426 L4.2426 4.2426 M-4.2426 4.2426 L4.2426 -4.2426" style="fill:none; stroke-linejoin:miter;" transform="translate(1128.48,1221.8315)"
      /><path d="M-4.2426 -4.2426 L4.2426 4.2426 M-4.2426 4.2426 L4.2426 -4.2426" style="fill:none; stroke-linejoin:miter;" transform="translate(1182.52,1188.9061)"
      /><path d="M-4.2426 -4.2426 L4.2426 4.2426 M-4.2426 4.2426 L4.2426 -4.2426" style="fill:none; stroke-linejoin:miter;" transform="translate(1236.5601,1152.7437)"
      /><path d="M-4.2426 -4.2426 L4.2426 4.2426 M-4.2426 4.2426 L4.2426 -4.2426" style="fill:none; stroke-linejoin:miter;" transform="translate(1290.6,1115.4744)"
      /><path d="M-4.2426 -4.2426 L4.2426 4.2426 M-4.2426 4.2426 L4.2426 -4.2426" style="fill:none; stroke-linejoin:miter;" transform="translate(1344.64,1078.2136)"
      /><path d="M-4.2426 -4.2426 L4.2426 4.2426 M-4.2426 4.2426 L4.2426 -4.2426" style="fill:none; stroke-linejoin:miter;" transform="translate(1398.6801,1045.0927)"
      /><path d="M-4.2426 -4.2426 L4.2426 4.2426 M-4.2426 4.2426 L4.2426 -4.2426" style="fill:none; stroke-linejoin:miter;" transform="translate(1452.72,1013.6609)"
      /><path d="M-4.2426 -4.2426 L4.2426 4.2426 M-4.2426 4.2426 L4.2426 -4.2426" style="fill:none; stroke-linejoin:miter;" transform="translate(1506.76,980.3718)"
      /><path d="M-4.2426 -4.2426 L4.2426 4.2426 M-4.2426 4.2426 L4.2426 -4.2426" style="fill:none; stroke-linejoin:miter;" transform="translate(1560.8,946.2676)"
      /><path d="M-4.2426 -4.2426 L4.2426 4.2426 M-4.2426 4.2426 L4.2426 -4.2426" style="fill:none; stroke-linejoin:miter;" transform="translate(1614.84,912.92)"
      /><path d="M-4.2426 -4.2426 L4.2426 4.2426 M-4.2426 4.2426 L4.2426 -4.2426" style="fill:none; stroke-linejoin:miter;" transform="translate(1668.88,882.3926)"
      /><path d="M-4.2426 -4.2426 L4.2426 4.2426 M-4.2426 4.2426 L4.2426 -4.2426" style="fill:none; stroke-linejoin:miter;" transform="translate(1722.92,852.8557)"
      /><path d="M-4.2426 -4.2426 L4.2426 4.2426 M-4.2426 4.2426 L4.2426 -4.2426" style="fill:none; stroke-linejoin:miter;" transform="translate(1776.96,822.1647)"
      /><path d="M-4.2426 -4.2426 L4.2426 4.2426 M-4.2426 4.2426 L4.2426 -4.2426" style="fill:none; stroke-linejoin:miter;" transform="translate(1831,791.0519)"
      /><path d="M-4.2426 -4.2426 L4.2426 4.2426 M-4.2426 4.2426 L4.2426 -4.2426" style="fill:none; stroke-linejoin:miter;" transform="translate(1885.04,760.837)"
      /><path d="M-4.2426 -4.2426 L4.2426 4.2426 M-4.2426 4.2426 L4.2426 -4.2426" style="fill:none; stroke-linejoin:miter;" transform="translate(1939.08,732.5965)"
      /><path d="M-4.2426 -4.2426 L4.2426 4.2426 M-4.2426 4.2426 L4.2426 -4.2426" style="fill:none; stroke-linejoin:miter;" transform="translate(1993.12,704.9832)"
      /><path d="M-4.2426 -4.2426 L4.2426 4.2426 M-4.2426 4.2426 L4.2426 -4.2426" style="fill:none; stroke-linejoin:miter;" transform="translate(2047.16,676.6827)"
      /><path d="M-4.2426 -4.2426 L4.2426 4.2426 M-4.2426 4.2426 L4.2426 -4.2426" style="fill:none; stroke-linejoin:miter;" transform="translate(2101.2,648.0949)"
      /><path d="M-4.2426 -4.2426 L4.2426 4.2426 M-4.2426 4.2426 L4.2426 -4.2426" style="fill:none; stroke-linejoin:miter;" transform="translate(2155.24,620.0303)"
      /><path d="M-4.2426 -4.2426 L4.2426 4.2426 M-4.2426 4.2426 L4.2426 -4.2426" style="fill:none; stroke-linejoin:miter;" transform="translate(2209.28,593.7115)"
      /><path d="M-4.2426 -4.2426 L4.2426 4.2426 M-4.2426 4.2426 L4.2426 -4.2426" style="fill:none; stroke-linejoin:miter;" transform="translate(2263.3201,567.7895)"
      /><path d="M-4.2426 -4.2426 L4.2426 4.2426 M-4.2426 4.2426 L4.2426 -4.2426" style="fill:none; stroke-linejoin:miter;" transform="translate(2317.3601,541.5349)"
      /><path d="M-4.2426 -4.2426 L4.2426 4.2426 M-4.2426 4.2426 L4.2426 -4.2426" style="fill:none; stroke-linejoin:miter;" transform="translate(2371.3999,511.9156)"
      /><path d="M-4.2426 -4.2426 L4.2426 4.2426 M-4.2426 4.2426 L4.2426 -4.2426" style="fill:none; stroke-linejoin:miter;" transform="translate(2425.4399,485.4321)"
      /><path d="M-4.2426 -4.2426 L4.2426 4.2426 M-4.2426 4.2426 L4.2426 -4.2426" style="fill:none; stroke-linejoin:miter;" transform="translate(2479.48,459.8378)"
      /><path d="M-4.2426 -4.2426 L4.2426 4.2426 M-4.2426 4.2426 L4.2426 -4.2426" style="fill:none; stroke-linejoin:miter;" transform="translate(2533.52,434.9759)"
      /><path d="M-4.2426 -4.2426 L4.2426 4.2426 M-4.2426 4.2426 L4.2426 -4.2426" style="fill:none; stroke-linejoin:miter;" transform="translate(2587.5601,410.0834)"
      /><path d="M-4.2426 -4.2426 L4.2426 4.2426 M-4.2426 4.2426 L4.2426 -4.2426" style="fill:none; stroke-linejoin:miter;" transform="translate(2641.6001,384.0333)"
      /><path d="M-4.2426 -4.2426 L4.2426 4.2426 M-4.2426 4.2426 L4.2426 -4.2426" style="fill:none; stroke-linejoin:miter;" transform="translate(2695.6399,358.0828)"
      /><path d="M-4.2426 -4.2426 L4.2426 4.2426 M-4.2426 4.2426 L4.2426 -4.2426" style="fill:none; stroke-linejoin:miter;" transform="translate(2749.6799,330.6706)"
      /><path d="M-4.2426 -4.2426 L4.2426 4.2426 M-4.2426 4.2426 L4.2426 -4.2426" style="fill:none; stroke-linejoin:miter;" transform="translate(2803.72,306.7172)"
      /><path d="M-4.2426 -4.2426 L4.2426 4.2426 M-4.2426 4.2426 L4.2426 -4.2426" style="fill:none; stroke-linejoin:miter;" transform="translate(2857.76,283.13)"
      /><path d="M-4.2426 -4.2426 L4.2426 4.2426 M-4.2426 4.2426 L4.2426 -4.2426" style="fill:none; stroke-linejoin:miter;" transform="translate(2911.8,259.2383)"
      /><path d="M-4.2426 -4.2426 L4.2426 4.2426 M-4.2426 4.2426 L4.2426 -4.2426" style="fill:none; stroke-linejoin:miter;" transform="translate(2965.8401,234.9543)"
      /><path d="M-4.2426 -4.2426 L4.2426 4.2426 M-4.2426 4.2426 L4.2426 -4.2426" style="fill:none; stroke-linejoin:miter;" transform="translate(3019.8799,211.2189)"
      /><path d="M-4.2426 -4.2426 L4.2426 4.2426 M-4.2426 4.2426 L4.2426 -4.2426" style="fill:none; stroke-linejoin:miter;" transform="translate(3073.9199,187.8123)"
      /><path d="M-4.2426 -4.2426 L4.2426 4.2426 M-4.2426 4.2426 L4.2426 -4.2426" style="fill:none; stroke-linejoin:miter;" transform="translate(3127.96,166.3652)"
      /><path d="M-4.2426 -4.2426 L4.2426 4.2426 M-4.2426 4.2426 L4.2426 -4.2426" style="fill:none; stroke-linejoin:miter;" transform="translate(3182,144.9999)"
    /></g
    ><g style="fill:white; text-rendering:optimizeSpeed; color-rendering:optimizeSpeed; image-rendering:optimizeSpeed; shape-rendering:crispEdges; stroke:white; color-interpolation:sRGB;"
    ><path style="stroke:none;" d="M3345 181 L3345 145 L3211 145 L3211 181 Z"
    /></g
    ><g transform="translate(3285,163)" style="font-size:24px; text-rendering:geometricPrecision; color-rendering:optimizeQuality; image-rendering:optimizeQuality; font-family:'Ubuntu'; color-interpolation:linearRGB;"
    ><path style="stroke:none;" d="M11.8594 8.6406 Q11.0938 8.8281 9.8281 9.0469 Q8.5625 9.2656 6.9062 9.2656 Q5.4688 9.2656 4.4844 8.8438 Q3.5 8.4219 2.8984 7.6562 Q2.2969 6.8906 2.0391 5.8438 Q1.7812 4.7969 1.7812 3.5312 L1.7812 -3.4844 L4.0156 -3.4844 L4.0156 3.0469 Q4.0156 5.3281 4.7344 6.3125 Q5.4531 7.2969 7.1562 7.2969 Q7.5156 7.2969 7.8984 7.2734 Q8.2812 7.25 8.6172 7.2109 Q8.9531 7.1719 9.2266 7.1406 Q9.5 7.1094 9.625 7.0625 L9.625 -3.4844 L11.8594 -3.4844 L11.8594 8.6406 ZM20.575 3.4375 L31.575 3.4375 L31.575 5.3281 L20.575 5.3281 L20.575 3.4375 ZM20.575 -1.6875 L31.575 -1.6875 L31.575 0.2188 L20.575 0.2188 L20.575 -1.6875 ZM40.6133 -4.2031 Q41.9727 -4.7344 43.2695 -5.5625 Q44.5664 -6.3906 45.6445 -7.625 L47.2383 -7.625 L47.2383 9 L45.0039 9 L45.0039 -4.5312 Q44.7227 -4.2656 44.3008 -3.9844 Q43.8789 -3.7031 43.3867 -3.4375 Q42.8945 -3.1719 42.3555 -2.9297 Q41.8164 -2.6875 41.3008 -2.5156 L40.6133 -4.2031 Z"
    /></g
    ><g style="stroke-linecap:butt; fill:rgb(0,114,189); text-rendering:geometricPrecision; image-rendering:optimizeQuality; color-rendering:optimizeQuality; stroke-linejoin:round; stroke:rgb(0,114,189); color-interpolation:linearRGB; stroke-width:4;"
    ><line y2="163" style="fill:none;" x1="3219" x2="3279" y1="163"
      /><path d="M-4.2426 -4.2426 L4.2426 4.2426 M-4.2426 4.2426 L4.2426 -4.2426" style="fill:none; stroke-linejoin:miter;" transform="translate(3249,163)"
    /></g
    ><g style="stroke-linecap:butt; fill:rgb(38,38,38); text-rendering:geometricPrecision; color-rendering:optimizeQuality; image-rendering:optimizeQuality; color-interpolation:linearRGB; stroke:rgb(38,38,38);"
    ><path d="M3211 181 L3211 145 L3345 145 L3345 181 Z" style="fill:none; fill-rule:evenodd;"
    /></g
  ></g
></svg
>
