<?xml version="1.0"?>
<!DOCTYPE svg PUBLIC '-//W3C//DTD SVG 1.0//EN'
          'http://www.w3.org/TR/2001/REC-SVG-20010904/DTD/svg10.dtd'>
<svg xmlns:xlink="http://www.w3.org/1999/xlink" style="fill-opacity:1; color-rendering:auto; color-interpolation:auto; text-rendering:auto; stroke:black; stroke-linecap:square; stroke-miterlimit:10; shape-rendering:auto; stroke-opacity:1; fill:black; stroke-dasharray:none; font-weight:normal; stroke-width:1; font-family:'Dialog'; font-style:normal; stroke-linejoin:miter; font-size:12px; stroke-dashoffset:0; image-rendering:auto;" width="3696" height="1932" xmlns="http://www.w3.org/2000/svg"
><!--Generated by the Batik Graphics2D SVG Generator--><defs id="genericDefs"
  /><g
  ><defs id="defs1"
    ><clipPath clipPathUnits="userSpaceOnUse" id="clipPath1"
      ><path d="M0 0 L3696 0 L3696 1932 L0 1932 L0 0 Z"
      /></clipPath
    ></defs
    ><g style="fill:white; stroke:white;"
    ><rect x="0" y="0" width="3696" style="clip-path:url(#clipPath1); stroke:none;" height="1932"
    /></g
    ><g style="fill:white; text-rendering:optimizeSpeed; color-rendering:optimizeSpeed; image-rendering:optimizeSpeed; shape-rendering:crispEdges; stroke:white; color-interpolation:sRGB;"
    ><rect x="0" width="3696" height="1932" y="0" style="stroke:none;"
      /><path style="stroke:none;" d="M480 1719 L3345 1719 L3345 145 L480 145 Z"
    /></g
    ><g transform="translate(1636,126)" style="font-size:24px; text-rendering:geometricPrecision; image-rendering:optimizeQuality; color-rendering:optimizeQuality; font-family:'Ubuntu'; color-interpolation:linearRGB; font-weight:bold;"
    ><path style="stroke:none;" d="M5.25 -8.0625 Q5.7812 -8.6406 6.3438 -9.2656 Q6.9062 -9.8906 7.4375 -10.5 Q7.9688 -11.1094 8.4375 -11.6641 Q8.9062 -12.2188 9.2344 -12.625 L13.4844 -12.625 Q12.2188 -11.1562 11.0078 -9.8281 Q9.7969 -8.5 8.3594 -7.0781 Q9.0781 -6.4375 9.8438 -5.5312 Q10.6094 -4.625 11.3281 -3.6719 Q12.0469 -2.7188 12.6484 -1.7578 Q13.25 -0.7969 13.6562 0 L9.5469 0 Q9.1719 -0.625 8.6797 -1.3828 Q8.1875 -2.1406 7.6328 -2.8906 Q7.0781 -3.6406 6.4688 -4.3438 Q5.8594 -5.0469 5.25 -5.5156 L5.25 0 L1.6875 0 L1.6875 -18.0469 L5.25 -18.625 L5.25 -8.0625 Z"
    /></g
    ><g transform="translate(1650,138)" style="font-size:19.2px; text-rendering:geometricPrecision; image-rendering:optimizeQuality; color-rendering:optimizeQuality; font-family:'Ubuntu'; color-interpolation:linearRGB; font-weight:bold;"
    ><path style="stroke:none;" d="M7.7344 -5.0781 Q7.7344 -7.8125 5.7188 -7.8125 Q5.2812 -7.8125 4.8516 -7.6953 Q4.4219 -7.5781 4.1562 -7.4062 L4.1562 -2.2656 Q4.375 -2.2188 4.6953 -2.1953 Q5.0156 -2.1719 5.3906 -2.1719 Q6.5625 -2.1719 7.1484 -2.9688 Q7.7344 -3.7656 7.7344 -5.0781 ZM10.625 -5 Q10.625 -3.7969 10.2734 -2.8281 Q9.9219 -1.8594 9.2578 -1.1797 Q8.5938 -0.5 7.625 -0.125 Q6.6562 0.25 5.4219 0.25 Q4.9062 0.25 4.3438 0.2031 Q3.7812 0.1562 3.2422 0.0781 Q2.7031 0 2.2031 -0.1016 Q1.7031 -0.2031 1.3281 -0.3281 L1.3281 -14.2812 L4.1562 -14.75 L4.1562 -9.7656 Q4.6406 -9.9688 5.1484 -10.0859 Q5.6562 -10.2031 6.25 -10.2031 Q7.3125 -10.2031 8.1328 -9.8359 Q8.9531 -9.4688 9.5 -8.7812 Q10.0469 -8.0938 10.3359 -7.1328 Q10.625 -6.1719 10.625 -5 ZM16.7504 -1.9688 Q17.1566 -1.9688 17.5394 -1.9922 Q17.9222 -2.0156 18.1566 -2.0469 L18.1566 -4.2031 Q17.9847 -4.2344 17.641 -4.2734 Q17.2972 -4.3125 17.016 -4.3125 Q16.6097 -4.3125 16.2582 -4.2656 Q15.9066 -4.2188 15.641 -4.0859 Q15.3754 -3.9531 15.2269 -3.7266 Q15.0785 -3.5 15.0785 -3.1562 Q15.0785 -2.4844 15.5238 -2.2266 Q15.9691 -1.9688 16.7504 -1.9688 ZM16.516 -10.2656 Q17.766 -10.2656 18.6019 -9.9766 Q19.4379 -9.6875 19.9457 -9.1562 Q20.4535 -8.625 20.6566 -7.8672 Q20.8597 -7.1094 20.8597 -6.1719 L20.8597 -0.2812 Q20.2504 -0.1562 19.1722 0.0234 Q18.0941 0.2031 16.5472 0.2031 Q15.5785 0.2031 14.7894 0.0312 Q14.0004 -0.1406 13.4301 -0.5234 Q12.8597 -0.9062 12.5629 -1.5391 Q12.266 -2.1719 12.266 -3.0781 Q12.266 -3.9531 12.6176 -4.5625 Q12.9691 -5.1719 13.5551 -5.5312 Q14.141 -5.8906 14.8988 -6.0547 Q15.6566 -6.2188 16.4847 -6.2188 Q17.0316 -6.2188 17.4535 -6.1719 Q17.8754 -6.125 18.1566 -6.0469 L18.1566 -6.3125 Q18.1566 -7.0312 17.7191 -7.4688 Q17.2816 -7.9062 16.1879 -7.9062 Q15.4691 -7.9062 14.766 -7.7969 Q14.0629 -7.6875 13.5472 -7.5 L13.1879 -9.7812 Q13.4379 -9.8594 13.8051 -9.9453 Q14.1722 -10.0312 14.6097 -10.1016 Q15.0472 -10.1719 15.5316 -10.2188 Q16.016 -10.2656 16.516 -10.2656 ZM29.5686 -7.4844 Q29.178 -7.5781 28.6702 -7.6875 Q28.1624 -7.7969 27.5686 -7.7969 Q27.303 -7.7969 26.928 -7.7422 Q26.553 -7.6875 26.3655 -7.6406 L26.3655 0 L23.5374 0 L23.5374 -9.4688 Q24.303 -9.7344 25.3343 -9.9688 Q26.3655 -10.2031 27.6468 -10.2031 Q27.8655 -10.2031 28.1936 -10.1719 Q28.5218 -10.1406 28.8421 -10.0938 Q29.1624 -10.0469 29.4827 -9.9844 Q29.803 -9.9219 30.0374 -9.8281 L29.5686 -7.4844 Z"
    /></g
    ><g transform="translate(1681,126)" style="font-size:24px; text-rendering:geometricPrecision; image-rendering:optimizeQuality; color-rendering:optimizeQuality; font-family:'Ubuntu'; color-interpolation:linearRGB; font-weight:bold;"
    ><path style="stroke:none;" d="M6.9287 -6.0312 L18.21 -6.0312 L18.21 -3.0312 L6.9287 -3.0312 L6.9287 -6.0312 ZM6.9287 -11.2812 L18.21 -11.2812 L18.21 -8.2812 L6.9287 -8.2812 L6.9287 -11.2812 ZM26.8257 -13.1719 Q27.5132 -13.4688 28.271 -13.8359 Q29.0288 -14.2031 29.7476 -14.6484 Q30.4663 -15.0938 31.1226 -15.5859 Q31.7788 -16.0781 32.3101 -16.625 L34.8101 -16.625 L34.8101 0 L31.2319 0 L31.2319 -11.9688 Q30.5132 -11.5 29.6226 -11.1016 Q28.7319 -10.7031 27.9038 -10.4219 L26.8257 -13.1719 ZM51.5752 -8.3594 Q51.5752 -4.1562 49.9814 -1.9062 Q48.3877 0.3438 45.5752 0.3438 Q42.7783 0.3438 41.1768 -1.9062 Q39.5752 -4.1562 39.5752 -8.3594 Q39.5752 -10.4375 39.9971 -12.0469 Q40.4189 -13.6562 41.208 -14.7578 Q41.9971 -15.8594 43.1064 -16.4375 Q44.2158 -17.0156 45.5752 -17.0156 Q48.3877 -17.0156 49.9814 -14.7734 Q51.5752 -12.5312 51.5752 -8.3594 ZM47.9346 -8.3594 Q47.9346 -9.5938 47.8096 -10.6172 Q47.6846 -11.6406 47.4268 -12.3828 Q47.1689 -13.125 46.708 -13.5312 Q46.2471 -13.9375 45.5752 -13.9375 Q44.9033 -13.9375 44.458 -13.5312 Q44.0127 -13.125 43.7393 -12.3828 Q43.4658 -11.6406 43.3486 -10.6172 Q43.2314 -9.5938 43.2314 -8.3594 Q43.2314 -7.1094 43.3486 -6.0781 Q43.4658 -5.0469 43.7393 -4.2969 Q44.0127 -3.5469 44.458 -3.1406 Q44.9033 -2.7344 45.5752 -2.7344 Q46.2471 -2.7344 46.708 -3.1406 Q47.1689 -3.5469 47.4268 -4.2969 Q47.6846 -5.0469 47.8096 -6.0781 Q47.9346 -7.1094 47.9346 -8.3594 ZM64.5972 -2.8594 Q65.394 -2.8594 65.9097 -2.9922 Q66.4253 -3.125 66.7378 -3.3516 Q67.0503 -3.5781 67.1675 -3.8906 Q67.2847 -4.2031 67.2847 -4.5781 Q67.2847 -5.4062 66.519 -5.9453 Q65.7534 -6.4844 63.8784 -7.1094 Q63.0659 -7.3906 62.2456 -7.7656 Q61.4253 -8.1406 60.7769 -8.7031 Q60.1284 -9.2656 59.7222 -10.0703 Q59.3159 -10.875 59.3159 -12.0312 Q59.3159 -13.1719 59.7534 -14.1016 Q60.1909 -15.0312 60.98 -15.6719 Q61.769 -16.3125 62.894 -16.6641 Q64.019 -17.0156 65.4409 -17.0156 Q67.1128 -17.0156 68.3394 -16.6562 Q69.5659 -16.2969 70.3628 -15.8594 L69.2847 -12.9062 Q68.5815 -13.2656 67.73 -13.5469 Q66.8784 -13.8281 65.6753 -13.8281 Q64.3315 -13.8281 63.7456 -13.4531 Q63.1597 -13.0781 63.1597 -12.3125 Q63.1597 -11.8594 63.3784 -11.5469 Q63.5972 -11.2344 63.9878 -10.9844 Q64.3784 -10.7344 64.894 -10.5234 Q65.4097 -10.3125 66.0347 -10.1094 Q67.3315 -9.625 68.2925 -9.1562 Q69.2534 -8.6875 69.894 -8.0625 Q70.5347 -7.4375 70.8472 -6.6016 Q71.1597 -5.7656 71.1597 -4.5625 Q71.1597 -2.2344 69.5269 -0.9453 Q67.894 0.3438 64.5972 0.3438 Q63.5034 0.3438 62.6128 0.2109 Q61.7222 0.0781 61.0347 -0.1172 Q60.3472 -0.3125 59.855 -0.5312 Q59.3628 -0.75 59.0347 -0.9375 L60.0815 -3.9062 Q60.8315 -3.5 61.9253 -3.1797 Q63.019 -2.8594 64.5972 -2.8594 ZM74.0262 0 L74.0262 -16.625 L85.2606 -16.625 L85.2606 -13.4844 L77.7606 -13.4844 L77.7606 -10.2188 L84.4169 -10.2188 L84.4169 -7.1562 L77.7606 -7.1562 L77.7606 -3.1406 L85.8075 -3.1406 L85.8075 0 L74.0262 0 ZM97.6472 -8.0625 Q98.1785 -8.6406 98.741 -9.2656 Q99.3035 -9.8906 99.8347 -10.5 Q100.366 -11.1094 100.8347 -11.6641 Q101.3035 -12.2188 101.6316 -12.625 L105.8816 -12.625 Q104.616 -11.1562 103.405 -9.8281 Q102.1941 -8.5 100.7566 -7.0781 Q101.4753 -6.4375 102.241 -5.5312 Q103.0066 -4.625 103.7253 -3.6719 Q104.4441 -2.7188 105.0457 -1.7578 Q105.6472 -0.7969 106.0535 0 L101.9441 0 Q101.5691 -0.625 101.0769 -1.3828 Q100.5847 -2.1406 100.03 -2.8906 Q99.4753 -3.6406 98.866 -4.3438 Q98.2566 -5.0469 97.6472 -5.5156 L97.6472 0 L94.0847 0 L94.0847 -18.0469 L97.6472 -18.625 L97.6472 -8.0625 ZM112.7856 -2.5 Q113.3168 -2.5 113.7934 -2.5234 Q114.27 -2.5469 114.5668 -2.5938 L114.5668 -5.2969 Q114.3481 -5.3594 113.9184 -5.4062 Q113.4887 -5.4531 113.1293 -5.4531 Q112.6293 -5.4531 112.184 -5.3906 Q111.7387 -5.3281 111.4028 -5.1562 Q111.0668 -4.9844 110.8715 -4.7031 Q110.6762 -4.4219 110.6762 -3.9844 Q110.6762 -3.1406 111.2387 -2.8203 Q111.8012 -2.5 112.7856 -2.5 ZM112.5043 -12.9531 Q114.0825 -12.9531 115.1371 -12.5938 Q116.1918 -12.2344 116.8325 -11.5625 Q117.4731 -10.8906 117.7387 -9.9297 Q118.0043 -8.9688 118.0043 -7.7969 L118.0043 -0.3594 Q117.2231 -0.1875 115.8559 0.0391 Q114.4887 0.2656 112.5512 0.2656 Q111.3325 0.2656 110.3325 0.0469 Q109.3325 -0.1719 108.6137 -0.6641 Q107.895 -1.1562 107.5121 -1.9453 Q107.1293 -2.7344 107.1293 -3.8906 Q107.1293 -4.9844 107.5746 -5.7578 Q108.02 -6.5312 108.7621 -6.9844 Q109.5043 -7.4375 110.4653 -7.6406 Q111.4262 -7.8438 112.4575 -7.8438 Q113.145 -7.8438 113.684 -7.7891 Q114.2231 -7.7344 114.5668 -7.625 L114.5668 -7.9688 Q114.5668 -8.875 114.0121 -9.4297 Q113.4575 -9.9844 112.0981 -9.9844 Q111.1762 -9.9844 110.2934 -9.8516 Q109.4106 -9.7188 108.7543 -9.4844 L108.3012 -12.3594 Q108.6137 -12.4531 109.0825 -12.5625 Q109.5512 -12.6719 110.1059 -12.7578 Q110.6606 -12.8438 111.27 -12.8984 Q111.8793 -12.9531 112.5043 -12.9531 ZM128.8315 -9.4531 Q128.3628 -9.5781 127.7144 -9.7109 Q127.0659 -9.8438 126.3159 -9.8438 Q125.9878 -9.8438 125.519 -9.7812 Q125.0503 -9.7188 124.8003 -9.6406 L124.8003 0 L121.2378 0 L121.2378 -11.9531 Q122.1909 -12.2812 123.4956 -12.5859 Q124.8003 -12.8906 126.4097 -12.8906 Q126.7065 -12.8906 127.1128 -12.8516 Q127.519 -12.8125 127.9253 -12.7578 Q128.3315 -12.7031 128.7378 -12.6172 Q129.144 -12.5312 129.4409 -12.4062 L128.8315 -9.4531 ZM138.2821 -6.7031 Q138.2821 -8.4219 137.8446 -9.1406 Q137.4071 -9.8594 136.3134 -9.8594 Q135.9852 -9.8594 135.6259 -9.8281 Q135.2665 -9.7969 134.9227 -9.75 L134.9227 0 L131.3602 0 L131.3602 -12.1875 Q131.8134 -12.3125 132.4227 -12.4453 Q133.0321 -12.5781 133.7196 -12.6875 Q134.4071 -12.7969 135.1259 -12.8516 Q135.8446 -12.9062 136.5321 -12.9062 Q137.9071 -12.9062 138.7587 -12.5625 Q139.6102 -12.2188 140.1571 -11.7344 Q140.9227 -12.2812 141.9227 -12.5938 Q142.9227 -12.9062 143.7665 -12.9062 Q145.2665 -12.9062 146.243 -12.4922 Q147.2196 -12.0781 147.7977 -11.3047 Q148.3759 -10.5312 148.5868 -9.4766 Q148.7977 -8.4219 148.7977 -7.125 L148.7977 0 L145.2196 0 L145.2196 -6.7031 Q145.2196 -8.4219 144.7743 -9.1406 Q144.329 -9.8594 143.2509 -9.8594 Q142.9696 -9.8594 142.454 -9.7188 Q141.9384 -9.5781 141.5946 -9.3594 Q141.7665 -8.8125 141.8134 -8.1953 Q141.8602 -7.5781 141.8602 -6.8906 L141.8602 0 L138.2821 0 L138.2821 -6.7031 ZM156.8494 -2.5 Q157.3806 -2.5 157.8572 -2.5234 Q158.3337 -2.5469 158.6306 -2.5938 L158.6306 -5.2969 Q158.4119 -5.3594 157.9822 -5.4062 Q157.5525 -5.4531 157.1931 -5.4531 Q156.6931 -5.4531 156.2478 -5.3906 Q155.8025 -5.3281 155.4666 -5.1562 Q155.1306 -4.9844 154.9353 -4.7031 Q154.74 -4.4219 154.74 -3.9844 Q154.74 -3.1406 155.3025 -2.8203 Q155.865 -2.5 156.8494 -2.5 ZM156.5681 -12.9531 Q158.1462 -12.9531 159.2009 -12.5938 Q160.2556 -12.2344 160.8962 -11.5625 Q161.5369 -10.8906 161.8025 -9.9297 Q162.0681 -8.9688 162.0681 -7.7969 L162.0681 -0.3594 Q161.2869 -0.1875 159.9197 0.0391 Q158.5525 0.2656 156.615 0.2656 Q155.3962 0.2656 154.3962 0.0469 Q153.3962 -0.1719 152.6775 -0.6641 Q151.9587 -1.1562 151.5759 -1.9453 Q151.1931 -2.7344 151.1931 -3.8906 Q151.1931 -4.9844 151.6384 -5.7578 Q152.0837 -6.5312 152.8259 -6.9844 Q153.5681 -7.4375 154.5291 -7.6406 Q155.49 -7.8438 156.5212 -7.8438 Q157.2087 -7.8438 157.7478 -7.7891 Q158.2869 -7.7344 158.6306 -7.625 L158.6306 -7.9688 Q158.6306 -8.875 158.0759 -9.4297 Q157.5212 -9.9844 156.1619 -9.9844 Q155.24 -9.9844 154.3572 -9.8516 Q153.4744 -9.7188 152.8181 -9.4844 L152.365 -12.3594 Q152.6775 -12.4531 153.1462 -12.5625 Q153.615 -12.6719 154.1697 -12.7578 Q154.7244 -12.8438 155.3337 -12.8984 Q155.9431 -12.9531 156.5681 -12.9531 ZM174.1053 -6.4062 Q174.1053 -4.75 174.8475 -3.7422 Q175.5897 -2.7344 177.0584 -2.7344 Q177.5272 -2.7344 177.9334 -2.7734 Q178.3397 -2.8125 178.6053 -2.8594 L178.6053 -9.3594 Q178.2772 -9.5781 177.7381 -9.7188 Q177.199 -9.8594 176.6365 -9.8594 Q174.1053 -9.8594 174.1053 -6.4062 ZM182.1834 -0.4062 Q181.7147 -0.2656 181.0897 -0.1328 Q180.4647 0 179.7772 0.0938 Q179.0897 0.1875 178.3787 0.25 Q177.6678 0.3125 177.0272 0.3125 Q175.4647 0.3125 174.2381 -0.1406 Q173.0115 -0.5938 172.1756 -1.4453 Q171.3397 -2.2969 170.8943 -3.5156 Q170.449 -4.7344 170.449 -6.2344 Q170.449 -7.7812 170.8318 -9.0156 Q171.2147 -10.25 171.9334 -11.1094 Q172.6522 -11.9688 173.699 -12.4297 Q174.7459 -12.8906 176.0897 -12.8906 Q176.8397 -12.8906 177.4256 -12.7422 Q178.0115 -12.5938 178.6053 -12.3438 L178.6053 -18.0469 L182.1834 -18.625 L182.1834 -0.4062 ZM189.1089 0 L185.5464 0 L185.5464 -12.625 L189.1089 -12.625 L189.1089 0 ZM189.4527 -16.2656 Q189.4527 -15.2812 188.8121 -14.7188 Q188.1714 -14.1562 187.3121 -14.1562 Q186.4527 -14.1562 185.8121 -14.7188 Q185.1714 -15.2812 185.1714 -16.2656 Q185.1714 -17.25 185.8121 -17.8203 Q186.4527 -18.3906 187.3121 -18.3906 Q188.1714 -18.3906 188.8121 -17.8203 Q189.4527 -17.25 189.4527 -16.2656 ZM196.088 -2.5625 Q197.0724 -2.5625 197.4865 -2.7578 Q197.9005 -2.9531 197.9005 -3.5 Q197.9005 -3.9375 197.3693 -4.2578 Q196.838 -4.5781 195.7599 -4.9844 Q194.9161 -5.2969 194.2365 -5.6328 Q193.5568 -5.9688 193.0724 -6.4375 Q192.588 -6.9062 192.3224 -7.5547 Q192.0568 -8.2031 192.0568 -9.125 Q192.0568 -10.8906 193.3771 -11.9219 Q194.6974 -12.9531 197.0099 -12.9531 Q198.1661 -12.9531 199.2208 -12.75 Q200.2755 -12.5469 200.9005 -12.3125 L200.2755 -9.5312 Q199.6505 -9.75 198.9161 -9.9141 Q198.1818 -10.0781 197.2755 -10.0781 Q195.588 -10.0781 195.588 -9.1406 Q195.588 -8.9219 195.6583 -8.7578 Q195.7286 -8.5938 195.9474 -8.4375 Q196.1661 -8.2812 196.5411 -8.1016 Q196.9161 -7.9219 197.4943 -7.7031 Q198.6661 -7.2656 199.4318 -6.8516 Q200.1974 -6.4375 200.6427 -5.9453 Q201.088 -5.4531 201.2677 -4.8516 Q201.4474 -4.25 201.4474 -3.4531 Q201.4474 -1.5781 200.0411 -0.6172 Q198.6349 0.3438 196.0724 0.3438 Q194.3849 0.3438 193.2755 0.0547 Q192.1661 -0.2344 191.7286 -0.4375 L192.3224 -3.3438 Q193.2443 -2.9688 194.2052 -2.7656 Q195.1661 -2.5625 196.088 -2.5625 ZM203.9872 -15.7656 L207.5654 -16.3438 L207.5654 -12.625 L211.8622 -12.625 L211.8622 -9.6406 L207.5654 -9.6406 L207.5654 -5.2031 Q207.5654 -4.0781 207.956 -3.4062 Q208.3466 -2.7344 209.5497 -2.7344 Q210.1279 -2.7344 210.7372 -2.8438 Q211.3466 -2.9531 211.8622 -3.1406 L212.3622 -0.3594 Q211.706 -0.0938 210.9169 0.0938 Q210.1279 0.2812 208.9716 0.2812 Q207.5185 0.2812 206.5576 -0.1094 Q205.5966 -0.5 205.0185 -1.2109 Q204.4404 -1.9219 204.2138 -2.9297 Q203.9872 -3.9375 203.9872 -5.1562 L203.9872 -15.7656 ZM222.3561 -9.4531 Q221.8874 -9.5781 221.239 -9.7109 Q220.5905 -9.8438 219.8405 -9.8438 Q219.5124 -9.8438 219.0436 -9.7812 Q218.5749 -9.7188 218.3249 -9.6406 L218.3249 0 L214.7624 0 L214.7624 -11.9531 Q215.7155 -12.2812 217.0202 -12.5859 Q218.3249 -12.8906 219.9343 -12.8906 Q220.2311 -12.8906 220.6374 -12.8516 Q221.0436 -12.8125 221.4499 -12.7578 Q221.8561 -12.7031 222.2624 -12.6172 Q222.6686 -12.5312 222.9655 -12.4062 L222.3561 -9.4531 ZM228.4473 0 L224.8848 0 L224.8848 -12.625 L228.4473 -12.625 L228.4473 0 ZM228.7911 -16.2656 Q228.7911 -15.2812 228.1505 -14.7188 Q227.5098 -14.1562 226.6505 -14.1562 Q225.7911 -14.1562 225.1505 -14.7188 Q224.5098 -15.2812 224.5098 -16.2656 Q224.5098 -17.25 225.1505 -17.8203 Q225.7911 -18.3906 226.6505 -18.3906 Q227.5098 -18.3906 228.1505 -17.8203 Q228.7911 -17.25 228.7911 -16.2656 ZM239.8951 -6.4062 Q239.8951 -9.8594 237.3483 -9.8594 Q236.8014 -9.8594 236.2623 -9.7188 Q235.7233 -9.5781 235.3795 -9.3594 L235.3795 -2.8594 Q235.6451 -2.8125 236.0592 -2.7734 Q236.4733 -2.7344 236.942 -2.7344 Q238.4108 -2.7344 239.153 -3.7422 Q239.8951 -4.75 239.8951 -6.4062 ZM243.5514 -6.3125 Q243.5514 -4.7969 243.1061 -3.5781 Q242.6608 -2.3594 241.817 -1.4922 Q240.9733 -0.625 239.7545 -0.1562 Q238.5358 0.3125 236.9733 0.3125 Q236.317 0.3125 235.6139 0.25 Q234.9108 0.1875 234.2233 0.0938 Q233.5358 0 232.9108 -0.1328 Q232.2858 -0.2656 231.817 -0.4062 L231.817 -18.0469 L235.3795 -18.625 L235.3795 -12.3438 Q235.9889 -12.5938 236.6373 -12.7422 Q237.2858 -12.8906 238.0201 -12.8906 Q239.3639 -12.8906 240.3951 -12.4219 Q241.4264 -11.9531 242.1295 -11.0859 Q242.8326 -10.2188 243.192 -9.0078 Q243.5514 -7.7969 243.5514 -6.3125 ZM257.0707 -0.4375 Q256.1644 -0.1719 254.7191 0.0547 Q253.2738 0.2812 251.6957 0.2812 Q250.0863 0.2812 249.0238 -0.1484 Q247.9613 -0.5781 247.3363 -1.3594 Q246.7113 -2.1406 246.4457 -3.2188 Q246.1801 -4.2969 246.1801 -5.5938 L246.1801 -12.625 L249.7582 -12.625 L249.7582 -6.0312 Q249.7582 -4.2969 250.2113 -3.5312 Q250.6644 -2.7656 251.9144 -2.7656 Q252.3051 -2.7656 252.7347 -2.7969 Q253.1644 -2.8281 253.4926 -2.875 L253.4926 -12.625 L257.0707 -12.625 L257.0707 -0.4375 ZM260.3083 -15.7656 L263.8864 -16.3438 L263.8864 -12.625 L268.1833 -12.625 L268.1833 -9.6406 L263.8864 -9.6406 L263.8864 -5.2031 Q263.8864 -4.0781 264.277 -3.4062 Q264.6677 -2.7344 265.8708 -2.7344 Q266.4489 -2.7344 267.0583 -2.8438 Q267.6677 -2.9531 268.1833 -3.1406 L268.6833 -0.3594 Q268.027 -0.0938 267.238 0.0938 Q266.4489 0.2812 265.2927 0.2812 Q263.8395 0.2812 262.8786 -0.1094 Q261.9177 -0.5 261.3395 -1.2109 Q260.7614 -1.9219 260.5349 -2.9297 Q260.3083 -3.9375 260.3083 -5.1562 L260.3083 -15.7656 ZM274.6459 0 L271.0834 0 L271.0834 -12.625 L274.6459 -12.625 L274.6459 0 ZM274.9897 -16.2656 Q274.9897 -15.2812 274.3491 -14.7188 Q273.7084 -14.1562 272.8491 -14.1562 Q271.9897 -14.1562 271.3491 -14.7188 Q270.7084 -15.2812 270.7084 -16.2656 Q270.7084 -17.25 271.3491 -17.8203 Q271.9897 -18.3906 272.8491 -18.3906 Q273.7084 -18.3906 274.3491 -17.8203 Q274.9897 -17.25 274.9897 -16.2656 ZM289.8125 -6.3438 Q289.8125 -4.8438 289.3828 -3.6094 Q288.9531 -2.375 288.1328 -1.5 Q287.3125 -0.625 286.1797 -0.1406 Q285.0469 0.3438 283.625 0.3438 Q282.2344 0.3438 281.0938 -0.1406 Q279.9531 -0.625 279.1328 -1.5 Q278.3125 -2.375 277.8594 -3.6094 Q277.4062 -4.8438 277.4062 -6.3438 Q277.4062 -7.8281 277.875 -9.0469 Q278.3438 -10.2656 279.1719 -11.1328 Q280 -12 281.1406 -12.4766 Q282.2812 -12.9531 283.625 -12.9531 Q284.9844 -12.9531 286.125 -12.4766 Q287.2656 -12 288.0859 -11.1328 Q288.9062 -10.2656 289.3594 -9.0469 Q289.8125 -7.8281 289.8125 -6.3438 ZM286.1719 -6.3438 Q286.1719 -7.9844 285.5078 -8.9375 Q284.8438 -9.8906 283.625 -9.8906 Q282.4062 -9.8906 281.7344 -8.9375 Q281.0625 -7.9844 281.0625 -6.3438 Q281.0625 -4.6875 281.7344 -3.7109 Q282.4062 -2.7344 283.625 -2.7344 Q284.8438 -2.7344 285.5078 -3.7109 Q286.1719 -4.6875 286.1719 -6.3438 ZM292.5756 -12.1875 Q293.4819 -12.4531 294.9194 -12.6797 Q296.3569 -12.9062 297.9506 -12.9062 Q299.5444 -12.9062 300.6147 -12.4922 Q301.685 -12.0781 302.31 -11.3047 Q302.935 -10.5312 303.2006 -9.4766 Q303.4662 -8.4219 303.4662 -7.125 L303.4662 0 L299.8881 0 L299.8881 -6.7031 Q299.8881 -8.4219 299.435 -9.1406 Q298.9819 -9.8594 297.7319 -9.8594 Q297.3412 -9.8594 296.9116 -9.8281 Q296.4819 -9.7969 296.1381 -9.75 L296.1381 0 L292.5756 0 L292.5756 -12.1875 ZM317.9294 -18.625 Q318.9294 -18.625 319.7732 -18.4219 Q320.6169 -18.2188 321.0701 -18.0312 L320.3669 -15.1719 Q319.8982 -15.3906 319.3279 -15.4922 Q318.7576 -15.5938 318.2888 -15.5938 Q317.6326 -15.5938 317.1873 -15.4141 Q316.7419 -15.2344 316.4919 -14.9219 Q316.2419 -14.6094 316.1326 -14.1797 Q316.0232 -13.75 316.0232 -13.25 L316.0232 -12.625 L320.4451 -12.625 L320.4451 -9.6406 L316.0232 -9.6406 L316.0232 0 L312.4607 0 L312.4607 -13.2969 Q312.4607 -15.75 313.8357 -17.1875 Q315.2107 -18.625 317.9294 -18.625 ZM334.38 -6.3438 Q334.38 -4.8438 333.9503 -3.6094 Q333.5206 -2.375 332.7003 -1.5 Q331.88 -0.625 330.7472 -0.1406 Q329.6144 0.3438 328.1925 0.3438 Q326.8019 0.3438 325.6613 -0.1406 Q324.5206 -0.625 323.7003 -1.5 Q322.88 -2.375 322.4269 -3.6094 Q321.9738 -4.8438 321.9738 -6.3438 Q321.9738 -7.8281 322.4425 -9.0469 Q322.9113 -10.2656 323.7394 -11.1328 Q324.5675 -12 325.7081 -12.4766 Q326.8488 -12.9531 328.1925 -12.9531 Q329.5519 -12.9531 330.6925 -12.4766 Q331.8331 -12 332.6534 -11.1328 Q333.4738 -10.2656 333.9269 -9.0469 Q334.38 -7.8281 334.38 -6.3438 ZM330.7394 -6.3438 Q330.7394 -7.9844 330.0753 -8.9375 Q329.4113 -9.8906 328.1925 -9.8906 Q326.9738 -9.8906 326.3019 -8.9375 Q325.63 -7.9844 325.63 -6.3438 Q325.63 -4.6875 326.3019 -3.7109 Q326.9738 -2.7344 328.1925 -2.7344 Q329.4113 -2.7344 330.0753 -3.7109 Q330.7394 -4.6875 330.7394 -6.3438 ZM344.7369 -9.4531 Q344.2681 -9.5781 343.6197 -9.7109 Q342.9713 -9.8438 342.2213 -9.8438 Q341.8931 -9.8438 341.4244 -9.7812 Q340.9556 -9.7188 340.7056 -9.6406 L340.7056 0 L337.1431 0 L337.1431 -11.9531 Q338.0963 -12.2812 339.4009 -12.5859 Q340.7056 -12.8906 342.315 -12.8906 Q342.6119 -12.8906 343.0181 -12.8516 Q343.4244 -12.8125 343.8306 -12.7578 Q344.2369 -12.7031 344.6431 -12.6172 Q345.0494 -12.5312 345.3463 -12.4062 L344.7369 -9.4531 Z"
    /></g
    ><g transform="translate(2033,126)" style="font-size:24px; text-rendering:geometricPrecision; image-rendering:optimizeQuality; color-rendering:optimizeQuality; font-family:'mwb_cmmi10'; color-interpolation:linearRGB; font-weight:bold;"
    ><path style="stroke:none;" d="M0.6719 4.5156 Q0.6719 4.375 0.6875 4.3281 L4.2188 -9.8438 Q4.3281 -10.1875 4.6016 -10.3984 Q4.875 -10.6094 5.2344 -10.6094 Q6.5312 -10.6094 6.7422 -10.4297 Q6.9531 -10.25 6.9531 -9.9375 Q6.9531 -9.875 6.9453 -9.8281 Q6.9375 -9.7812 6.9375 -9.7344 L5.5156 -4.125 Q5.2812 -3.125 5.2812 -2.4062 Q5.2812 -1.5156 5.7031 -0.9375 Q6.125 -0.3594 6.125 -0.3594 Q7.7188 -0.3594 9.0469 -2.5469 Q9.0625 -2.5625 9.0703 -2.5781 Q9.0781 -2.5938 9.0781 -2.6094 L10.8125 -9.5781 Q10.8906 -9.8906 11.1797 -10.1172 Q11.4688 -10.3438 11.8125 -10.3438 Q13.0938 -10.3438 13.3125 -10.1562 Q13.5312 -9.9688 13.5312 -9.6719 Q13.5312 -9.5312 13.5 -9.4844 L11.7812 -2.5625 Q11.6094 -1.8906 11.6094 -1.3906 Q11.6094 -0.3594 11.6094 -0.3594 Q12.0625 -0.3594 12.4453 -1.2891 Q12.8281 -2.2188 13.1094 -3.5312 Q13.1562 -3.6719 13.2969 -3.6719 L13.5781 -3.6719 Q14.6719 -3.6719 14.7422 -3.5938 Q14.8125 -3.5156 14.8125 -3.4375 Q14.3906 -1.7656 13.8906 -0.75 Q13.3906 0.2656 11.2656 0.2656 Q10.4688 0.2656 9.8516 -0.1875 Q9.2344 -0.6406 9.2344 -0.6406 Q9.2344 -0.6406 8.5391 -0.1875 Q7.8438 0.2656 5.9531 0.2656 Q4.4531 0.2656 4.3125 0.1406 L3.375 4.4219 Q3.3125 4.7656 3.0312 4.9766 Q2.75 5.1875 1.3906 5.1875 Q1.1094 5.1875 0.8906 5 Q0.6719 4.8125 0.6719 4.5156 Z"
    /></g
    ><g transform="translate(2049,126)" style="font-size:24px; text-rendering:geometricPrecision; image-rendering:optimizeQuality; color-rendering:optimizeQuality; font-family:'Ubuntu'; color-interpolation:linearRGB; font-weight:bold;"
    ><path style="stroke:none;" d="M6.9287 -6.0312 L18.21 -6.0312 L18.21 -3.0312 L6.9287 -3.0312 L6.9287 -6.0312 ZM6.9287 -11.2812 L18.21 -11.2812 L18.21 -8.2812 L6.9287 -8.2812 L6.9287 -11.2812 ZM26.8257 -13.1719 Q27.5132 -13.4688 28.271 -13.8359 Q29.0288 -14.2031 29.7476 -14.6484 Q30.4663 -15.0938 31.1226 -15.5859 Q31.7788 -16.0781 32.3101 -16.625 L34.8101 -16.625 L34.8101 0 L31.2319 0 L31.2319 -11.9688 Q30.5132 -11.5 29.6226 -11.1016 Q28.7319 -10.7031 27.9038 -10.4219 L26.8257 -13.1719 ZM43.8252 -3.6406 Q43.8721 -3.0781 43.8877 -2.8359 Q43.9033 -2.5938 43.9033 -2.4219 Q43.9033 -1.7031 43.7705 -0.8984 Q43.6377 -0.0938 43.3955 0.7188 Q43.1533 1.5312 42.7939 2.3516 Q42.4346 3.1719 41.9814 3.9062 L39.1689 3.2188 Q39.7158 1.625 39.9346 0.2344 Q40.1533 -1.1562 40.1533 -2.0625 Q40.1533 -2.2031 40.1455 -2.4297 Q40.1377 -2.6562 40.1221 -2.8984 Q40.1064 -3.1406 40.0908 -3.3594 Q40.0752 -3.5781 40.0752 -3.6406 L43.8252 -3.6406 Z"
    /></g
    ><g transform="translate(2100,126)" style="font-size:24px; text-rendering:geometricPrecision; image-rendering:optimizeQuality; color-rendering:optimizeQuality; font-family:'mwb_cmmi10'; color-interpolation:linearRGB; font-weight:bold;"
    ><path style="stroke:none;" d="M4.8281 0.2656 Q3.6875 0.2656 2.8047 -0.2734 Q1.9219 -0.8125 1.4453 -1.7266 Q0.9688 -2.6406 0.9688 -3.7969 Q0.9688 -5.4219 1.875 -7.0156 Q2.7812 -8.6094 4.2891 -9.6094 Q5.7969 -10.6094 7.4375 -10.6094 Q9.6562 -10.6094 10.5859 -9.9688 Q11.5156 -9.3281 11.9922 -8.2656 Q12.4688 -7.2031 12.4688 -6 L12.4688 -5.125 Q12.4688 -5.5312 12.9609 -6.7578 Q13.4531 -7.9844 13.7656 -9.2969 Q13.8125 -9.4375 13.9531 -9.4375 L14.2344 -9.4375 Q15.4531 -9.4375 15.4531 -9.2188 Q15.4531 -9.1875 15.4219 -9.1406 Q15.1406 -8.0469 14.7188 -7.0312 Q14.2969 -6.0156 13.7344 -5.0625 Q13.1719 -4.1094 12.5 -3.3438 Q12.5 -0.3594 12.5 -0.3594 Q12.6406 -0.3594 12.9219 -0.625 Q13.2031 -0.8906 13.4219 -1.2812 Q13.6406 -1.6719 13.7031 -1.6719 L14 -1.6719 Q15.1875 -1.6719 15.1875 -1.4375 Q15.1875 -0.8438 14.5 -0.2891 Q13.8125 0.2656 12.1406 0.2656 Q11.2812 0.2656 10.7031 -0.2969 Q10.125 -0.8594 10.0781 -1.0312 Q9.7969 -0.7969 8.4844 -0.2656 Q7.1719 0.2656 4.8281 0.2656 ZM4.875 -0.3594 Q7.4375 -0.3594 9.7969 -2.4688 Q9.7812 -2.6094 9.7578 -2.8203 Q9.7344 -3.0312 9.7344 -3.0469 L9.7344 -5.6406 Q9.7344 -9.9844 7.3906 -9.9844 Q6.9844 -9.9844 5.9297 -8.7812 Q4.875 -7.5781 4.3438 -5.9141 Q3.8125 -4.25 3.8125 -2.8594 Q3.8125 -1.8125 4.3438 -1.0859 Q4.875 -0.3594 4.875 -0.3594 Z"
    /></g
    ><g transform="translate(2117,126)" style="font-size:24px; text-rendering:geometricPrecision; image-rendering:optimizeQuality; color-rendering:optimizeQuality; font-family:'Ubuntu'; color-interpolation:linearRGB; font-weight:bold;"
    ><path style="stroke:none;" d="M6.9287 -6.0312 L18.21 -6.0312 L18.21 -3.0312 L6.9287 -3.0312 L6.9287 -6.0312 ZM6.9287 -11.2812 L18.21 -11.2812 L18.21 -8.2812 L6.9287 -8.2812 L6.9287 -11.2812 ZM37.9507 -8.3594 Q37.9507 -4.1562 36.3569 -1.9062 Q34.7632 0.3438 31.9507 0.3438 Q29.1538 0.3438 27.5522 -1.9062 Q25.9507 -4.1562 25.9507 -8.3594 Q25.9507 -10.4375 26.3726 -12.0469 Q26.7944 -13.6562 27.5835 -14.7578 Q28.3726 -15.8594 29.4819 -16.4375 Q30.5913 -17.0156 31.9507 -17.0156 Q34.7632 -17.0156 36.3569 -14.7734 Q37.9507 -12.5312 37.9507 -8.3594 ZM34.3101 -8.3594 Q34.3101 -9.5938 34.1851 -10.6172 Q34.0601 -11.6406 33.8022 -12.3828 Q33.5444 -13.125 33.0835 -13.5312 Q32.6226 -13.9375 31.9507 -13.9375 Q31.2788 -13.9375 30.8335 -13.5312 Q30.3882 -13.125 30.1147 -12.3828 Q29.8413 -11.6406 29.7241 -10.6172 Q29.6069 -9.5938 29.6069 -8.3594 Q29.6069 -7.1094 29.7241 -6.0781 Q29.8413 -5.0469 30.1147 -4.2969 Q30.3882 -3.5469 30.8335 -3.1406 Q31.2788 -2.7344 31.9507 -2.7344 Q32.6226 -2.7344 33.0835 -3.1406 Q33.5444 -3.5469 33.8022 -4.2969 Q34.0601 -5.0469 34.1851 -6.0781 Q34.3101 -7.1094 34.3101 -8.3594 ZM43.9502 -1.8906 Q43.9502 -0.8125 43.2627 -0.25 Q42.5752 0.3125 41.7158 0.3125 Q40.8564 0.3125 40.1689 -0.25 Q39.4814 -0.8125 39.4814 -1.8906 Q39.4814 -2.9688 40.1689 -3.5391 Q40.8564 -4.1094 41.7158 -4.1094 Q42.5752 -4.1094 43.2627 -3.5391 Q43.9502 -2.9688 43.9502 -1.8906 ZM48.0697 0 Q48.2103 -1.75 48.6713 -3.6484 Q49.1322 -5.5469 49.7885 -7.3672 Q50.4447 -9.1875 51.265 -10.8125 Q52.0853 -12.4375 52.9135 -13.6094 L45.6947 -13.6094 L45.6947 -16.6562 L57.3353 -16.6562 L57.3353 -14.0625 Q56.5697 -13.2188 55.6478 -11.7344 Q54.726 -10.25 53.8978 -8.3672 Q53.0697 -6.4844 52.4525 -4.3203 Q51.8353 -2.1562 51.6947 0 L48.0697 0 ZM71.1005 -8.3594 Q71.1005 -4.1562 69.5067 -1.9062 Q67.913 0.3438 65.1005 0.3438 Q62.3036 0.3438 60.702 -1.9062 Q59.1005 -4.1562 59.1005 -8.3594 Q59.1005 -10.4375 59.5223 -12.0469 Q59.9442 -13.6562 60.7333 -14.7578 Q61.5223 -15.8594 62.6317 -16.4375 Q63.7411 -17.0156 65.1005 -17.0156 Q67.913 -17.0156 69.5067 -14.7734 Q71.1005 -12.5312 71.1005 -8.3594 ZM67.4598 -8.3594 Q67.4598 -9.5938 67.3348 -10.6172 Q67.2098 -11.6406 66.952 -12.3828 Q66.6942 -13.125 66.2333 -13.5312 Q65.7723 -13.9375 65.1005 -13.9375 Q64.4286 -13.9375 63.9833 -13.5312 Q63.538 -13.125 63.2645 -12.3828 Q62.9911 -11.6406 62.8739 -10.6172 Q62.7567 -9.5938 62.7567 -8.3594 Q62.7567 -7.1094 62.8739 -6.0781 Q62.9911 -5.0469 63.2645 -4.2969 Q63.538 -3.5469 63.9833 -3.1406 Q64.4286 -2.7344 65.1005 -2.7344 Q65.7723 -2.7344 66.2333 -3.1406 Q66.6942 -3.5469 66.952 -4.2969 Q67.2098 -5.0469 67.3348 -6.0781 Q67.4598 -7.1094 67.4598 -8.3594 Z"
    /></g
    ><g style="stroke-linecap:butt; fill:rgb(38,38,38); text-rendering:geometricPrecision; color-rendering:optimizeQuality; image-rendering:optimizeQuality; stroke-linejoin:round; stroke:rgb(38,38,38); color-interpolation:linearRGB;"
    ><line y2="1719" style="fill:none;" x1="480" x2="3345" y1="1719"
    /></g
    ><g style="fill:rgb(0,114,189); text-rendering:optimizeSpeed; color-rendering:optimizeSpeed; image-rendering:optimizeSpeed; shape-rendering:crispEdges; stroke:rgb(0,114,189); color-interpolation:sRGB;"
    ><path style="stroke:none;" d="M750.7087 1719 L750.7087 1197.7242 L705.5906 1197.7242 L705.5906 1719 ZM807.1063 1719 L807.1063 713.5234 L761.9882 713.5234 L761.9882 1719 ZM863.504 1719 L863.504 785.4519 L818.3858 785.4519 L818.3858 1719 ZM919.9016 1719 L919.9016 848.1938 L874.7834 848.1938 L874.7834 1719 ZM976.2992 1719 L976.2992 428.6862 L931.1811 428.6862 L931.1811 1719 ZM1032.6968 1719 L1032.6968 145 L987.5787 145 L987.5787 1719 ZM1089.0945 1719 L1089.0945 407.8201 L1043.9764 407.8201 L1043.9764 1719 ZM1145.4921 1719 L1145.4921 624.9777 L1100.374 624.9777 L1100.374 1719 ZM1201.8898 1719 L1201.8898 505.5027 L1156.7717 505.5027 L1156.7717 1719 ZM1258.2874 1719 L1258.2874 576.6454 L1213.1693 576.6454 L1213.1693 1719 ZM1314.6851 1719 L1314.6851 949.8687 L1269.5669 949.8687 L1269.5669 1719 ZM1371.0826 1719 L1371.0826 1205.7731 L1325.9646 1205.7731 L1325.9646 1719 ZM1427.4803 1719 L1427.4803 1304.1299 L1382.3622 1304.1299 L1382.3622 1719 ZM1483.8779 1719 L1483.8779 1453.4639 L1438.7599 1453.4639 L1438.7599 1719 ZM1540.2755 1719 L1540.2755 1602.0156 L1495.1575 1602.0156 L1495.1575 1719 ZM1596.6732 1719 L1596.6732 1669.2539 L1551.5552 1669.2539 L1551.5552 1719 ZM1653.0708 1719 L1653.0708 1695.7889 L1607.9528 1695.7889 L1607.9528 1719 ZM1709.4685 1719 L1709.4685 1711.6508 L1664.3505 1711.6508 L1664.3505 1719 ZM1765.8661 1719 L1765.8661 1717.6831 L1720.748 1717.6831 L1720.748 1719 ZM1822.2638 1719 L1822.2638 1718.6823 L1777.1456 1718.6823 L1777.1456 1719 ZM1878.6614 1719 L1878.6614 1718.936 L1833.5433 1718.936 L1833.5433 1719 ZM1935.0591 1719 L1935.0591 1718.9878 L1889.9409 1718.9878 L1889.9409 1719 ZM1991.4567 1719 L1991.4567 1718.9996 L1946.3386 1718.9996 L1946.3386 1719 ZM2047.8544 1719 L2047.8544 1718.9999 L2002.7362 1718.9999 L2002.7362 1719 Z"
    /></g
    ><g style="text-rendering:geometricPrecision; color-rendering:optimizeQuality; color-interpolation:linearRGB; stroke-linecap:butt; image-rendering:optimizeQuality;"
    ><path d="M480 1719 L480 1719 L525.1181 1719 L525.1181 1719 Z" style="fill:none; fill-rule:evenodd;"
      /><path d="M536.3976 1719 L536.3976 1719 L581.5157 1719 L581.5157 1719 Z" style="fill:none; fill-rule:evenodd;"
      /><path d="M592.7953 1719 L592.7953 1719 L637.9134 1719 L637.9134 1719 Z" style="fill:none; fill-rule:evenodd;"
      /><path d="M649.1929 1719 L649.1929 1719 L694.311 1719 L694.311 1719 Z" style="fill:none; fill-rule:evenodd;"
      /><path d="M705.5906 1719 L705.5906 1197.7242 L750.7087 1197.7242 L750.7087 1719 Z" style="fill:none; fill-rule:evenodd;"
      /><path d="M761.9882 1719 L761.9882 713.5234 L807.1063 713.5234 L807.1063 1719 Z" style="fill:none; fill-rule:evenodd;"
      /><path d="M818.3858 1719 L818.3858 785.4519 L863.504 785.4519 L863.504 1719 Z" style="fill:none; fill-rule:evenodd;"
      /><path d="M874.7834 1719 L874.7834 848.1938 L919.9016 848.1938 L919.9016 1719 Z" style="fill:none; fill-rule:evenodd;"
      /><path d="M931.1811 1719 L931.1811 428.6862 L976.2992 428.6862 L976.2992 1719 Z" style="fill:none; fill-rule:evenodd;"
      /><path d="M987.5787 1719 L987.5787 145 L1032.6968 145 L1032.6968 1719 Z" style="fill:none; fill-rule:evenodd;"
      /><path d="M1043.9764 1719 L1043.9764 407.8201 L1089.0945 407.8201 L1089.0945 1719 Z" style="fill:none; fill-rule:evenodd;"
      /><path d="M1100.374 1719 L1100.374 624.9777 L1145.4921 624.9777 L1145.4921 1719 Z" style="fill:none; fill-rule:evenodd;"
      /><path d="M1156.7717 1719 L1156.7717 505.5027 L1201.8898 505.5027 L1201.8898 1719 Z" style="fill:none; fill-rule:evenodd;"
      /><path d="M1213.1693 1719 L1213.1693 576.6454 L1258.2874 576.6454 L1258.2874 1719 Z" style="fill:none; fill-rule:evenodd;"
      /><path d="M1269.5669 1719 L1269.5669 949.8687 L1314.6851 949.8687 L1314.6851 1719 Z" style="fill:none; fill-rule:evenodd;"
      /><path d="M1325.9646 1719 L1325.9646 1205.7731 L1371.0826 1205.7731 L1371.0826 1719 Z" style="fill:none; fill-rule:evenodd;"
      /><path d="M1382.3622 1719 L1382.3622 1304.1299 L1427.4803 1304.1299 L1427.4803 1719 Z" style="fill:none; fill-rule:evenodd;"
      /><path d="M1438.7599 1719 L1438.7599 1453.4639 L1483.8779 1453.4639 L1483.8779 1719 Z" style="fill:none; fill-rule:evenodd;"
      /><path d="M1495.1575 1719 L1495.1575 1602.0156 L1540.2755 1602.0156 L1540.2755 1719 Z" style="fill:none; fill-rule:evenodd;"
      /><path d="M1551.5552 1719 L1551.5552 1669.2539 L1596.6732 1669.2539 L1596.6732 1719 Z" style="fill:none; fill-rule:evenodd;"
      /><path d="M1607.9528 1719 L1607.9528 1695.7889 L1653.0708 1695.7889 L1653.0708 1719 Z" style="fill:none; fill-rule:evenodd;"
      /><path d="M1664.3505 1719 L1664.3505 1711.6508 L1709.4685 1711.6508 L1709.4685 1719 Z" style="fill:none; fill-rule:evenodd;"
      /><path d="M1720.748 1719 L1720.748 1717.6831 L1765.8661 1717.6831 L1765.8661 1719 Z" style="fill:none; fill-rule:evenodd;"
      /><path d="M1777.1456 1719 L1777.1456 1718.6823 L1822.2638 1718.6823 L1822.2638 1719 Z" style="fill:none; fill-rule:evenodd;"
      /><path d="M1833.5433 1719 L1833.5433 1718.936 L1878.6614 1718.936 L1878.6614 1719 Z" style="fill:none; fill-rule:evenodd;"
      /><path d="M1889.9409 1719 L1889.9409 1718.9878 L1935.0591 1718.9878 L1935.0591 1719 Z" style="fill:none; fill-rule:evenodd;"
      /><path d="M1946.3386 1719 L1946.3386 1718.9996 L1991.4567 1718.9996 L1991.4567 1719 Z" style="fill:none; fill-rule:evenodd;"
      /><path d="M2002.7362 1719 L2002.7362 1718.9999 L2047.8544 1718.9999 L2047.8544 1719 Z" style="fill:none; fill-rule:evenodd;"
      /><path d="M2059.1338 1719 L2059.1338 1719 L2104.252 1719 L2104.252 1719 Z" style="fill:none; fill-rule:evenodd;"
      /><path d="M2115.5315 1719 L2115.5315 1719 L2160.6497 1719 L2160.6497 1719 Z" style="fill:none; fill-rule:evenodd;"
      /><path d="M2171.9292 1719 L2171.9292 1719 L2217.0471 1719 L2217.0471 1719 Z" style="fill:none; fill-rule:evenodd;"
      /><path d="M2228.3269 1719 L2228.3269 1719 L2273.4448 1719 L2273.4448 1719 Z" style="fill:none; fill-rule:evenodd;"
      /><path d="M2284.7244 1719 L2284.7244 1719 L2329.8425 1719 L2329.8425 1719 Z" style="fill:none; fill-rule:evenodd;"
      /><path d="M2341.1221 1719 L2341.1221 1719 L2386.2402 1719 L2386.2402 1719 Z" style="fill:none; fill-rule:evenodd;"
      /><path d="M2397.5195 1719 L2397.5195 1719 L2442.6379 1719 L2442.6379 1719 Z" style="fill:none; fill-rule:evenodd;"
      /><path d="M2453.9172 1719 L2453.9172 1719 L2499.0354 1719 L2499.0354 1719 Z" style="fill:none; fill-rule:evenodd;"
      /><path d="M2510.3149 1719 L2510.3149 1719 L2555.4331 1719 L2555.4331 1719 Z" style="fill:none; fill-rule:evenodd;"
      /><path d="M2566.7124 1719 L2566.7124 1719 L2611.8308 1719 L2611.8308 1719 Z" style="fill:none; fill-rule:evenodd;"
      /><path d="M2623.1101 1719 L2623.1101 1719 L2668.2285 1719 L2668.2285 1719 Z" style="fill:none; fill-rule:evenodd;"
      /><path d="M2679.5078 1719 L2679.5078 1719 L2724.626 1719 L2724.626 1719 Z" style="fill:none; fill-rule:evenodd;"
      /><path d="M2735.9055 1719 L2735.9055 1719 L2781.0237 1719 L2781.0237 1719 Z" style="fill:none; fill-rule:evenodd;"
      /><path d="M2792.303 1719 L2792.303 1719 L2837.4214 1719 L2837.4214 1719 Z" style="fill:none; fill-rule:evenodd;"
      /><path d="M2848.7007 1719 L2848.7007 1719 L2893.8191 1719 L2893.8191 1719 Z" style="fill:none; fill-rule:evenodd;"
      /><path d="M2905.0984 1719 L2905.0984 1719 L2950.2166 1719 L2950.2166 1719 Z" style="fill:none; fill-rule:evenodd;"
      /><path d="M2961.4961 1719 L2961.4961 1719 L3006.6143 1719 L3006.6143 1719 Z" style="fill:none; fill-rule:evenodd;"
      /><path d="M3017.8936 1719 L3017.8936 1719 L3063.012 1719 L3063.012 1719 Z" style="fill:none; fill-rule:evenodd;"
      /><path d="M3074.2913 1719 L3074.2913 1719 L3119.4094 1719 L3119.4094 1719 Z" style="fill:none; fill-rule:evenodd;"
      /><path d="M3130.689 1719 L3130.689 1719 L3175.8071 1719 L3175.8071 1719 Z" style="fill:none; fill-rule:evenodd;"
      /><path d="M3187.0864 1719 L3187.0864 1719 L3232.2048 1719 L3232.2048 1719 Z" style="fill:none; fill-rule:evenodd;"
      /><path d="M3243.4841 1719 L3243.4841 1719 L3288.6025 1719 L3288.6025 1719 Z" style="fill:none; fill-rule:evenodd;"
      /><path d="M3299.8818 1719 L3299.8818 1719 L3345 1719 L3345 1719 Z" style="fill:none; fill-rule:evenodd;"
    /></g
    ><g style="fill:rgb(38,38,38); text-rendering:geometricPrecision; color-rendering:optimizeQuality; image-rendering:optimizeQuality; stroke-linejoin:round; stroke:rgb(38,38,38); color-interpolation:linearRGB;"
    ><line y2="1719" style="fill:none;" x1="480" x2="3345" y1="1719"
      /><line y2="145" style="fill:none;" x1="480" x2="3345" y1="145"
      /><line y2="1690.35" style="fill:none;" x1="502.5591" x2="502.5591" y1="1719"
      /><line y2="1690.35" style="fill:none;" x1="784.5472" x2="784.5472" y1="1719"
      /><line y2="1690.35" style="fill:none;" x1="1066.5354" x2="1066.5354" y1="1719"
      /><line y2="1690.35" style="fill:none;" x1="1348.5237" x2="1348.5237" y1="1719"
      /><line y2="1690.35" style="fill:none;" x1="1630.5118" x2="1630.5118" y1="1719"
      /><line y2="1690.35" style="fill:none;" x1="1912.5" x2="1912.5" y1="1719"
      /><line y2="1690.35" style="fill:none;" x1="2194.4883" x2="2194.4883" y1="1719"
      /><line y2="1690.35" style="fill:none;" x1="2476.4763" x2="2476.4763" y1="1719"
      /><line y2="1690.35" style="fill:none;" x1="2758.4646" x2="2758.4646" y1="1719"
      /><line y2="1690.35" style="fill:none;" x1="3040.4526" x2="3040.4526" y1="1719"
      /><line y2="1690.35" style="fill:none;" x1="3322.4409" x2="3322.4409" y1="1719"
      /><line y2="173.65" style="fill:none;" x1="502.5591" x2="502.5591" y1="145"
      /><line y2="173.65" style="fill:none;" x1="784.5472" x2="784.5472" y1="145"
      /><line y2="173.65" style="fill:none;" x1="1066.5354" x2="1066.5354" y1="145"
      /><line y2="173.65" style="fill:none;" x1="1348.5237" x2="1348.5237" y1="145"
      /><line y2="173.65" style="fill:none;" x1="1630.5118" x2="1630.5118" y1="145"
      /><line y2="173.65" style="fill:none;" x1="1912.5" x2="1912.5" y1="145"
      /><line y2="173.65" style="fill:none;" x1="2194.4883" x2="2194.4883" y1="145"
      /><line y2="173.65" style="fill:none;" x1="2476.4763" x2="2476.4763" y1="145"
      /><line y2="173.65" style="fill:none;" x1="2758.4646" x2="2758.4646" y1="145"
      /><line y2="173.65" style="fill:none;" x1="3040.4526" x2="3040.4526" y1="145"
      /><line y2="173.65" style="fill:none;" x1="3322.4409" x2="3322.4409" y1="145"
    /></g
    ><g transform="translate(502.5591,1727)" style="font-size:20px; fill:rgb(38,38,38); text-rendering:geometricPrecision; image-rendering:optimizeQuality; color-rendering:optimizeQuality; font-family:'SansSerif'; stroke:rgb(38,38,38); color-interpolation:linearRGB;"
    ><path style="stroke:none;" d="M-0.1406 5.7188 Q-1.6719 5.7188 -2.4375 7.2188 Q-3.2031 8.7188 -3.2031 11.7188 Q-3.2031 14.7188 -2.4375 16.2188 Q-1.6719 17.7188 -0.1406 17.7188 Q1.3906 17.7188 2.1562 16.2188 Q2.9219 14.7188 2.9219 11.7188 Q2.9219 8.7188 2.1562 7.2188 Q1.3906 5.7188 -0.1406 5.7188 ZM-0.1406 4.1562 Q2.3125 4.1562 3.6016 6.0938 Q4.8906 8.0312 4.8906 11.7188 Q4.8906 15.4062 3.6016 17.3438 Q2.3125 19.2812 -0.1406 19.2812 Q-2.5938 19.2812 -3.8906 17.3438 Q-5.1875 15.4062 -5.1875 11.7188 Q-5.1875 8.0312 -3.8906 6.0938 Q-2.5938 4.1562 -0.1406 4.1562 Z"
    /></g
    ><g transform="translate(784.5472,1727)" style="font-size:20px; fill:rgb(38,38,38); text-rendering:geometricPrecision; image-rendering:optimizeQuality; color-rendering:optimizeQuality; font-family:'SansSerif'; stroke:rgb(38,38,38); color-interpolation:linearRGB;"
    ><path style="stroke:none;" d="M-4.3438 4.4219 L3.4062 4.4219 L3.4062 6.0781 L-2.5312 6.0781 L-2.5312 9.6562 Q-2.1094 9.5 -1.6797 9.4297 Q-1.25 9.3594 -0.8125 9.3594 Q1.625 9.3594 3.0547 10.6953 Q4.4844 12.0312 4.4844 14.3281 Q4.4844 16.6719 3.0156 17.9766 Q1.5469 19.2812 -1.125 19.2812 Q-2.0312 19.2812 -2.9844 19.125 Q-3.9375 18.9688 -4.9531 18.6562 L-4.9531 16.6719 Q-4.0781 17.1562 -3.1406 17.3906 Q-2.2031 17.625 -1.1562 17.625 Q0.5312 17.625 1.5156 16.7344 Q2.5 15.8438 2.5 14.3281 Q2.5 12.7969 1.5156 11.9062 Q0.5312 11.0156 -1.1562 11.0156 Q-1.9531 11.0156 -2.7344 11.1953 Q-3.5156 11.375 -4.3438 11.75 L-4.3438 4.4219 Z"
    /></g
    ><g transform="translate(1066.5354,1727)" style="font-size:20px; fill:rgb(38,38,38); text-rendering:geometricPrecision; image-rendering:optimizeQuality; color-rendering:optimizeQuality; font-family:'SansSerif'; stroke:rgb(38,38,38); color-interpolation:linearRGB;"
    ><path style="stroke:none;" d="M-10.5156 17.3438 L-7.2969 17.3438 L-7.2969 6.2188 L-10.7969 6.9219 L-10.7969 5.125 L-7.3125 4.4219 L-5.3438 4.4219 L-5.3438 17.3438 L-2.125 17.3438 L-2.125 19 L-10.5156 19 L-10.5156 17.3438 ZM6.084 5.7188 Q4.5527 5.7188 3.7871 7.2188 Q3.0215 8.7188 3.0215 11.7188 Q3.0215 14.7188 3.7871 16.2188 Q4.5527 17.7188 6.084 17.7188 Q7.6152 17.7188 8.3809 16.2188 Q9.1465 14.7188 9.1465 11.7188 Q9.1465 8.7188 8.3809 7.2188 Q7.6152 5.7188 6.084 5.7188 ZM6.084 4.1562 Q8.5371 4.1562 9.8262 6.0938 Q11.1152 8.0312 11.1152 11.7188 Q11.1152 15.4062 9.8262 17.3438 Q8.5371 19.2812 6.084 19.2812 Q3.6309 19.2812 2.334 17.3438 Q1.0371 15.4062 1.0371 11.7188 Q1.0371 8.0312 2.334 6.0938 Q3.6309 4.1562 6.084 4.1562 Z"
    /></g
    ><g transform="translate(1348.5237,1727)" style="font-size:20px; fill:rgb(38,38,38); text-rendering:geometricPrecision; image-rendering:optimizeQuality; color-rendering:optimizeQuality; font-family:'SansSerif'; stroke:rgb(38,38,38); color-interpolation:linearRGB;"
    ><path style="stroke:none;" d="M-10.5156 17.3438 L-7.2969 17.3438 L-7.2969 6.2188 L-10.7969 6.9219 L-10.7969 5.125 L-7.3125 4.4219 L-5.3438 4.4219 L-5.3438 17.3438 L-2.125 17.3438 L-2.125 19 L-10.5156 19 L-10.5156 17.3438 ZM1.8809 4.4219 L9.6309 4.4219 L9.6309 6.0781 L3.6934 6.0781 L3.6934 9.6562 Q4.1152 9.5 4.5449 9.4297 Q4.9746 9.3594 5.4121 9.3594 Q7.8496 9.3594 9.2793 10.6953 Q10.709 12.0312 10.709 14.3281 Q10.709 16.6719 9.2402 17.9766 Q7.7715 19.2812 5.0996 19.2812 Q4.1934 19.2812 3.2402 19.125 Q2.2871 18.9688 1.2715 18.6562 L1.2715 16.6719 Q2.1465 17.1562 3.084 17.3906 Q4.0215 17.625 5.0684 17.625 Q6.7559 17.625 7.7402 16.7344 Q8.7246 15.8438 8.7246 14.3281 Q8.7246 12.7969 7.7402 11.9062 Q6.7559 11.0156 5.0684 11.0156 Q4.2715 11.0156 3.4902 11.1953 Q2.709 11.375 1.8809 11.75 L1.8809 4.4219 Z"
    /></g
    ><g transform="translate(1630.5118,1727)" style="font-size:20px; fill:rgb(38,38,38); text-rendering:geometricPrecision; image-rendering:optimizeQuality; color-rendering:optimizeQuality; font-family:'SansSerif'; stroke:rgb(38,38,38); color-interpolation:linearRGB;"
    ><path style="stroke:none;" d="M-9.1562 17.3438 L-2.2812 17.3438 L-2.2812 19 L-11.5312 19 L-11.5312 17.3438 Q-10.4062 16.1719 -8.4688 14.2188 Q-6.5312 12.2656 -6.0312 11.6875 Q-5.0938 10.625 -4.7188 9.8906 Q-4.3438 9.1562 -4.3438 8.4375 Q-4.3438 7.2812 -5.1562 6.5469 Q-5.9688 5.8125 -7.2812 5.8125 Q-8.2031 5.8125 -9.2344 6.1328 Q-10.2656 6.4531 -11.4375 7.1094 L-11.4375 5.125 Q-10.25 4.6406 -9.2109 4.3984 Q-8.1719 4.1562 -7.3125 4.1562 Q-5.0469 4.1562 -3.7031 5.2891 Q-2.3594 6.4219 -2.3594 8.3125 Q-2.3594 9.2188 -2.6953 10.0234 Q-3.0312 10.8281 -3.9219 11.9219 Q-4.1562 12.2031 -5.4688 13.5547 Q-6.7812 14.9062 -9.1562 17.3438 ZM6.084 5.7188 Q4.5527 5.7188 3.7871 7.2188 Q3.0215 8.7188 3.0215 11.7188 Q3.0215 14.7188 3.7871 16.2188 Q4.5527 17.7188 6.084 17.7188 Q7.6152 17.7188 8.3809 16.2188 Q9.1465 14.7188 9.1465 11.7188 Q9.1465 8.7188 8.3809 7.2188 Q7.6152 5.7188 6.084 5.7188 ZM6.084 4.1562 Q8.5371 4.1562 9.8262 6.0938 Q11.1152 8.0312 11.1152 11.7188 Q11.1152 15.4062 9.8262 17.3438 Q8.5371 19.2812 6.084 19.2812 Q3.6309 19.2812 2.334 17.3438 Q1.0371 15.4062 1.0371 11.7188 Q1.0371 8.0312 2.334 6.0938 Q3.6309 4.1562 6.084 4.1562 Z"
    /></g
    ><g transform="translate(1912.5,1727)" style="font-size:20px; fill:rgb(38,38,38); text-rendering:geometricPrecision; image-rendering:optimizeQuality; color-rendering:optimizeQuality; font-family:'SansSerif'; stroke:rgb(38,38,38); color-interpolation:linearRGB;"
    ><path style="stroke:none;" d="M-9.1562 17.3438 L-2.2812 17.3438 L-2.2812 19 L-11.5312 19 L-11.5312 17.3438 Q-10.4062 16.1719 -8.4688 14.2188 Q-6.5312 12.2656 -6.0312 11.6875 Q-5.0938 10.625 -4.7188 9.8906 Q-4.3438 9.1562 -4.3438 8.4375 Q-4.3438 7.2812 -5.1562 6.5469 Q-5.9688 5.8125 -7.2812 5.8125 Q-8.2031 5.8125 -9.2344 6.1328 Q-10.2656 6.4531 -11.4375 7.1094 L-11.4375 5.125 Q-10.25 4.6406 -9.2109 4.3984 Q-8.1719 4.1562 -7.3125 4.1562 Q-5.0469 4.1562 -3.7031 5.2891 Q-2.3594 6.4219 -2.3594 8.3125 Q-2.3594 9.2188 -2.6953 10.0234 Q-3.0312 10.8281 -3.9219 11.9219 Q-4.1562 12.2031 -5.4688 13.5547 Q-6.7812 14.9062 -9.1562 17.3438 ZM1.8809 4.4219 L9.6309 4.4219 L9.6309 6.0781 L3.6934 6.0781 L3.6934 9.6562 Q4.1152 9.5 4.5449 9.4297 Q4.9746 9.3594 5.4121 9.3594 Q7.8496 9.3594 9.2793 10.6953 Q10.709 12.0312 10.709 14.3281 Q10.709 16.6719 9.2402 17.9766 Q7.7715 19.2812 5.0996 19.2812 Q4.1934 19.2812 3.2402 19.125 Q2.2871 18.9688 1.2715 18.6562 L1.2715 16.6719 Q2.1465 17.1562 3.084 17.3906 Q4.0215 17.625 5.0684 17.625 Q6.7559 17.625 7.7402 16.7344 Q8.7246 15.8438 8.7246 14.3281 Q8.7246 12.7969 7.7402 11.9062 Q6.7559 11.0156 5.0684 11.0156 Q4.2715 11.0156 3.4902 11.1953 Q2.709 11.375 1.8809 11.75 L1.8809 4.4219 Z"
    /></g
    ><g transform="translate(2194.4883,1727)" style="font-size:20px; fill:rgb(38,38,38); text-rendering:geometricPrecision; image-rendering:optimizeQuality; color-rendering:optimizeQuality; font-family:'SansSerif'; stroke:rgb(38,38,38); color-interpolation:linearRGB;"
    ><path style="stroke:none;" d="M-4.8906 11.1406 Q-3.4688 11.4375 -2.6719 12.3984 Q-1.875 13.3594 -1.875 14.7656 Q-1.875 16.9219 -3.3594 18.1016 Q-4.8438 19.2812 -7.5781 19.2812 Q-8.5 19.2812 -9.4688 19.1016 Q-10.4375 18.9219 -11.4688 18.5625 L-11.4688 16.6562 Q-10.6562 17.1406 -9.6797 17.3828 Q-8.7031 17.625 -7.6406 17.625 Q-5.7812 17.625 -4.8125 16.8906 Q-3.8438 16.1562 -3.8438 14.7656 Q-3.8438 13.4688 -4.7422 12.7422 Q-5.6406 12.0156 -7.25 12.0156 L-8.9531 12.0156 L-8.9531 10.3906 L-7.1719 10.3906 Q-5.7188 10.3906 -4.9531 9.8125 Q-4.1875 9.2344 -4.1875 8.1406 Q-4.1875 7.0156 -4.9766 6.4141 Q-5.7656 5.8125 -7.25 5.8125 Q-8.0625 5.8125 -8.9922 5.9922 Q-9.9219 6.1719 -11.0312 6.5312 L-11.0312 4.7812 Q-9.9062 4.4688 -8.9297 4.3125 Q-7.9531 4.1562 -7.0781 4.1562 Q-4.8281 4.1562 -3.5234 5.1797 Q-2.2188 6.2031 -2.2188 7.9375 Q-2.2188 9.1406 -2.9141 9.9766 Q-3.6094 10.8125 -4.8906 11.1406 ZM6.084 5.7188 Q4.5527 5.7188 3.7871 7.2188 Q3.0215 8.7188 3.0215 11.7188 Q3.0215 14.7188 3.7871 16.2188 Q4.5527 17.7188 6.084 17.7188 Q7.6152 17.7188 8.3809 16.2188 Q9.1465 14.7188 9.1465 11.7188 Q9.1465 8.7188 8.3809 7.2188 Q7.6152 5.7188 6.084 5.7188 ZM6.084 4.1562 Q8.5371 4.1562 9.8262 6.0938 Q11.1152 8.0312 11.1152 11.7188 Q11.1152 15.4062 9.8262 17.3438 Q8.5371 19.2812 6.084 19.2812 Q3.6309 19.2812 2.334 17.3438 Q1.0371 15.4062 1.0371 11.7188 Q1.0371 8.0312 2.334 6.0938 Q3.6309 4.1562 6.084 4.1562 Z"
    /></g
    ><g transform="translate(2476.4763,1727)" style="font-size:20px; fill:rgb(38,38,38); text-rendering:geometricPrecision; image-rendering:optimizeQuality; color-rendering:optimizeQuality; font-family:'SansSerif'; stroke:rgb(38,38,38); color-interpolation:linearRGB;"
    ><path style="stroke:none;" d="M-4.8906 11.1406 Q-3.4688 11.4375 -2.6719 12.3984 Q-1.875 13.3594 -1.875 14.7656 Q-1.875 16.9219 -3.3594 18.1016 Q-4.8438 19.2812 -7.5781 19.2812 Q-8.5 19.2812 -9.4688 19.1016 Q-10.4375 18.9219 -11.4688 18.5625 L-11.4688 16.6562 Q-10.6562 17.1406 -9.6797 17.3828 Q-8.7031 17.625 -7.6406 17.625 Q-5.7812 17.625 -4.8125 16.8906 Q-3.8438 16.1562 -3.8438 14.7656 Q-3.8438 13.4688 -4.7422 12.7422 Q-5.6406 12.0156 -7.25 12.0156 L-8.9531 12.0156 L-8.9531 10.3906 L-7.1719 10.3906 Q-5.7188 10.3906 -4.9531 9.8125 Q-4.1875 9.2344 -4.1875 8.1406 Q-4.1875 7.0156 -4.9766 6.4141 Q-5.7656 5.8125 -7.25 5.8125 Q-8.0625 5.8125 -8.9922 5.9922 Q-9.9219 6.1719 -11.0312 6.5312 L-11.0312 4.7812 Q-9.9062 4.4688 -8.9297 4.3125 Q-7.9531 4.1562 -7.0781 4.1562 Q-4.8281 4.1562 -3.5234 5.1797 Q-2.2188 6.2031 -2.2188 7.9375 Q-2.2188 9.1406 -2.9141 9.9766 Q-3.6094 10.8125 -4.8906 11.1406 ZM1.8809 4.4219 L9.6309 4.4219 L9.6309 6.0781 L3.6934 6.0781 L3.6934 9.6562 Q4.1152 9.5 4.5449 9.4297 Q4.9746 9.3594 5.4121 9.3594 Q7.8496 9.3594 9.2793 10.6953 Q10.709 12.0312 10.709 14.3281 Q10.709 16.6719 9.2402 17.9766 Q7.7715 19.2812 5.0996 19.2812 Q4.1934 19.2812 3.2402 19.125 Q2.2871 18.9688 1.2715 18.6562 L1.2715 16.6719 Q2.1465 17.1562 3.084 17.3906 Q4.0215 17.625 5.0684 17.625 Q6.7559 17.625 7.7402 16.7344 Q8.7246 15.8438 8.7246 14.3281 Q8.7246 12.7969 7.7402 11.9062 Q6.7559 11.0156 5.0684 11.0156 Q4.2715 11.0156 3.4902 11.1953 Q2.709 11.375 1.8809 11.75 L1.8809 4.4219 Z"
    /></g
    ><g transform="translate(2758.4646,1727)" style="font-size:20px; fill:rgb(38,38,38); text-rendering:geometricPrecision; image-rendering:optimizeQuality; color-rendering:optimizeQuality; font-family:'SansSerif'; stroke:rgb(38,38,38); color-interpolation:linearRGB;"
    ><path style="stroke:none;" d="M-5.4375 6.1406 L-10.4219 13.9219 L-5.4375 13.9219 L-5.4375 6.1406 ZM-5.9531 4.4219 L-3.4844 4.4219 L-3.4844 13.9219 L-1.3906 13.9219 L-1.3906 15.5625 L-3.4844 15.5625 L-3.4844 19 L-5.4375 19 L-5.4375 15.5625 L-12.0156 15.5625 L-12.0156 13.6562 L-5.9531 4.4219 ZM6.084 5.7188 Q4.5527 5.7188 3.7871 7.2188 Q3.0215 8.7188 3.0215 11.7188 Q3.0215 14.7188 3.7871 16.2188 Q4.5527 17.7188 6.084 17.7188 Q7.6152 17.7188 8.3809 16.2188 Q9.1465 14.7188 9.1465 11.7188 Q9.1465 8.7188 8.3809 7.2188 Q7.6152 5.7188 6.084 5.7188 ZM6.084 4.1562 Q8.5371 4.1562 9.8262 6.0938 Q11.1152 8.0312 11.1152 11.7188 Q11.1152 15.4062 9.8262 17.3438 Q8.5371 19.2812 6.084 19.2812 Q3.6309 19.2812 2.334 17.3438 Q1.0371 15.4062 1.0371 11.7188 Q1.0371 8.0312 2.334 6.0938 Q3.6309 4.1562 6.084 4.1562 Z"
    /></g
    ><g transform="translate(3040.4526,1727)" style="font-size:20px; fill:rgb(38,38,38); text-rendering:geometricPrecision; image-rendering:optimizeQuality; color-rendering:optimizeQuality; font-family:'SansSerif'; stroke:rgb(38,38,38); color-interpolation:linearRGB;"
    ><path style="stroke:none;" d="M-5.4375 6.1406 L-10.4219 13.9219 L-5.4375 13.9219 L-5.4375 6.1406 ZM-5.9531 4.4219 L-3.4844 4.4219 L-3.4844 13.9219 L-1.3906 13.9219 L-1.3906 15.5625 L-3.4844 15.5625 L-3.4844 19 L-5.4375 19 L-5.4375 15.5625 L-12.0156 15.5625 L-12.0156 13.6562 L-5.9531 4.4219 ZM1.8809 4.4219 L9.6309 4.4219 L9.6309 6.0781 L3.6934 6.0781 L3.6934 9.6562 Q4.1152 9.5 4.5449 9.4297 Q4.9746 9.3594 5.4121 9.3594 Q7.8496 9.3594 9.2793 10.6953 Q10.709 12.0312 10.709 14.3281 Q10.709 16.6719 9.2402 17.9766 Q7.7715 19.2812 5.0996 19.2812 Q4.1934 19.2812 3.2402 19.125 Q2.2871 18.9688 1.2715 18.6562 L1.2715 16.6719 Q2.1465 17.1562 3.084 17.3906 Q4.0215 17.625 5.0684 17.625 Q6.7559 17.625 7.7402 16.7344 Q8.7246 15.8438 8.7246 14.3281 Q8.7246 12.7969 7.7402 11.9062 Q6.7559 11.0156 5.0684 11.0156 Q4.2715 11.0156 3.4902 11.1953 Q2.709 11.375 1.8809 11.75 L1.8809 4.4219 Z"
    /></g
    ><g transform="translate(3322.4409,1727)" style="font-size:20px; fill:rgb(38,38,38); text-rendering:geometricPrecision; image-rendering:optimizeQuality; color-rendering:optimizeQuality; font-family:'SansSerif'; stroke:rgb(38,38,38); color-interpolation:linearRGB;"
    ><path style="stroke:none;" d="M-10.8438 4.4219 L-3.0938 4.4219 L-3.0938 6.0781 L-9.0312 6.0781 L-9.0312 9.6562 Q-8.6094 9.5 -8.1797 9.4297 Q-7.75 9.3594 -7.3125 9.3594 Q-4.875 9.3594 -3.4453 10.6953 Q-2.0156 12.0312 -2.0156 14.3281 Q-2.0156 16.6719 -3.4844 17.9766 Q-4.9531 19.2812 -7.625 19.2812 Q-8.5312 19.2812 -9.4844 19.125 Q-10.4375 18.9688 -11.4531 18.6562 L-11.4531 16.6719 Q-10.5781 17.1562 -9.6406 17.3906 Q-8.7031 17.625 -7.6562 17.625 Q-5.9688 17.625 -4.9844 16.7344 Q-4 15.8438 -4 14.3281 Q-4 12.7969 -4.9844 11.9062 Q-5.9688 11.0156 -7.6562 11.0156 Q-8.4531 11.0156 -9.2344 11.1953 Q-10.0156 11.375 -10.8438 11.75 L-10.8438 4.4219 ZM6.084 5.7188 Q4.5527 5.7188 3.7871 7.2188 Q3.0215 8.7188 3.0215 11.7188 Q3.0215 14.7188 3.7871 16.2188 Q4.5527 17.7188 6.084 17.7188 Q7.6152 17.7188 8.3809 16.2188 Q9.1465 14.7188 9.1465 11.7188 Q9.1465 8.7188 8.3809 7.2188 Q7.6152 5.7188 6.084 5.7188 ZM6.084 4.1562 Q8.5371 4.1562 9.8262 6.0938 Q11.1152 8.0312 11.1152 11.7188 Q11.1152 15.4062 9.8262 17.3438 Q8.5371 19.2812 6.084 19.2812 Q3.6309 19.2812 2.334 17.3438 Q1.0371 15.4062 1.0371 11.7188 Q1.0371 8.0312 2.334 6.0938 Q3.6309 4.1562 6.084 4.1562 Z"
    /></g
    ><g transform="translate(1912.5013,1753)" style="font-size:24px; fill:rgb(38,38,38); text-rendering:geometricPrecision; image-rendering:optimizeQuality; color-rendering:optimizeQuality; font-family:'Ubuntu'; stroke:rgb(38,38,38); color-interpolation:linearRGB;"
    ><path style="stroke:none;" d="M-21.125 6.375 Q-21.875 7.1875 -22.8047 8.1797 Q-23.7344 9.1719 -24.7578 10.2188 Q-25.7812 11.2656 -26.7891 12.2734 Q-27.7969 13.2812 -28.6875 14.1406 Q-27.6562 14.8594 -26.5 15.9141 Q-25.3438 16.9688 -24.2422 18.1719 Q-23.1406 19.375 -22.1719 20.625 Q-21.2031 21.875 -20.5469 23 L-23.2812 23 Q-24 21.875 -24.9375 20.7344 Q-25.875 19.5938 -26.9219 18.5469 Q-27.9688 17.5 -29.0312 16.6172 Q-30.0938 15.7344 -31.1094 15.1094 L-31.1094 23 L-33.4375 23 L-33.4375 6.375 L-31.1094 6.375 L-31.1094 13.7188 Q-30.2656 12.9219 -29.2578 11.9219 Q-28.25 10.9219 -27.2656 9.9141 Q-26.2812 8.9062 -25.4062 7.9844 Q-24.5312 7.0625 -23.9375 6.375 L-21.125 6.375 ZM-14.2717 21.3906 Q-13.4748 21.3906 -12.8654 21.3516 Q-12.256 21.3125 -11.8498 21.2188 L-11.8498 17.5 Q-12.0842 17.3906 -12.6232 17.3047 Q-13.1623 17.2188 -13.9279 17.2188 Q-14.4435 17.2188 -15.006 17.2891 Q-15.5685 17.3594 -16.0373 17.5859 Q-16.506 17.8125 -16.8185 18.2109 Q-17.131 18.6094 -17.131 19.25 Q-17.131 20.4531 -16.3576 20.9219 Q-15.5842 21.3906 -14.2717 21.3906 ZM-14.4592 10.2031 Q-13.1154 10.2031 -12.1935 10.5547 Q-11.2717 10.9062 -10.7092 11.5391 Q-10.1467 12.1719 -9.9045 13.0469 Q-9.6623 13.9219 -9.6623 14.9844 L-9.6623 22.7812 Q-9.9435 22.8281 -10.4592 22.9141 Q-10.9748 23 -11.6232 23.0703 Q-12.2717 23.1406 -13.0295 23.2031 Q-13.7873 23.2656 -14.5373 23.2656 Q-15.5842 23.2656 -16.4748 23.0469 Q-17.3654 22.8281 -18.0139 22.3594 Q-18.6623 21.8906 -19.0217 21.125 Q-19.381 20.3594 -19.381 19.2812 Q-19.381 18.25 -18.9592 17.5078 Q-18.5373 16.7656 -17.8185 16.3047 Q-17.0998 15.8438 -16.1389 15.6328 Q-15.1779 15.4219 -14.131 15.4219 Q-13.7873 15.4219 -13.4279 15.4531 Q-13.0685 15.4844 -12.7482 15.5469 Q-12.4279 15.6094 -12.1857 15.6562 Q-11.9435 15.7031 -11.8498 15.7344 L-11.8498 15.1094 Q-11.8498 14.5469 -11.967 14.0078 Q-12.0842 13.4688 -12.3967 13.0469 Q-12.7092 12.625 -13.2482 12.375 Q-13.7873 12.125 -14.6467 12.125 Q-15.756 12.125 -16.5842 12.2812 Q-17.4123 12.4375 -17.8185 12.6094 L-18.0842 10.7656 Q-17.6467 10.5625 -16.6389 10.3828 Q-15.631 10.2031 -14.4592 10.2031 ZM-1.3599 10.25 Q-1.0787 10.25 -0.7037 10.2891 Q-0.3287 10.3281 0.0307 10.3906 Q0.3901 10.4531 0.687 10.5078 Q0.9838 10.5625 1.1401 10.6094 L0.7495 12.5625 Q0.4838 12.4688 -0.1255 12.3359 Q-0.7349 12.2031 -1.7037 12.2031 Q-2.3287 12.2031 -2.938 12.3359 Q-3.5474 12.4688 -3.7349 12.5156 L-3.7349 23 L-5.9693 23 L-5.9693 11.0469 Q-5.1724 10.7656 -4.0005 10.5078 Q-2.8287 10.25 -1.3599 10.25 ZM3.2896 10.875 Q4.0552 10.6875 5.313 10.4688 Q6.5709 10.25 8.2271 10.25 Q9.4302 10.25 10.2505 10.5781 Q11.0709 10.9062 11.6177 11.5312 Q11.7896 11.4062 12.149 11.1875 Q12.5084 10.9688 13.0318 10.7656 Q13.5552 10.5625 14.2037 10.4062 Q14.8521 10.25 15.6021 10.25 Q17.0396 10.25 17.9537 10.6719 Q18.8677 11.0938 19.3834 11.8594 Q19.899 12.625 20.0787 13.6875 Q20.2584 14.75 20.2584 15.9844 L20.2584 23 L18.024 23 L18.024 16.4688 Q18.024 15.375 17.9146 14.5781 Q17.8052 13.7812 17.5084 13.2578 Q17.2115 12.7344 16.6959 12.4766 Q16.1802 12.2188 15.3521 12.2188 Q14.2271 12.2188 13.5005 12.5234 Q12.774 12.8281 12.5084 13.0625 Q12.6959 13.6875 12.7896 14.4297 Q12.8834 15.1719 12.8834 15.9844 L12.8834 23 L10.649 23 L10.649 16.4688 Q10.649 15.375 10.5318 14.5781 Q10.4146 13.7812 10.1177 13.2578 Q9.8209 12.7344 9.3052 12.4766 Q8.7896 12.2188 7.9927 12.2188 Q7.649 12.2188 7.2662 12.2422 Q6.8834 12.2656 6.5396 12.3047 Q6.1959 12.3438 5.9068 12.3906 Q5.6177 12.4375 5.524 12.4688 L5.524 23 L3.2896 23 L3.2896 10.875 ZM28.161 21.3906 Q28.9579 21.3906 29.5673 21.3516 Q30.1766 21.3125 30.5829 21.2188 L30.5829 17.5 Q30.3485 17.3906 29.8094 17.3047 Q29.2704 17.2188 28.5048 17.2188 Q27.9891 17.2188 27.4266 17.2891 Q26.8641 17.3594 26.3954 17.5859 Q25.9266 17.8125 25.6141 18.2109 Q25.3016 18.6094 25.3016 19.25 Q25.3016 20.4531 26.0751 20.9219 Q26.8485 21.3906 28.161 21.3906 ZM27.9735 10.2031 Q29.3173 10.2031 30.2391 10.5547 Q31.161 10.9062 31.7235 11.5391 Q32.286 12.1719 32.5282 13.0469 Q32.7704 13.9219 32.7704 14.9844 L32.7704 22.7812 Q32.4891 22.8281 31.9735 22.9141 Q31.4579 23 30.8094 23.0703 Q30.161 23.1406 29.4032 23.2031 Q28.6454 23.2656 27.8954 23.2656 Q26.8485 23.2656 25.9579 23.0469 Q25.0673 22.8281 24.4188 22.3594 Q23.7704 21.8906 23.411 21.125 Q23.0516 20.3594 23.0516 19.2812 Q23.0516 18.25 23.4735 17.5078 Q23.8954 16.7656 24.6141 16.3047 Q25.3329 15.8438 26.2938 15.6328 Q27.2548 15.4219 28.3016 15.4219 Q28.6454 15.4219 29.0048 15.4531 Q29.3641 15.4844 29.6844 15.5469 Q30.0048 15.6094 30.2469 15.6562 Q30.4891 15.7031 30.5829 15.7344 L30.5829 15.1094 Q30.5829 14.5469 30.4657 14.0078 Q30.3485 13.4688 30.036 13.0469 Q29.7235 12.625 29.1844 12.375 Q28.6454 12.125 27.786 12.125 Q26.6766 12.125 25.8485 12.2812 Q25.0204 12.4375 24.6141 12.6094 L24.3485 10.7656 Q24.786 10.5625 25.7938 10.3828 Q26.8016 10.2031 27.9735 10.2031 Z"
    /></g
    ><g style="fill:rgb(38,38,38); text-rendering:geometricPrecision; color-rendering:optimizeQuality; image-rendering:optimizeQuality; stroke-linejoin:round; stroke:rgb(38,38,38); color-interpolation:linearRGB;"
    ><line y2="145" style="fill:none;" x1="480" x2="480" y1="1719"
      /><line y2="145" style="fill:none;" x1="3345" x2="3345" y1="1719"
      /><line y2="1719" style="fill:none;" x1="480" x2="508.65" y1="1719"
      /><line y2="1456.6351" style="fill:none;" x1="480" x2="508.65" y1="1456.6351"
      /><line y2="1194.2704" style="fill:none;" x1="480" x2="508.65" y1="1194.2704"
      /><line y2="931.9056" style="fill:none;" x1="480" x2="508.65" y1="931.9056"
      /><line y2="669.5408" style="fill:none;" x1="480" x2="508.65" y1="669.5408"
      /><line y2="407.1759" style="fill:none;" x1="480" x2="508.65" y1="407.1759"
      /><line y2="1719" style="fill:none;" x1="3345" x2="3316.3501" y1="1719"
      /><line y2="1456.6351" style="fill:none;" x1="3345" x2="3316.3501" y1="1456.6351"
      /><line y2="1194.2704" style="fill:none;" x1="3345" x2="3316.3501" y1="1194.2704"
      /><line y2="931.9056" style="fill:none;" x1="3345" x2="3316.3501" y1="931.9056"
      /><line y2="669.5408" style="fill:none;" x1="3345" x2="3316.3501" y1="669.5408"
      /><line y2="407.1759" style="fill:none;" x1="3345" x2="3316.3501" y1="407.1759"
    /></g
    ><g transform="translate(472,1719)" style="font-size:20px; fill:rgb(38,38,38); text-rendering:geometricPrecision; image-rendering:optimizeQuality; color-rendering:optimizeQuality; font-family:'SansSerif'; stroke:rgb(38,38,38); color-interpolation:linearRGB;"
    ><path style="stroke:none;" d="M-6.6406 -6.2812 Q-8.1719 -6.2812 -8.9375 -4.7812 Q-9.7031 -3.2812 -9.7031 -0.2812 Q-9.7031 2.7188 -8.9375 4.2188 Q-8.1719 5.7188 -6.6406 5.7188 Q-5.1094 5.7188 -4.3438 4.2188 Q-3.5781 2.7188 -3.5781 -0.2812 Q-3.5781 -3.2812 -4.3438 -4.7812 Q-5.1094 -6.2812 -6.6406 -6.2812 ZM-6.6406 -7.8438 Q-4.1875 -7.8438 -2.8984 -5.9062 Q-1.6094 -3.9688 -1.6094 -0.2812 Q-1.6094 3.4062 -2.8984 5.3438 Q-4.1875 7.2812 -6.6406 7.2812 Q-9.0938 7.2812 -10.3906 5.3438 Q-11.6875 3.4062 -11.6875 -0.2812 Q-11.6875 -3.9688 -10.3906 -5.9062 Q-9.0938 -7.8438 -6.6406 -7.8438 Z"
    /></g
    ><g transform="translate(472,1456.6351)" style="font-size:20px; fill:rgb(38,38,38); text-rendering:geometricPrecision; image-rendering:optimizeQuality; color-rendering:optimizeQuality; font-family:'SansSerif'; stroke:rgb(38,38,38); color-interpolation:linearRGB;"
    ><path style="stroke:none;" d="M-38.6406 -6.2812 Q-40.1719 -6.2812 -40.9375 -4.7812 Q-41.7031 -3.2812 -41.7031 -0.2812 Q-41.7031 2.7188 -40.9375 4.2188 Q-40.1719 5.7188 -38.6406 5.7188 Q-37.1094 5.7188 -36.3438 4.2188 Q-35.5781 2.7188 -35.5781 -0.2812 Q-35.5781 -3.2812 -36.3438 -4.7812 Q-37.1094 -6.2812 -38.6406 -6.2812 ZM-38.6406 -7.8438 Q-36.1875 -7.8438 -34.8984 -5.9062 Q-33.6094 -3.9688 -33.6094 -0.2812 Q-33.6094 3.4062 -34.8984 5.3438 Q-36.1875 7.2812 -38.6406 7.2812 Q-41.0938 7.2812 -42.3906 5.3438 Q-43.6875 3.4062 -43.6875 -0.2812 Q-43.6875 -3.9688 -42.3906 -5.9062 Q-41.0938 -7.8438 -38.6406 -7.8438 ZM-30.1348 4.5156 L-28.0723 4.5156 L-28.0723 7 L-30.1348 7 L-30.1348 4.5156 ZM-19.5586 -6.2812 Q-21.0898 -6.2812 -21.8555 -4.7812 Q-22.6211 -3.2812 -22.6211 -0.2812 Q-22.6211 2.7188 -21.8555 4.2188 Q-21.0898 5.7188 -19.5586 5.7188 Q-18.0273 5.7188 -17.2617 4.2188 Q-16.4961 2.7188 -16.4961 -0.2812 Q-16.4961 -3.2812 -17.2617 -4.7812 Q-18.0273 -6.2812 -19.5586 -6.2812 ZM-19.5586 -7.8438 Q-17.1055 -7.8438 -15.8164 -5.9062 Q-14.5273 -3.9688 -14.5273 -0.2812 Q-14.5273 3.4062 -15.8164 5.3438 Q-17.1055 7.2812 -19.5586 7.2812 Q-22.0117 7.2812 -23.3086 5.3438 Q-24.6055 3.4062 -24.6055 -0.2812 Q-24.6055 -3.9688 -23.3086 -5.9062 Q-22.0117 -7.8438 -19.5586 -7.8438 ZM-9.3496 5.3438 L-2.4746 5.3438 L-2.4746 7 L-11.7246 7 L-11.7246 5.3438 Q-10.5996 4.1719 -8.6621 2.2188 Q-6.7246 0.2656 -6.2246 -0.3125 Q-5.2871 -1.375 -4.9121 -2.1094 Q-4.5371 -2.8438 -4.5371 -3.5625 Q-4.5371 -4.7188 -5.3496 -5.4531 Q-6.1621 -6.1875 -7.4746 -6.1875 Q-8.3965 -6.1875 -9.4277 -5.8672 Q-10.459 -5.5469 -11.6309 -4.8906 L-11.6309 -6.875 Q-10.4434 -7.3594 -9.4043 -7.6016 Q-8.3652 -7.8438 -7.5059 -7.8438 Q-5.2402 -7.8438 -3.8965 -6.7109 Q-2.5527 -5.5781 -2.5527 -3.6875 Q-2.5527 -2.7812 -2.8887 -1.9766 Q-3.2246 -1.1719 -4.1152 -0.0781 Q-4.3496 0.2031 -5.6621 1.5547 Q-6.9746 2.9062 -9.3496 5.3438 Z"
    /></g
    ><g transform="translate(472,1194.2704)" style="font-size:20px; fill:rgb(38,38,38); text-rendering:geometricPrecision; image-rendering:optimizeQuality; color-rendering:optimizeQuality; font-family:'SansSerif'; stroke:rgb(38,38,38); color-interpolation:linearRGB;"
    ><path style="stroke:none;" d="M-38.6406 -6.2812 Q-40.1719 -6.2812 -40.9375 -4.7812 Q-41.7031 -3.2812 -41.7031 -0.2812 Q-41.7031 2.7188 -40.9375 4.2188 Q-40.1719 5.7188 -38.6406 5.7188 Q-37.1094 5.7188 -36.3438 4.2188 Q-35.5781 2.7188 -35.5781 -0.2812 Q-35.5781 -3.2812 -36.3438 -4.7812 Q-37.1094 -6.2812 -38.6406 -6.2812 ZM-38.6406 -7.8438 Q-36.1875 -7.8438 -34.8984 -5.9062 Q-33.6094 -3.9688 -33.6094 -0.2812 Q-33.6094 3.4062 -34.8984 5.3438 Q-36.1875 7.2812 -38.6406 7.2812 Q-41.0938 7.2812 -42.3906 5.3438 Q-43.6875 3.4062 -43.6875 -0.2812 Q-43.6875 -3.9688 -42.3906 -5.9062 Q-41.0938 -7.8438 -38.6406 -7.8438 ZM-30.1348 4.5156 L-28.0723 4.5156 L-28.0723 7 L-30.1348 7 L-30.1348 4.5156 ZM-19.5586 -6.2812 Q-21.0898 -6.2812 -21.8555 -4.7812 Q-22.6211 -3.2812 -22.6211 -0.2812 Q-22.6211 2.7188 -21.8555 4.2188 Q-21.0898 5.7188 -19.5586 5.7188 Q-18.0273 5.7188 -17.2617 4.2188 Q-16.4961 2.7188 -16.4961 -0.2812 Q-16.4961 -3.2812 -17.2617 -4.7812 Q-18.0273 -6.2812 -19.5586 -6.2812 ZM-19.5586 -7.8438 Q-17.1055 -7.8438 -15.8164 -5.9062 Q-14.5273 -3.9688 -14.5273 -0.2812 Q-14.5273 3.4062 -15.8164 5.3438 Q-17.1055 7.2812 -19.5586 7.2812 Q-22.0117 7.2812 -23.3086 5.3438 Q-24.6055 3.4062 -24.6055 -0.2812 Q-24.6055 -3.9688 -23.3086 -5.9062 Q-22.0117 -7.8438 -19.5586 -7.8438 ZM-5.6309 -5.8594 L-10.6152 1.9219 L-5.6309 1.9219 L-5.6309 -5.8594 ZM-6.1465 -7.5781 L-3.6777 -7.5781 L-3.6777 1.9219 L-1.584 1.9219 L-1.584 3.5625 L-3.6777 3.5625 L-3.6777 7 L-5.6309 7 L-5.6309 3.5625 L-12.209 3.5625 L-12.209 1.6562 L-6.1465 -7.5781 Z"
    /></g
    ><g transform="translate(472,931.9056)" style="font-size:20px; fill:rgb(38,38,38); text-rendering:geometricPrecision; image-rendering:optimizeQuality; color-rendering:optimizeQuality; font-family:'SansSerif'; stroke:rgb(38,38,38); color-interpolation:linearRGB;"
    ><path style="stroke:none;" d="M-38.6406 -6.2812 Q-40.1719 -6.2812 -40.9375 -4.7812 Q-41.7031 -3.2812 -41.7031 -0.2812 Q-41.7031 2.7188 -40.9375 4.2188 Q-40.1719 5.7188 -38.6406 5.7188 Q-37.1094 5.7188 -36.3438 4.2188 Q-35.5781 2.7188 -35.5781 -0.2812 Q-35.5781 -3.2812 -36.3438 -4.7812 Q-37.1094 -6.2812 -38.6406 -6.2812 ZM-38.6406 -7.8438 Q-36.1875 -7.8438 -34.8984 -5.9062 Q-33.6094 -3.9688 -33.6094 -0.2812 Q-33.6094 3.4062 -34.8984 5.3438 Q-36.1875 7.2812 -38.6406 7.2812 Q-41.0938 7.2812 -42.3906 5.3438 Q-43.6875 3.4062 -43.6875 -0.2812 Q-43.6875 -3.9688 -42.3906 -5.9062 Q-41.0938 -7.8438 -38.6406 -7.8438 ZM-30.1348 4.5156 L-28.0723 4.5156 L-28.0723 7 L-30.1348 7 L-30.1348 4.5156 ZM-19.5586 -6.2812 Q-21.0898 -6.2812 -21.8555 -4.7812 Q-22.6211 -3.2812 -22.6211 -0.2812 Q-22.6211 2.7188 -21.8555 4.2188 Q-21.0898 5.7188 -19.5586 5.7188 Q-18.0273 5.7188 -17.2617 4.2188 Q-16.4961 2.7188 -16.4961 -0.2812 Q-16.4961 -3.2812 -17.2617 -4.7812 Q-18.0273 -6.2812 -19.5586 -6.2812 ZM-19.5586 -7.8438 Q-17.1055 -7.8438 -15.8164 -5.9062 Q-14.5273 -3.9688 -14.5273 -0.2812 Q-14.5273 3.4062 -15.8164 5.3438 Q-17.1055 7.2812 -19.5586 7.2812 Q-22.0117 7.2812 -23.3086 5.3438 Q-24.6055 3.4062 -24.6055 -0.2812 Q-24.6055 -3.9688 -23.3086 -5.9062 Q-22.0117 -7.8438 -19.5586 -7.8438 ZM-6.584 -1.0781 Q-7.9121 -1.0781 -8.6934 -0.1719 Q-9.4746 0.7344 -9.4746 2.3281 Q-9.4746 3.8906 -8.6934 4.8047 Q-7.9121 5.7188 -6.584 5.7188 Q-5.2559 5.7188 -4.4824 4.8047 Q-3.709 3.8906 -3.709 2.3281 Q-3.709 0.7344 -4.4824 -0.1719 Q-5.2559 -1.0781 -6.584 -1.0781 ZM-2.6777 -7.2656 L-2.6777 -5.4688 Q-3.4121 -5.8125 -4.1699 -6 Q-4.9277 -6.1875 -5.6777 -6.1875 Q-7.6309 -6.1875 -8.6621 -4.8672 Q-9.6934 -3.5469 -9.834 -0.875 Q-9.2559 -1.7344 -8.3887 -2.1875 Q-7.5215 -2.6406 -6.4746 -2.6406 Q-4.2715 -2.6406 -2.998 -1.3047 Q-1.7246 0.0312 -1.7246 2.3281 Q-1.7246 4.5625 -3.0527 5.9219 Q-4.3809 7.2812 -6.584 7.2812 Q-9.1152 7.2812 -10.459 5.3438 Q-11.8027 3.4062 -11.8027 -0.2812 Q-11.8027 -3.7344 -10.1621 -5.7891 Q-8.5215 -7.8438 -5.7559 -7.8438 Q-5.0059 -7.8438 -4.248 -7.6953 Q-3.4902 -7.5469 -2.6777 -7.2656 Z"
    /></g
    ><g transform="translate(472,669.5408)" style="font-size:20px; fill:rgb(38,38,38); text-rendering:geometricPrecision; image-rendering:optimizeQuality; color-rendering:optimizeQuality; font-family:'SansSerif'; stroke:rgb(38,38,38); color-interpolation:linearRGB;"
    ><path style="stroke:none;" d="M-38.6406 -6.2812 Q-40.1719 -6.2812 -40.9375 -4.7812 Q-41.7031 -3.2812 -41.7031 -0.2812 Q-41.7031 2.7188 -40.9375 4.2188 Q-40.1719 5.7188 -38.6406 5.7188 Q-37.1094 5.7188 -36.3438 4.2188 Q-35.5781 2.7188 -35.5781 -0.2812 Q-35.5781 -3.2812 -36.3438 -4.7812 Q-37.1094 -6.2812 -38.6406 -6.2812 ZM-38.6406 -7.8438 Q-36.1875 -7.8438 -34.8984 -5.9062 Q-33.6094 -3.9688 -33.6094 -0.2812 Q-33.6094 3.4062 -34.8984 5.3438 Q-36.1875 7.2812 -38.6406 7.2812 Q-41.0938 7.2812 -42.3906 5.3438 Q-43.6875 3.4062 -43.6875 -0.2812 Q-43.6875 -3.9688 -42.3906 -5.9062 Q-41.0938 -7.8438 -38.6406 -7.8438 ZM-30.1348 4.5156 L-28.0723 4.5156 L-28.0723 7 L-30.1348 7 L-30.1348 4.5156 ZM-19.5586 -6.2812 Q-21.0898 -6.2812 -21.8555 -4.7812 Q-22.6211 -3.2812 -22.6211 -0.2812 Q-22.6211 2.7188 -21.8555 4.2188 Q-21.0898 5.7188 -19.5586 5.7188 Q-18.0273 5.7188 -17.2617 4.2188 Q-16.4961 2.7188 -16.4961 -0.2812 Q-16.4961 -3.2812 -17.2617 -4.7812 Q-18.0273 -6.2812 -19.5586 -6.2812 ZM-19.5586 -7.8438 Q-17.1055 -7.8438 -15.8164 -5.9062 Q-14.5273 -3.9688 -14.5273 -0.2812 Q-14.5273 3.4062 -15.8164 5.3438 Q-17.1055 7.2812 -19.5586 7.2812 Q-22.0117 7.2812 -23.3086 5.3438 Q-24.6055 3.4062 -24.6055 -0.2812 Q-24.6055 -3.9688 -23.3086 -5.9062 Q-22.0117 -7.8438 -19.5586 -7.8438 ZM-6.834 0.0781 Q-8.2402 0.0781 -9.0449 0.8281 Q-9.8496 1.5781 -9.8496 2.8906 Q-9.8496 4.2188 -9.0449 4.9688 Q-8.2402 5.7188 -6.834 5.7188 Q-5.4277 5.7188 -4.6152 4.9609 Q-3.8027 4.2031 -3.8027 2.8906 Q-3.8027 1.5781 -4.6074 0.8281 Q-5.4121 0.0781 -6.834 0.0781 ZM-8.8027 -0.7656 Q-10.084 -1.0781 -10.7871 -1.9453 Q-11.4902 -2.8125 -11.4902 -4.0625 Q-11.4902 -5.8125 -10.248 -6.8281 Q-9.0059 -7.8438 -6.834 -7.8438 Q-4.6621 -7.8438 -3.4199 -6.8281 Q-2.1777 -5.8125 -2.1777 -4.0625 Q-2.1777 -2.8125 -2.8887 -1.9453 Q-3.5996 -1.0781 -4.8496 -0.7656 Q-3.4277 -0.4375 -2.6309 0.5312 Q-1.834 1.5 -1.834 2.8906 Q-1.834 5.0156 -3.1309 6.1484 Q-4.4277 7.2812 -6.834 7.2812 Q-9.2402 7.2812 -10.5371 6.1484 Q-11.834 5.0156 -11.834 2.8906 Q-11.834 1.5 -11.0371 0.5312 Q-10.2402 -0.4375 -8.8027 -0.7656 ZM-9.5371 -3.875 Q-9.5371 -2.75 -8.8262 -2.1172 Q-8.1152 -1.4844 -6.834 -1.4844 Q-5.5684 -1.4844 -4.8496 -2.1172 Q-4.1309 -2.75 -4.1309 -3.875 Q-4.1309 -5.0156 -4.8496 -5.6484 Q-5.5684 -6.2812 -6.834 -6.2812 Q-8.1152 -6.2812 -8.8262 -5.6484 Q-9.5371 -5.0156 -9.5371 -3.875 Z"
    /></g
    ><g transform="translate(472,407.1759)" style="font-size:20px; fill:rgb(38,38,38); text-rendering:geometricPrecision; image-rendering:optimizeQuality; color-rendering:optimizeQuality; font-family:'SansSerif'; stroke:rgb(38,38,38); color-interpolation:linearRGB;"
    ><path style="stroke:none;" d="M-25.6406 -6.2812 Q-27.1719 -6.2812 -27.9375 -4.7812 Q-28.7031 -3.2812 -28.7031 -0.2812 Q-28.7031 2.7188 -27.9375 4.2188 Q-27.1719 5.7188 -25.6406 5.7188 Q-24.1094 5.7188 -23.3438 4.2188 Q-22.5781 2.7188 -22.5781 -0.2812 Q-22.5781 -3.2812 -23.3438 -4.7812 Q-24.1094 -6.2812 -25.6406 -6.2812 ZM-25.6406 -7.8438 Q-23.1875 -7.8438 -21.8984 -5.9062 Q-20.6094 -3.9688 -20.6094 -0.2812 Q-20.6094 3.4062 -21.8984 5.3438 Q-23.1875 7.2812 -25.6406 7.2812 Q-28.0938 7.2812 -29.3906 5.3438 Q-30.6875 3.4062 -30.6875 -0.2812 Q-30.6875 -3.9688 -29.3906 -5.9062 Q-28.0938 -7.8438 -25.6406 -7.8438 ZM-17.1348 4.5156 L-15.0723 4.5156 L-15.0723 7 L-17.1348 7 L-17.1348 4.5156 ZM-10.4336 5.3438 L-7.2148 5.3438 L-7.2148 -5.7812 L-10.7148 -5.0781 L-10.7148 -6.875 L-7.2305 -7.5781 L-5.2617 -7.5781 L-5.2617 5.3438 L-2.043 5.3438 L-2.043 7 L-10.4336 7 L-10.4336 5.3438 Z"
    /></g
    ><g transform="translate(421,931.9993) rotate(-90)" style="font-size:24px; fill:rgb(38,38,38); text-rendering:geometricPrecision; image-rendering:optimizeQuality; color-rendering:optimizeQuality; font-family:'Ubuntu'; stroke:rgb(38,38,38); color-interpolation:linearRGB;"
    ><path style="stroke:none;" d="M-53.5156 -21.7969 Q-50.0156 -21.7969 -48.1328 -20.4688 Q-46.25 -19.1406 -46.25 -16.5 Q-46.25 -15.0625 -46.7656 -14.0391 Q-47.2812 -13.0156 -48.25 -12.3828 Q-49.2188 -11.75 -50.6172 -11.4609 Q-52.0156 -11.1719 -53.7656 -11.1719 L-55.6094 -11.1719 L-55.6094 -5 L-57.9375 -5 L-57.9375 -21.3906 Q-56.9531 -21.625 -55.7422 -21.7109 Q-54.5312 -21.7969 -53.5156 -21.7969 ZM-53.3281 -19.7656 Q-54.8125 -19.7656 -55.6094 -19.6875 L-55.6094 -13.1562 L-53.8594 -13.1562 Q-52.6562 -13.1562 -51.6953 -13.3125 Q-50.7344 -13.4688 -50.0781 -13.8438 Q-49.4219 -14.2188 -49.0625 -14.8672 Q-48.7031 -15.5156 -48.7031 -16.5156 Q-48.7031 -17.4844 -49.0703 -18.1094 Q-49.4375 -18.7344 -50.0781 -19.1016 Q-50.7188 -19.4688 -51.5547 -19.6172 Q-52.3906 -19.7656 -53.3281 -19.7656 ZM-38.8848 -17.75 Q-38.6035 -17.75 -38.2285 -17.7109 Q-37.8535 -17.6719 -37.4941 -17.6094 Q-37.1348 -17.5469 -36.8379 -17.4922 Q-36.541 -17.4375 -36.3848 -17.3906 L-36.7754 -15.4375 Q-37.041 -15.5312 -37.6504 -15.6641 Q-38.2598 -15.7969 -39.2285 -15.7969 Q-39.8535 -15.7969 -40.4629 -15.6641 Q-41.0723 -15.5312 -41.2598 -15.4844 L-41.2598 -5 L-43.4941 -5 L-43.4941 -16.9531 Q-42.6973 -17.2344 -41.5254 -17.4922 Q-40.3535 -17.75 -38.8848 -17.75 ZM-23.2196 -11.2344 Q-23.2196 -9.75 -23.6493 -8.5547 Q-24.079 -7.3594 -24.8602 -6.4922 Q-25.6415 -5.625 -26.7196 -5.1562 Q-27.7977 -4.6875 -29.079 -4.6875 Q-30.3446 -4.6875 -31.4305 -5.1562 Q-32.5165 -5.625 -33.2899 -6.4922 Q-34.0634 -7.3594 -34.5009 -8.5547 Q-34.9384 -9.75 -34.9384 -11.2344 Q-34.9384 -12.7031 -34.5009 -13.9141 Q-34.0634 -15.125 -33.2899 -15.9922 Q-32.5165 -16.8594 -31.4305 -17.3281 Q-30.3446 -17.7969 -29.079 -17.7969 Q-27.7977 -17.7969 -26.7196 -17.3281 Q-25.6415 -16.8594 -24.8602 -15.9922 Q-24.079 -15.125 -23.6493 -13.9141 Q-23.2196 -12.7031 -23.2196 -11.2344 ZM-25.5477 -11.2344 Q-25.5477 -13.3594 -26.493 -14.5938 Q-27.4384 -15.8281 -29.079 -15.8281 Q-30.704 -15.8281 -31.6571 -14.5938 Q-32.6102 -13.3594 -32.6102 -11.2344 Q-32.6102 -9.125 -31.6571 -7.8906 Q-30.704 -6.6562 -29.079 -6.6562 Q-27.4384 -6.6562 -26.493 -7.8906 Q-25.5477 -9.125 -25.5477 -11.2344 ZM-17.8486 -16.9219 Q-17.4424 -17.1875 -16.6143 -17.4766 Q-15.7861 -17.7656 -14.708 -17.7656 Q-13.3643 -17.7656 -12.3174 -17.2891 Q-11.2705 -16.8125 -10.5518 -15.9453 Q-9.833 -15.0781 -9.4658 -13.8828 Q-9.0986 -12.6875 -9.0986 -11.2344 Q-9.0986 -9.7344 -9.5361 -8.5156 Q-9.9736 -7.2969 -10.7939 -6.4609 Q-11.6143 -5.625 -12.7627 -5.1719 Q-13.9111 -4.7188 -15.3643 -4.7188 Q-16.9111 -4.7188 -18.1143 -4.9297 Q-19.3174 -5.1406 -20.083 -5.3594 L-20.083 -23.2344 L-17.8486 -23.625 L-17.8486 -16.9219 ZM-17.8486 -6.9375 Q-17.5205 -6.8438 -16.9033 -6.7656 Q-16.2861 -6.6875 -15.3799 -6.6875 Q-13.583 -6.6875 -12.5049 -7.875 Q-11.4268 -9.0625 -11.4268 -11.2344 Q-11.4268 -12.2031 -11.6143 -13.0391 Q-11.8018 -13.875 -12.2314 -14.4922 Q-12.6611 -15.1094 -13.3486 -15.4531 Q-14.0361 -15.7969 -14.9893 -15.7969 Q-15.9111 -15.7969 -16.6768 -15.4844 Q-17.4424 -15.1719 -17.8486 -14.8438 L-17.8486 -6.9375 ZM-1.736 -6.6094 Q-0.9391 -6.6094 -0.3298 -6.6484 Q0.2796 -6.6875 0.6859 -6.7812 L0.6859 -10.5 Q0.4515 -10.6094 -0.0876 -10.6953 Q-0.6266 -10.7812 -1.3923 -10.7812 Q-1.9079 -10.7812 -2.4704 -10.7109 Q-3.0329 -10.6406 -3.5016 -10.4141 Q-3.9704 -10.1875 -4.2829 -9.7891 Q-4.5954 -9.3906 -4.5954 -8.75 Q-4.5954 -7.5469 -3.822 -7.0781 Q-3.0485 -6.6094 -1.736 -6.6094 ZM-1.9235 -17.7969 Q-0.5798 -17.7969 0.3421 -17.4453 Q1.264 -17.0938 1.8265 -16.4609 Q2.389 -15.8281 2.6312 -14.9531 Q2.8734 -14.0781 2.8734 -13.0156 L2.8734 -5.2188 Q2.5921 -5.1719 2.0765 -5.0859 Q1.5609 -5 0.9124 -4.9297 Q0.264 -4.8594 -0.4938 -4.7969 Q-1.2516 -4.7344 -2.0016 -4.7344 Q-3.0485 -4.7344 -3.9391 -4.9531 Q-4.8298 -5.1719 -5.4782 -5.6406 Q-6.1266 -6.1094 -6.486 -6.875 Q-6.8454 -7.6406 -6.8454 -8.7188 Q-6.8454 -9.75 -6.4235 -10.4922 Q-6.0016 -11.2344 -5.2829 -11.6953 Q-4.5641 -12.1562 -3.6032 -12.3672 Q-2.6423 -12.5781 -1.5954 -12.5781 Q-1.2516 -12.5781 -0.8923 -12.5469 Q-0.5329 -12.5156 -0.2126 -12.4531 Q0.1077 -12.3906 0.3499 -12.3438 Q0.5921 -12.2969 0.6859 -12.2656 L0.6859 -12.8906 Q0.6859 -13.4531 0.5687 -13.9922 Q0.4515 -14.5312 0.139 -14.9531 Q-0.1735 -15.375 -0.7126 -15.625 Q-1.2516 -15.875 -2.111 -15.875 Q-3.2204 -15.875 -4.0485 -15.7188 Q-4.8766 -15.5625 -5.2829 -15.3906 L-5.5485 -17.2344 Q-5.111 -17.4375 -4.1032 -17.6172 Q-3.0954 -17.7969 -1.9235 -17.7969 ZM8.8007 -16.9219 Q9.207 -17.1875 10.0351 -17.4766 Q10.8632 -17.7656 11.9413 -17.7656 Q13.2851 -17.7656 14.332 -17.2891 Q15.3788 -16.8125 16.0976 -15.9453 Q16.8163 -15.0781 17.1835 -13.8828 Q17.5507 -12.6875 17.5507 -11.2344 Q17.5507 -9.7344 17.1132 -8.5156 Q16.6757 -7.2969 15.8554 -6.4609 Q15.0351 -5.625 13.8867 -5.1719 Q12.7382 -4.7188 11.2851 -4.7188 Q9.7382 -4.7188 8.5351 -4.9297 Q7.332 -5.1406 6.5663 -5.3594 L6.5663 -23.2344 L8.8007 -23.625 L8.8007 -16.9219 ZM8.8007 -6.9375 Q9.1288 -6.8438 9.746 -6.7656 Q10.3632 -6.6875 11.2695 -6.6875 Q13.0663 -6.6875 14.1445 -7.875 Q15.2226 -9.0625 15.2226 -11.2344 Q15.2226 -12.2031 15.0351 -13.0391 Q14.8476 -13.875 14.4179 -14.4922 Q13.9882 -15.1094 13.3007 -15.4531 Q12.6132 -15.7969 11.6601 -15.7969 Q10.7382 -15.7969 9.9726 -15.4844 Q9.207 -15.1719 8.8007 -14.8438 L8.8007 -6.9375 ZM22.929 -5 L20.6946 -5 L20.6946 -17.4844 L22.929 -17.4844 L22.929 -5 ZM21.804 -19.7344 Q21.1946 -19.7344 20.7727 -20.1328 Q20.3508 -20.5312 20.3508 -21.2031 Q20.3508 -21.875 20.7727 -22.2656 Q21.1946 -22.6562 21.804 -22.6562 Q22.3977 -22.6562 22.8196 -22.2656 Q23.2415 -21.875 23.2415 -21.2031 Q23.2415 -20.5312 22.8196 -20.1328 Q22.3977 -19.7344 21.804 -19.7344 ZM30.4976 -4.7656 Q28.4351 -4.8125 27.5757 -5.6484 Q26.7164 -6.4844 26.7164 -8.2656 L26.7164 -23.2344 L28.9507 -23.625 L28.9507 -8.625 Q28.9507 -8.0781 29.0445 -7.7188 Q29.1382 -7.3594 29.357 -7.1406 Q29.5757 -6.9219 29.9351 -6.8125 Q30.2945 -6.7031 30.8101 -6.625 L30.4976 -4.7656 ZM35.546 -5 L33.3116 -5 L33.3116 -17.4844 L35.546 -17.4844 L35.546 -5 ZM34.421 -19.7344 Q33.8116 -19.7344 33.3898 -20.1328 Q32.9679 -20.5312 32.9679 -21.2031 Q32.9679 -21.875 33.3898 -22.2656 Q33.8116 -22.6562 34.421 -22.6562 Q35.0148 -22.6562 35.4366 -22.2656 Q35.8585 -21.875 35.8585 -21.2031 Q35.8585 -20.5312 35.4366 -20.1328 Q35.0148 -19.7344 34.421 -19.7344 ZM41.4741 -17.4844 L46.1928 -17.4844 L46.1928 -15.6094 L41.4741 -15.6094 L41.4741 -9.8438 Q41.4741 -8.9062 41.6147 -8.2969 Q41.7553 -7.6875 42.0444 -7.3359 Q42.3334 -6.9844 42.7631 -6.8438 Q43.1928 -6.7031 43.7709 -6.7031 Q44.7709 -6.7031 45.3881 -6.9297 Q46.0053 -7.1562 46.2397 -7.25 L46.6772 -5.4062 Q46.3334 -5.2344 45.4975 -4.9844 Q44.6616 -4.7344 43.5834 -4.7344 Q42.3022 -4.7344 41.4741 -5.0625 Q40.6459 -5.3906 40.1459 -6.0391 Q39.6459 -6.6875 39.4428 -7.6328 Q39.2397 -8.5781 39.2397 -9.8281 L39.2397 -20.9531 L41.4741 -21.3438 L41.4741 -17.4844 ZM47.5543 -2.6719 Q47.8199 -2.5469 48.2418 -2.4453 Q48.6636 -2.3438 49.0699 -2.3438 Q50.3824 -2.3438 51.1324 -2.9297 Q51.8824 -3.5156 52.4761 -4.8281 Q50.9605 -7.7188 49.6558 -10.9453 Q48.3511 -14.1719 47.4918 -17.4844 L49.8824 -17.4844 Q50.148 -16.4062 50.523 -15.1562 Q50.898 -13.9062 51.3511 -12.5859 Q51.8043 -11.2656 52.3355 -9.9453 Q52.8668 -8.625 53.4449 -7.4062 Q54.3511 -9.9219 55.023 -12.3906 Q55.6949 -14.8594 56.2886 -17.4844 L58.6011 -17.4844 Q57.7261 -13.9531 56.6714 -10.7031 Q55.6168 -7.4531 54.398 -4.6094 Q53.9136 -3.5312 53.398 -2.75 Q52.8824 -1.9688 52.2574 -1.4688 Q51.6324 -0.9688 50.8511 -0.7266 Q50.0699 -0.4844 49.0855 -0.4844 Q48.8355 -0.4844 48.5464 -0.5234 Q48.2574 -0.5625 47.9761 -0.625 Q47.6949 -0.6875 47.4683 -0.7578 Q47.2418 -0.8281 47.148 -0.875 L47.5543 -2.6719 Z"
    /></g
  ></g
></svg
>
