<?xml version="1.0"?>
<!DOCTYPE svg PUBLIC '-//W3C//DTD SVG 1.0//EN'
          'http://www.w3.org/TR/2001/REC-SVG-20010904/DTD/svg10.dtd'>
<svg xmlns:xlink="http://www.w3.org/1999/xlink" style="fill-opacity:1; color-rendering:auto; color-interpolation:auto; text-rendering:auto; stroke:black; stroke-linecap:square; stroke-miterlimit:10; shape-rendering:auto; stroke-opacity:1; fill:black; stroke-dasharray:none; font-weight:normal; stroke-width:1; font-family:'Dialog'; font-style:normal; stroke-linejoin:miter; font-size:12px; stroke-dashoffset:0; image-rendering:auto;" width="3696" height="1932" xmlns="http://www.w3.org/2000/svg"
><!--Generated by the Batik Graphics2D SVG Generator--><defs id="genericDefs"
  /><g
  ><defs id="defs1"
    ><clipPath clipPathUnits="userSpaceOnUse" id="clipPath1"
      ><path d="M0 0 L3696 0 L3696 1932 L0 1932 L0 0 Z"
      /></clipPath
    ></defs
    ><g style="fill:white; stroke:white;"
    ><rect x="0" y="0" width="3696" style="clip-path:url(#clipPath1); stroke:none;" height="1932"
    /></g
    ><g style="fill:white; text-rendering:optimizeSpeed; color-rendering:optimizeSpeed; image-rendering:optimizeSpeed; shape-rendering:crispEdges; stroke:white; color-interpolation:sRGB;"
    ><rect x="0" width="3696" height="1932" y="0" style="stroke:none;"
      /><path style="stroke:none;" d="M480 1719 L3345 1719 L3345 145 L480 145 Z"
    /></g
    ><g transform="translate(1455,115)" style="font-size:39.7222px; text-rendering:geometricPrecision; image-rendering:optimizeQuality; color-rendering:optimizeQuality; font-family:'Ubuntu'; color-interpolation:linearRGB; font-weight:bold;"
    ><path style="stroke:none;" d="M8.7656 -13.4375 Q9.6406 -14.4062 10.5781 -15.4453 Q11.5156 -16.4844 12.3984 -17.5 Q13.2812 -18.5156 14.0625 -19.4375 Q14.8438 -20.3594 15.4062 -21.0469 L22.4844 -21.0469 Q20.3594 -18.5938 18.3359 -16.375 Q16.3125 -14.1562 13.9219 -11.7969 Q15.125 -10.7188 16.4062 -9.2188 Q17.6875 -7.7188 18.8828 -6.1172 Q20.0781 -4.5156 21.0781 -2.9141 Q22.0781 -1.3125 22.7656 0 L15.9219 0 Q15.2812 -1.0469 14.4609 -2.3047 Q13.6406 -3.5625 12.7188 -4.8203 Q11.7969 -6.0781 10.7812 -7.2422 Q9.7656 -8.4062 8.7656 -9.2031 L8.7656 0 L2.7969 0 L2.7969 -30.0781 L8.7656 -31.0469 L8.7656 -13.4375 Z"
    /></g
    ><g transform="translate(1478,134)" style="font-size:31.7778px; text-rendering:geometricPrecision; image-rendering:optimizeQuality; color-rendering:optimizeQuality; font-family:'Ubuntu'; color-interpolation:linearRGB; font-weight:bold;"
    ><path style="stroke:none;" d="M13.0312 -8.5469 Q13.0312 -13.1562 9.625 -13.1562 Q8.8906 -13.1562 8.1719 -12.9609 Q7.4531 -12.7656 7.0156 -12.4844 L7.0156 -3.8125 Q7.3594 -3.75 7.9062 -3.6953 Q8.4531 -3.6406 9.0938 -3.6406 Q11.0469 -3.6406 12.0391 -4.9922 Q13.0312 -6.3438 13.0312 -8.5469 ZM17.8906 -8.4219 Q17.8906 -6.4062 17.2969 -4.7734 Q16.7031 -3.1406 15.5859 -1.9844 Q14.4688 -0.8281 12.8359 -0.2031 Q11.2031 0.4219 9.125 0.4219 Q8.25 0.4219 7.3125 0.3359 Q6.375 0.25 5.4609 0.125 Q4.5469 0 3.7109 -0.1797 Q2.875 -0.3594 2.2344 -0.5469 L2.2344 -24.0625 L7.0156 -24.8281 L7.0156 -16.4531 Q7.8125 -16.7969 8.6719 -16.9922 Q9.5312 -17.1875 10.5312 -17.1875 Q12.3125 -17.1875 13.6953 -16.5625 Q15.0781 -15.9375 16 -14.7812 Q16.9219 -13.625 17.4062 -12.0156 Q17.8906 -10.4062 17.8906 -8.4219 ZM27.8602 -3.3281 Q28.5634 -3.3281 29.204 -3.3594 Q29.8446 -3.3906 30.2352 -3.4531 L30.2352 -7.0781 Q29.9384 -7.1406 29.3602 -7.2031 Q28.7821 -7.2656 28.3134 -7.2656 Q27.6415 -7.2656 27.0477 -7.1875 Q26.454 -7.1094 26.0087 -6.8828 Q25.5634 -6.6562 25.3055 -6.2734 Q25.0477 -5.8906 25.0477 -5.3125 Q25.0477 -4.1875 25.7977 -3.7578 Q26.5477 -3.3281 27.8602 -3.3281 ZM27.4696 -17.2812 Q29.5946 -17.2812 31.0009 -16.7969 Q32.4071 -16.3125 33.2509 -15.4219 Q34.0946 -14.5312 34.4462 -13.25 Q34.7977 -11.9688 34.7977 -10.4062 L34.7977 -0.4844 Q33.7821 -0.25 31.954 0.0547 Q30.1259 0.3594 27.5477 0.3594 Q25.9071 0.3594 24.579 0.0703 Q23.2509 -0.2188 22.2899 -0.875 Q21.329 -1.5312 20.8212 -2.5859 Q20.3134 -3.6406 20.3134 -5.1875 Q20.3134 -6.6562 20.8993 -7.6797 Q21.4852 -8.7031 22.4774 -9.3125 Q23.4696 -9.9219 24.7509 -10.1953 Q26.0321 -10.4688 27.4071 -10.4688 Q28.3446 -10.4688 29.0634 -10.3828 Q29.7821 -10.2969 30.2352 -10.1719 L30.2352 -10.625 Q30.2352 -11.8438 29.493 -12.5781 Q28.7509 -13.3125 26.9384 -13.3125 Q25.7196 -13.3125 24.5321 -13.1328 Q23.3446 -12.9531 22.4852 -12.6406 L21.8759 -16.4844 Q22.2977 -16.6094 22.9227 -16.75 Q23.5477 -16.8906 24.2821 -17.0078 Q25.0165 -17.125 25.829 -17.2031 Q26.6415 -17.2812 27.4696 -17.2812 ZM49.1471 -12.6094 Q48.5065 -12.7656 47.6393 -12.9453 Q46.7721 -13.125 45.7878 -13.125 Q45.3346 -13.125 44.7096 -13.0391 Q44.0846 -12.9531 43.7721 -12.8594 L43.7721 0 L38.9909 0 L38.9909 -15.9375 Q40.2721 -16.3906 42.0221 -16.7891 Q43.7721 -17.1875 45.9128 -17.1875 Q46.2878 -17.1875 46.8346 -17.1406 Q47.3815 -17.0938 47.9284 -17.0078 Q48.4753 -16.9219 49.0143 -16.8125 Q49.5534 -16.7031 49.944 -16.5469 L49.1471 -12.6094 Z"
    /></g
    ><g transform="translate(1529,115)" style="font-size:39.7222px; text-rendering:geometricPrecision; image-rendering:optimizeQuality; color-rendering:optimizeQuality; font-family:'Ubuntu'; color-interpolation:linearRGB; font-weight:bold;"
    ><path style="stroke:none;" d="M11.4856 -10.0469 L30.2981 -10.0469 L30.2981 -5.0469 L11.4856 -5.0469 L11.4856 -10.0469 ZM11.4856 -18.7969 L30.2981 -18.7969 L30.2981 -13.7969 L11.4856 -13.7969 L11.4856 -18.7969 ZM44.422 -21.9531 Q45.5782 -22.4375 46.8439 -23.0625 Q48.1095 -23.6875 49.3048 -24.4219 Q50.5001 -25.1562 51.6017 -25.9766 Q52.7032 -26.7969 53.5782 -27.7188 L57.7501 -27.7188 L57.7501 0 L51.7814 0 L51.7814 -19.9531 Q50.5782 -19.1562 49.1017 -18.5 Q47.6251 -17.8438 46.2189 -17.3594 L44.422 -21.9531 ZM85.5447 -13.9219 Q85.5447 -6.9219 82.8884 -3.1797 Q80.2322 0.5625 75.5447 0.5625 Q70.8728 0.5625 68.2087 -3.1797 Q65.5447 -6.9219 65.5447 -13.9219 Q65.5447 -17.4062 66.2478 -20.0859 Q66.9509 -22.7656 68.2712 -24.6016 Q69.5916 -26.4375 71.4275 -27.3984 Q73.2634 -28.3594 75.5447 -28.3594 Q80.2322 -28.3594 82.8884 -24.6172 Q85.5447 -20.875 85.5447 -13.9219 ZM79.4666 -13.9219 Q79.4666 -16 79.2634 -17.7031 Q79.0603 -19.4062 78.6228 -20.6406 Q78.1853 -21.875 77.4275 -22.5547 Q76.6697 -23.2344 75.5447 -23.2344 Q74.4197 -23.2344 73.6853 -22.5547 Q72.9509 -21.875 72.49 -20.6406 Q72.0291 -19.4062 71.8259 -17.7031 Q71.6228 -16 71.6228 -13.9219 Q71.6228 -11.8438 71.8259 -10.125 Q72.0291 -8.4062 72.49 -7.1641 Q72.9509 -5.9219 73.6853 -5.2422 Q74.4197 -4.5625 75.5447 -4.5625 Q76.6697 -4.5625 77.4275 -5.2422 Q78.1853 -5.9219 78.6228 -7.1641 Q79.0603 -8.4062 79.2634 -10.125 Q79.4666 -11.8438 79.4666 -13.9219 ZM107.0436 -4.7656 Q108.3561 -4.7656 109.2155 -4.9844 Q110.0748 -5.2031 110.5983 -5.5781 Q111.1217 -5.9531 111.317 -6.4766 Q111.5123 -7 111.5123 -7.6406 Q111.5123 -9 110.2389 -9.8984 Q108.9655 -10.7969 105.8405 -11.8438 Q104.4811 -12.3125 103.1217 -12.9375 Q101.7623 -13.5625 100.6764 -14.5 Q99.5905 -15.4375 98.9108 -16.7812 Q98.2311 -18.125 98.2311 -20.0469 Q98.2311 -21.9531 98.9576 -23.5 Q99.6842 -25.0469 101.0045 -26.125 Q102.3248 -27.2031 104.1998 -27.7812 Q106.0748 -28.3594 108.4342 -28.3594 Q111.2311 -28.3594 113.278 -27.7578 Q115.3248 -27.1562 116.6373 -26.4375 L114.8405 -21.5156 Q113.6842 -22.125 112.2623 -22.5859 Q110.8405 -23.0469 108.8405 -23.0469 Q106.5905 -23.0469 105.6139 -22.4219 Q104.6373 -21.7969 104.6373 -20.5156 Q104.6373 -19.7656 104.9967 -19.2422 Q105.3561 -18.7188 106.0201 -18.2969 Q106.6842 -17.875 107.5436 -17.5391 Q108.403 -17.2031 109.4342 -16.8438 Q111.5905 -16.0469 113.192 -15.2656 Q114.7936 -14.4844 115.8561 -13.4453 Q116.9186 -12.4062 117.442 -11 Q117.9655 -9.5938 117.9655 -7.5938 Q117.9655 -3.7188 115.2389 -1.5781 Q112.5123 0.5625 107.0436 0.5625 Q105.1998 0.5625 103.7155 0.3438 Q102.2311 0.125 101.0983 -0.1953 Q99.9655 -0.5156 99.1451 -0.875 Q98.3248 -1.2344 97.7623 -1.5625 L99.5123 -6.5156 Q100.7623 -5.8438 102.5826 -5.3047 Q104.403 -4.7656 107.0436 -4.7656 ZM122.5973 0 L122.5973 -27.7188 L141.3161 -27.7188 L141.3161 -22.4844 L128.8317 -22.4844 L128.8317 -17.0469 L139.9098 -17.0469 L139.9098 -11.9219 L128.8317 -11.9219 L128.8317 -5.2344 L142.2379 -5.2344 L142.2379 0 L122.5973 0 ZM161.7618 -13.4375 Q162.6368 -14.4062 163.5743 -15.4453 Q164.5118 -16.4844 165.3946 -17.5 Q166.2774 -18.5156 167.0587 -19.4375 Q167.8399 -20.3594 168.4024 -21.0469 L175.4805 -21.0469 Q173.3555 -18.5938 171.3321 -16.375 Q169.3087 -14.1562 166.918 -11.7969 Q168.1212 -10.7188 169.4024 -9.2188 Q170.6837 -7.7188 171.879 -6.1172 Q173.0743 -4.5156 174.0743 -2.9141 Q175.0743 -1.3125 175.7618 0 L168.918 0 Q168.2774 -1.0469 167.4571 -2.3047 Q166.6368 -3.5625 165.7149 -4.8203 Q164.793 -6.0781 163.7774 -7.2422 Q162.7618 -8.4062 161.7618 -9.2031 L161.7618 0 L155.793 0 L155.793 -30.0781 L161.7618 -31.0469 L161.7618 -13.4375 ZM186.837 -4.1562 Q187.712 -4.1562 188.5089 -4.1953 Q189.3057 -4.2344 189.7901 -4.3125 L189.7901 -8.8438 Q189.4307 -8.9219 188.712 -9 Q187.9932 -9.0781 187.3995 -9.0781 Q186.5557 -9.0781 185.8136 -8.9766 Q185.0714 -8.875 184.5089 -8.5938 Q183.9464 -8.3125 183.6261 -7.8359 Q183.3057 -7.3594 183.3057 -6.6406 Q183.3057 -5.2344 184.2511 -4.6953 Q185.1964 -4.1562 186.837 -4.1562 ZM186.3526 -21.5938 Q188.9932 -21.5938 190.7511 -21 Q192.5089 -20.4062 193.5714 -19.2812 Q194.6339 -18.1562 195.0714 -16.5547 Q195.5089 -14.9531 195.5089 -13 L195.5089 -0.5938 Q194.2276 -0.3125 191.9542 0.0625 Q189.6807 0.4375 186.4307 0.4375 Q184.3995 0.4375 182.7354 0.0781 Q181.0714 -0.2812 179.8761 -1.1016 Q178.6807 -1.9219 178.0401 -3.2422 Q177.3995 -4.5625 177.3995 -6.4844 Q177.3995 -8.3125 178.1339 -9.5938 Q178.8682 -10.875 180.1104 -11.6406 Q181.3526 -12.4062 182.9542 -12.7422 Q184.5557 -13.0781 186.2745 -13.0781 Q187.4307 -13.0781 188.3292 -12.9766 Q189.2276 -12.875 189.7901 -12.7188 L189.7901 -13.2812 Q189.7901 -14.7969 188.8682 -15.7188 Q187.9464 -16.6406 185.6807 -16.6406 Q184.1495 -16.6406 182.6729 -16.4219 Q181.1964 -16.2031 180.1182 -15.7969 L179.3526 -20.5938 Q179.8682 -20.7656 180.6495 -20.9453 Q181.4307 -21.125 182.3526 -21.2656 Q183.2745 -21.4062 184.2901 -21.5 Q185.3057 -21.5938 186.3526 -21.5938 ZM213.442 -15.7656 Q212.6451 -15.9531 211.5592 -16.1797 Q210.4733 -16.4062 209.2389 -16.4062 Q208.6764 -16.4062 207.8951 -16.3047 Q207.1139 -16.2031 206.7233 -16.0781 L206.7233 0 L200.7545 0 L200.7545 -19.9219 Q202.3639 -20.4844 204.5436 -20.9844 Q206.7233 -21.4844 209.3951 -21.4844 Q209.8795 -21.4844 210.5592 -21.4219 Q211.2389 -21.3594 211.9186 -21.2578 Q212.5983 -21.1562 213.278 -21.0156 Q213.9576 -20.875 214.442 -20.6875 L213.442 -15.7656 ZM229.0783 -11.1562 Q229.0783 -14.0469 228.3361 -15.2422 Q227.5939 -16.4375 225.797 -16.4375 Q225.2345 -16.4375 224.633 -16.375 Q224.0314 -16.3125 223.4845 -16.2344 L223.4845 0 L217.5158 0 L217.5158 -20.3125 Q218.2814 -20.5156 219.297 -20.7344 Q220.3127 -20.9531 221.4533 -21.1328 Q222.5939 -21.3125 223.797 -21.4141 Q225.0002 -21.5156 226.1564 -21.5156 Q228.4377 -21.5156 229.8595 -20.9375 Q231.2814 -20.3594 232.2033 -19.5625 Q233.4845 -20.4844 235.1408 -21 Q236.797 -21.5156 238.2033 -21.5156 Q240.7189 -21.5156 242.3361 -20.8203 Q243.9533 -20.125 244.9142 -18.8438 Q245.8752 -17.5625 246.2345 -15.8047 Q246.5939 -14.0469 246.5939 -11.875 L246.5939 0 L240.6408 0 L240.6408 -11.1562 Q240.6408 -14.0469 239.8986 -15.2422 Q239.1564 -16.4375 237.3595 -16.4375 Q236.8752 -16.4375 236.0158 -16.1953 Q235.1564 -15.9531 234.5939 -15.5938 Q234.8752 -14.6875 234.9533 -13.6641 Q235.0314 -12.6406 235.0314 -11.4844 L235.0314 0 L229.0783 0 L229.0783 -11.1562 ZM259.8001 -4.1562 Q260.6751 -4.1562 261.472 -4.1953 Q262.2689 -4.2344 262.7532 -4.3125 L262.7532 -8.8438 Q262.3939 -8.9219 261.6751 -9 Q260.9564 -9.0781 260.3626 -9.0781 Q259.5189 -9.0781 258.7767 -8.9766 Q258.0345 -8.875 257.472 -8.5938 Q256.9095 -8.3125 256.5892 -7.8359 Q256.2689 -7.3594 256.2689 -6.6406 Q256.2689 -5.2344 257.2142 -4.6953 Q258.1595 -4.1562 259.8001 -4.1562 ZM259.3157 -21.5938 Q261.9564 -21.5938 263.7142 -21 Q265.472 -20.4062 266.5345 -19.2812 Q267.597 -18.1562 268.0345 -16.5547 Q268.472 -14.9531 268.472 -13 L268.472 -0.5938 Q267.1907 -0.3125 264.9173 0.0625 Q262.6439 0.4375 259.3939 0.4375 Q257.3626 0.4375 255.6985 0.0781 Q254.0345 -0.2812 252.8392 -1.1016 Q251.6439 -1.9219 251.0032 -3.2422 Q250.3626 -4.5625 250.3626 -6.4844 Q250.3626 -8.3125 251.097 -9.5938 Q251.8314 -10.875 253.0735 -11.6406 Q254.3157 -12.4062 255.9173 -12.7422 Q257.5189 -13.0781 259.2376 -13.0781 Q260.3939 -13.0781 261.2923 -12.9766 Q262.1907 -12.875 262.7532 -12.7188 L262.7532 -13.2812 Q262.7532 -14.7969 261.8314 -15.7188 Q260.9095 -16.6406 258.6439 -16.6406 Q257.1126 -16.6406 255.636 -16.4219 Q254.1595 -16.2031 253.0814 -15.7969 L252.3157 -20.5938 Q252.8314 -20.7656 253.6126 -20.9453 Q254.3939 -21.125 255.3157 -21.2656 Q256.2376 -21.4062 257.2532 -21.5 Q258.2689 -21.5938 259.3157 -21.5938 ZM288.3282 -10.6875 Q288.3282 -7.9219 289.5704 -6.2422 Q290.8126 -4.5625 293.2501 -4.5625 Q294.047 -4.5625 294.7267 -4.625 Q295.4064 -4.6875 295.8595 -4.7656 L295.8595 -15.5938 Q295.297 -15.9531 294.3986 -16.1953 Q293.5001 -16.4375 292.5782 -16.4375 Q288.3282 -16.4375 288.3282 -10.6875 ZM301.8126 -0.6875 Q301.0157 -0.4375 299.9767 -0.2188 Q298.9376 0 297.797 0.1562 Q296.6564 0.3125 295.4767 0.4141 Q294.297 0.5156 293.2189 0.5156 Q290.6095 0.5156 288.5704 -0.2422 Q286.5314 -1 285.1329 -2.4219 Q283.7345 -3.8438 282.9923 -5.8594 Q282.2501 -7.875 282.2501 -10.4062 Q282.2501 -12.9531 282.8907 -15.0156 Q283.5314 -17.0781 284.7345 -18.5156 Q285.9376 -19.9531 287.672 -20.7188 Q289.4064 -21.4844 291.6564 -21.4844 Q292.8907 -21.4844 293.8751 -21.2422 Q294.8595 -21 295.8595 -20.5625 L295.8595 -30.0781 L301.8126 -31.0469 L301.8126 -0.6875 ZM313.2089 0 L307.2402 0 L307.2402 -21.0469 L313.2089 -21.0469 L313.2089 0 ZM313.7558 -27.125 Q313.7558 -25.4844 312.7011 -24.5391 Q311.6464 -23.5938 310.2089 -23.5938 Q308.7558 -23.5938 307.7011 -24.5391 Q306.6464 -25.4844 306.6464 -27.125 Q306.6464 -28.7656 307.7011 -29.7031 Q308.7558 -30.6406 310.2089 -30.6406 Q311.6464 -30.6406 312.7011 -29.7031 Q313.7558 -28.7656 313.7558 -27.125 ZM324.7657 -4.2812 Q326.4064 -4.2812 327.0861 -4.6016 Q327.7657 -4.9219 327.7657 -5.8438 Q327.7657 -6.5625 326.8829 -7.1016 Q326.0001 -7.6406 324.2032 -8.3125 Q322.797 -8.8438 321.6564 -9.3984 Q320.5157 -9.9531 319.7189 -10.7344 Q318.922 -11.5156 318.4845 -12.6016 Q318.047 -13.6875 318.047 -15.2031 Q318.047 -18.1562 320.2423 -19.875 Q322.4376 -21.5938 326.2814 -21.5938 Q328.2032 -21.5938 329.9611 -21.2578 Q331.7189 -20.9219 332.7657 -20.5156 L331.7189 -15.875 Q330.6876 -16.2344 329.4611 -16.5156 Q328.2345 -16.7969 326.7189 -16.7969 Q323.922 -16.7969 323.922 -15.2344 Q323.922 -14.875 324.0392 -14.5938 Q324.1564 -14.3125 324.5157 -14.0547 Q324.8751 -13.7969 325.5001 -13.5 Q326.1251 -13.2031 327.0782 -12.8438 Q329.047 -12.125 330.3282 -11.4219 Q331.6095 -10.7188 332.3439 -9.8984 Q333.0782 -9.0781 333.3829 -8.0781 Q333.6876 -7.0781 333.6876 -5.7656 Q333.6876 -2.6406 331.3439 -1.0391 Q329.0001 0.5625 324.7189 0.5625 Q321.922 0.5625 320.0626 0.0781 Q318.2032 -0.4062 317.4845 -0.7188 L318.4845 -5.5625 Q320.0001 -4.9531 321.6017 -4.6172 Q323.2032 -4.2812 324.7657 -4.2812 ZM337.7793 -26.2812 L343.748 -27.2344 L343.748 -21.0469 L350.9043 -21.0469 L350.9043 -16.0781 L343.748 -16.0781 L343.748 -8.6875 Q343.748 -6.7969 344.4043 -5.6797 Q345.0605 -4.5625 347.0605 -4.5625 Q348.0293 -4.5625 349.0449 -4.7422 Q350.0605 -4.9219 350.9043 -5.2344 L351.748 -0.5938 Q350.6699 -0.1562 349.3496 0.1641 Q348.0293 0.4844 346.1074 0.4844 Q343.6699 0.4844 342.0684 -0.1797 Q340.4668 -0.8438 339.5059 -2.0234 Q338.5449 -3.2031 338.1621 -4.8828 Q337.7793 -6.5625 337.7793 -8.5938 L337.7793 -26.2812 ZM368.305 -15.7656 Q367.5081 -15.9531 366.4222 -16.1797 Q365.3362 -16.4062 364.1019 -16.4062 Q363.5394 -16.4062 362.7581 -16.3047 Q361.9769 -16.2031 361.5862 -16.0781 L361.5862 0 L355.6175 0 L355.6175 -19.9219 Q357.2269 -20.4844 359.4066 -20.9844 Q361.5862 -21.4844 364.2581 -21.4844 Q364.7425 -21.4844 365.4222 -21.4219 Q366.1019 -21.3594 366.7816 -21.2578 Q367.4612 -21.1562 368.1409 -21.0156 Q368.8206 -20.875 369.305 -20.6875 L368.305 -15.7656 ZM378.3475 0 L372.3788 0 L372.3788 -21.0469 L378.3475 -21.0469 L378.3475 0 ZM378.8944 -27.125 Q378.8944 -25.4844 377.8397 -24.5391 Q376.785 -23.5938 375.3475 -23.5938 Q373.8944 -23.5938 372.8397 -24.5391 Q371.785 -25.4844 371.785 -27.125 Q371.785 -28.7656 372.8397 -29.7031 Q373.8944 -30.6406 375.3475 -30.6406 Q376.785 -30.6406 377.8397 -29.7031 Q378.8944 -28.7656 378.8944 -27.125 ZM397.3418 -10.6875 Q397.3418 -16.4375 393.1074 -16.4375 Q392.1855 -16.4375 391.2793 -16.1953 Q390.373 -15.9531 389.8262 -15.5938 L389.8262 -4.7656 Q390.2637 -4.6875 390.9434 -4.625 Q391.623 -4.5625 392.4199 -4.5625 Q394.8574 -4.5625 396.0996 -6.2422 Q397.3418 -7.9219 397.3418 -10.6875 ZM403.4199 -10.5156 Q403.4199 -8 402.6777 -5.9609 Q401.9355 -3.9219 400.5371 -2.4844 Q399.1387 -1.0469 397.0996 -0.2656 Q395.0605 0.5156 392.4668 0.5156 Q391.373 0.5156 390.1934 0.4141 Q389.0137 0.3125 387.8809 0.1562 Q386.748 0 385.7012 -0.2188 Q384.6543 -0.4375 383.8574 -0.6875 L383.8574 -30.0781 L389.8262 -31.0469 L389.8262 -20.5625 Q390.8262 -21 391.9043 -21.2422 Q392.9824 -21.4844 394.2168 -21.4844 Q396.4668 -21.4844 398.1855 -20.7031 Q399.9043 -19.9219 401.0605 -18.4844 Q402.2168 -17.0469 402.8184 -15.0234 Q403.4199 -13 403.4199 -10.5156 ZM425.8162 -0.7188 Q424.285 -0.2812 421.8865 0.1016 Q419.4881 0.4844 416.8475 0.4844 Q414.1756 0.4844 412.3943 -0.2344 Q410.6131 -0.9531 409.574 -2.2578 Q408.535 -3.5625 408.0897 -5.3594 Q407.6443 -7.1562 407.6443 -9.3125 L407.6443 -21.0469 L413.6131 -21.0469 L413.6131 -10.0469 Q413.6131 -7.1562 414.3709 -5.875 Q415.1287 -4.5938 417.2068 -4.5938 Q417.8475 -4.5938 418.5662 -4.6562 Q419.285 -4.7188 419.8475 -4.7969 L419.8475 -21.0469 L425.8162 -21.0469 L425.8162 -0.7188 ZM431.0386 -26.2812 L437.0074 -27.2344 L437.0074 -21.0469 L444.1636 -21.0469 L444.1636 -16.0781 L437.0074 -16.0781 L437.0074 -8.6875 Q437.0074 -6.7969 437.6636 -5.6797 Q438.3199 -4.5625 440.3199 -4.5625 Q441.2886 -4.5625 442.3043 -4.7422 Q443.3199 -4.9219 444.1636 -5.2344 L445.0074 -0.5938 Q443.9293 -0.1562 442.6089 0.1641 Q441.2886 0.4844 439.3668 0.4844 Q436.9293 0.4844 435.3277 -0.1797 Q433.7261 -0.8438 432.7652 -2.0234 Q431.8043 -3.2031 431.4214 -4.8828 Q431.0386 -6.5625 431.0386 -8.5938 L431.0386 -26.2812 ZM454.8456 0 L448.8768 0 L448.8768 -21.0469 L454.8456 -21.0469 L454.8456 0 ZM455.3925 -27.125 Q455.3925 -25.4844 454.3378 -24.5391 Q453.2831 -23.5938 451.8456 -23.5938 Q450.3925 -23.5938 449.3378 -24.5391 Q448.2831 -25.4844 448.2831 -27.125 Q448.2831 -28.7656 449.3378 -29.7031 Q450.3925 -30.6406 451.8456 -30.6406 Q453.2831 -30.6406 454.3378 -29.7031 Q455.3925 -28.7656 455.3925 -27.125 ZM480.043 -10.5625 Q480.043 -8.0781 479.3243 -6.0156 Q478.6055 -3.9531 477.2383 -2.5 Q475.8712 -1.0469 473.9727 -0.2422 Q472.0743 0.5625 469.7149 0.5625 Q467.4024 0.5625 465.504 -0.2422 Q463.6055 -1.0469 462.2383 -2.5 Q460.8712 -3.9531 460.1133 -6.0156 Q459.3555 -8.0781 459.3555 -10.5625 Q459.3555 -13.0469 460.1368 -15.0859 Q460.918 -17.125 462.3008 -18.5625 Q463.6837 -20 465.5821 -20.7969 Q467.4805 -21.5938 469.7149 -21.5938 Q471.9962 -21.5938 473.8946 -20.7969 Q475.793 -20 477.1524 -18.5625 Q478.5118 -17.125 479.2774 -15.0859 Q480.043 -13.0469 480.043 -10.5625 ZM473.9649 -10.5625 Q473.9649 -13.3125 472.8633 -14.8984 Q471.7618 -16.4844 469.7149 -16.4844 Q467.6837 -16.4844 466.5587 -14.8984 Q465.4337 -13.3125 465.4337 -10.5625 Q465.4337 -7.7969 466.5587 -6.1797 Q467.6837 -4.5625 469.7149 -4.5625 Q471.7618 -4.5625 472.8633 -6.1797 Q473.9649 -7.7969 473.9649 -10.5625 ZM484.4647 -20.3125 Q485.9803 -20.7656 488.3866 -21.1406 Q490.7928 -21.5156 493.4335 -21.5156 Q496.1053 -21.5156 497.8866 -20.8203 Q499.6678 -20.125 500.7069 -18.8438 Q501.746 -17.5625 502.1835 -15.8047 Q502.621 -14.0469 502.621 -11.875 L502.621 0 L496.6678 0 L496.6678 -11.1562 Q496.6678 -14.0469 495.91 -15.2422 Q495.1522 -16.4375 493.0741 -16.4375 Q492.4335 -16.4375 491.7069 -16.375 Q490.9803 -16.3125 490.4335 -16.2344 L490.4335 0 L484.4647 0 L484.4647 -20.3125 ZM526.5165 -31.0469 Q528.1884 -31.0469 529.5946 -30.7031 Q531.0009 -30.3594 531.7509 -30.0469 L530.5946 -25.2812 Q529.7977 -25.6406 528.8524 -25.8203 Q527.9071 -26 527.1102 -26 Q526.0321 -26 525.2899 -25.7031 Q524.5477 -25.4062 524.1337 -24.8828 Q523.7196 -24.3594 523.5399 -23.6406 Q523.3602 -22.9219 523.3602 -22.0781 L523.3602 -21.0469 L530.7196 -21.0469 L530.7196 -16.0781 L523.3602 -16.0781 L523.3602 0 L517.3915 0 L517.3915 -22.1562 Q517.3915 -26.2344 519.6962 -28.6406 Q522.0009 -31.0469 526.5165 -31.0469 ZM553.8402 -10.5625 Q553.8402 -8.0781 553.1215 -6.0156 Q552.4027 -3.9531 551.0355 -2.5 Q549.6683 -1.0469 547.7699 -0.2422 Q545.8715 0.5625 543.5121 0.5625 Q541.1996 0.5625 539.3011 -0.2422 Q537.4027 -1.0469 536.0355 -2.5 Q534.6683 -3.9531 533.9105 -6.0156 Q533.1527 -8.0781 533.1527 -10.5625 Q533.1527 -13.0469 533.934 -15.0859 Q534.7152 -17.125 536.098 -18.5625 Q537.4808 -20 539.3793 -20.7969 Q541.2777 -21.5938 543.5121 -21.5938 Q545.7933 -21.5938 547.6918 -20.7969 Q549.5902 -20 550.9496 -18.5625 Q552.309 -17.125 553.0746 -15.0859 Q553.8402 -13.0469 553.8402 -10.5625 ZM547.7621 -10.5625 Q547.7621 -13.3125 546.6605 -14.8984 Q545.559 -16.4844 543.5121 -16.4844 Q541.4808 -16.4844 540.3558 -14.8984 Q539.2308 -13.3125 539.2308 -10.5625 Q539.2308 -7.7969 540.3558 -6.1797 Q541.4808 -4.5625 543.5121 -4.5625 Q545.559 -4.5625 546.6605 -6.1797 Q547.7621 -7.7969 547.7621 -10.5625 ZM570.9494 -15.7656 Q570.1525 -15.9531 569.0666 -16.1797 Q567.9807 -16.4062 566.7463 -16.4062 Q566.1838 -16.4062 565.4025 -16.3047 Q564.6213 -16.2031 564.2307 -16.0781 L564.2307 0 L558.2619 0 L558.2619 -19.9219 Q559.8713 -20.4844 562.051 -20.9844 Q564.2307 -21.4844 566.9025 -21.4844 Q567.3869 -21.4844 568.0666 -21.4219 Q568.7463 -21.3594 569.426 -21.2578 Q570.1057 -21.1562 570.7853 -21.0156 Q571.465 -20.875 571.9494 -20.6875 L570.9494 -15.7656 Z"
    /></g
    ><g transform="translate(2111,115)" style="font-size:39.7222px; text-rendering:geometricPrecision; image-rendering:optimizeQuality; color-rendering:optimizeQuality; font-family:'mwb_cmmi10'; color-interpolation:linearRGB; font-weight:bold;"
    ><path style="stroke:none;" d="M2.1094 7.5156 Q2.1094 7.2812 2.1562 7.2031 L8.0312 -16.4062 Q8.2031 -16.9688 8.6641 -17.3203 Q9.125 -17.6719 9.7188 -17.6719 Q11.2188 -17.6719 11.5703 -17.375 Q11.9219 -17.0781 11.9219 -16.5625 Q11.9219 -16.4531 11.9141 -16.3828 Q11.9062 -16.3125 11.8906 -16.2344 L9.5156 -6.875 Q9.125 -5.2188 9.125 -4 Q9.125 -2.5156 9.8281 -1.5625 Q10.5312 -0.6094 10.9688 -0.6094 Q13.875 -0.6094 16.0781 -4.2344 Q16.0938 -4.2812 16.1094 -4.2969 Q16.125 -4.3125 16.125 -4.3594 L19.0156 -15.9531 Q19.1406 -16.4844 19.6328 -16.8672 Q20.125 -17.25 20.6875 -17.25 Q22.1562 -17.25 22.5156 -16.9375 Q22.875 -16.625 22.875 -16.1094 Q22.875 -15.875 22.8438 -15.7969 L19.9688 -4.2812 Q19.6719 -3.1406 19.6719 -2.3281 Q19.6719 -0.6094 19.8438 -0.6094 Q21.0938 -0.6094 21.7344 -2.1484 Q22.375 -3.6875 22.8438 -5.875 Q22.9219 -6.1094 23.1719 -6.1094 L23.6406 -6.1094 Q24.7969 -6.1094 24.9062 -5.9844 Q25.0156 -5.8594 25.0156 -5.7188 Q24.3125 -2.9375 23.4766 -1.2422 Q22.6406 0.4531 19.7656 0.4531 Q18.4375 0.4531 17.4141 -0.3125 Q16.3906 -1.0781 16.2969 -1.3906 Q16.0781 -1.1094 14.7422 -0.3281 Q13.4062 0.4531 10.9219 0.4531 Q8.4219 0.4531 7.8281 -0.0312 L5.9688 7.3594 Q5.8438 7.9375 5.375 8.2891 Q4.9062 8.6406 3.3281 8.6406 Q2.8438 8.6406 2.4766 8.3359 Q2.1094 8.0312 2.1094 7.5156 Z"
    /></g
    ><g transform="translate(2138,115)" style="font-size:39.7222px; text-rendering:geometricPrecision; image-rendering:optimizeQuality; color-rendering:optimizeQuality; font-family:'Ubuntu'; color-interpolation:linearRGB; font-weight:bold;"
    ><path style="stroke:none;" d="M11.4856 -10.0469 L30.2981 -10.0469 L30.2981 -5.0469 L11.4856 -5.0469 L11.4856 -10.0469 ZM11.4856 -18.7969 L30.2981 -18.7969 L30.2981 -13.7969 L11.4856 -13.7969 L11.4856 -18.7969 ZM44.422 -21.9531 Q45.5782 -22.4375 46.8439 -23.0625 Q48.1095 -23.6875 49.3048 -24.4219 Q50.5001 -25.1562 51.6017 -25.9766 Q52.7032 -26.7969 53.5782 -27.7188 L57.7501 -27.7188 L57.7501 0 L51.7814 0 L51.7814 -19.9531 Q50.5782 -19.1562 49.1017 -18.5 Q47.6251 -17.8438 46.2189 -17.3594 L44.422 -21.9531 ZM72.6228 -6.0781 Q72.7009 -5.125 72.7244 -4.7188 Q72.7478 -4.3125 72.7478 -4.0469 Q72.7478 -2.8438 72.5291 -1.5 Q72.3103 -0.1562 71.9041 1.2031 Q71.4978 2.5625 70.9041 3.9219 Q70.3103 5.2812 69.5447 6.5156 L64.8728 5.3594 Q65.7791 2.7188 66.1384 0.3984 Q66.4978 -1.9219 66.4978 -3.4375 Q66.4978 -3.6875 66.4822 -4.0625 Q66.4666 -4.4375 66.4431 -4.8359 Q66.4197 -5.2344 66.4041 -5.5938 Q66.3884 -5.9531 66.3884 -6.0781 L72.6228 -6.0781 Z"
    /></g
    ><g transform="translate(2222,115)" style="font-size:39.7222px; text-rendering:geometricPrecision; image-rendering:optimizeQuality; color-rendering:optimizeQuality; font-family:'mwb_cmmi10'; color-interpolation:linearRGB; font-weight:bold;"
    ><path style="stroke:none;" d="M9.0469 0.4531 Q7.1562 0.4531 5.6797 -0.4453 Q4.2031 -1.3438 3.4062 -2.8672 Q2.6094 -4.3906 2.6094 -6.3281 Q2.6094 -9.0469 4.1172 -11.7031 Q5.625 -14.3594 8.1406 -16.0156 Q10.6562 -17.6719 13.4062 -17.6719 Q16.4375 -17.6719 17.9766 -16.6094 Q19.5156 -15.5469 20.3203 -13.7812 Q21.125 -12.0156 21.125 -10 L21.125 -8.6719 Q21.5312 -9.2188 22.4766 -11.2578 Q23.4219 -13.2969 23.9375 -15.4844 Q24.0156 -15.7188 24.25 -15.7188 L24.7188 -15.7188 Q26.0781 -15.7188 26.0781 -15.3594 Q26.0781 -15.3125 26.0469 -15.2344 Q25.5781 -13.4062 24.875 -11.7109 Q24.1719 -10.0156 23.2266 -8.4375 Q22.2812 -6.8594 21.1562 -5.5625 Q21.1562 -0.6094 21.3125 -0.6094 Q22.0625 -0.6094 22.5391 -1.0469 Q23.0156 -1.4844 23.375 -2.1328 Q23.7344 -2.7812 23.8281 -2.7969 L24.3281 -2.7969 Q25.6406 -2.7969 25.6406 -2.4062 Q25.6406 -1.4062 24.4922 -0.4766 Q23.3438 0.4531 21.2344 0.4531 Q19.7969 0.4531 18.8359 -0.4844 Q17.875 -1.4219 17.6875 -2.2188 Q16.6562 -1.3281 14.4688 -0.4375 Q12.2812 0.4531 9.0469 0.4531 ZM9.125 -0.6094 Q13.4062 -0.6094 17.3281 -4.125 Q17.3125 -4.3594 17.2734 -4.7031 Q17.2344 -5.0469 17.2344 -5.0781 L17.2344 -9.3906 Q17.2344 -16.6406 13.3281 -16.6406 Q11.9844 -16.6406 10.2266 -14.6406 Q8.4688 -12.6406 7.5781 -9.8594 Q6.6875 -7.0781 6.6875 -4.7656 Q6.6875 -3.0312 7.5781 -1.8203 Q8.4688 -0.6094 9.125 -0.6094 Z"
    /></g
    ><g transform="translate(2250,115)" style="font-size:39.7222px; text-rendering:geometricPrecision; image-rendering:optimizeQuality; color-rendering:optimizeQuality; font-family:'Ubuntu'; color-interpolation:linearRGB; font-weight:bold;"
    ><path style="stroke:none;" d="M11.4856 -10.0469 L30.2981 -10.0469 L30.2981 -5.0469 L11.4856 -5.0469 L11.4856 -10.0469 ZM11.4856 -18.7969 L30.2981 -18.7969 L30.2981 -13.7969 L11.4856 -13.7969 L11.4856 -18.7969 ZM62.9845 -13.9219 Q62.9845 -6.9219 60.3282 -3.1797 Q57.672 0.5625 52.9845 0.5625 Q48.3126 0.5625 45.6486 -3.1797 Q42.9845 -6.9219 42.9845 -13.9219 Q42.9845 -17.4062 43.6876 -20.0859 Q44.3907 -22.7656 45.7111 -24.6016 Q47.0314 -26.4375 48.8673 -27.3984 Q50.7032 -28.3594 52.9845 -28.3594 Q57.672 -28.3594 60.3282 -24.6172 Q62.9845 -20.875 62.9845 -13.9219 ZM56.9064 -13.9219 Q56.9064 -16 56.7032 -17.7031 Q56.5001 -19.4062 56.0626 -20.6406 Q55.6251 -21.875 54.8673 -22.5547 Q54.1095 -23.2344 52.9845 -23.2344 Q51.8595 -23.2344 51.1251 -22.5547 Q50.3907 -21.875 49.9298 -20.6406 Q49.4689 -19.4062 49.2657 -17.7031 Q49.0626 -16 49.0626 -13.9219 Q49.0626 -11.8438 49.2657 -10.125 Q49.4689 -8.4062 49.9298 -7.1641 Q50.3907 -5.9219 51.1251 -5.2422 Q51.8595 -4.5625 52.9845 -4.5625 Q54.1095 -4.5625 54.8673 -5.2422 Q55.6251 -5.9219 56.0626 -7.1641 Q56.5001 -8.4062 56.7032 -10.125 Q56.9064 -11.8438 56.9064 -13.9219 ZM72.8259 -3.1562 Q72.8259 -1.3594 71.6853 -0.4219 Q70.5447 0.5156 69.1072 0.5156 Q67.6697 0.5156 66.5291 -0.4219 Q65.3884 -1.3594 65.3884 -3.1562 Q65.3884 -4.9531 66.5291 -5.8984 Q67.6697 -6.8438 69.1072 -6.8438 Q70.5447 -6.8438 71.6853 -5.8984 Q72.8259 -4.9531 72.8259 -3.1562 ZM88.3623 -8.1562 Q88.3623 -9.3125 87.8389 -10.2188 Q87.3155 -11.125 86.0342 -11.7188 Q84.753 -12.3125 82.5967 -12.6328 Q80.4405 -12.9531 77.1592 -12.9531 Q77.5967 -16.6875 77.878 -20.5234 Q78.1592 -24.3594 78.3155 -27.7188 L93.3155 -27.7188 L93.3155 -22.7188 L83.3155 -22.7188 Q83.2373 -21.2812 83.1358 -19.9375 Q83.0342 -18.5938 82.9092 -17.5938 Q88.753 -17.2031 91.5342 -14.8594 Q94.3155 -12.5156 94.3155 -8.3594 Q94.3155 -6.4375 93.6358 -4.7969 Q92.9561 -3.1562 91.5967 -1.9609 Q90.2373 -0.7656 88.1748 -0.0859 Q86.1123 0.5938 83.3623 0.5938 Q82.2686 0.5938 81.0889 0.4531 Q79.9092 0.3125 78.8155 0.0938 Q77.7217 -0.125 76.8389 -0.3594 Q75.9561 -0.5938 75.4717 -0.8438 L76.5498 -5.7656 Q77.5498 -5.3125 79.1905 -4.8984 Q80.8311 -4.4844 83.1123 -4.4844 Q85.878 -4.4844 87.1201 -5.5859 Q88.3623 -6.6875 88.3623 -8.1562 ZM117.8756 -13.9219 Q117.8756 -6.9219 115.2194 -3.1797 Q112.5631 0.5625 107.8756 0.5625 Q103.2038 0.5625 100.5397 -3.1797 Q97.8756 -6.9219 97.8756 -13.9219 Q97.8756 -17.4062 98.5788 -20.0859 Q99.2819 -22.7656 100.6022 -24.6016 Q101.9225 -26.4375 103.7585 -27.3984 Q105.5944 -28.3594 107.8756 -28.3594 Q112.5631 -28.3594 115.2194 -24.6172 Q117.8756 -20.875 117.8756 -13.9219 ZM111.7975 -13.9219 Q111.7975 -16 111.5944 -17.7031 Q111.3913 -19.4062 110.9538 -20.6406 Q110.5163 -21.875 109.7585 -22.5547 Q109.0006 -23.2344 107.8756 -23.2344 Q106.7506 -23.2344 106.0163 -22.5547 Q105.2819 -21.875 104.821 -20.6406 Q104.36 -19.4062 104.1569 -17.7031 Q103.9538 -16 103.9538 -13.9219 Q103.9538 -11.8438 104.1569 -10.125 Q104.36 -8.4062 104.821 -7.1641 Q105.2819 -5.9219 106.0163 -5.2422 Q106.7506 -4.5625 107.8756 -4.5625 Q109.0006 -4.5625 109.7585 -5.2422 Q110.5163 -5.9219 110.9538 -7.1641 Q111.3913 -8.4062 111.5944 -10.125 Q111.7975 -11.8438 111.7975 -13.9219 Z"
    /></g
    ><g style="stroke-linecap:butt; fill:rgb(38,38,38); text-rendering:geometricPrecision; image-rendering:optimizeQuality; color-rendering:optimizeQuality; stroke-linejoin:round; stroke:rgb(38,38,38); color-interpolation:linearRGB; stroke-width:0.9931;"
    ><line y2="1719" style="fill:none;" x1="480" x2="3345" y1="1719"
    /></g
    ><g style="fill:rgb(0,114,189); text-rendering:optimizeSpeed; color-rendering:optimizeSpeed; image-rendering:optimizeSpeed; shape-rendering:crispEdges; stroke:rgb(0,114,189); color-interpolation:sRGB;"
    ><path style="stroke:none;" d="M863.504 1719 L863.504 1718.9983 L818.3858 1718.9983 L818.3858 1719 ZM919.9016 1719 L919.9016 1715.3458 L874.7834 1715.3458 L874.7834 1719 ZM976.2992 1719 L976.2992 1556.0087 L931.1811 1556.0087 L931.1811 1719 ZM1032.6968 1719 L1032.6968 772.6611 L987.5787 772.6611 L987.5787 1719 ZM1089.0945 1719 L1089.0945 145 L1043.9764 145 L1043.9764 1719 ZM1145.4921 1719 L1145.4921 772.6611 L1100.374 772.6611 L1100.374 1719 ZM1201.8898 1719 L1201.8898 1556.0087 L1156.7717 1556.0087 L1156.7717 1719 ZM1258.2874 1719 L1258.2874 1715.3458 L1213.1693 1715.3458 L1213.1693 1719 ZM1314.6851 1719 L1314.6851 1718.9983 L1269.5669 1718.9983 L1269.5669 1719 Z"
    /></g
    ><g style="text-rendering:geometricPrecision; stroke-width:0.9931; color-interpolation:linearRGB; color-rendering:optimizeQuality; stroke-linecap:butt; image-rendering:optimizeQuality;"
    ><path d="M480 1719 L480 1719 L525.1181 1719 L525.1181 1719 Z" style="fill:none; fill-rule:evenodd;"
      /><path d="M536.3976 1719 L536.3976 1719 L581.5157 1719 L581.5157 1719 Z" style="fill:none; fill-rule:evenodd;"
      /><path d="M592.7953 1719 L592.7953 1719 L637.9134 1719 L637.9134 1719 Z" style="fill:none; fill-rule:evenodd;"
      /><path d="M649.1929 1719 L649.1929 1719 L694.311 1719 L694.311 1719 Z" style="fill:none; fill-rule:evenodd;"
      /><path d="M705.5906 1719 L705.5906 1719 L750.7087 1719 L750.7087 1719 Z" style="fill:none; fill-rule:evenodd;"
      /><path d="M761.9882 1719 L761.9882 1719 L807.1063 1719 L807.1063 1719 Z" style="fill:none; fill-rule:evenodd;"
      /><path d="M818.3858 1719 L818.3858 1718.9983 L863.504 1718.9983 L863.504 1719 Z" style="fill:none; fill-rule:evenodd;"
      /><path d="M874.7834 1719 L874.7834 1715.3458 L919.9016 1715.3458 L919.9016 1719 Z" style="fill:none; fill-rule:evenodd;"
      /><path d="M931.1811 1719 L931.1811 1556.0087 L976.2992 1556.0087 L976.2992 1719 Z" style="fill:none; fill-rule:evenodd;"
      /><path d="M987.5787 1719 L987.5787 772.6611 L1032.6968 772.6611 L1032.6968 1719 Z" style="fill:none; fill-rule:evenodd;"
      /><path d="M1043.9764 1719 L1043.9764 145 L1089.0945 145 L1089.0945 1719 Z" style="fill:none; fill-rule:evenodd;"
      /><path d="M1100.374 1719 L1100.374 772.6611 L1145.4921 772.6611 L1145.4921 1719 Z" style="fill:none; fill-rule:evenodd;"
      /><path d="M1156.7717 1719 L1156.7717 1556.0087 L1201.8898 1556.0087 L1201.8898 1719 Z" style="fill:none; fill-rule:evenodd;"
      /><path d="M1213.1693 1719 L1213.1693 1715.3458 L1258.2874 1715.3458 L1258.2874 1719 Z" style="fill:none; fill-rule:evenodd;"
      /><path d="M1269.5669 1719 L1269.5669 1718.9983 L1314.6851 1718.9983 L1314.6851 1719 Z" style="fill:none; fill-rule:evenodd;"
      /><path d="M1325.9646 1719 L1325.9646 1719 L1371.0826 1719 L1371.0826 1719 Z" style="fill:none; fill-rule:evenodd;"
      /><path d="M1382.3622 1719 L1382.3622 1719 L1427.4803 1719 L1427.4803 1719 Z" style="fill:none; fill-rule:evenodd;"
      /><path d="M1438.7599 1719 L1438.7599 1719 L1483.8779 1719 L1483.8779 1719 Z" style="fill:none; fill-rule:evenodd;"
      /><path d="M1495.1575 1719 L1495.1575 1719 L1540.2755 1719 L1540.2755 1719 Z" style="fill:none; fill-rule:evenodd;"
      /><path d="M1551.5552 1719 L1551.5552 1719 L1596.6732 1719 L1596.6732 1719 Z" style="fill:none; fill-rule:evenodd;"
      /><path d="M1607.9528 1719 L1607.9528 1719 L1653.0708 1719 L1653.0708 1719 Z" style="fill:none; fill-rule:evenodd;"
      /><path d="M1664.3505 1719 L1664.3505 1719 L1709.4685 1719 L1709.4685 1719 Z" style="fill:none; fill-rule:evenodd;"
      /><path d="M1720.748 1719 L1720.748 1719 L1765.8661 1719 L1765.8661 1719 Z" style="fill:none; fill-rule:evenodd;"
      /><path d="M1777.1456 1719 L1777.1456 1719 L1822.2638 1719 L1822.2638 1719 Z" style="fill:none; fill-rule:evenodd;"
      /><path d="M1833.5433 1719 L1833.5433 1719 L1878.6614 1719 L1878.6614 1719 Z" style="fill:none; fill-rule:evenodd;"
      /><path d="M1889.9409 1719 L1889.9409 1719 L1935.0591 1719 L1935.0591 1719 Z" style="fill:none; fill-rule:evenodd;"
      /><path d="M1946.3386 1719 L1946.3386 1719 L1991.4567 1719 L1991.4567 1719 Z" style="fill:none; fill-rule:evenodd;"
      /><path d="M2002.7362 1719 L2002.7362 1719 L2047.8544 1719 L2047.8544 1719 Z" style="fill:none; fill-rule:evenodd;"
      /><path d="M2059.1338 1719 L2059.1338 1719 L2104.252 1719 L2104.252 1719 Z" style="fill:none; fill-rule:evenodd;"
      /><path d="M2115.5315 1719 L2115.5315 1719 L2160.6497 1719 L2160.6497 1719 Z" style="fill:none; fill-rule:evenodd;"
      /><path d="M2171.9292 1719 L2171.9292 1719 L2217.0471 1719 L2217.0471 1719 Z" style="fill:none; fill-rule:evenodd;"
      /><path d="M2228.3269 1719 L2228.3269 1719 L2273.4448 1719 L2273.4448 1719 Z" style="fill:none; fill-rule:evenodd;"
      /><path d="M2284.7244 1719 L2284.7244 1719 L2329.8425 1719 L2329.8425 1719 Z" style="fill:none; fill-rule:evenodd;"
      /><path d="M2341.1221 1719 L2341.1221 1719 L2386.2402 1719 L2386.2402 1719 Z" style="fill:none; fill-rule:evenodd;"
      /><path d="M2397.5195 1719 L2397.5195 1719 L2442.6379 1719 L2442.6379 1719 Z" style="fill:none; fill-rule:evenodd;"
      /><path d="M2453.9172 1719 L2453.9172 1719 L2499.0354 1719 L2499.0354 1719 Z" style="fill:none; fill-rule:evenodd;"
      /><path d="M2510.3149 1719 L2510.3149 1719 L2555.4331 1719 L2555.4331 1719 Z" style="fill:none; fill-rule:evenodd;"
      /><path d="M2566.7124 1719 L2566.7124 1719 L2611.8308 1719 L2611.8308 1719 Z" style="fill:none; fill-rule:evenodd;"
      /><path d="M2623.1101 1719 L2623.1101 1719 L2668.2285 1719 L2668.2285 1719 Z" style="fill:none; fill-rule:evenodd;"
      /><path d="M2679.5078 1719 L2679.5078 1719 L2724.626 1719 L2724.626 1719 Z" style="fill:none; fill-rule:evenodd;"
      /><path d="M2735.9055 1719 L2735.9055 1719 L2781.0237 1719 L2781.0237 1719 Z" style="fill:none; fill-rule:evenodd;"
      /><path d="M2792.303 1719 L2792.303 1719 L2837.4214 1719 L2837.4214 1719 Z" style="fill:none; fill-rule:evenodd;"
      /><path d="M2848.7007 1719 L2848.7007 1719 L2893.8191 1719 L2893.8191 1719 Z" style="fill:none; fill-rule:evenodd;"
      /><path d="M2905.0984 1719 L2905.0984 1719 L2950.2166 1719 L2950.2166 1719 Z" style="fill:none; fill-rule:evenodd;"
      /><path d="M2961.4961 1719 L2961.4961 1719 L3006.6143 1719 L3006.6143 1719 Z" style="fill:none; fill-rule:evenodd;"
      /><path d="M3017.8936 1719 L3017.8936 1719 L3063.012 1719 L3063.012 1719 Z" style="fill:none; fill-rule:evenodd;"
      /><path d="M3074.2913 1719 L3074.2913 1719 L3119.4094 1719 L3119.4094 1719 Z" style="fill:none; fill-rule:evenodd;"
      /><path d="M3130.689 1719 L3130.689 1719 L3175.8071 1719 L3175.8071 1719 Z" style="fill:none; fill-rule:evenodd;"
      /><path d="M3187.0864 1719 L3187.0864 1719 L3232.2048 1719 L3232.2048 1719 Z" style="fill:none; fill-rule:evenodd;"
      /><path d="M3243.4841 1719 L3243.4841 1719 L3288.6025 1719 L3288.6025 1719 Z" style="fill:none; fill-rule:evenodd;"
      /><path d="M3299.8818 1719 L3299.8818 1719 L3345 1719 L3345 1719 Z" style="fill:none; fill-rule:evenodd;"
    /></g
    ><g style="fill:rgb(38,38,38); text-rendering:geometricPrecision; image-rendering:optimizeQuality; color-rendering:optimizeQuality; stroke-linejoin:round; stroke:rgb(38,38,38); color-interpolation:linearRGB; stroke-width:0.9931;"
    ><line y2="1719" style="fill:none;" x1="480" x2="3345" y1="1719"
      /><line y2="145" style="fill:none;" x1="480" x2="3345" y1="145"
      /><line y2="1690.35" style="fill:none;" x1="502.5591" x2="502.5591" y1="1719"
      /><line y2="1690.35" style="fill:none;" x1="784.5472" x2="784.5472" y1="1719"
      /><line y2="1690.35" style="fill:none;" x1="1066.5354" x2="1066.5354" y1="1719"
      /><line y2="1690.35" style="fill:none;" x1="1348.5237" x2="1348.5237" y1="1719"
      /><line y2="1690.35" style="fill:none;" x1="1630.5118" x2="1630.5118" y1="1719"
      /><line y2="1690.35" style="fill:none;" x1="1912.5" x2="1912.5" y1="1719"
      /><line y2="1690.35" style="fill:none;" x1="2194.4883" x2="2194.4883" y1="1719"
      /><line y2="1690.35" style="fill:none;" x1="2476.4763" x2="2476.4763" y1="1719"
      /><line y2="1690.35" style="fill:none;" x1="2758.4646" x2="2758.4646" y1="1719"
      /><line y2="1690.35" style="fill:none;" x1="3040.4526" x2="3040.4526" y1="1719"
      /><line y2="1690.35" style="fill:none;" x1="3322.4409" x2="3322.4409" y1="1719"
      /><line y2="173.65" style="fill:none;" x1="502.5591" x2="502.5591" y1="145"
      /><line y2="173.65" style="fill:none;" x1="784.5472" x2="784.5472" y1="145"
      /><line y2="173.65" style="fill:none;" x1="1066.5354" x2="1066.5354" y1="145"
      /><line y2="173.65" style="fill:none;" x1="1348.5237" x2="1348.5237" y1="145"
      /><line y2="173.65" style="fill:none;" x1="1630.5118" x2="1630.5118" y1="145"
      /><line y2="173.65" style="fill:none;" x1="1912.5" x2="1912.5" y1="145"
      /><line y2="173.65" style="fill:none;" x1="2194.4883" x2="2194.4883" y1="145"
      /><line y2="173.65" style="fill:none;" x1="2476.4763" x2="2476.4763" y1="145"
      /><line y2="173.65" style="fill:none;" x1="2758.4646" x2="2758.4646" y1="145"
      /><line y2="173.65" style="fill:none;" x1="3040.4526" x2="3040.4526" y1="145"
      /><line y2="173.65" style="fill:none;" x1="3322.4409" x2="3322.4409" y1="145"
    /></g
    ><g transform="translate(502.5591,1730.9166)" style="font-size:39.7222px; fill:rgb(38,38,38); text-rendering:geometricPrecision; image-rendering:optimizeQuality; color-rendering:optimizeQuality; font-family:'Ubuntu'; stroke:rgb(38,38,38); color-interpolation:linearRGB;"
    ><path style="stroke:none;" d="M-9.5 24.125 Q-9.5 17.1562 -7.0391 13.3984 Q-4.5781 9.6406 -0.2188 9.6406 Q4.1406 9.6406 6.6016 13.3984 Q9.0625 17.1562 9.0625 24.125 Q9.0625 31.0781 6.6016 34.8359 Q4.1406 38.5938 -0.2188 38.5938 Q-4.5781 38.5938 -7.0391 34.8359 Q-9.5 31.0781 -9.5 24.125 ZM5.1406 24.125 Q5.1406 21.8438 4.8828 19.8047 Q4.625 17.7656 4 16.2422 Q3.375 14.7188 2.3359 13.8203 Q1.2969 12.9219 -0.2188 12.9219 Q-1.7344 12.9219 -2.7734 13.8203 Q-3.8125 14.7188 -4.4375 16.2422 Q-5.0625 17.7656 -5.3203 19.8047 Q-5.5781 21.8438 -5.5781 24.125 Q-5.5781 26.4062 -5.3203 28.4453 Q-5.0625 30.4844 -4.4375 32 Q-3.8125 33.5156 -2.7734 34.4141 Q-1.7344 35.3125 -0.2188 35.3125 Q1.2969 35.3125 2.3359 34.4141 Q3.375 33.5156 4 32 Q4.625 30.4844 4.8828 28.4453 Q5.1406 26.4062 5.1406 24.125 Z"
    /></g
    ><g transform="translate(784.5472,1730.9166)" style="font-size:39.7222px; fill:rgb(38,38,38); text-rendering:geometricPrecision; image-rendering:optimizeQuality; color-rendering:optimizeQuality; font-family:'Ubuntu'; stroke:rgb(38,38,38); color-interpolation:linearRGB;"
    ><path style="stroke:none;" d="M-3.5469 20.9531 Q2.5 21.2031 5.3203 23.6016 Q8.1406 26 8.1406 30.125 Q8.1406 31.9531 7.5234 33.5156 Q6.9062 35.0781 5.6406 36.1953 Q4.375 37.3125 2.4609 37.9531 Q0.5469 38.5938 -2.0938 38.5938 Q-3.1406 38.5938 -4.2188 38.4375 Q-5.2969 38.2812 -6.2188 38.0391 Q-7.1406 37.7969 -7.8594 37.5547 Q-8.5781 37.3125 -8.9062 37.1562 L-8.1875 33.9219 Q-7.5 34.2344 -5.9609 34.7578 Q-4.4219 35.2812 -2.1875 35.2812 Q-0.375 35.2812 0.8438 34.8828 Q2.0625 34.4844 2.8203 33.8047 Q3.5781 33.125 3.9219 32.2188 Q4.2656 31.3125 4.2656 30.3125 Q4.2656 28.7969 3.7422 27.6172 Q3.2188 26.4375 1.8984 25.6406 Q0.5781 24.8438 -1.6172 24.4219 Q-3.8125 24 -7.1875 24 Q-6.9375 22.0469 -6.7969 20.3203 Q-6.6562 18.5938 -6.5391 16.9531 Q-6.4219 15.3125 -6.3438 13.6953 Q-6.2656 12.0781 -6.1875 10.2812 L7.1875 10.2812 L7.1875 13.4375 L-2.9375 13.4375 Q-2.9844 14.0469 -3.0625 15.0625 Q-3.1406 16.0781 -3.2188 17.1797 Q-3.2969 18.2812 -3.375 19.3203 Q-3.4531 20.3594 -3.5469 20.9531 Z"
    /></g
    ><g transform="translate(1066.5354,1730.9166)" style="font-size:39.7222px; fill:rgb(38,38,38); text-rendering:geometricPrecision; image-rendering:optimizeQuality; color-rendering:optimizeQuality; font-family:'Ubuntu'; stroke:rgb(38,38,38); color-interpolation:linearRGB;"
    ><path style="stroke:none;" d="M-18.7812 16 Q-16.5 15.125 -14.3438 13.7422 Q-12.1875 12.3594 -10.375 10.2812 L-7.7344 10.2812 L-7.7344 38 L-11.4531 38 L-11.4531 15.4375 Q-11.9375 15.875 -12.6406 16.3594 Q-13.3438 16.8438 -14.1641 17.2812 Q-14.9844 17.7188 -15.8828 18.1172 Q-16.7812 18.5156 -17.625 18.7969 L-18.7812 16 ZM1.9013 24.125 Q1.9013 17.1562 4.3622 13.3984 Q6.8232 9.6406 11.1826 9.6406 Q15.5419 9.6406 18.0029 13.3984 Q20.4638 17.1562 20.4638 24.125 Q20.4638 31.0781 18.0029 34.8359 Q15.5419 38.5938 11.1826 38.5938 Q6.8232 38.5938 4.3622 34.8359 Q1.9013 31.0781 1.9013 24.125 ZM16.5419 24.125 Q16.5419 21.8438 16.2841 19.8047 Q16.0263 17.7656 15.4013 16.2422 Q14.7763 14.7188 13.7372 13.8203 Q12.6982 12.9219 11.1826 12.9219 Q9.6669 12.9219 8.6279 13.8203 Q7.5888 14.7188 6.9638 16.2422 Q6.3388 17.7656 6.081 19.8047 Q5.8232 21.8438 5.8232 24.125 Q5.8232 26.4062 6.081 28.4453 Q6.3388 30.4844 6.9638 32 Q7.5888 33.5156 8.6279 34.4141 Q9.6669 35.3125 11.1826 35.3125 Q12.6982 35.3125 13.7372 34.4141 Q14.7763 33.5156 15.4013 32 Q16.0263 30.4844 16.2841 28.4453 Q16.5419 26.4062 16.5419 24.125 Z"
    /></g
    ><g transform="translate(1348.5237,1730.9166)" style="font-size:39.7222px; fill:rgb(38,38,38); text-rendering:geometricPrecision; image-rendering:optimizeQuality; color-rendering:optimizeQuality; font-family:'Ubuntu'; stroke:rgb(38,38,38); color-interpolation:linearRGB;"
    ><path style="stroke:none;" d="M-18.7812 16 Q-16.5 15.125 -14.3438 13.7422 Q-12.1875 12.3594 -10.375 10.2812 L-7.7344 10.2812 L-7.7344 38 L-11.4531 38 L-11.4531 15.4375 Q-11.9375 15.875 -12.6406 16.3594 Q-13.3438 16.8438 -14.1641 17.2812 Q-14.9844 17.7188 -15.8828 18.1172 Q-16.7812 18.5156 -17.625 18.7969 L-18.7812 16 ZM7.8544 20.9531 Q13.9013 21.2031 16.7216 23.6016 Q19.5419 26 19.5419 30.125 Q19.5419 31.9531 18.9247 33.5156 Q18.3076 35.0781 17.0419 36.1953 Q15.7763 37.3125 13.8622 37.9531 Q11.9482 38.5938 9.3076 38.5938 Q8.2607 38.5938 7.1826 38.4375 Q6.1044 38.2812 5.1826 38.0391 Q4.2607 37.7969 3.5419 37.5547 Q2.8232 37.3125 2.4951 37.1562 L3.2138 33.9219 Q3.9013 34.2344 5.4404 34.7578 Q6.9794 35.2812 9.2138 35.2812 Q11.0263 35.2812 12.2451 34.8828 Q13.4638 34.4844 14.2216 33.8047 Q14.9794 33.125 15.3232 32.2188 Q15.6669 31.3125 15.6669 30.3125 Q15.6669 28.7969 15.1435 27.6172 Q14.6201 26.4375 13.2997 25.6406 Q11.9794 24.8438 9.7841 24.4219 Q7.5888 24 4.2138 24 Q4.4638 22.0469 4.6044 20.3203 Q4.7451 18.5938 4.8622 16.9531 Q4.9794 15.3125 5.0576 13.6953 Q5.1357 12.0781 5.2138 10.2812 L18.5888 10.2812 L18.5888 13.4375 L8.4638 13.4375 Q8.4169 14.0469 8.3388 15.0625 Q8.2607 16.0781 8.1826 17.1797 Q8.1044 18.2812 8.0263 19.3203 Q7.9482 20.3594 7.8544 20.9531 Z"
    /></g
    ><g transform="translate(1630.5118,1730.9166)" style="font-size:39.7222px; fill:rgb(38,38,38); text-rendering:geometricPrecision; image-rendering:optimizeQuality; color-rendering:optimizeQuality; font-family:'Ubuntu'; stroke:rgb(38,38,38); color-interpolation:linearRGB;"
    ><path style="stroke:none;" d="M-3.8125 17.3594 Q-3.8125 18.7969 -4.3984 20.1406 Q-4.9844 21.4844 -5.9453 22.7812 Q-6.9062 24.0781 -8.1016 25.3359 Q-9.2969 26.5938 -10.5 27.7969 Q-11.1875 28.4844 -12.0859 29.3984 Q-12.9844 30.3125 -13.7812 31.3125 Q-14.5781 32.3125 -15.1172 33.2344 Q-15.6562 34.1562 -15.6562 34.8438 L-2.9062 34.8438 L-2.9062 38 L-19.7031 38 Q-19.7344 37.7656 -19.7344 37.5234 Q-19.7344 37.2812 -19.7344 37.0781 Q-19.7344 35.2031 -19.1172 33.5781 Q-18.5 31.9531 -17.5 30.5156 Q-16.5 29.0781 -15.2578 27.7969 Q-14.0156 26.5156 -12.8125 25.3125 Q-11.8125 24.3594 -10.9141 23.4219 Q-10.0156 22.4844 -9.3203 21.5391 Q-8.625 20.5938 -8.2031 19.5938 Q-7.7812 18.5938 -7.7812 17.4844 Q-7.7812 16.2812 -8.1641 15.4375 Q-8.5469 14.5938 -9.1797 14.0391 Q-9.8125 13.4844 -10.6797 13.2188 Q-11.5469 12.9531 -12.5 12.9531 Q-13.6562 12.9531 -14.6172 13.2734 Q-15.5781 13.5938 -16.3359 14.0156 Q-17.0938 14.4375 -17.6172 14.8984 Q-18.1406 15.3594 -18.4219 15.5938 L-20.2656 12.9531 Q-19.9062 12.5625 -19.1797 11.9844 Q-18.4531 11.4062 -17.4531 10.8828 Q-16.4531 10.3594 -15.2188 10 Q-13.9844 9.6406 -12.5469 9.6406 Q-8.1875 9.6406 -6 11.6641 Q-3.8125 13.6875 -3.8125 17.3594 ZM1.9013 24.125 Q1.9013 17.1562 4.3622 13.3984 Q6.8232 9.6406 11.1826 9.6406 Q15.5419 9.6406 18.0029 13.3984 Q20.4638 17.1562 20.4638 24.125 Q20.4638 31.0781 18.0029 34.8359 Q15.5419 38.5938 11.1826 38.5938 Q6.8232 38.5938 4.3622 34.8359 Q1.9013 31.0781 1.9013 24.125 ZM16.5419 24.125 Q16.5419 21.8438 16.2841 19.8047 Q16.0263 17.7656 15.4013 16.2422 Q14.7763 14.7188 13.7372 13.8203 Q12.6982 12.9219 11.1826 12.9219 Q9.6669 12.9219 8.6279 13.8203 Q7.5888 14.7188 6.9638 16.2422 Q6.3388 17.7656 6.081 19.8047 Q5.8232 21.8438 5.8232 24.125 Q5.8232 26.4062 6.081 28.4453 Q6.3388 30.4844 6.9638 32 Q7.5888 33.5156 8.6279 34.4141 Q9.6669 35.3125 11.1826 35.3125 Q12.6982 35.3125 13.7372 34.4141 Q14.7763 33.5156 15.4013 32 Q16.0263 30.4844 16.2841 28.4453 Q16.5419 26.4062 16.5419 24.125 Z"
    /></g
    ><g transform="translate(1912.5,1730.9166)" style="font-size:39.7222px; fill:rgb(38,38,38); text-rendering:geometricPrecision; image-rendering:optimizeQuality; color-rendering:optimizeQuality; font-family:'Ubuntu'; stroke:rgb(38,38,38); color-interpolation:linearRGB;"
    ><path style="stroke:none;" d="M-3.8125 17.3594 Q-3.8125 18.7969 -4.3984 20.1406 Q-4.9844 21.4844 -5.9453 22.7812 Q-6.9062 24.0781 -8.1016 25.3359 Q-9.2969 26.5938 -10.5 27.7969 Q-11.1875 28.4844 -12.0859 29.3984 Q-12.9844 30.3125 -13.7812 31.3125 Q-14.5781 32.3125 -15.1172 33.2344 Q-15.6562 34.1562 -15.6562 34.8438 L-2.9062 34.8438 L-2.9062 38 L-19.7031 38 Q-19.7344 37.7656 -19.7344 37.5234 Q-19.7344 37.2812 -19.7344 37.0781 Q-19.7344 35.2031 -19.1172 33.5781 Q-18.5 31.9531 -17.5 30.5156 Q-16.5 29.0781 -15.2578 27.7969 Q-14.0156 26.5156 -12.8125 25.3125 Q-11.8125 24.3594 -10.9141 23.4219 Q-10.0156 22.4844 -9.3203 21.5391 Q-8.625 20.5938 -8.2031 19.5938 Q-7.7812 18.5938 -7.7812 17.4844 Q-7.7812 16.2812 -8.1641 15.4375 Q-8.5469 14.5938 -9.1797 14.0391 Q-9.8125 13.4844 -10.6797 13.2188 Q-11.5469 12.9531 -12.5 12.9531 Q-13.6562 12.9531 -14.6172 13.2734 Q-15.5781 13.5938 -16.3359 14.0156 Q-17.0938 14.4375 -17.6172 14.8984 Q-18.1406 15.3594 -18.4219 15.5938 L-20.2656 12.9531 Q-19.9062 12.5625 -19.1797 11.9844 Q-18.4531 11.4062 -17.4531 10.8828 Q-16.4531 10.3594 -15.2188 10 Q-13.9844 9.6406 -12.5469 9.6406 Q-8.1875 9.6406 -6 11.6641 Q-3.8125 13.6875 -3.8125 17.3594 ZM7.8544 20.9531 Q13.9013 21.2031 16.7216 23.6016 Q19.5419 26 19.5419 30.125 Q19.5419 31.9531 18.9247 33.5156 Q18.3076 35.0781 17.0419 36.1953 Q15.7763 37.3125 13.8622 37.9531 Q11.9482 38.5938 9.3076 38.5938 Q8.2607 38.5938 7.1826 38.4375 Q6.1044 38.2812 5.1826 38.0391 Q4.2607 37.7969 3.5419 37.5547 Q2.8232 37.3125 2.4951 37.1562 L3.2138 33.9219 Q3.9013 34.2344 5.4404 34.7578 Q6.9794 35.2812 9.2138 35.2812 Q11.0263 35.2812 12.2451 34.8828 Q13.4638 34.4844 14.2216 33.8047 Q14.9794 33.125 15.3232 32.2188 Q15.6669 31.3125 15.6669 30.3125 Q15.6669 28.7969 15.1435 27.6172 Q14.6201 26.4375 13.2997 25.6406 Q11.9794 24.8438 9.7841 24.4219 Q7.5888 24 4.2138 24 Q4.4638 22.0469 4.6044 20.3203 Q4.7451 18.5938 4.8622 16.9531 Q4.9794 15.3125 5.0576 13.6953 Q5.1357 12.0781 5.2138 10.2812 L18.5888 10.2812 L18.5888 13.4375 L8.4638 13.4375 Q8.4169 14.0469 8.3388 15.0625 Q8.2607 16.0781 8.1826 17.1797 Q8.1044 18.2812 8.0263 19.3203 Q7.9482 20.3594 7.8544 20.9531 Z"
    /></g
    ><g transform="translate(2194.4883,1730.9166)" style="font-size:39.7222px; fill:rgb(38,38,38); text-rendering:geometricPrecision; image-rendering:optimizeQuality; color-rendering:optimizeQuality; font-family:'Ubuntu'; stroke:rgb(38,38,38); color-interpolation:linearRGB;"
    ><path style="stroke:none;" d="M-13.4531 35.2812 Q-9.9062 35.2812 -8.3594 33.8828 Q-6.8125 32.4844 -6.8125 30.125 Q-6.8125 28.5938 -7.4531 27.5547 Q-8.0938 26.5156 -9.1406 25.8984 Q-10.1875 25.2812 -11.5625 25.0234 Q-12.9375 24.7656 -14.375 24.7656 L-15.3438 24.7656 L-15.3438 21.7188 L-14.0156 21.7188 Q-13.0156 21.7188 -11.9609 21.5156 Q-10.9062 21.3125 -10.0234 20.7969 Q-9.1406 20.2812 -8.5781 19.3828 Q-8.0156 18.4844 -8.0156 17.125 Q-8.0156 16 -8.4141 15.2031 Q-8.8125 14.4062 -9.4766 13.8828 Q-10.1406 13.3594 -11 13.1406 Q-11.8594 12.9219 -12.8125 12.9219 Q-14.7344 12.9219 -16.0781 13.4844 Q-17.4219 14.0469 -18.3438 14.6406 L-19.7812 11.7969 Q-19.2969 11.4844 -18.5547 11.1016 Q-17.8125 10.7188 -16.8984 10.3984 Q-15.9844 10.0781 -14.9219 9.8594 Q-13.8594 9.6406 -12.7031 9.6406 Q-10.5 9.6406 -8.8984 10.1797 Q-7.2969 10.7188 -6.2578 11.7031 Q-5.2188 12.6875 -4.7031 14.0234 Q-4.1875 15.3594 -4.1875 16.9219 Q-4.1875 19.0781 -5.4219 20.6172 Q-6.6562 22.1562 -8.4219 22.9531 Q-7.3438 23.2812 -6.3438 23.8828 Q-5.3438 24.4844 -4.6016 25.3984 Q-3.8594 26.3125 -3.3984 27.5156 Q-2.9375 28.7188 -2.9375 30.2031 Q-2.9375 32 -3.5625 33.5391 Q-4.1875 35.0781 -5.4844 36.1953 Q-6.7812 37.3125 -8.7422 37.9531 Q-10.7031 38.5938 -13.375 38.5938 Q-14.4219 38.5938 -15.5234 38.4375 Q-16.625 38.2812 -17.5859 38.0391 Q-18.5469 37.7969 -19.2656 37.5547 Q-19.9844 37.3125 -20.2969 37.1562 L-19.5781 33.9219 Q-18.9062 34.2344 -17.3203 34.7578 Q-15.7344 35.2812 -13.4531 35.2812 ZM1.9013 24.125 Q1.9013 17.1562 4.3622 13.3984 Q6.8232 9.6406 11.1826 9.6406 Q15.5419 9.6406 18.0029 13.3984 Q20.4638 17.1562 20.4638 24.125 Q20.4638 31.0781 18.0029 34.8359 Q15.5419 38.5938 11.1826 38.5938 Q6.8232 38.5938 4.3622 34.8359 Q1.9013 31.0781 1.9013 24.125 ZM16.5419 24.125 Q16.5419 21.8438 16.2841 19.8047 Q16.0263 17.7656 15.4013 16.2422 Q14.7763 14.7188 13.7372 13.8203 Q12.6982 12.9219 11.1826 12.9219 Q9.6669 12.9219 8.6279 13.8203 Q7.5888 14.7188 6.9638 16.2422 Q6.3388 17.7656 6.081 19.8047 Q5.8232 21.8438 5.8232 24.125 Q5.8232 26.4062 6.081 28.4453 Q6.3388 30.4844 6.9638 32 Q7.5888 33.5156 8.6279 34.4141 Q9.6669 35.3125 11.1826 35.3125 Q12.6982 35.3125 13.7372 34.4141 Q14.7763 33.5156 15.4013 32 Q16.0263 30.4844 16.2841 28.4453 Q16.5419 26.4062 16.5419 24.125 Z"
    /></g
    ><g transform="translate(2476.4763,1730.9166)" style="font-size:39.7222px; fill:rgb(38,38,38); text-rendering:geometricPrecision; image-rendering:optimizeQuality; color-rendering:optimizeQuality; font-family:'Ubuntu'; stroke:rgb(38,38,38); color-interpolation:linearRGB;"
    ><path style="stroke:none;" d="M-13.4531 35.2812 Q-9.9062 35.2812 -8.3594 33.8828 Q-6.8125 32.4844 -6.8125 30.125 Q-6.8125 28.5938 -7.4531 27.5547 Q-8.0938 26.5156 -9.1406 25.8984 Q-10.1875 25.2812 -11.5625 25.0234 Q-12.9375 24.7656 -14.375 24.7656 L-15.3438 24.7656 L-15.3438 21.7188 L-14.0156 21.7188 Q-13.0156 21.7188 -11.9609 21.5156 Q-10.9062 21.3125 -10.0234 20.7969 Q-9.1406 20.2812 -8.5781 19.3828 Q-8.0156 18.4844 -8.0156 17.125 Q-8.0156 16 -8.4141 15.2031 Q-8.8125 14.4062 -9.4766 13.8828 Q-10.1406 13.3594 -11 13.1406 Q-11.8594 12.9219 -12.8125 12.9219 Q-14.7344 12.9219 -16.0781 13.4844 Q-17.4219 14.0469 -18.3438 14.6406 L-19.7812 11.7969 Q-19.2969 11.4844 -18.5547 11.1016 Q-17.8125 10.7188 -16.8984 10.3984 Q-15.9844 10.0781 -14.9219 9.8594 Q-13.8594 9.6406 -12.7031 9.6406 Q-10.5 9.6406 -8.8984 10.1797 Q-7.2969 10.7188 -6.2578 11.7031 Q-5.2188 12.6875 -4.7031 14.0234 Q-4.1875 15.3594 -4.1875 16.9219 Q-4.1875 19.0781 -5.4219 20.6172 Q-6.6562 22.1562 -8.4219 22.9531 Q-7.3438 23.2812 -6.3438 23.8828 Q-5.3438 24.4844 -4.6016 25.3984 Q-3.8594 26.3125 -3.3984 27.5156 Q-2.9375 28.7188 -2.9375 30.2031 Q-2.9375 32 -3.5625 33.5391 Q-4.1875 35.0781 -5.4844 36.1953 Q-6.7812 37.3125 -8.7422 37.9531 Q-10.7031 38.5938 -13.375 38.5938 Q-14.4219 38.5938 -15.5234 38.4375 Q-16.625 38.2812 -17.5859 38.0391 Q-18.5469 37.7969 -19.2656 37.5547 Q-19.9844 37.3125 -20.2969 37.1562 L-19.5781 33.9219 Q-18.9062 34.2344 -17.3203 34.7578 Q-15.7344 35.2812 -13.4531 35.2812 ZM7.8544 20.9531 Q13.9013 21.2031 16.7216 23.6016 Q19.5419 26 19.5419 30.125 Q19.5419 31.9531 18.9247 33.5156 Q18.3076 35.0781 17.0419 36.1953 Q15.7763 37.3125 13.8622 37.9531 Q11.9482 38.5938 9.3076 38.5938 Q8.2607 38.5938 7.1826 38.4375 Q6.1044 38.2812 5.1826 38.0391 Q4.2607 37.7969 3.5419 37.5547 Q2.8232 37.3125 2.4951 37.1562 L3.2138 33.9219 Q3.9013 34.2344 5.4404 34.7578 Q6.9794 35.2812 9.2138 35.2812 Q11.0263 35.2812 12.2451 34.8828 Q13.4638 34.4844 14.2216 33.8047 Q14.9794 33.125 15.3232 32.2188 Q15.6669 31.3125 15.6669 30.3125 Q15.6669 28.7969 15.1435 27.6172 Q14.6201 26.4375 13.2997 25.6406 Q11.9794 24.8438 9.7841 24.4219 Q7.5888 24 4.2138 24 Q4.4638 22.0469 4.6044 20.3203 Q4.7451 18.5938 4.8622 16.9531 Q4.9794 15.3125 5.0576 13.6953 Q5.1357 12.0781 5.2138 10.2812 L18.5888 10.2812 L18.5888 13.4375 L8.4638 13.4375 Q8.4169 14.0469 8.3388 15.0625 Q8.2607 16.0781 8.1826 17.1797 Q8.1044 18.2812 8.0263 19.3203 Q7.9482 20.3594 7.8544 20.9531 Z"
    /></g
    ><g transform="translate(2758.4646,1730.9166)" style="font-size:39.7222px; fill:rgb(38,38,38); text-rendering:geometricPrecision; image-rendering:optimizeQuality; color-rendering:optimizeQuality; font-family:'Ubuntu'; stroke:rgb(38,38,38); color-interpolation:linearRGB;"
    ><path style="stroke:none;" d="M-20.9062 28.4062 Q-20.1406 26.6406 -18.8203 24.2969 Q-17.5 21.9531 -15.8438 19.4766 Q-14.1875 17 -12.2812 14.6016 Q-10.375 12.2031 -8.4531 10.2812 L-4.9062 10.2812 L-4.9062 27.875 L-1.625 27.875 L-1.625 30.9219 L-4.9062 30.9219 L-4.9062 38 L-8.5 38 L-8.5 30.9219 L-20.9062 30.9219 L-20.9062 28.4062 ZM-8.5 14.6875 Q-9.7031 15.9531 -10.9219 17.5391 Q-12.1406 19.125 -13.2969 20.8438 Q-14.4531 22.5625 -15.4766 24.3594 Q-16.5 26.1562 -17.2969 27.875 L-8.5 27.875 L-8.5 14.6875 ZM1.9013 24.125 Q1.9013 17.1562 4.3622 13.3984 Q6.8232 9.6406 11.1826 9.6406 Q15.5419 9.6406 18.0029 13.3984 Q20.4638 17.1562 20.4638 24.125 Q20.4638 31.0781 18.0029 34.8359 Q15.5419 38.5938 11.1826 38.5938 Q6.8232 38.5938 4.3622 34.8359 Q1.9013 31.0781 1.9013 24.125 ZM16.5419 24.125 Q16.5419 21.8438 16.2841 19.8047 Q16.0263 17.7656 15.4013 16.2422 Q14.7763 14.7188 13.7372 13.8203 Q12.6982 12.9219 11.1826 12.9219 Q9.6669 12.9219 8.6279 13.8203 Q7.5888 14.7188 6.9638 16.2422 Q6.3388 17.7656 6.081 19.8047 Q5.8232 21.8438 5.8232 24.125 Q5.8232 26.4062 6.081 28.4453 Q6.3388 30.4844 6.9638 32 Q7.5888 33.5156 8.6279 34.4141 Q9.6669 35.3125 11.1826 35.3125 Q12.6982 35.3125 13.7372 34.4141 Q14.7763 33.5156 15.4013 32 Q16.0263 30.4844 16.2841 28.4453 Q16.5419 26.4062 16.5419 24.125 Z"
    /></g
    ><g transform="translate(3040.4526,1730.9166)" style="font-size:39.7222px; fill:rgb(38,38,38); text-rendering:geometricPrecision; image-rendering:optimizeQuality; color-rendering:optimizeQuality; font-family:'Ubuntu'; stroke:rgb(38,38,38); color-interpolation:linearRGB;"
    ><path style="stroke:none;" d="M-20.9062 28.4062 Q-20.1406 26.6406 -18.8203 24.2969 Q-17.5 21.9531 -15.8438 19.4766 Q-14.1875 17 -12.2812 14.6016 Q-10.375 12.2031 -8.4531 10.2812 L-4.9062 10.2812 L-4.9062 27.875 L-1.625 27.875 L-1.625 30.9219 L-4.9062 30.9219 L-4.9062 38 L-8.5 38 L-8.5 30.9219 L-20.9062 30.9219 L-20.9062 28.4062 ZM-8.5 14.6875 Q-9.7031 15.9531 -10.9219 17.5391 Q-12.1406 19.125 -13.2969 20.8438 Q-14.4531 22.5625 -15.4766 24.3594 Q-16.5 26.1562 -17.2969 27.875 L-8.5 27.875 L-8.5 14.6875 ZM7.8544 20.9531 Q13.9013 21.2031 16.7216 23.6016 Q19.5419 26 19.5419 30.125 Q19.5419 31.9531 18.9247 33.5156 Q18.3076 35.0781 17.0419 36.1953 Q15.7763 37.3125 13.8622 37.9531 Q11.9482 38.5938 9.3076 38.5938 Q8.2607 38.5938 7.1826 38.4375 Q6.1044 38.2812 5.1826 38.0391 Q4.2607 37.7969 3.5419 37.5547 Q2.8232 37.3125 2.4951 37.1562 L3.2138 33.9219 Q3.9013 34.2344 5.4404 34.7578 Q6.9794 35.2812 9.2138 35.2812 Q11.0263 35.2812 12.2451 34.8828 Q13.4638 34.4844 14.2216 33.8047 Q14.9794 33.125 15.3232 32.2188 Q15.6669 31.3125 15.6669 30.3125 Q15.6669 28.7969 15.1435 27.6172 Q14.6201 26.4375 13.2997 25.6406 Q11.9794 24.8438 9.7841 24.4219 Q7.5888 24 4.2138 24 Q4.4638 22.0469 4.6044 20.3203 Q4.7451 18.5938 4.8622 16.9531 Q4.9794 15.3125 5.0576 13.6953 Q5.1357 12.0781 5.2138 10.2812 L18.5888 10.2812 L18.5888 13.4375 L8.4638 13.4375 Q8.4169 14.0469 8.3388 15.0625 Q8.2607 16.0781 8.1826 17.1797 Q8.1044 18.2812 8.0263 19.3203 Q7.9482 20.3594 7.8544 20.9531 Z"
    /></g
    ><g transform="translate(3322.4409,1730.9166)" style="font-size:39.7222px; fill:rgb(38,38,38); text-rendering:geometricPrecision; image-rendering:optimizeQuality; color-rendering:optimizeQuality; font-family:'Ubuntu'; stroke:rgb(38,38,38); color-interpolation:linearRGB;"
    ><path style="stroke:none;" d="M-14.5469 20.9531 Q-8.5 21.2031 -5.6797 23.6016 Q-2.8594 26 -2.8594 30.125 Q-2.8594 31.9531 -3.4766 33.5156 Q-4.0938 35.0781 -5.3594 36.1953 Q-6.625 37.3125 -8.5391 37.9531 Q-10.4531 38.5938 -13.0938 38.5938 Q-14.1406 38.5938 -15.2188 38.4375 Q-16.2969 38.2812 -17.2188 38.0391 Q-18.1406 37.7969 -18.8594 37.5547 Q-19.5781 37.3125 -19.9062 37.1562 L-19.1875 33.9219 Q-18.5 34.2344 -16.9609 34.7578 Q-15.4219 35.2812 -13.1875 35.2812 Q-11.375 35.2812 -10.1562 34.8828 Q-8.9375 34.4844 -8.1797 33.8047 Q-7.4219 33.125 -7.0781 32.2188 Q-6.7344 31.3125 -6.7344 30.3125 Q-6.7344 28.7969 -7.2578 27.6172 Q-7.7812 26.4375 -9.1016 25.6406 Q-10.4219 24.8438 -12.6172 24.4219 Q-14.8125 24 -18.1875 24 Q-17.9375 22.0469 -17.7969 20.3203 Q-17.6562 18.5938 -17.5391 16.9531 Q-17.4219 15.3125 -17.3438 13.6953 Q-17.2656 12.0781 -17.1875 10.2812 L-3.8125 10.2812 L-3.8125 13.4375 L-13.9375 13.4375 Q-13.9844 14.0469 -14.0625 15.0625 Q-14.1406 16.0781 -14.2188 17.1797 Q-14.2969 18.2812 -14.375 19.3203 Q-14.4531 20.3594 -14.5469 20.9531 ZM1.9013 24.125 Q1.9013 17.1562 4.3622 13.3984 Q6.8232 9.6406 11.1826 9.6406 Q15.5419 9.6406 18.0029 13.3984 Q20.4638 17.1562 20.4638 24.125 Q20.4638 31.0781 18.0029 34.8359 Q15.5419 38.5938 11.1826 38.5938 Q6.8232 38.5938 4.3622 34.8359 Q1.9013 31.0781 1.9013 24.125 ZM16.5419 24.125 Q16.5419 21.8438 16.2841 19.8047 Q16.0263 17.7656 15.4013 16.2422 Q14.7763 14.7188 13.7372 13.8203 Q12.6982 12.9219 11.1826 12.9219 Q9.6669 12.9219 8.6279 13.8203 Q7.5888 14.7188 6.9638 16.2422 Q6.3388 17.7656 6.081 19.8047 Q5.8232 21.8438 5.8232 24.125 Q5.8232 26.4062 6.081 28.4453 Q6.3388 30.4844 6.9638 32 Q7.5888 33.5156 8.6279 34.4141 Q9.6669 35.3125 11.1826 35.3125 Q12.6982 35.3125 13.7372 34.4141 Q14.7763 33.5156 15.4013 32 Q16.0263 30.4844 16.2841 28.4453 Q16.5419 26.4062 16.5419 24.125 Z"
    /></g
    ><g transform="translate(1912.5013,1777.9028)" style="font-size:39.7222px; fill:rgb(38,38,38); text-rendering:geometricPrecision; image-rendering:optimizeQuality; color-rendering:optimizeQuality; font-family:'Ubuntu'; stroke:rgb(38,38,38); color-interpolation:linearRGB;"
    ><path style="stroke:none;" d="M-34.0469 10.2812 Q-35.2812 11.6406 -36.8438 13.2969 Q-38.4062 14.9531 -40.1016 16.6953 Q-41.7969 18.4375 -43.4766 20.1172 Q-45.1562 21.7969 -46.6406 23.2344 Q-44.9219 24.4375 -43 26.1953 Q-41.0781 27.9531 -39.2422 29.9531 Q-37.4062 31.9531 -35.7812 34.0391 Q-34.1562 36.125 -33.0781 38 L-37.6406 38 Q-38.8438 36.125 -40.3984 34.2188 Q-41.9531 32.3125 -43.6953 30.5781 Q-45.4375 28.8438 -47.2188 27.3594 Q-49 25.875 -50.6875 24.8438 L-50.6875 38 L-54.5625 38 L-54.5625 10.2812 L-50.6875 10.2812 L-50.6875 22.5156 Q-49.2812 21.2031 -47.6016 19.5391 Q-45.9219 17.875 -44.2812 16.1953 Q-42.6406 14.5156 -41.1797 12.9766 Q-39.7188 11.4375 -38.7188 10.2812 L-34.0469 10.2812 ZM-22.7826 35.3125 Q-21.4545 35.3125 -20.4389 35.2578 Q-19.4232 35.2031 -18.7357 35.0469 L-18.7357 28.8438 Q-19.142 28.6406 -20.0404 28.5 Q-20.9389 28.3594 -22.2201 28.3594 Q-23.0639 28.3594 -24.0014 28.4766 Q-24.9389 28.5938 -25.7201 28.9766 Q-26.5014 29.3594 -27.017 30.0234 Q-27.5326 30.6875 -27.5326 31.7656 Q-27.5326 33.7656 -26.2514 34.5391 Q-24.9701 35.3125 -22.7826 35.3125 ZM-23.0951 16.6875 Q-20.8607 16.6875 -19.3217 17.2656 Q-17.7826 17.8438 -16.8373 18.8984 Q-15.892 19.9531 -15.4935 21.4141 Q-15.0951 22.875 -15.0951 24.6406 L-15.0951 37.6406 Q-15.5795 37.7188 -16.4389 37.8594 Q-17.2982 38 -18.3764 38.1172 Q-19.4545 38.2344 -20.7123 38.3359 Q-21.9701 38.4375 -23.2201 38.4375 Q-24.9701 38.4375 -26.4545 38.0781 Q-27.9389 37.7188 -29.017 36.9375 Q-30.0951 36.1562 -30.6967 34.875 Q-31.2982 33.5938 -31.2982 31.7969 Q-31.2982 30.0781 -30.5951 28.8359 Q-29.892 27.5938 -28.6967 26.8359 Q-27.5014 26.0781 -25.8998 25.7188 Q-24.2982 25.3594 -22.5326 25.3594 Q-21.9701 25.3594 -21.3764 25.4219 Q-20.7826 25.4844 -20.2435 25.5859 Q-19.7045 25.6875 -19.2982 25.7656 Q-18.892 25.8438 -18.7357 25.875 L-18.7357 24.8438 Q-18.7357 23.9219 -18.9389 23.0234 Q-19.142 22.125 -19.6576 21.4219 Q-20.1732 20.7188 -21.0717 20.2969 Q-21.9701 19.875 -23.4232 19.875 Q-25.2514 19.875 -26.6342 20.1406 Q-28.017 20.4062 -28.7045 20.6875 L-29.142 17.5938 Q-28.4232 17.2812 -26.7435 16.9844 Q-25.0639 16.6875 -23.0951 16.6875 ZM-1.4089 16.7656 Q-0.9245 16.7656 -0.3073 16.8203 Q0.3099 16.875 0.9115 16.9766 Q1.513 17.0781 2.013 17.1797 Q2.513 17.2812 2.763 17.3594 L2.1224 20.5938 Q1.6693 20.4375 0.6536 20.2188 Q-0.362 20 -1.9714 20 Q-3.0026 20 -4.026 20.2188 Q-5.0495 20.4375 -5.362 20.5156 L-5.362 38 L-9.0807 38 L-9.0807 18.0781 Q-7.7682 17.5938 -5.8073 17.1797 Q-3.8464 16.7656 -1.4089 16.7656 ZM6.2507 17.7969 Q7.5319 17.4844 9.6335 17.125 Q11.735 16.7656 14.485 16.7656 Q16.485 16.7656 17.8444 17.3047 Q19.2038 17.8438 20.1257 18.875 Q20.4069 18.6875 21.0085 18.3203 Q21.61 17.9531 22.485 17.6172 Q23.36 17.2812 24.446 17.0234 Q25.5319 16.7656 26.7663 16.7656 Q29.1725 16.7656 30.6882 17.4609 Q32.2038 18.1562 33.0632 19.4375 Q33.9225 20.7188 34.2272 22.4766 Q34.5319 24.2344 34.5319 26.3125 L34.5319 38 L30.8132 38 L30.8132 27.125 Q30.8132 25.2812 30.6335 23.9609 Q30.4538 22.6406 29.9538 21.7578 Q29.4538 20.875 28.5944 20.4609 Q27.735 20.0469 26.36 20.0469 Q24.485 20.0469 23.2663 20.5469 Q22.0475 21.0469 21.61 21.4375 Q21.9225 22.4844 22.0866 23.7188 Q22.2507 24.9531 22.2507 26.3125 L22.2507 38 L18.5319 38 L18.5319 27.125 Q18.5319 25.2812 18.3288 23.9609 Q18.1257 22.6406 17.6257 21.7578 Q17.1257 20.875 16.2663 20.4609 Q15.4069 20.0469 14.0944 20.0469 Q13.5319 20.0469 12.8913 20.0859 Q12.2507 20.125 11.6725 20.1797 Q11.0944 20.2344 10.61 20.3203 Q10.1257 20.4062 9.9694 20.4375 L9.9694 38 L6.2507 38 L6.2507 17.7969 ZM47.4796 35.3125 Q48.8078 35.3125 49.8234 35.2578 Q50.839 35.2031 51.5265 35.0469 L51.5265 28.8438 Q51.1203 28.6406 50.2218 28.5 Q49.3234 28.3594 48.0421 28.3594 Q47.1984 28.3594 46.2609 28.4766 Q45.3234 28.5938 44.5421 28.9766 Q43.7609 29.3594 43.2453 30.0234 Q42.7296 30.6875 42.7296 31.7656 Q42.7296 33.7656 44.0109 34.5391 Q45.2921 35.3125 47.4796 35.3125 ZM47.1671 16.6875 Q49.4015 16.6875 50.9406 17.2656 Q52.4796 17.8438 53.425 18.8984 Q54.3703 19.9531 54.7687 21.4141 Q55.1671 22.875 55.1671 24.6406 L55.1671 37.6406 Q54.6828 37.7188 53.8234 37.8594 Q52.964 38 51.8859 38.1172 Q50.8078 38.2344 49.55 38.3359 Q48.2921 38.4375 47.0421 38.4375 Q45.2921 38.4375 43.8078 38.0781 Q42.3234 37.7188 41.2453 36.9375 Q40.1671 36.1562 39.5656 34.875 Q38.964 33.5938 38.964 31.7969 Q38.964 30.0781 39.6671 28.8359 Q40.3703 27.5938 41.5656 26.8359 Q42.7609 26.0781 44.3625 25.7188 Q45.964 25.3594 47.7296 25.3594 Q48.2921 25.3594 48.8859 25.4219 Q49.4796 25.4844 50.0187 25.5859 Q50.5578 25.6875 50.964 25.7656 Q51.3703 25.8438 51.5265 25.875 L51.5265 24.8438 Q51.5265 23.9219 51.3234 23.0234 Q51.1203 22.125 50.6046 21.4219 Q50.089 20.7188 49.1906 20.2969 Q48.2921 19.875 46.839 19.875 Q45.0109 19.875 43.6281 20.1406 Q42.2453 20.4062 41.5578 20.6875 L41.1203 17.5938 Q41.839 17.2812 43.5187 16.9844 Q45.1984 16.6875 47.1671 16.6875 Z"
    /></g
    ><g style="fill:rgb(38,38,38); text-rendering:geometricPrecision; image-rendering:optimizeQuality; color-rendering:optimizeQuality; stroke-linejoin:round; stroke:rgb(38,38,38); color-interpolation:linearRGB; stroke-width:0.9931;"
    ><line y2="145" style="fill:none;" x1="480" x2="480" y1="1719"
      /><line y2="145" style="fill:none;" x1="3345" x2="3345" y1="1719"
      /><line y2="1719" style="fill:none;" x1="480" x2="508.65" y1="1719"
      /><line y2="1529.0013" style="fill:none;" x1="480" x2="508.65" y1="1529.0013"
      /><line y2="1339.0028" style="fill:none;" x1="480" x2="508.65" y1="1339.0028"
      /><line y2="1149.0042" style="fill:none;" x1="480" x2="508.65" y1="1149.0042"
      /><line y2="959.0056" style="fill:none;" x1="480" x2="508.65" y1="959.0056"
      /><line y2="769.007" style="fill:none;" x1="480" x2="508.65" y1="769.007"
      /><line y2="579.0083" style="fill:none;" x1="480" x2="508.65" y1="579.0083"
      /><line y2="389.0098" style="fill:none;" x1="480" x2="508.65" y1="389.0098"
      /><line y2="199.0111" style="fill:none;" x1="480" x2="508.65" y1="199.0111"
      /><line y2="1719" style="fill:none;" x1="3345" x2="3316.3501" y1="1719"
      /><line y2="1529.0013" style="fill:none;" x1="3345" x2="3316.3501" y1="1529.0013"
      /><line y2="1339.0028" style="fill:none;" x1="3345" x2="3316.3501" y1="1339.0028"
      /><line y2="1149.0042" style="fill:none;" x1="3345" x2="3316.3501" y1="1149.0042"
      /><line y2="959.0056" style="fill:none;" x1="3345" x2="3316.3501" y1="959.0056"
      /><line y2="769.007" style="fill:none;" x1="3345" x2="3316.3501" y1="769.007"
      /><line y2="579.0083" style="fill:none;" x1="3345" x2="3316.3501" y1="579.0083"
      /><line y2="389.0098" style="fill:none;" x1="3345" x2="3316.3501" y1="389.0098"
      /><line y2="199.0111" style="fill:none;" x1="3345" x2="3316.3501" y1="199.0111"
    /></g
    ><g transform="translate(468.0833,1719)" style="font-size:39.7222px; fill:rgb(38,38,38); text-rendering:geometricPrecision; image-rendering:optimizeQuality; color-rendering:optimizeQuality; font-family:'Ubuntu'; stroke:rgb(38,38,38); color-interpolation:linearRGB;"
    ><path style="stroke:none;" d="M-21 1.625 Q-21 -5.3438 -18.5391 -9.1016 Q-16.0781 -12.8594 -11.7188 -12.8594 Q-7.3594 -12.8594 -4.8984 -9.1016 Q-2.4375 -5.3438 -2.4375 1.625 Q-2.4375 8.5781 -4.8984 12.3359 Q-7.3594 16.0938 -11.7188 16.0938 Q-16.0781 16.0938 -18.5391 12.3359 Q-21 8.5781 -21 1.625 ZM-6.3594 1.625 Q-6.3594 -0.6562 -6.6172 -2.6953 Q-6.875 -4.7344 -7.5 -6.2578 Q-8.125 -7.7812 -9.1641 -8.6797 Q-10.2031 -9.5781 -11.7188 -9.5781 Q-13.2344 -9.5781 -14.2734 -8.6797 Q-15.3125 -7.7812 -15.9375 -6.2578 Q-16.5625 -4.7344 -16.8203 -2.6953 Q-17.0781 -0.6562 -17.0781 1.625 Q-17.0781 3.9062 -16.8203 5.9453 Q-16.5625 7.9844 -15.9375 9.5 Q-15.3125 11.0156 -14.2734 11.9141 Q-13.2344 12.8125 -11.7188 12.8125 Q-10.2031 12.8125 -9.1641 11.9141 Q-8.125 11.0156 -7.5 9.5 Q-6.875 7.9844 -6.6172 5.9453 Q-6.3594 3.9062 -6.3594 1.625 Z"
    /></g
    ><g transform="translate(468.0833,1529.0013)" style="font-size:39.7222px; fill:rgb(38,38,38); text-rendering:geometricPrecision; image-rendering:optimizeQuality; color-rendering:optimizeQuality; font-family:'Ubuntu'; stroke:rgb(38,38,38); color-interpolation:linearRGB;"
    ><path style="stroke:none;" d="M-75 1.625 Q-75 -5.3438 -72.5391 -9.1016 Q-70.0781 -12.8594 -65.7188 -12.8594 Q-61.3594 -12.8594 -58.8984 -9.1016 Q-56.4375 -5.3438 -56.4375 1.625 Q-56.4375 8.5781 -58.8984 12.3359 Q-61.3594 16.0938 -65.7188 16.0938 Q-70.0781 16.0938 -72.5391 12.3359 Q-75 8.5781 -75 1.625 ZM-60.3594 1.625 Q-60.3594 -0.6562 -60.6172 -2.6953 Q-60.875 -4.7344 -61.5 -6.2578 Q-62.125 -7.7812 -63.1641 -8.6797 Q-64.2031 -9.5781 -65.7188 -9.5781 Q-67.2344 -9.5781 -68.2734 -8.6797 Q-69.3125 -7.7812 -69.9375 -6.2578 Q-70.5625 -4.7344 -70.8203 -2.6953 Q-71.0781 -0.6562 -71.0781 1.625 Q-71.0781 3.9062 -70.8203 5.9453 Q-70.5625 7.9844 -69.9375 9.5 Q-69.3125 11.0156 -68.2734 11.9141 Q-67.2344 12.8125 -65.7188 12.8125 Q-64.2031 12.8125 -63.1641 11.9141 Q-62.125 11.0156 -61.5 9.5 Q-60.875 7.9844 -60.6172 5.9453 Q-60.3594 3.9062 -60.3594 1.625 ZM-47.0049 13.3438 Q-47.0049 14.4219 -47.7237 15.2188 Q-48.4424 16.0156 -49.6768 16.0156 Q-50.9112 16.0156 -51.6378 15.2188 Q-52.3643 14.4219 -52.3643 13.3438 Q-52.3643 12.2656 -51.6378 11.4609 Q-50.9112 10.6562 -49.6768 10.6562 Q-48.4424 10.6562 -47.7237 11.4609 Q-47.0049 12.2656 -47.0049 13.3438 ZM-42.8279 1.625 Q-42.8279 -5.3438 -40.367 -9.1016 Q-37.906 -12.8594 -33.5467 -12.8594 Q-29.1873 -12.8594 -26.7263 -9.1016 Q-24.2654 -5.3438 -24.2654 1.625 Q-24.2654 8.5781 -26.7263 12.3359 Q-29.1873 16.0938 -33.5467 16.0938 Q-37.906 16.0938 -40.367 12.3359 Q-42.8279 8.5781 -42.8279 1.625 ZM-28.1873 1.625 Q-28.1873 -0.6562 -28.4451 -2.6953 Q-28.7029 -4.7344 -29.3279 -6.2578 Q-29.9529 -7.7812 -30.992 -8.6797 Q-32.031 -9.5781 -33.5467 -9.5781 Q-35.0623 -9.5781 -36.1013 -8.6797 Q-37.1404 -7.7812 -37.7654 -6.2578 Q-38.3904 -4.7344 -38.6482 -2.6953 Q-38.906 -0.6562 -38.906 1.625 Q-38.906 3.9062 -38.6482 5.9453 Q-38.3904 7.9844 -37.7654 9.5 Q-37.1404 11.0156 -36.1013 11.9141 Q-35.0623 12.8125 -33.5467 12.8125 Q-32.031 12.8125 -30.992 11.9141 Q-29.9529 11.0156 -29.3279 9.5 Q-28.7029 7.9844 -28.4451 5.9453 Q-28.1873 3.9062 -28.1873 1.625 ZM-14.4735 -1.5469 Q-8.4266 -1.2969 -5.6063 1.1016 Q-2.786 3.5 -2.786 7.625 Q-2.786 9.4531 -3.4032 11.0156 Q-4.0204 12.5781 -5.286 13.6953 Q-6.5516 14.8125 -8.4657 15.4531 Q-10.3797 16.0938 -13.0204 16.0938 Q-14.0672 16.0938 -15.1454 15.9375 Q-16.2235 15.7812 -17.1454 15.5391 Q-18.0672 15.2969 -18.786 15.0547 Q-19.5047 14.8125 -19.8329 14.6562 L-19.1141 11.4219 Q-18.4266 11.7344 -16.8875 12.2578 Q-15.3485 12.7812 -13.1141 12.7812 Q-11.3016 12.7812 -10.0829 12.3828 Q-8.8641 11.9844 -8.1063 11.3047 Q-7.3485 10.625 -7.0047 9.7188 Q-6.661 8.8125 -6.661 7.8125 Q-6.661 6.2969 -7.1844 5.1172 Q-7.7079 3.9375 -9.0282 3.1406 Q-10.3485 2.3438 -12.5438 1.9219 Q-14.7391 1.5 -18.1141 1.5 Q-17.8641 -0.4531 -17.7235 -2.1797 Q-17.5829 -3.9062 -17.4657 -5.5469 Q-17.3485 -7.1875 -17.2704 -8.8047 Q-17.1922 -10.4219 -17.1141 -12.2188 L-3.7391 -12.2188 L-3.7391 -9.0625 L-13.8641 -9.0625 Q-13.911 -8.4531 -13.9891 -7.4375 Q-14.0672 -6.4219 -14.1454 -5.3203 Q-14.2235 -4.2188 -14.3016 -3.1797 Q-14.3797 -2.1406 -14.4735 -1.5469 Z"
    /></g
    ><g transform="translate(468.0833,1339.0028)" style="font-size:39.7222px; fill:rgb(38,38,38); text-rendering:geometricPrecision; image-rendering:optimizeQuality; color-rendering:optimizeQuality; font-family:'Ubuntu'; stroke:rgb(38,38,38); color-interpolation:linearRGB;"
    ><path style="stroke:none;" d="M-53 1.625 Q-53 -5.3438 -50.5391 -9.1016 Q-48.0781 -12.8594 -43.7188 -12.8594 Q-39.3594 -12.8594 -36.8984 -9.1016 Q-34.4375 -5.3438 -34.4375 1.625 Q-34.4375 8.5781 -36.8984 12.3359 Q-39.3594 16.0938 -43.7188 16.0938 Q-48.0781 16.0938 -50.5391 12.3359 Q-53 8.5781 -53 1.625 ZM-38.3594 1.625 Q-38.3594 -0.6562 -38.6172 -2.6953 Q-38.875 -4.7344 -39.5 -6.2578 Q-40.125 -7.7812 -41.1641 -8.6797 Q-42.2031 -9.5781 -43.7188 -9.5781 Q-45.2344 -9.5781 -46.2734 -8.6797 Q-47.3125 -7.7812 -47.9375 -6.2578 Q-48.5625 -4.7344 -48.8203 -2.6953 Q-49.0781 -0.6562 -49.0781 1.625 Q-49.0781 3.9062 -48.8203 5.9453 Q-48.5625 7.9844 -47.9375 9.5 Q-47.3125 11.0156 -46.2734 11.9141 Q-45.2344 12.8125 -43.7188 12.8125 Q-42.2031 12.8125 -41.1641 11.9141 Q-40.125 11.0156 -39.5 9.5 Q-38.875 7.9844 -38.6172 5.9453 Q-38.3594 3.9062 -38.3594 1.625 ZM-25.0049 13.3438 Q-25.0049 14.4219 -25.7237 15.2188 Q-26.4424 16.0156 -27.6768 16.0156 Q-28.9112 16.0156 -29.6378 15.2188 Q-30.3643 14.4219 -30.3643 13.3438 Q-30.3643 12.2656 -29.6378 11.4609 Q-28.9112 10.6562 -27.6768 10.6562 Q-26.4424 10.6562 -25.7237 11.4609 Q-25.0049 12.2656 -25.0049 13.3438 ZM-19.1092 -6.5 Q-16.8279 -7.375 -14.6717 -8.7578 Q-12.5154 -10.1406 -10.7029 -12.2188 L-8.0623 -12.2188 L-8.0623 15.5 L-11.781 15.5 L-11.781 -7.0625 Q-12.2654 -6.625 -12.9685 -6.1406 Q-13.6717 -5.6562 -14.492 -5.2188 Q-15.3123 -4.7812 -16.2107 -4.3828 Q-17.1092 -3.9844 -17.9529 -3.7031 L-19.1092 -6.5 Z"
    /></g
    ><g transform="translate(468.0833,1149.0042)" style="font-size:39.7222px; fill:rgb(38,38,38); text-rendering:geometricPrecision; image-rendering:optimizeQuality; color-rendering:optimizeQuality; font-family:'Ubuntu'; stroke:rgb(38,38,38); color-interpolation:linearRGB;"
    ><path style="stroke:none;" d="M-75 1.625 Q-75 -5.3438 -72.5391 -9.1016 Q-70.0781 -12.8594 -65.7188 -12.8594 Q-61.3594 -12.8594 -58.8984 -9.1016 Q-56.4375 -5.3438 -56.4375 1.625 Q-56.4375 8.5781 -58.8984 12.3359 Q-61.3594 16.0938 -65.7188 16.0938 Q-70.0781 16.0938 -72.5391 12.3359 Q-75 8.5781 -75 1.625 ZM-60.3594 1.625 Q-60.3594 -0.6562 -60.6172 -2.6953 Q-60.875 -4.7344 -61.5 -6.2578 Q-62.125 -7.7812 -63.1641 -8.6797 Q-64.2031 -9.5781 -65.7188 -9.5781 Q-67.2344 -9.5781 -68.2734 -8.6797 Q-69.3125 -7.7812 -69.9375 -6.2578 Q-70.5625 -4.7344 -70.8203 -2.6953 Q-71.0781 -0.6562 -71.0781 1.625 Q-71.0781 3.9062 -70.8203 5.9453 Q-70.5625 7.9844 -69.9375 9.5 Q-69.3125 11.0156 -68.2734 11.9141 Q-67.2344 12.8125 -65.7188 12.8125 Q-64.2031 12.8125 -63.1641 11.9141 Q-62.125 11.0156 -61.5 9.5 Q-60.875 7.9844 -60.6172 5.9453 Q-60.3594 3.9062 -60.3594 1.625 ZM-47.0049 13.3438 Q-47.0049 14.4219 -47.7237 15.2188 Q-48.4424 16.0156 -49.6768 16.0156 Q-50.9112 16.0156 -51.6378 15.2188 Q-52.3643 14.4219 -52.3643 13.3438 Q-52.3643 12.2656 -51.6378 11.4609 Q-50.9112 10.6562 -49.6768 10.6562 Q-48.4424 10.6562 -47.7237 11.4609 Q-47.0049 12.2656 -47.0049 13.3438 ZM-41.1092 -6.5 Q-38.8279 -7.375 -36.6717 -8.7578 Q-34.5154 -10.1406 -32.7029 -12.2188 L-30.0623 -12.2188 L-30.0623 15.5 L-33.781 15.5 L-33.781 -7.0625 Q-34.2654 -6.625 -34.9685 -6.1406 Q-35.6717 -5.6562 -36.492 -5.2188 Q-37.3123 -4.7812 -38.2107 -4.3828 Q-39.1092 -3.9844 -39.9529 -3.7031 L-41.1092 -6.5 ZM-14.4735 -1.5469 Q-8.4266 -1.2969 -5.6063 1.1016 Q-2.786 3.5 -2.786 7.625 Q-2.786 9.4531 -3.4032 11.0156 Q-4.0204 12.5781 -5.286 13.6953 Q-6.5516 14.8125 -8.4657 15.4531 Q-10.3797 16.0938 -13.0204 16.0938 Q-14.0672 16.0938 -15.1454 15.9375 Q-16.2235 15.7812 -17.1454 15.5391 Q-18.0672 15.2969 -18.786 15.0547 Q-19.5047 14.8125 -19.8329 14.6562 L-19.1141 11.4219 Q-18.4266 11.7344 -16.8875 12.2578 Q-15.3485 12.7812 -13.1141 12.7812 Q-11.3016 12.7812 -10.0829 12.3828 Q-8.8641 11.9844 -8.1063 11.3047 Q-7.3485 10.625 -7.0047 9.7188 Q-6.661 8.8125 -6.661 7.8125 Q-6.661 6.2969 -7.1844 5.1172 Q-7.7079 3.9375 -9.0282 3.1406 Q-10.3485 2.3438 -12.5438 1.9219 Q-14.7391 1.5 -18.1141 1.5 Q-17.8641 -0.4531 -17.7235 -2.1797 Q-17.5829 -3.9062 -17.4657 -5.5469 Q-17.3485 -7.1875 -17.2704 -8.8047 Q-17.1922 -10.4219 -17.1141 -12.2188 L-3.7391 -12.2188 L-3.7391 -9.0625 L-13.8641 -9.0625 Q-13.911 -8.4531 -13.9891 -7.4375 Q-14.0672 -6.4219 -14.1454 -5.3203 Q-14.2235 -4.2188 -14.3016 -3.1797 Q-14.3797 -2.1406 -14.4735 -1.5469 Z"
    /></g
    ><g transform="translate(468.0833,959.0056)" style="font-size:39.7222px; fill:rgb(38,38,38); text-rendering:geometricPrecision; image-rendering:optimizeQuality; color-rendering:optimizeQuality; font-family:'Ubuntu'; stroke:rgb(38,38,38); color-interpolation:linearRGB;"
    ><path style="stroke:none;" d="M-53 1.625 Q-53 -5.3438 -50.5391 -9.1016 Q-48.0781 -12.8594 -43.7188 -12.8594 Q-39.3594 -12.8594 -36.8984 -9.1016 Q-34.4375 -5.3438 -34.4375 1.625 Q-34.4375 8.5781 -36.8984 12.3359 Q-39.3594 16.0938 -43.7188 16.0938 Q-48.0781 16.0938 -50.5391 12.3359 Q-53 8.5781 -53 1.625 ZM-38.3594 1.625 Q-38.3594 -0.6562 -38.6172 -2.6953 Q-38.875 -4.7344 -39.5 -6.2578 Q-40.125 -7.7812 -41.1641 -8.6797 Q-42.2031 -9.5781 -43.7188 -9.5781 Q-45.2344 -9.5781 -46.2734 -8.6797 Q-47.3125 -7.7812 -47.9375 -6.2578 Q-48.5625 -4.7344 -48.8203 -2.6953 Q-49.0781 -0.6562 -49.0781 1.625 Q-49.0781 3.9062 -48.8203 5.9453 Q-48.5625 7.9844 -47.9375 9.5 Q-47.3125 11.0156 -46.2734 11.9141 Q-45.2344 12.8125 -43.7188 12.8125 Q-42.2031 12.8125 -41.1641 11.9141 Q-40.125 11.0156 -39.5 9.5 Q-38.875 7.9844 -38.6172 5.9453 Q-38.3594 3.9062 -38.3594 1.625 ZM-25.0049 13.3438 Q-25.0049 14.4219 -25.7237 15.2188 Q-26.4424 16.0156 -27.6768 16.0156 Q-28.9112 16.0156 -29.6378 15.2188 Q-30.3643 14.4219 -30.3643 13.3438 Q-30.3643 12.2656 -29.6378 11.4609 Q-28.9112 10.6562 -27.6768 10.6562 Q-26.4424 10.6562 -25.7237 11.4609 Q-25.0049 12.2656 -25.0049 13.3438 ZM-4.1404 -5.1406 Q-4.1404 -3.7031 -4.7263 -2.3594 Q-5.3123 -1.0156 -6.2732 0.2812 Q-7.2342 1.5781 -8.4295 2.8359 Q-9.6248 4.0938 -10.8279 5.2969 Q-11.5154 5.9844 -12.4138 6.8984 Q-13.3123 7.8125 -14.1092 8.8125 Q-14.906 9.8125 -15.4451 10.7344 Q-15.9842 11.6562 -15.9842 12.3438 L-3.2342 12.3438 L-3.2342 15.5 L-20.031 15.5 Q-20.0623 15.2656 -20.0623 15.0234 Q-20.0623 14.7812 -20.0623 14.5781 Q-20.0623 12.7031 -19.4451 11.0781 Q-18.8279 9.4531 -17.8279 8.0156 Q-16.8279 6.5781 -15.5857 5.2969 Q-14.3435 4.0156 -13.1404 2.8125 Q-12.1404 1.8594 -11.242 0.9219 Q-10.3435 -0.0156 -9.6482 -0.9609 Q-8.9529 -1.9062 -8.531 -2.9062 Q-8.1092 -3.9062 -8.1092 -5.0156 Q-8.1092 -6.2188 -8.492 -7.0625 Q-8.8748 -7.9062 -9.5076 -8.4609 Q-10.1404 -9.0156 -11.0076 -9.2812 Q-11.8748 -9.5469 -12.8279 -9.5469 Q-13.9842 -9.5469 -14.9451 -9.2266 Q-15.906 -8.9062 -16.6638 -8.4844 Q-17.4217 -8.0625 -17.9451 -7.6016 Q-18.4685 -7.1406 -18.7498 -6.9062 L-20.5935 -9.5469 Q-20.2342 -9.9375 -19.5076 -10.5156 Q-18.781 -11.0938 -17.781 -11.6172 Q-16.781 -12.1406 -15.5467 -12.5 Q-14.3123 -12.8594 -12.8748 -12.8594 Q-8.5154 -12.8594 -6.3279 -10.8359 Q-4.1404 -8.8125 -4.1404 -5.1406 Z"
    /></g
    ><g transform="translate(468.0833,769.007)" style="font-size:39.7222px; fill:rgb(38,38,38); text-rendering:geometricPrecision; image-rendering:optimizeQuality; color-rendering:optimizeQuality; font-family:'Ubuntu'; stroke:rgb(38,38,38); color-interpolation:linearRGB;"
    ><path style="stroke:none;" d="M-75 1.625 Q-75 -5.3438 -72.5391 -9.1016 Q-70.0781 -12.8594 -65.7188 -12.8594 Q-61.3594 -12.8594 -58.8984 -9.1016 Q-56.4375 -5.3438 -56.4375 1.625 Q-56.4375 8.5781 -58.8984 12.3359 Q-61.3594 16.0938 -65.7188 16.0938 Q-70.0781 16.0938 -72.5391 12.3359 Q-75 8.5781 -75 1.625 ZM-60.3594 1.625 Q-60.3594 -0.6562 -60.6172 -2.6953 Q-60.875 -4.7344 -61.5 -6.2578 Q-62.125 -7.7812 -63.1641 -8.6797 Q-64.2031 -9.5781 -65.7188 -9.5781 Q-67.2344 -9.5781 -68.2734 -8.6797 Q-69.3125 -7.7812 -69.9375 -6.2578 Q-70.5625 -4.7344 -70.8203 -2.6953 Q-71.0781 -0.6562 -71.0781 1.625 Q-71.0781 3.9062 -70.8203 5.9453 Q-70.5625 7.9844 -69.9375 9.5 Q-69.3125 11.0156 -68.2734 11.9141 Q-67.2344 12.8125 -65.7188 12.8125 Q-64.2031 12.8125 -63.1641 11.9141 Q-62.125 11.0156 -61.5 9.5 Q-60.875 7.9844 -60.6172 5.9453 Q-60.3594 3.9062 -60.3594 1.625 ZM-47.0049 13.3438 Q-47.0049 14.4219 -47.7237 15.2188 Q-48.4424 16.0156 -49.6768 16.0156 Q-50.9112 16.0156 -51.6378 15.2188 Q-52.3643 14.4219 -52.3643 13.3438 Q-52.3643 12.2656 -51.6378 11.4609 Q-50.9112 10.6562 -49.6768 10.6562 Q-48.4424 10.6562 -47.7237 11.4609 Q-47.0049 12.2656 -47.0049 13.3438 ZM-26.1404 -5.1406 Q-26.1404 -3.7031 -26.7263 -2.3594 Q-27.3123 -1.0156 -28.2732 0.2812 Q-29.2342 1.5781 -30.4295 2.8359 Q-31.6248 4.0938 -32.8279 5.2969 Q-33.5154 5.9844 -34.4138 6.8984 Q-35.3123 7.8125 -36.1092 8.8125 Q-36.906 9.8125 -37.4451 10.7344 Q-37.9842 11.6562 -37.9842 12.3438 L-25.2342 12.3438 L-25.2342 15.5 L-42.031 15.5 Q-42.0623 15.2656 -42.0623 15.0234 Q-42.0623 14.7812 -42.0623 14.5781 Q-42.0623 12.7031 -41.4451 11.0781 Q-40.8279 9.4531 -39.8279 8.0156 Q-38.8279 6.5781 -37.5857 5.2969 Q-36.3435 4.0156 -35.1404 2.8125 Q-34.1404 1.8594 -33.242 0.9219 Q-32.3435 -0.0156 -31.6482 -0.9609 Q-30.9529 -1.9062 -30.531 -2.9062 Q-30.1092 -3.9062 -30.1092 -5.0156 Q-30.1092 -6.2188 -30.492 -7.0625 Q-30.8748 -7.9062 -31.5076 -8.4609 Q-32.1404 -9.0156 -33.0076 -9.2812 Q-33.8748 -9.5469 -34.8279 -9.5469 Q-35.9842 -9.5469 -36.9451 -9.2266 Q-37.906 -8.9062 -38.6638 -8.4844 Q-39.4217 -8.0625 -39.9451 -7.6016 Q-40.4685 -7.1406 -40.7498 -6.9062 L-42.5935 -9.5469 Q-42.2342 -9.9375 -41.5076 -10.5156 Q-40.781 -11.0938 -39.781 -11.6172 Q-38.781 -12.1406 -37.5467 -12.5 Q-36.3123 -12.8594 -34.8748 -12.8594 Q-30.5154 -12.8594 -28.3279 -10.8359 Q-26.1404 -8.8125 -26.1404 -5.1406 ZM-14.4735 -1.5469 Q-8.4266 -1.2969 -5.6063 1.1016 Q-2.786 3.5 -2.786 7.625 Q-2.786 9.4531 -3.4032 11.0156 Q-4.0204 12.5781 -5.286 13.6953 Q-6.5516 14.8125 -8.4657 15.4531 Q-10.3797 16.0938 -13.0204 16.0938 Q-14.0672 16.0938 -15.1454 15.9375 Q-16.2235 15.7812 -17.1454 15.5391 Q-18.0672 15.2969 -18.786 15.0547 Q-19.5047 14.8125 -19.8329 14.6562 L-19.1141 11.4219 Q-18.4266 11.7344 -16.8875 12.2578 Q-15.3485 12.7812 -13.1141 12.7812 Q-11.3016 12.7812 -10.0829 12.3828 Q-8.8641 11.9844 -8.1063 11.3047 Q-7.3485 10.625 -7.0047 9.7188 Q-6.661 8.8125 -6.661 7.8125 Q-6.661 6.2969 -7.1844 5.1172 Q-7.7079 3.9375 -9.0282 3.1406 Q-10.3485 2.3438 -12.5438 1.9219 Q-14.7391 1.5 -18.1141 1.5 Q-17.8641 -0.4531 -17.7235 -2.1797 Q-17.5829 -3.9062 -17.4657 -5.5469 Q-17.3485 -7.1875 -17.2704 -8.8047 Q-17.1922 -10.4219 -17.1141 -12.2188 L-3.7391 -12.2188 L-3.7391 -9.0625 L-13.8641 -9.0625 Q-13.911 -8.4531 -13.9891 -7.4375 Q-14.0672 -6.4219 -14.1454 -5.3203 Q-14.2235 -4.2188 -14.3016 -3.1797 Q-14.3797 -2.1406 -14.4735 -1.5469 Z"
    /></g
    ><g transform="translate(468.0833,579.0083)" style="font-size:39.7222px; fill:rgb(38,38,38); text-rendering:geometricPrecision; image-rendering:optimizeQuality; color-rendering:optimizeQuality; font-family:'Ubuntu'; stroke:rgb(38,38,38); color-interpolation:linearRGB;"
    ><path style="stroke:none;" d="M-53 1.625 Q-53 -5.3438 -50.5391 -9.1016 Q-48.0781 -12.8594 -43.7188 -12.8594 Q-39.3594 -12.8594 -36.8984 -9.1016 Q-34.4375 -5.3438 -34.4375 1.625 Q-34.4375 8.5781 -36.8984 12.3359 Q-39.3594 16.0938 -43.7188 16.0938 Q-48.0781 16.0938 -50.5391 12.3359 Q-53 8.5781 -53 1.625 ZM-38.3594 1.625 Q-38.3594 -0.6562 -38.6172 -2.6953 Q-38.875 -4.7344 -39.5 -6.2578 Q-40.125 -7.7812 -41.1641 -8.6797 Q-42.2031 -9.5781 -43.7188 -9.5781 Q-45.2344 -9.5781 -46.2734 -8.6797 Q-47.3125 -7.7812 -47.9375 -6.2578 Q-48.5625 -4.7344 -48.8203 -2.6953 Q-49.0781 -0.6562 -49.0781 1.625 Q-49.0781 3.9062 -48.8203 5.9453 Q-48.5625 7.9844 -47.9375 9.5 Q-47.3125 11.0156 -46.2734 11.9141 Q-45.2344 12.8125 -43.7188 12.8125 Q-42.2031 12.8125 -41.1641 11.9141 Q-40.125 11.0156 -39.5 9.5 Q-38.875 7.9844 -38.6172 5.9453 Q-38.3594 3.9062 -38.3594 1.625 ZM-25.0049 13.3438 Q-25.0049 14.4219 -25.7237 15.2188 Q-26.4424 16.0156 -27.6768 16.0156 Q-28.9112 16.0156 -29.6378 15.2188 Q-30.3643 14.4219 -30.3643 13.3438 Q-30.3643 12.2656 -29.6378 11.4609 Q-28.9112 10.6562 -27.6768 10.6562 Q-26.4424 10.6562 -25.7237 11.4609 Q-25.0049 12.2656 -25.0049 13.3438 ZM-13.781 12.7812 Q-10.2342 12.7812 -8.6873 11.3828 Q-7.1404 9.9844 -7.1404 7.625 Q-7.1404 6.0938 -7.781 5.0547 Q-8.4217 4.0156 -9.4685 3.3984 Q-10.5154 2.7812 -11.8904 2.5234 Q-13.2654 2.2656 -14.7029 2.2656 L-15.6717 2.2656 L-15.6717 -0.7812 L-14.3435 -0.7812 Q-13.3435 -0.7812 -12.2888 -0.9844 Q-11.2342 -1.1875 -10.3513 -1.7031 Q-9.4685 -2.2188 -8.906 -3.1172 Q-8.3435 -4.0156 -8.3435 -5.375 Q-8.3435 -6.5 -8.742 -7.2969 Q-9.1404 -8.0938 -9.8045 -8.6172 Q-10.4685 -9.1406 -11.3279 -9.3594 Q-12.1873 -9.5781 -13.1404 -9.5781 Q-15.0623 -9.5781 -16.406 -9.0156 Q-17.7498 -8.4531 -18.6717 -7.8594 L-20.1092 -10.7031 Q-19.6248 -11.0156 -18.8826 -11.3984 Q-18.1404 -11.7812 -17.2263 -12.1016 Q-16.3123 -12.4219 -15.2498 -12.6406 Q-14.1873 -12.8594 -13.031 -12.8594 Q-10.8279 -12.8594 -9.2263 -12.3203 Q-7.6248 -11.7812 -6.5857 -10.7969 Q-5.5467 -9.8125 -5.031 -8.4766 Q-4.5154 -7.1406 -4.5154 -5.5781 Q-4.5154 -3.4219 -5.7498 -1.8828 Q-6.9842 -0.3438 -8.7498 0.4531 Q-7.6717 0.7812 -6.6717 1.3828 Q-5.6717 1.9844 -4.9295 2.8984 Q-4.1873 3.8125 -3.7263 5.0156 Q-3.2654 6.2188 -3.2654 7.7031 Q-3.2654 9.5 -3.8904 11.0391 Q-4.5154 12.5781 -5.8123 13.6953 Q-7.1092 14.8125 -9.0701 15.4531 Q-11.031 16.0938 -13.7029 16.0938 Q-14.7498 16.0938 -15.8513 15.9375 Q-16.9529 15.7812 -17.9138 15.5391 Q-18.8748 15.2969 -19.5935 15.0547 Q-20.3123 14.8125 -20.6248 14.6562 L-19.906 11.4219 Q-19.2342 11.7344 -17.6482 12.2578 Q-16.0623 12.7812 -13.781 12.7812 Z"
    /></g
    ><g transform="translate(468.0833,389.0098)" style="font-size:39.7222px; fill:rgb(38,38,38); text-rendering:geometricPrecision; image-rendering:optimizeQuality; color-rendering:optimizeQuality; font-family:'Ubuntu'; stroke:rgb(38,38,38); color-interpolation:linearRGB;"
    ><path style="stroke:none;" d="M-75 1.625 Q-75 -5.3438 -72.5391 -9.1016 Q-70.0781 -12.8594 -65.7188 -12.8594 Q-61.3594 -12.8594 -58.8984 -9.1016 Q-56.4375 -5.3438 -56.4375 1.625 Q-56.4375 8.5781 -58.8984 12.3359 Q-61.3594 16.0938 -65.7188 16.0938 Q-70.0781 16.0938 -72.5391 12.3359 Q-75 8.5781 -75 1.625 ZM-60.3594 1.625 Q-60.3594 -0.6562 -60.6172 -2.6953 Q-60.875 -4.7344 -61.5 -6.2578 Q-62.125 -7.7812 -63.1641 -8.6797 Q-64.2031 -9.5781 -65.7188 -9.5781 Q-67.2344 -9.5781 -68.2734 -8.6797 Q-69.3125 -7.7812 -69.9375 -6.2578 Q-70.5625 -4.7344 -70.8203 -2.6953 Q-71.0781 -0.6562 -71.0781 1.625 Q-71.0781 3.9062 -70.8203 5.9453 Q-70.5625 7.9844 -69.9375 9.5 Q-69.3125 11.0156 -68.2734 11.9141 Q-67.2344 12.8125 -65.7188 12.8125 Q-64.2031 12.8125 -63.1641 11.9141 Q-62.125 11.0156 -61.5 9.5 Q-60.875 7.9844 -60.6172 5.9453 Q-60.3594 3.9062 -60.3594 1.625 ZM-47.0049 13.3438 Q-47.0049 14.4219 -47.7237 15.2188 Q-48.4424 16.0156 -49.6768 16.0156 Q-50.9112 16.0156 -51.6378 15.2188 Q-52.3643 14.4219 -52.3643 13.3438 Q-52.3643 12.2656 -51.6378 11.4609 Q-50.9112 10.6562 -49.6768 10.6562 Q-48.4424 10.6562 -47.7237 11.4609 Q-47.0049 12.2656 -47.0049 13.3438 ZM-35.781 12.7812 Q-32.2342 12.7812 -30.6873 11.3828 Q-29.1404 9.9844 -29.1404 7.625 Q-29.1404 6.0938 -29.781 5.0547 Q-30.4217 4.0156 -31.4685 3.3984 Q-32.5154 2.7812 -33.8904 2.5234 Q-35.2654 2.2656 -36.7029 2.2656 L-37.6717 2.2656 L-37.6717 -0.7812 L-36.3435 -0.7812 Q-35.3435 -0.7812 -34.2888 -0.9844 Q-33.2342 -1.1875 -32.3513 -1.7031 Q-31.4685 -2.2188 -30.906 -3.1172 Q-30.3435 -4.0156 -30.3435 -5.375 Q-30.3435 -6.5 -30.742 -7.2969 Q-31.1404 -8.0938 -31.8045 -8.6172 Q-32.4685 -9.1406 -33.3279 -9.3594 Q-34.1873 -9.5781 -35.1404 -9.5781 Q-37.0623 -9.5781 -38.406 -9.0156 Q-39.7498 -8.4531 -40.6717 -7.8594 L-42.1092 -10.7031 Q-41.6248 -11.0156 -40.8826 -11.3984 Q-40.1404 -11.7812 -39.2263 -12.1016 Q-38.3123 -12.4219 -37.2498 -12.6406 Q-36.1873 -12.8594 -35.031 -12.8594 Q-32.8279 -12.8594 -31.2263 -12.3203 Q-29.6248 -11.7812 -28.5857 -10.7969 Q-27.5467 -9.8125 -27.031 -8.4766 Q-26.5154 -7.1406 -26.5154 -5.5781 Q-26.5154 -3.4219 -27.7498 -1.8828 Q-28.9842 -0.3438 -30.7498 0.4531 Q-29.6717 0.7812 -28.6717 1.3828 Q-27.6717 1.9844 -26.9295 2.8984 Q-26.1873 3.8125 -25.7263 5.0156 Q-25.2654 6.2188 -25.2654 7.7031 Q-25.2654 9.5 -25.8904 11.0391 Q-26.5154 12.5781 -27.8123 13.6953 Q-29.1092 14.8125 -31.0701 15.4531 Q-33.031 16.0938 -35.7029 16.0938 Q-36.7498 16.0938 -37.8513 15.9375 Q-38.9529 15.7812 -39.9138 15.5391 Q-40.8748 15.2969 -41.5935 15.0547 Q-42.3123 14.8125 -42.6248 14.6562 L-41.906 11.4219 Q-41.2342 11.7344 -39.6482 12.2578 Q-38.0623 12.7812 -35.781 12.7812 ZM-14.4735 -1.5469 Q-8.4266 -1.2969 -5.6063 1.1016 Q-2.786 3.5 -2.786 7.625 Q-2.786 9.4531 -3.4032 11.0156 Q-4.0204 12.5781 -5.286 13.6953 Q-6.5516 14.8125 -8.4657 15.4531 Q-10.3797 16.0938 -13.0204 16.0938 Q-14.0672 16.0938 -15.1454 15.9375 Q-16.2235 15.7812 -17.1454 15.5391 Q-18.0672 15.2969 -18.786 15.0547 Q-19.5047 14.8125 -19.8329 14.6562 L-19.1141 11.4219 Q-18.4266 11.7344 -16.8875 12.2578 Q-15.3485 12.7812 -13.1141 12.7812 Q-11.3016 12.7812 -10.0829 12.3828 Q-8.8641 11.9844 -8.1063 11.3047 Q-7.3485 10.625 -7.0047 9.7188 Q-6.661 8.8125 -6.661 7.8125 Q-6.661 6.2969 -7.1844 5.1172 Q-7.7079 3.9375 -9.0282 3.1406 Q-10.3485 2.3438 -12.5438 1.9219 Q-14.7391 1.5 -18.1141 1.5 Q-17.8641 -0.4531 -17.7235 -2.1797 Q-17.5829 -3.9062 -17.4657 -5.5469 Q-17.3485 -7.1875 -17.2704 -8.8047 Q-17.1922 -10.4219 -17.1141 -12.2188 L-3.7391 -12.2188 L-3.7391 -9.0625 L-13.8641 -9.0625 Q-13.911 -8.4531 -13.9891 -7.4375 Q-14.0672 -6.4219 -14.1454 -5.3203 Q-14.2235 -4.2188 -14.3016 -3.1797 Q-14.3797 -2.1406 -14.4735 -1.5469 Z"
    /></g
    ><g transform="translate(468.0833,199.0111)" style="font-size:39.7222px; fill:rgb(38,38,38); text-rendering:geometricPrecision; image-rendering:optimizeQuality; color-rendering:optimizeQuality; font-family:'Ubuntu'; stroke:rgb(38,38,38); color-interpolation:linearRGB;"
    ><path style="stroke:none;" d="M-53 1.625 Q-53 -5.3438 -50.5391 -9.1016 Q-48.0781 -12.8594 -43.7188 -12.8594 Q-39.3594 -12.8594 -36.8984 -9.1016 Q-34.4375 -5.3438 -34.4375 1.625 Q-34.4375 8.5781 -36.8984 12.3359 Q-39.3594 16.0938 -43.7188 16.0938 Q-48.0781 16.0938 -50.5391 12.3359 Q-53 8.5781 -53 1.625 ZM-38.3594 1.625 Q-38.3594 -0.6562 -38.6172 -2.6953 Q-38.875 -4.7344 -39.5 -6.2578 Q-40.125 -7.7812 -41.1641 -8.6797 Q-42.2031 -9.5781 -43.7188 -9.5781 Q-45.2344 -9.5781 -46.2734 -8.6797 Q-47.3125 -7.7812 -47.9375 -6.2578 Q-48.5625 -4.7344 -48.8203 -2.6953 Q-49.0781 -0.6562 -49.0781 1.625 Q-49.0781 3.9062 -48.8203 5.9453 Q-48.5625 7.9844 -47.9375 9.5 Q-47.3125 11.0156 -46.2734 11.9141 Q-45.2344 12.8125 -43.7188 12.8125 Q-42.2031 12.8125 -41.1641 11.9141 Q-40.125 11.0156 -39.5 9.5 Q-38.875 7.9844 -38.6172 5.9453 Q-38.3594 3.9062 -38.3594 1.625 ZM-25.0049 13.3438 Q-25.0049 14.4219 -25.7237 15.2188 Q-26.4424 16.0156 -27.6768 16.0156 Q-28.9112 16.0156 -29.6378 15.2188 Q-30.3643 14.4219 -30.3643 13.3438 Q-30.3643 12.2656 -29.6378 11.4609 Q-28.9112 10.6562 -27.6768 10.6562 Q-26.4424 10.6562 -25.7237 11.4609 Q-25.0049 12.2656 -25.0049 13.3438 ZM-21.2342 5.9062 Q-20.4685 4.1406 -19.1482 1.7969 Q-17.8279 -0.5469 -16.1717 -3.0234 Q-14.5154 -5.5 -12.6092 -7.8984 Q-10.7029 -10.2969 -8.781 -12.2188 L-5.2342 -12.2188 L-5.2342 5.375 L-1.9529 5.375 L-1.9529 8.4219 L-5.2342 8.4219 L-5.2342 15.5 L-8.8279 15.5 L-8.8279 8.4219 L-21.2342 8.4219 L-21.2342 5.9062 ZM-8.8279 -7.8125 Q-10.031 -6.5469 -11.2498 -4.9609 Q-12.4685 -3.375 -13.6248 -1.6562 Q-14.781 0.0625 -15.8045 1.8594 Q-16.8279 3.6562 -17.6248 5.375 L-8.8279 5.375 L-8.8279 -7.8125 Z"
    /></g
    ><g transform="translate(385.125,931.9993) rotate(-90)" style="font-size:39.7222px; fill:rgb(38,38,38); text-rendering:geometricPrecision; image-rendering:optimizeQuality; color-rendering:optimizeQuality; font-family:'Ubuntu'; stroke:rgb(38,38,38); color-interpolation:linearRGB;"
    ><path style="stroke:none;" d="M-81.7969 -20.875 Q-81.7969 -17.2812 -82.9219 -14.6172 Q-84.0469 -11.9531 -86.0859 -10.2188 Q-88.125 -8.4844 -90.9609 -7.625 Q-93.7969 -6.7656 -97.2031 -6.7656 Q-98.875 -6.7656 -100.8984 -6.9062 Q-102.9219 -7.0469 -104.5625 -7.4375 L-104.5625 -34.3125 Q-102.9219 -34.7188 -100.8984 -34.8594 Q-98.875 -35 -97.2031 -35 Q-93.7969 -35 -90.9609 -34.1406 Q-88.125 -33.2812 -86.0859 -31.5391 Q-84.0469 -29.7969 -82.9219 -27.1406 Q-81.7969 -24.4844 -81.7969 -20.875 ZM-96.875 -10.1562 Q-91.3594 -10.1562 -88.6406 -12.9766 Q-85.9219 -15.7969 -85.9219 -20.875 Q-85.9219 -25.9531 -88.6406 -28.7734 Q-91.3594 -31.5938 -96.875 -31.5938 Q-98.5156 -31.5938 -99.4141 -31.5547 Q-100.3125 -31.5156 -100.6875 -31.4844 L-100.6875 -10.2812 Q-100.3125 -10.2344 -99.4141 -10.1953 Q-98.5156 -10.1562 -96.875 -10.1562 ZM-72.7587 -7 L-76.4775 -7 L-76.4775 -27.7969 L-72.7587 -27.7969 L-72.7587 -7 ZM-74.6337 -31.5625 Q-75.6337 -31.5625 -76.3369 -32.2188 Q-77.04 -32.875 -77.04 -34 Q-77.04 -35.125 -76.3369 -35.7812 Q-75.6337 -36.4375 -74.6337 -36.4375 Q-73.6337 -36.4375 -72.9384 -35.7812 Q-72.2431 -35.125 -72.2431 -34 Q-72.2431 -32.875 -72.9384 -32.2188 Q-73.6337 -31.5625 -74.6337 -31.5625 ZM-61.5849 -9.6875 Q-59.3193 -9.6875 -58.2177 -10.2812 Q-57.1162 -10.875 -57.1162 -12.2031 Q-57.1162 -13.5625 -58.1943 -14.3594 Q-59.2724 -15.1562 -61.7568 -16.1562 Q-62.9443 -16.6406 -64.0459 -17.1406 Q-65.1474 -17.6406 -65.9521 -18.3203 Q-66.7568 -19 -67.2334 -19.9609 Q-67.7099 -20.9219 -67.7099 -22.3125 Q-67.7099 -25.0781 -65.6709 -26.6953 Q-63.6318 -28.3125 -60.1162 -28.3125 Q-59.2256 -28.3125 -58.3506 -28.2188 Q-57.4756 -28.125 -56.7099 -27.9844 Q-55.9443 -27.8438 -55.3662 -27.6797 Q-54.7881 -27.5156 -54.4756 -27.4062 L-55.1474 -24.2031 Q-55.7568 -24.5156 -57.0381 -24.8594 Q-58.3193 -25.2031 -60.1162 -25.2031 Q-61.6787 -25.2031 -62.8349 -24.5781 Q-63.9912 -23.9531 -63.9912 -22.6406 Q-63.9912 -21.9531 -63.7334 -21.4375 Q-63.4756 -20.9219 -62.9365 -20.5 Q-62.3974 -20.0781 -61.5927 -19.7188 Q-60.7881 -19.3594 -59.6787 -18.9531 Q-58.1943 -18.4062 -57.0302 -17.8594 Q-55.8662 -17.3125 -55.0459 -16.5938 Q-54.2256 -15.875 -53.7881 -14.8594 Q-53.3506 -13.8438 -53.3506 -12.3594 Q-53.3506 -9.4844 -55.4912 -8 Q-57.6318 -6.5156 -61.5849 -6.5156 Q-64.3506 -6.5156 -65.9131 -6.9766 Q-67.4756 -7.4375 -68.0381 -7.6875 L-67.3506 -10.875 Q-66.7099 -10.6406 -65.3115 -10.1641 Q-63.9131 -9.6875 -61.5849 -9.6875 ZM-45.2298 -27.7969 L-37.3548 -27.7969 L-37.3548 -24.6875 L-45.2298 -24.6875 L-45.2298 -15.0781 Q-45.2298 -13.5156 -44.9954 -12.5 Q-44.761 -11.4844 -44.2767 -10.8984 Q-43.7923 -10.3125 -43.0735 -10.0781 Q-42.3548 -9.8438 -41.4017 -9.8438 Q-39.7142 -9.8438 -38.6985 -10.2188 Q-37.6829 -10.5938 -37.2767 -10.7656 L-36.5579 -7.6875 Q-37.1204 -7.4062 -38.5189 -6.9844 Q-39.9173 -6.5625 -41.7142 -6.5625 Q-43.8392 -6.5625 -45.222 -7.1016 Q-46.6048 -7.6406 -47.4407 -8.7188 Q-48.2767 -9.7969 -48.6204 -11.375 Q-48.9642 -12.9531 -48.9642 -15.0469 L-48.9642 -33.5938 L-45.2298 -34.2344 L-45.2298 -27.7969 ZM-25.0754 -28.2344 Q-24.591 -28.2344 -23.9738 -28.1797 Q-23.3567 -28.125 -22.7551 -28.0234 Q-22.1535 -27.9219 -21.6535 -27.8203 Q-21.1535 -27.7188 -20.9035 -27.6406 L-21.5442 -24.4062 Q-21.9973 -24.5625 -23.0129 -24.7812 Q-24.0285 -25 -25.6379 -25 Q-26.6692 -25 -27.6926 -24.7812 Q-28.716 -24.5625 -29.0285 -24.4844 L-29.0285 -7 L-32.7473 -7 L-32.7473 -26.9219 Q-31.4348 -27.4062 -29.4738 -27.8203 Q-27.5129 -28.2344 -25.0754 -28.2344 ZM-13.6971 -7 L-17.4159 -7 L-17.4159 -27.7969 L-13.6971 -27.7969 L-13.6971 -7 ZM-15.5721 -31.5625 Q-16.5721 -31.5625 -17.2753 -32.2188 Q-17.9784 -32.875 -17.9784 -34 Q-17.9784 -35.125 -17.2753 -35.7812 Q-16.5721 -36.4375 -15.5721 -36.4375 Q-14.5721 -36.4375 -13.8768 -35.7812 Q-13.1815 -35.125 -13.1815 -34 Q-13.1815 -32.875 -13.8768 -32.2188 Q-14.5721 -31.5625 -15.5721 -31.5625 ZM-3.6483 -26.875 Q-2.9765 -27.3125 -1.5936 -27.7969 Q-0.2108 -28.2812 1.586 -28.2812 Q3.836 -28.2812 5.5704 -27.4844 Q7.3048 -26.6875 8.5079 -25.2422 Q9.711 -23.7969 10.3282 -21.7969 Q10.9454 -19.7969 10.9454 -17.4062 Q10.9454 -14.875 10.211 -12.8594 Q9.4767 -10.8438 8.1095 -9.4453 Q6.7423 -8.0469 4.8282 -7.2812 Q2.9142 -6.5156 0.5079 -6.5156 Q-2.0858 -6.5156 -4.0858 -6.875 Q-6.0858 -7.2344 -7.3671 -7.5938 L-7.3671 -37.4062 L-3.6483 -38.0469 L-3.6483 -26.875 ZM-3.6483 -10.2344 Q-3.0858 -10.0781 -2.0702 -9.9375 Q-1.0546 -9.7969 0.4767 -9.7969 Q3.4767 -9.7969 5.2735 -11.7812 Q7.0704 -13.7656 7.0704 -17.4062 Q7.0704 -19 6.7501 -20.3984 Q6.4298 -21.7969 5.711 -22.8203 Q4.9923 -23.8438 3.8517 -24.4219 Q2.711 -25 1.1173 -25 Q-0.414 -25 -1.6952 -24.4766 Q-2.9765 -23.9531 -3.6483 -23.4062 L-3.6483 -10.2344 ZM32.5897 -7.5938 Q31.3084 -7.2812 29.2069 -6.9219 Q27.1053 -6.5625 24.3397 -6.5625 Q21.9491 -6.5625 20.3084 -7.2578 Q18.6678 -7.9531 17.6678 -9.2344 Q16.6678 -10.5156 16.2225 -12.2578 Q15.7772 -14 15.7772 -16.125 L15.7772 -27.7969 L19.5116 -27.7969 L19.5116 -16.9219 Q19.5116 -13.125 20.7069 -11.4844 Q21.9022 -9.8438 24.7459 -9.8438 Q25.3397 -9.8438 25.9803 -9.8828 Q26.6209 -9.9219 27.1834 -9.9844 Q27.7459 -10.0469 28.2069 -10.1016 Q28.6678 -10.1562 28.8709 -10.2344 L28.8709 -27.7969 L32.5897 -27.7969 L32.5897 -7.5938 ZM42.3101 -27.7969 L50.1851 -27.7969 L50.1851 -24.6875 L42.3101 -24.6875 L42.3101 -15.0781 Q42.3101 -13.5156 42.5444 -12.5 Q42.7788 -11.4844 43.2632 -10.8984 Q43.7476 -10.3125 44.4663 -10.0781 Q45.1851 -9.8438 46.1382 -9.8438 Q47.8257 -9.8438 48.8413 -10.2188 Q49.8569 -10.5938 50.2632 -10.7656 L50.9819 -7.6875 Q50.4194 -7.4062 49.021 -6.9844 Q47.6226 -6.5625 45.8257 -6.5625 Q43.7007 -6.5625 42.3179 -7.1016 Q40.9351 -7.6406 40.0991 -8.7188 Q39.2632 -9.7969 38.9194 -11.375 Q38.5757 -12.9531 38.5757 -15.0469 L38.5757 -33.5938 L42.3101 -34.2344 L42.3101 -27.7969 ZM58.5113 -7 L54.7926 -7 L54.7926 -27.7969 L58.5113 -27.7969 L58.5113 -7 ZM56.6363 -31.5625 Q55.6363 -31.5625 54.9332 -32.2188 Q54.2301 -32.875 54.2301 -34 Q54.2301 -35.125 54.9332 -35.7812 Q55.6363 -36.4375 56.6363 -36.4375 Q57.6363 -36.4375 58.3316 -35.7812 Q59.0269 -35.125 59.0269 -34 Q59.0269 -32.875 58.3316 -32.2188 Q57.6363 -31.5625 56.6363 -31.5625 ZM83.2008 -17.4062 Q83.2008 -14.9219 82.482 -12.9219 Q81.7633 -10.9219 80.4586 -9.4844 Q79.1539 -8.0469 77.357 -7.2656 Q75.5601 -6.4844 73.4351 -6.4844 Q71.3258 -6.4844 69.5211 -7.2656 Q67.7164 -8.0469 66.4195 -9.4844 Q65.1226 -10.9219 64.4039 -12.9219 Q63.6851 -14.9219 63.6851 -17.4062 Q63.6851 -19.8438 64.4039 -21.8594 Q65.1226 -23.875 66.4195 -25.3203 Q67.7164 -26.7656 69.5211 -27.5391 Q71.3258 -28.3125 73.4351 -28.3125 Q75.5601 -28.3125 77.357 -27.5391 Q79.1539 -26.7656 80.4586 -25.3203 Q81.7633 -23.875 82.482 -21.8594 Q83.2008 -19.8438 83.2008 -17.4062 ZM79.3258 -17.4062 Q79.3258 -20.9219 77.7398 -22.9844 Q76.1539 -25.0469 73.4351 -25.0469 Q70.7164 -25.0469 69.1383 -22.9844 Q67.5601 -20.9219 67.5601 -17.4062 Q67.5601 -13.875 69.1383 -11.8203 Q70.7164 -9.7656 73.4351 -9.7656 Q76.1539 -9.7656 77.7398 -11.8203 Q79.3258 -13.875 79.3258 -17.4062 ZM88.2754 -27.2031 Q89.5566 -27.5156 91.6738 -27.875 Q93.791 -28.2344 96.5566 -28.2344 Q99.0254 -28.2344 100.666 -27.5391 Q102.3066 -26.8438 103.291 -25.5781 Q104.2754 -24.3125 104.6738 -22.5547 Q105.0723 -20.7969 105.0723 -18.6875 L105.0723 -7 L101.3535 -7 L101.3535 -17.875 Q101.3535 -19.7969 101.0957 -21.1562 Q100.8379 -22.5156 100.2363 -23.3594 Q99.6348 -24.2031 98.6348 -24.5781 Q97.6348 -24.9531 96.1504 -24.9531 Q95.5566 -24.9531 94.916 -24.9141 Q94.2754 -24.875 93.6973 -24.8203 Q93.1191 -24.7656 92.6582 -24.6797 Q92.1973 -24.5938 91.9941 -24.5625 L91.9941 -7 L88.2754 -7 L88.2754 -27.2031 Z"
    /></g
  ></g
></svg
>
