<?xml version="1.0"?>
<!DOCTYPE svg PUBLIC '-//W3C//DTD SVG 1.0//EN'
          'http://www.w3.org/TR/2001/REC-SVG-20010904/DTD/svg10.dtd'>
<svg xmlns:xlink="http://www.w3.org/1999/xlink" style="fill-opacity:1; color-rendering:auto; color-interpolation:auto; text-rendering:auto; stroke:black; stroke-linecap:square; stroke-miterlimit:10; shape-rendering:auto; stroke-opacity:1; fill:black; stroke-dasharray:none; font-weight:normal; stroke-width:1; font-family:'Dialog'; font-style:normal; stroke-linejoin:miter; font-size:12px; stroke-dashoffset:0; image-rendering:auto;" width="3686" height="1932" xmlns="http://www.w3.org/2000/svg"
><!--Generated by the Batik Graphics2D SVG Generator--><defs id="genericDefs"
  /><g
  ><defs id="defs1"
    ><clipPath clipPathUnits="userSpaceOnUse" id="clipPath1"
      ><path d="M0 0 L3686 0 L3686 1932 L0 1932 L0 0 Z"
      /></clipPath
    ></defs
    ><g style="fill:white; stroke:white;"
    ><rect x="0" y="0" width="3686" style="clip-path:url(#clipPath1); stroke:none;" height="1932"
    /></g
    ><g style="fill:white; text-rendering:optimizeSpeed; color-rendering:optimizeSpeed; image-rendering:optimizeSpeed; shape-rendering:crispEdges; stroke:white; color-interpolation:sRGB;"
    ><rect x="0" width="3686" height="1932" y="0" style="stroke:none;"
      /><path style="stroke:none;" d="M479 1719 L3336 1719 L3336 145 L479 145 Z"
    /></g
    ><g transform="translate(1637,126)" style="font-size:24px; text-rendering:geometricPrecision; image-rendering:optimizeQuality; color-rendering:optimizeQuality; font-family:'Ubuntu'; color-interpolation:linearRGB; font-weight:bold;"
    ><path style="stroke:none;" d="M5.25 -8.0625 Q5.7812 -8.6406 6.3438 -9.2656 Q6.9062 -9.8906 7.4375 -10.5 Q7.9688 -11.1094 8.4375 -11.6641 Q8.9062 -12.2188 9.2344 -12.625 L13.4844 -12.625 Q12.2188 -11.1562 11.0078 -9.8281 Q9.7969 -8.5 8.3594 -7.0781 Q9.0781 -6.4375 9.8438 -5.5312 Q10.6094 -4.625 11.3281 -3.6719 Q12.0469 -2.7188 12.6484 -1.7578 Q13.25 -0.7969 13.6562 0 L9.5469 0 Q9.1719 -0.625 8.6797 -1.3828 Q8.1875 -2.1406 7.6328 -2.8906 Q7.0781 -3.6406 6.4688 -4.3438 Q5.8594 -5.0469 5.25 -5.5156 L5.25 0 L1.6875 0 L1.6875 -18.0469 L5.25 -18.625 L5.25 -8.0625 Z"
    /></g
    ><g transform="translate(1651,138)" style="font-size:19.2px; text-rendering:geometricPrecision; image-rendering:optimizeQuality; color-rendering:optimizeQuality; font-family:'Ubuntu'; color-interpolation:linearRGB; font-weight:bold;"
    ><path style="stroke:none;" d="M7.7344 -5.0781 Q7.7344 -7.8125 5.7188 -7.8125 Q5.2812 -7.8125 4.8516 -7.6953 Q4.4219 -7.5781 4.1562 -7.4062 L4.1562 -2.2656 Q4.375 -2.2188 4.6953 -2.1953 Q5.0156 -2.1719 5.3906 -2.1719 Q6.5625 -2.1719 7.1484 -2.9688 Q7.7344 -3.7656 7.7344 -5.0781 ZM10.625 -5 Q10.625 -3.7969 10.2734 -2.8281 Q9.9219 -1.8594 9.2578 -1.1797 Q8.5938 -0.5 7.625 -0.125 Q6.6562 0.25 5.4219 0.25 Q4.9062 0.25 4.3438 0.2031 Q3.7812 0.1562 3.2422 0.0781 Q2.7031 0 2.2031 -0.1016 Q1.7031 -0.2031 1.3281 -0.3281 L1.3281 -14.2812 L4.1562 -14.75 L4.1562 -9.7656 Q4.6406 -9.9688 5.1484 -10.0859 Q5.6562 -10.2031 6.25 -10.2031 Q7.3125 -10.2031 8.1328 -9.8359 Q8.9531 -9.4688 9.5 -8.7812 Q10.0469 -8.0938 10.3359 -7.1328 Q10.625 -6.1719 10.625 -5 ZM16.7504 -1.9688 Q17.1566 -1.9688 17.5394 -1.9922 Q17.9222 -2.0156 18.1566 -2.0469 L18.1566 -4.2031 Q17.9847 -4.2344 17.641 -4.2734 Q17.2972 -4.3125 17.016 -4.3125 Q16.6097 -4.3125 16.2582 -4.2656 Q15.9066 -4.2188 15.641 -4.0859 Q15.3754 -3.9531 15.2269 -3.7266 Q15.0785 -3.5 15.0785 -3.1562 Q15.0785 -2.4844 15.5238 -2.2266 Q15.9691 -1.9688 16.7504 -1.9688 ZM16.516 -10.2656 Q17.766 -10.2656 18.6019 -9.9766 Q19.4379 -9.6875 19.9457 -9.1562 Q20.4535 -8.625 20.6566 -7.8672 Q20.8597 -7.1094 20.8597 -6.1719 L20.8597 -0.2812 Q20.2504 -0.1562 19.1722 0.0234 Q18.0941 0.2031 16.5472 0.2031 Q15.5785 0.2031 14.7894 0.0312 Q14.0004 -0.1406 13.4301 -0.5234 Q12.8597 -0.9062 12.5629 -1.5391 Q12.266 -2.1719 12.266 -3.0781 Q12.266 -3.9531 12.6176 -4.5625 Q12.9691 -5.1719 13.5551 -5.5312 Q14.141 -5.8906 14.8988 -6.0547 Q15.6566 -6.2188 16.4847 -6.2188 Q17.0316 -6.2188 17.4535 -6.1719 Q17.8754 -6.125 18.1566 -6.0469 L18.1566 -6.3125 Q18.1566 -7.0312 17.7191 -7.4688 Q17.2816 -7.9062 16.1879 -7.9062 Q15.4691 -7.9062 14.766 -7.7969 Q14.0629 -7.6875 13.5472 -7.5 L13.1879 -9.7812 Q13.4379 -9.8594 13.8051 -9.9453 Q14.1722 -10.0312 14.6097 -10.1016 Q15.0472 -10.1719 15.5316 -10.2188 Q16.016 -10.2656 16.516 -10.2656 ZM29.5686 -7.4844 Q29.178 -7.5781 28.6702 -7.6875 Q28.1624 -7.7969 27.5686 -7.7969 Q27.303 -7.7969 26.928 -7.7422 Q26.553 -7.6875 26.3655 -7.6406 L26.3655 0 L23.5374 0 L23.5374 -9.4688 Q24.303 -9.7344 25.3343 -9.9688 Q26.3655 -10.2031 27.6468 -10.2031 Q27.8655 -10.2031 28.1936 -10.1719 Q28.5218 -10.1406 28.8421 -10.0938 Q29.1624 -10.0469 29.4827 -9.9844 Q29.803 -9.9219 30.0374 -9.8281 L29.5686 -7.4844 Z"
    /></g
    ><g transform="translate(1682,126)" style="font-size:24px; text-rendering:geometricPrecision; image-rendering:optimizeQuality; color-rendering:optimizeQuality; font-family:'Ubuntu'; color-interpolation:linearRGB; font-weight:bold;"
    ><path style="stroke:none;" d="M6.9287 -6.0312 L18.21 -6.0312 L18.21 -3.0312 L6.9287 -3.0312 L6.9287 -6.0312 ZM6.9287 -11.2812 L18.21 -11.2812 L18.21 -8.2812 L6.9287 -8.2812 L6.9287 -11.2812 ZM26.8257 -13.1719 Q27.5132 -13.4688 28.271 -13.8359 Q29.0288 -14.2031 29.7476 -14.6484 Q30.4663 -15.0938 31.1226 -15.5859 Q31.7788 -16.0781 32.3101 -16.625 L34.8101 -16.625 L34.8101 0 L31.2319 0 L31.2319 -11.9688 Q30.5132 -11.5 29.6226 -11.1016 Q28.7319 -10.7031 27.9038 -10.4219 L26.8257 -13.1719 ZM51.5752 -8.3594 Q51.5752 -4.1562 49.9814 -1.9062 Q48.3877 0.3438 45.5752 0.3438 Q42.7783 0.3438 41.1768 -1.9062 Q39.5752 -4.1562 39.5752 -8.3594 Q39.5752 -10.4375 39.9971 -12.0469 Q40.4189 -13.6562 41.208 -14.7578 Q41.9971 -15.8594 43.1064 -16.4375 Q44.2158 -17.0156 45.5752 -17.0156 Q48.3877 -17.0156 49.9814 -14.7734 Q51.5752 -12.5312 51.5752 -8.3594 ZM47.9346 -8.3594 Q47.9346 -9.5938 47.8096 -10.6172 Q47.6846 -11.6406 47.4268 -12.3828 Q47.1689 -13.125 46.708 -13.5312 Q46.2471 -13.9375 45.5752 -13.9375 Q44.9033 -13.9375 44.458 -13.5312 Q44.0127 -13.125 43.7393 -12.3828 Q43.4658 -11.6406 43.3486 -10.6172 Q43.2314 -9.5938 43.2314 -8.3594 Q43.2314 -7.1094 43.3486 -6.0781 Q43.4658 -5.0469 43.7393 -4.2969 Q44.0127 -3.5469 44.458 -3.1406 Q44.9033 -2.7344 45.5752 -2.7344 Q46.2471 -2.7344 46.708 -3.1406 Q47.1689 -3.5469 47.4268 -4.2969 Q47.6846 -5.0469 47.8096 -6.0781 Q47.9346 -7.1094 47.9346 -8.3594 ZM64.5972 -2.8594 Q65.394 -2.8594 65.9097 -2.9922 Q66.4253 -3.125 66.7378 -3.3516 Q67.0503 -3.5781 67.1675 -3.8906 Q67.2847 -4.2031 67.2847 -4.5781 Q67.2847 -5.4062 66.519 -5.9453 Q65.7534 -6.4844 63.8784 -7.1094 Q63.0659 -7.3906 62.2456 -7.7656 Q61.4253 -8.1406 60.7769 -8.7031 Q60.1284 -9.2656 59.7222 -10.0703 Q59.3159 -10.875 59.3159 -12.0312 Q59.3159 -13.1719 59.7534 -14.1016 Q60.1909 -15.0312 60.98 -15.6719 Q61.769 -16.3125 62.894 -16.6641 Q64.019 -17.0156 65.4409 -17.0156 Q67.1128 -17.0156 68.3394 -16.6562 Q69.5659 -16.2969 70.3628 -15.8594 L69.2847 -12.9062 Q68.5815 -13.2656 67.73 -13.5469 Q66.8784 -13.8281 65.6753 -13.8281 Q64.3315 -13.8281 63.7456 -13.4531 Q63.1597 -13.0781 63.1597 -12.3125 Q63.1597 -11.8594 63.3784 -11.5469 Q63.5972 -11.2344 63.9878 -10.9844 Q64.3784 -10.7344 64.894 -10.5234 Q65.4097 -10.3125 66.0347 -10.1094 Q67.3315 -9.625 68.2925 -9.1562 Q69.2534 -8.6875 69.894 -8.0625 Q70.5347 -7.4375 70.8472 -6.6016 Q71.1597 -5.7656 71.1597 -4.5625 Q71.1597 -2.2344 69.5269 -0.9453 Q67.894 0.3438 64.5972 0.3438 Q63.5034 0.3438 62.6128 0.2109 Q61.7222 0.0781 61.0347 -0.1172 Q60.3472 -0.3125 59.855 -0.5312 Q59.3628 -0.75 59.0347 -0.9375 L60.0815 -3.9062 Q60.8315 -3.5 61.9253 -3.1797 Q63.019 -2.8594 64.5972 -2.8594 ZM74.0262 0 L74.0262 -16.625 L85.2606 -16.625 L85.2606 -13.4844 L77.7606 -13.4844 L77.7606 -10.2188 L84.4169 -10.2188 L84.4169 -7.1562 L77.7606 -7.1562 L77.7606 -3.1406 L85.8075 -3.1406 L85.8075 0 L74.0262 0 ZM97.1316 -6.4062 Q97.1316 -4.75 97.8738 -3.7422 Q98.616 -2.7344 100.0847 -2.7344 Q100.5535 -2.7344 100.9597 -2.7734 Q101.366 -2.8125 101.6316 -2.8594 L101.6316 -9.3594 Q101.3035 -9.5781 100.7644 -9.7188 Q100.2253 -9.8594 99.6628 -9.8594 Q97.1316 -9.8594 97.1316 -6.4062 ZM105.2097 -0.4062 Q104.741 -0.2656 104.116 -0.1328 Q103.491 0 102.8035 0.0938 Q102.116 0.1875 101.405 0.25 Q100.6941 0.3125 100.0535 0.3125 Q98.491 0.3125 97.2644 -0.1406 Q96.0378 -0.5938 95.2019 -1.4453 Q94.366 -2.2969 93.9207 -3.5156 Q93.4753 -4.7344 93.4753 -6.2344 Q93.4753 -7.7812 93.8582 -9.0156 Q94.241 -10.25 94.9597 -11.1094 Q95.6785 -11.9688 96.7253 -12.4297 Q97.7722 -12.8906 99.116 -12.8906 Q99.866 -12.8906 100.4519 -12.7422 Q101.0378 -12.5938 101.6316 -12.3438 L101.6316 -18.0469 L105.2097 -18.625 L105.2097 -0.4062 ZM112.1353 0 L108.5728 0 L108.5728 -12.625 L112.1353 -12.625 L112.1353 0 ZM112.479 -16.2656 Q112.479 -15.2812 111.8384 -14.7188 Q111.1978 -14.1562 110.3384 -14.1562 Q109.479 -14.1562 108.8384 -14.7188 Q108.1978 -15.2812 108.1978 -16.2656 Q108.1978 -17.25 108.8384 -17.8203 Q109.479 -18.3906 110.3384 -18.3906 Q111.1978 -18.3906 111.8384 -17.8203 Q112.479 -17.25 112.479 -16.2656 ZM119.1143 -2.5625 Q120.0987 -2.5625 120.5128 -2.7578 Q120.9268 -2.9531 120.9268 -3.5 Q120.9268 -3.9375 120.3956 -4.2578 Q119.8643 -4.5781 118.7862 -4.9844 Q117.9424 -5.2969 117.2628 -5.6328 Q116.5831 -5.9688 116.0987 -6.4375 Q115.6143 -6.9062 115.3487 -7.5547 Q115.0831 -8.2031 115.0831 -9.125 Q115.0831 -10.8906 116.4034 -11.9219 Q117.7237 -12.9531 120.0362 -12.9531 Q121.1924 -12.9531 122.2471 -12.75 Q123.3018 -12.5469 123.9268 -12.3125 L123.3018 -9.5312 Q122.6768 -9.75 121.9424 -9.9141 Q121.2081 -10.0781 120.3018 -10.0781 Q118.6143 -10.0781 118.6143 -9.1406 Q118.6143 -8.9219 118.6846 -8.7578 Q118.7549 -8.5938 118.9737 -8.4375 Q119.1924 -8.2812 119.5674 -8.1016 Q119.9424 -7.9219 120.5206 -7.7031 Q121.6924 -7.2656 122.4581 -6.8516 Q123.2237 -6.4375 123.669 -5.9453 Q124.1143 -5.4531 124.294 -4.8516 Q124.4737 -4.25 124.4737 -3.4531 Q124.4737 -1.5781 123.0674 -0.6172 Q121.6612 0.3438 119.0987 0.3438 Q117.4112 0.3438 116.3018 0.0547 Q115.1924 -0.2344 114.7549 -0.4375 L115.3487 -3.3438 Q116.2706 -2.9688 117.2315 -2.7656 Q118.1924 -2.5625 119.1143 -2.5625 ZM127.0135 -15.7656 L130.5917 -16.3438 L130.5917 -12.625 L134.8885 -12.625 L134.8885 -9.6406 L130.5917 -9.6406 L130.5917 -5.2031 Q130.5917 -4.0781 130.9823 -3.4062 Q131.3729 -2.7344 132.576 -2.7344 Q133.1542 -2.7344 133.7635 -2.8438 Q134.3729 -2.9531 134.8885 -3.1406 L135.3885 -0.3594 Q134.7323 -0.0938 133.9432 0.0938 Q133.1542 0.2812 131.9979 0.2812 Q130.5448 0.2812 129.5839 -0.1094 Q128.6229 -0.5 128.0448 -1.2109 Q127.4667 -1.9219 127.2401 -2.9297 Q127.0135 -3.9375 127.0135 -5.1562 L127.0135 -15.7656 ZM145.3824 -9.4531 Q144.9137 -9.5781 144.2653 -9.7109 Q143.6168 -9.8438 142.8668 -9.8438 Q142.5387 -9.8438 142.0699 -9.7812 Q141.6012 -9.7188 141.3512 -9.6406 L141.3512 0 L137.7887 0 L137.7887 -11.9531 Q138.7418 -12.2812 140.0465 -12.5859 Q141.3512 -12.8906 142.9606 -12.8906 Q143.2574 -12.8906 143.6637 -12.8516 Q144.0699 -12.8125 144.4762 -12.7578 Q144.8824 -12.7031 145.2887 -12.6172 Q145.6949 -12.5312 145.9918 -12.4062 L145.3824 -9.4531 ZM151.4736 0 L147.9111 0 L147.9111 -12.625 L151.4736 -12.625 L151.4736 0 ZM151.8174 -16.2656 Q151.8174 -15.2812 151.1768 -14.7188 Q150.5361 -14.1562 149.6768 -14.1562 Q148.8174 -14.1562 148.1768 -14.7188 Q147.5361 -15.2812 147.5361 -16.2656 Q147.5361 -17.25 148.1768 -17.8203 Q148.8174 -18.3906 149.6768 -18.3906 Q150.5361 -18.3906 151.1768 -17.8203 Q151.8174 -17.25 151.8174 -16.2656 ZM162.9214 -6.4062 Q162.9214 -9.8594 160.3746 -9.8594 Q159.8277 -9.8594 159.2886 -9.7188 Q158.7496 -9.5781 158.4058 -9.3594 L158.4058 -2.8594 Q158.6714 -2.8125 159.0855 -2.7734 Q159.4996 -2.7344 159.9683 -2.7344 Q161.4371 -2.7344 162.1793 -3.7422 Q162.9214 -4.75 162.9214 -6.4062 ZM166.5777 -6.3125 Q166.5777 -4.7969 166.1324 -3.5781 Q165.6871 -2.3594 164.8433 -1.4922 Q163.9996 -0.625 162.7808 -0.1562 Q161.5621 0.3125 159.9996 0.3125 Q159.3433 0.3125 158.6402 0.25 Q157.9371 0.1875 157.2496 0.0938 Q156.5621 0 155.9371 -0.1328 Q155.3121 -0.2656 154.8433 -0.4062 L154.8433 -18.0469 L158.4058 -18.625 L158.4058 -12.3438 Q159.0152 -12.5938 159.6636 -12.7422 Q160.3121 -12.8906 161.0464 -12.8906 Q162.3902 -12.8906 163.4214 -12.4219 Q164.4527 -11.9531 165.1558 -11.0859 Q165.8589 -10.2188 166.2183 -9.0078 Q166.5777 -7.7969 166.5777 -6.3125 ZM180.097 -0.4375 Q179.1907 -0.1719 177.7454 0.0547 Q176.3001 0.2812 174.722 0.2812 Q173.1126 0.2812 172.0501 -0.1484 Q170.9876 -0.5781 170.3626 -1.3594 Q169.7376 -2.1406 169.472 -3.2188 Q169.2064 -4.2969 169.2064 -5.5938 L169.2064 -12.625 L172.7845 -12.625 L172.7845 -6.0312 Q172.7845 -4.2969 173.2376 -3.5312 Q173.6907 -2.7656 174.9407 -2.7656 Q175.3314 -2.7656 175.761 -2.7969 Q176.1907 -2.8281 176.5189 -2.875 L176.5189 -12.625 L180.097 -12.625 L180.097 -0.4375 ZM183.3346 -15.7656 L186.9127 -16.3438 L186.9127 -12.625 L191.2096 -12.625 L191.2096 -9.6406 L186.9127 -9.6406 L186.9127 -5.2031 Q186.9127 -4.0781 187.3033 -3.4062 Q187.694 -2.7344 188.8971 -2.7344 Q189.4752 -2.7344 190.0846 -2.8438 Q190.694 -2.9531 191.2096 -3.1406 L191.7096 -0.3594 Q191.0533 -0.0938 190.2643 0.0938 Q189.4752 0.2812 188.319 0.2812 Q186.8658 0.2812 185.9049 -0.1094 Q184.944 -0.5 184.3658 -1.2109 Q183.7877 -1.9219 183.5612 -2.9297 Q183.3346 -3.9375 183.3346 -5.1562 L183.3346 -15.7656 ZM197.6722 0 L194.1097 0 L194.1097 -12.625 L197.6722 -12.625 L197.6722 0 ZM198.016 -16.2656 Q198.016 -15.2812 197.3754 -14.7188 Q196.7347 -14.1562 195.8754 -14.1562 Q195.016 -14.1562 194.3754 -14.7188 Q193.7347 -15.2812 193.7347 -16.2656 Q193.7347 -17.25 194.3754 -17.8203 Q195.016 -18.3906 195.8754 -18.3906 Q196.7347 -18.3906 197.3754 -17.8203 Q198.016 -17.25 198.016 -16.2656 ZM212.8388 -6.3438 Q212.8388 -4.8438 212.4091 -3.6094 Q211.9794 -2.375 211.1591 -1.5 Q210.3388 -0.625 209.206 -0.1406 Q208.0732 0.3438 206.6513 0.3438 Q205.2607 0.3438 204.1201 -0.1406 Q202.9794 -0.625 202.1591 -1.5 Q201.3388 -2.375 200.8857 -3.6094 Q200.4326 -4.8438 200.4326 -6.3438 Q200.4326 -7.8281 200.9013 -9.0469 Q201.3701 -10.2656 202.1982 -11.1328 Q203.0263 -12 204.1669 -12.4766 Q205.3076 -12.9531 206.6513 -12.9531 Q208.0107 -12.9531 209.1513 -12.4766 Q210.2919 -12 211.1122 -11.1328 Q211.9326 -10.2656 212.3857 -9.0469 Q212.8388 -7.8281 212.8388 -6.3438 ZM209.1982 -6.3438 Q209.1982 -7.9844 208.5341 -8.9375 Q207.8701 -9.8906 206.6513 -9.8906 Q205.4326 -9.8906 204.7607 -8.9375 Q204.0888 -7.9844 204.0888 -6.3438 Q204.0888 -4.6875 204.7607 -3.7109 Q205.4326 -2.7344 206.6513 -2.7344 Q207.8701 -2.7344 208.5341 -3.7109 Q209.1982 -4.6875 209.1982 -6.3438 ZM215.6019 -12.1875 Q216.5082 -12.4531 217.9457 -12.6797 Q219.3832 -12.9062 220.9769 -12.9062 Q222.5707 -12.9062 223.641 -12.4922 Q224.7113 -12.0781 225.3363 -11.3047 Q225.9613 -10.5312 226.2269 -9.4766 Q226.4926 -8.4219 226.4926 -7.125 L226.4926 0 L222.9144 0 L222.9144 -6.7031 Q222.9144 -8.4219 222.4613 -9.1406 Q222.0082 -9.8594 220.7582 -9.8594 Q220.3676 -9.8594 219.9379 -9.8281 Q219.5082 -9.7969 219.1644 -9.75 L219.1644 0 L215.6019 0 L215.6019 -12.1875 ZM240.9557 -18.625 Q241.9557 -18.625 242.7995 -18.4219 Q243.6432 -18.2188 244.0964 -18.0312 L243.3932 -15.1719 Q242.9245 -15.3906 242.3542 -15.4922 Q241.7839 -15.5938 241.3151 -15.5938 Q240.6589 -15.5938 240.2136 -15.4141 Q239.7682 -15.2344 239.5182 -14.9219 Q239.2682 -14.6094 239.1589 -14.1797 Q239.0495 -13.75 239.0495 -13.25 L239.0495 -12.625 L243.4714 -12.625 L243.4714 -9.6406 L239.0495 -9.6406 L239.0495 0 L235.487 0 L235.487 -13.2969 Q235.487 -15.75 236.862 -17.1875 Q238.237 -18.625 240.9557 -18.625 ZM257.4063 -6.3438 Q257.4063 -4.8438 256.9766 -3.6094 Q256.5469 -2.375 255.7266 -1.5 Q254.9063 -0.625 253.7735 -0.1406 Q252.6407 0.3438 251.2188 0.3438 Q249.8282 0.3438 248.6876 -0.1406 Q247.5469 -0.625 246.7266 -1.5 Q245.9063 -2.375 245.4532 -3.6094 Q245.0001 -4.8438 245.0001 -6.3438 Q245.0001 -7.8281 245.4688 -9.0469 Q245.9376 -10.2656 246.7657 -11.1328 Q247.5938 -12 248.7344 -12.4766 Q249.8751 -12.9531 251.2188 -12.9531 Q252.5782 -12.9531 253.7188 -12.4766 Q254.8594 -12 255.6797 -11.1328 Q256.5001 -10.2656 256.9532 -9.0469 Q257.4063 -7.8281 257.4063 -6.3438 ZM253.7657 -6.3438 Q253.7657 -7.9844 253.1016 -8.9375 Q252.4376 -9.8906 251.2188 -9.8906 Q250.0001 -9.8906 249.3282 -8.9375 Q248.6563 -7.9844 248.6563 -6.3438 Q248.6563 -4.6875 249.3282 -3.7109 Q250.0001 -2.7344 251.2188 -2.7344 Q252.4376 -2.7344 253.1016 -3.7109 Q253.7657 -4.6875 253.7657 -6.3438 ZM267.7632 -9.4531 Q267.2944 -9.5781 266.646 -9.7109 Q265.9976 -9.8438 265.2476 -9.8438 Q264.9194 -9.8438 264.4507 -9.7812 Q263.9819 -9.7188 263.7319 -9.6406 L263.7319 0 L260.1694 0 L260.1694 -11.9531 Q261.1226 -12.2812 262.4272 -12.5859 Q263.7319 -12.8906 265.3413 -12.8906 Q265.6382 -12.8906 266.0444 -12.8516 Q266.4507 -12.8125 266.8569 -12.7578 Q267.2632 -12.7031 267.6694 -12.6172 Q268.0757 -12.5312 268.3726 -12.4062 L267.7632 -9.4531 Z"
    /></g
    ><g transform="translate(1957,126)" style="font-size:24px; text-rendering:geometricPrecision; image-rendering:optimizeQuality; color-rendering:optimizeQuality; font-family:'mwb_cmmi10'; color-interpolation:linearRGB; font-weight:bold;"
    ><path style="stroke:none;" d="M0.6719 4.5156 Q0.6719 4.375 0.6875 4.3281 L4.2188 -9.8438 Q4.3281 -10.1875 4.6016 -10.3984 Q4.875 -10.6094 5.2344 -10.6094 Q6.5312 -10.6094 6.7422 -10.4297 Q6.9531 -10.25 6.9531 -9.9375 Q6.9531 -9.875 6.9453 -9.8281 Q6.9375 -9.7812 6.9375 -9.7344 L5.5156 -4.125 Q5.2812 -3.125 5.2812 -2.4062 Q5.2812 -1.5156 5.7031 -0.9375 Q6.125 -0.3594 6.125 -0.3594 Q7.7188 -0.3594 9.0469 -2.5469 Q9.0625 -2.5625 9.0703 -2.5781 Q9.0781 -2.5938 9.0781 -2.6094 L10.8125 -9.5781 Q10.8906 -9.8906 11.1797 -10.1172 Q11.4688 -10.3438 11.8125 -10.3438 Q13.0938 -10.3438 13.3125 -10.1562 Q13.5312 -9.9688 13.5312 -9.6719 Q13.5312 -9.5312 13.5 -9.4844 L11.7812 -2.5625 Q11.6094 -1.8906 11.6094 -1.3906 Q11.6094 -0.3594 11.6094 -0.3594 Q12.0625 -0.3594 12.4453 -1.2891 Q12.8281 -2.2188 13.1094 -3.5312 Q13.1562 -3.6719 13.2969 -3.6719 L13.5781 -3.6719 Q14.6719 -3.6719 14.7422 -3.5938 Q14.8125 -3.5156 14.8125 -3.4375 Q14.3906 -1.7656 13.8906 -0.75 Q13.3906 0.2656 11.2656 0.2656 Q10.4688 0.2656 9.8516 -0.1875 Q9.2344 -0.6406 9.2344 -0.6406 Q9.2344 -0.6406 8.5391 -0.1875 Q7.8438 0.2656 5.9531 0.2656 Q4.4531 0.2656 4.3125 0.1406 L3.375 4.4219 Q3.3125 4.7656 3.0312 4.9766 Q2.75 5.1875 1.3906 5.1875 Q1.1094 5.1875 0.8906 5 Q0.6719 4.8125 0.6719 4.5156 Z"
    /></g
    ><g transform="translate(1973,126)" style="font-size:24px; text-rendering:geometricPrecision; image-rendering:optimizeQuality; color-rendering:optimizeQuality; font-family:'Ubuntu'; color-interpolation:linearRGB; font-weight:bold;"
    ><path style="stroke:none;" d="M6.9287 -6.0312 L18.21 -6.0312 L18.21 -3.0312 L6.9287 -3.0312 L6.9287 -6.0312 ZM6.9287 -11.2812 L18.21 -11.2812 L18.21 -8.2812 L6.9287 -8.2812 L6.9287 -11.2812 ZM26.8257 -13.1719 Q27.5132 -13.4688 28.271 -13.8359 Q29.0288 -14.2031 29.7476 -14.6484 Q30.4663 -15.0938 31.1226 -15.5859 Q31.7788 -16.0781 32.3101 -16.625 L34.8101 -16.625 L34.8101 0 L31.2319 0 L31.2319 -11.9688 Q30.5132 -11.5 29.6226 -11.1016 Q28.7319 -10.7031 27.9038 -10.4219 L26.8257 -13.1719 ZM43.8252 -3.6406 Q43.8721 -3.0781 43.8877 -2.8359 Q43.9033 -2.5938 43.9033 -2.4219 Q43.9033 -1.7031 43.7705 -0.8984 Q43.6377 -0.0938 43.3955 0.7188 Q43.1533 1.5312 42.7939 2.3516 Q42.4346 3.1719 41.9814 3.9062 L39.1689 3.2188 Q39.7158 1.625 39.9346 0.2344 Q40.1533 -1.1562 40.1533 -2.0625 Q40.1533 -2.2031 40.1455 -2.4297 Q40.1377 -2.6562 40.1221 -2.8984 Q40.1064 -3.1406 40.0908 -3.3594 Q40.0752 -3.5781 40.0752 -3.6406 L43.8252 -3.6406 Z"
    /></g
    ><g transform="translate(2024,126)" style="font-size:24px; text-rendering:geometricPrecision; image-rendering:optimizeQuality; color-rendering:optimizeQuality; font-family:'mwb_cmmi10'; color-interpolation:linearRGB; font-weight:bold;"
    ><path style="stroke:none;" d="M4.8281 0.2656 Q3.6875 0.2656 2.8047 -0.2734 Q1.9219 -0.8125 1.4453 -1.7266 Q0.9688 -2.6406 0.9688 -3.7969 Q0.9688 -5.4219 1.875 -7.0156 Q2.7812 -8.6094 4.2891 -9.6094 Q5.7969 -10.6094 7.4375 -10.6094 Q9.6562 -10.6094 10.5859 -9.9688 Q11.5156 -9.3281 11.9922 -8.2656 Q12.4688 -7.2031 12.4688 -6 L12.4688 -5.125 Q12.4688 -5.5312 12.9609 -6.7578 Q13.4531 -7.9844 13.7656 -9.2969 Q13.8125 -9.4375 13.9531 -9.4375 L14.2344 -9.4375 Q15.4531 -9.4375 15.4531 -9.2188 Q15.4531 -9.1875 15.4219 -9.1406 Q15.1406 -8.0469 14.7188 -7.0312 Q14.2969 -6.0156 13.7344 -5.0625 Q13.1719 -4.1094 12.5 -3.3438 Q12.5 -0.3594 12.5 -0.3594 Q12.6406 -0.3594 12.9219 -0.625 Q13.2031 -0.8906 13.4219 -1.2812 Q13.6406 -1.6719 13.7031 -1.6719 L14 -1.6719 Q15.1875 -1.6719 15.1875 -1.4375 Q15.1875 -0.8438 14.5 -0.2891 Q13.8125 0.2656 12.1406 0.2656 Q11.2812 0.2656 10.7031 -0.2969 Q10.125 -0.8594 10.0781 -1.0312 Q9.7969 -0.7969 8.4844 -0.2656 Q7.1719 0.2656 4.8281 0.2656 ZM4.875 -0.3594 Q7.4375 -0.3594 9.7969 -2.4688 Q9.7812 -2.6094 9.7578 -2.8203 Q9.7344 -3.0312 9.7344 -3.0469 L9.7344 -5.6406 Q9.7344 -9.9844 7.3906 -9.9844 Q6.9844 -9.9844 5.9297 -8.7812 Q4.875 -7.5781 4.3438 -5.9141 Q3.8125 -4.25 3.8125 -2.8594 Q3.8125 -1.8125 4.3438 -1.0859 Q4.875 -0.3594 4.875 -0.3594 Z"
    /></g
    ><g transform="translate(2041,126)" style="font-size:24px; text-rendering:geometricPrecision; image-rendering:optimizeQuality; color-rendering:optimizeQuality; font-family:'Ubuntu'; color-interpolation:linearRGB; font-weight:bold;"
    ><path style="stroke:none;" d="M6.9287 -6.0312 L18.21 -6.0312 L18.21 -3.0312 L6.9287 -3.0312 L6.9287 -6.0312 ZM6.9287 -11.2812 L18.21 -11.2812 L18.21 -8.2812 L6.9287 -8.2812 L6.9287 -11.2812 ZM37.9507 -8.3594 Q37.9507 -4.1562 36.3569 -1.9062 Q34.7632 0.3438 31.9507 0.3438 Q29.1538 0.3438 27.5522 -1.9062 Q25.9507 -4.1562 25.9507 -8.3594 Q25.9507 -10.4375 26.3726 -12.0469 Q26.7944 -13.6562 27.5835 -14.7578 Q28.3726 -15.8594 29.4819 -16.4375 Q30.5913 -17.0156 31.9507 -17.0156 Q34.7632 -17.0156 36.3569 -14.7734 Q37.9507 -12.5312 37.9507 -8.3594 ZM34.3101 -8.3594 Q34.3101 -9.5938 34.1851 -10.6172 Q34.0601 -11.6406 33.8022 -12.3828 Q33.5444 -13.125 33.0835 -13.5312 Q32.6226 -13.9375 31.9507 -13.9375 Q31.2788 -13.9375 30.8335 -13.5312 Q30.3882 -13.125 30.1147 -12.3828 Q29.8413 -11.6406 29.7241 -10.6172 Q29.6069 -9.5938 29.6069 -8.3594 Q29.6069 -7.1094 29.7241 -6.0781 Q29.8413 -5.0469 30.1147 -4.2969 Q30.3882 -3.5469 30.8335 -3.1406 Q31.2788 -2.7344 31.9507 -2.7344 Q32.6226 -2.7344 33.0835 -3.1406 Q33.5444 -3.5469 33.8022 -4.2969 Q34.0601 -5.0469 34.1851 -6.0781 Q34.3101 -7.1094 34.3101 -8.3594 ZM43.9502 -1.8906 Q43.9502 -0.8125 43.2627 -0.25 Q42.5752 0.3125 41.7158 0.3125 Q40.8564 0.3125 40.1689 -0.25 Q39.4814 -0.8125 39.4814 -1.8906 Q39.4814 -2.9688 40.1689 -3.5391 Q40.8564 -4.1094 41.7158 -4.1094 Q42.5752 -4.1094 43.2627 -3.5391 Q43.9502 -2.9688 43.9502 -1.8906 ZM51.601 -8.9219 Q52.1478 -8.9219 52.7494 -9.0312 Q53.351 -9.1406 53.6322 -9.3438 L53.6322 -9.5469 Q53.6322 -9.6406 53.6478 -9.7422 Q53.6635 -9.8438 53.6635 -9.9062 Q53.6322 -10.7812 53.515 -11.5312 Q53.3978 -12.2812 53.1088 -12.8516 Q52.8197 -13.4219 52.3275 -13.7422 Q51.8353 -14.0625 51.1166 -14.0625 Q50.5385 -14.0625 50.1088 -13.8203 Q49.6791 -13.5781 49.4135 -13.1953 Q49.1478 -12.8125 49.015 -12.3594 Q48.8822 -11.9062 48.8822 -11.4688 Q48.8822 -10.1719 49.5228 -9.5469 Q50.1635 -8.9219 51.601 -8.9219 ZM53.351 -6.5938 Q52.851 -6.3594 52.2338 -6.25 Q51.6166 -6.1406 51.1947 -6.1406 Q49.6322 -6.1406 48.5306 -6.5156 Q47.4291 -6.8906 46.7181 -7.5703 Q46.0072 -8.25 45.6713 -9.2109 Q45.3353 -10.1719 45.3353 -11.3281 Q45.3353 -12.2812 45.6556 -13.2891 Q45.976 -14.2969 46.6791 -15.125 Q47.3822 -15.9531 48.4447 -16.5 Q49.5072 -17.0469 51.0228 -17.0469 Q54.1166 -17.0469 55.6869 -15.1328 Q57.2572 -13.2188 57.2572 -9.6406 Q57.2572 -7.2969 56.6478 -5.5 Q56.0385 -3.7031 54.7572 -2.4766 Q53.476 -1.25 51.4838 -0.6094 Q49.4916 0.0312 46.7572 0.0469 Q46.726 -0.7188 46.6791 -1.4375 Q46.6322 -2.1562 46.5853 -2.9219 Q47.9447 -2.9531 49.0541 -3.1328 Q50.1635 -3.3125 50.9994 -3.7344 Q51.8353 -4.1562 52.4291 -4.8516 Q53.0228 -5.5469 53.351 -6.5938 ZM61.6942 0 Q61.8348 -1.75 62.2958 -3.6484 Q62.7567 -5.5469 63.413 -7.3672 Q64.0692 -9.1875 64.8895 -10.8125 Q65.7098 -12.4375 66.538 -13.6094 L59.3192 -13.6094 L59.3192 -16.6562 L70.9598 -16.6562 L70.9598 -14.0625 Q70.1942 -13.2188 69.2723 -11.7344 Q68.3505 -10.25 67.5223 -8.3672 Q66.6942 -6.4844 66.077 -4.3203 Q65.4598 -2.1562 65.3192 0 L61.6942 0 ZM76.975 -3.6406 Q77.0219 -3.0781 77.0375 -2.8359 Q77.0531 -2.5938 77.0531 -2.4219 Q77.0531 -1.7031 76.9203 -0.8984 Q76.7875 -0.0938 76.5453 0.7188 Q76.3031 1.5312 75.9437 2.3516 Q75.5844 3.1719 75.1312 3.9062 L72.3187 3.2188 Q72.8656 1.625 73.0844 0.2344 Q73.3031 -1.1562 73.3031 -2.0625 Q73.3031 -2.2031 73.2953 -2.4297 Q73.2875 -2.6562 73.2719 -2.8984 Q73.2562 -3.1406 73.2406 -3.3594 Q73.225 -3.5781 73.225 -3.6406 L76.975 -3.6406 ZM96.0232 -0.4375 Q95.1169 -0.1719 93.6716 0.0547 Q92.2263 0.2812 90.6482 0.2812 Q89.0388 0.2812 87.9763 -0.1484 Q86.9138 -0.5781 86.2888 -1.3594 Q85.6638 -2.1406 85.3982 -3.2188 Q85.1326 -4.2969 85.1326 -5.5938 L85.1326 -12.625 L88.7107 -12.625 L88.7107 -6.0312 Q88.7107 -4.2969 89.1638 -3.5312 Q89.6169 -2.7656 90.8669 -2.7656 Q91.2576 -2.7656 91.6873 -2.7969 Q92.1169 -2.8281 92.4451 -2.875 L92.4451 -12.625 L96.0232 -12.625 L96.0232 -0.4375 ZM104.627 -6.0312 L115.9083 -6.0312 L115.9083 -3.0312 L104.627 -3.0312 L104.627 -6.0312 ZM104.627 -11.2812 L115.9083 -11.2812 L115.9083 -8.2812 L104.627 -8.2812 L104.627 -11.2812 ZM124.524 -13.1719 Q125.2115 -13.4688 125.9693 -13.8359 Q126.7271 -14.2031 127.4459 -14.6484 Q128.1646 -15.0938 128.8209 -15.5859 Q129.4771 -16.0781 130.0084 -16.625 L132.5084 -16.625 L132.5084 0 L128.9302 0 L128.9302 -11.9688 Q128.2115 -11.5 127.3209 -11.1016 Q126.4302 -10.7031 125.6021 -10.4219 L124.524 -13.1719 Z"
    /></g
    ><g style="stroke-linecap:butt; fill:rgb(38,38,38); text-rendering:geometricPrecision; color-rendering:optimizeQuality; image-rendering:optimizeQuality; stroke-linejoin:round; stroke:rgb(38,38,38); color-interpolation:linearRGB;"
    ><line y2="1719" style="fill:none;" x1="479" x2="3336" y1="1719"
    /></g
    ><g style="fill:rgb(0,114,189); text-rendering:optimizeSpeed; color-rendering:optimizeSpeed; image-rendering:optimizeSpeed; shape-rendering:crispEdges; stroke:rgb(0,114,189); color-interpolation:sRGB;"
    ><path style="stroke:none;" d="M509.153 1719 L509.153 1718.9998 L479 1718.9998 L479 1719 ZM546.8443 1719 L546.8443 145 L516.6913 145 L516.6913 1719 ZM584.5356 1719 L584.5356 530.2943 L554.3826 530.2943 L554.3826 1719 ZM622.2269 1719 L622.2269 919.7955 L592.0739 919.7955 L592.0739 1719 ZM659.9182 1719 L659.9182 1123.027 L629.7652 1123.027 L629.7652 1719 ZM697.6095 1719 L697.6095 1279.0811 L667.4565 1279.0811 L667.4565 1719 ZM735.3008 1719 L735.3008 1370.5194 L705.1478 1370.5194 L705.1478 1719 ZM772.9921 1719 L772.9921 1461.1467 L742.8391 1461.1467 L742.8391 1719 ZM810.6833 1719 L810.6833 1522.8309 L780.5303 1522.8309 L780.5303 1719 ZM848.3746 1719 L848.3746 1564.0563 L818.2217 1564.0563 L818.2217 1719 ZM886.066 1719 L886.066 1593.7878 L855.913 1593.7878 L855.913 1719 ZM923.7573 1719 L923.7573 1615.9769 L893.6042 1615.9769 L893.6042 1719 ZM961.4485 1719 L961.4485 1633.2983 L931.2955 1633.2983 L931.2955 1719 ZM999.1398 1719 L999.1398 1647.0127 L968.9868 1647.0127 L968.9868 1719 ZM1036.8312 1719 L1036.8312 1657.9091 L1006.6781 1657.9091 L1006.6781 1719 ZM1074.5225 1719 L1074.5225 1666.6172 L1044.3694 1666.6172 L1044.3694 1719 ZM1112.2137 1719 L1112.2137 1673.7621 L1082.0607 1673.7621 L1082.0607 1719 ZM1149.905 1719 L1149.905 1679.5432 L1119.752 1679.5432 L1119.752 1719 ZM1187.5963 1719 L1187.5963 1684.1362 L1157.4432 1684.1362 L1157.4432 1719 ZM1225.2876 1719 L1225.2876 1687.8712 L1195.1345 1687.8712 L1195.1345 1719 ZM1262.9789 1719 L1262.9789 1690.9459 L1232.8259 1690.9459 L1232.8259 1719 ZM1300.6702 1719 L1300.6702 1693.1328 L1270.5172 1693.1328 L1270.5172 1719 ZM1338.3615 1719 L1338.3615 1694.801 L1308.2085 1694.801 L1308.2085 1719 ZM1376.0527 1719 L1376.0527 1696.0934 L1345.8998 1696.0934 L1345.8998 1719 ZM1413.744 1719 L1413.744 1697.371 L1383.5911 1697.371 L1383.5911 1719 ZM1451.4353 1719 L1451.4353 1698.9657 L1421.2823 1698.9657 L1421.2823 1719 ZM1489.1266 1719 L1489.1266 1701.2592 L1458.9736 1701.2592 L1458.9736 1719 ZM1526.8179 1719 L1526.8179 1703.6982 L1496.6649 1703.6982 L1496.6649 1719 ZM1564.5093 1719 L1564.5093 1705.8948 L1534.3562 1705.8948 L1534.3562 1719 ZM1602.2006 1719 L1602.2006 1707.8837 L1572.0475 1707.8837 L1572.0475 1719 ZM1639.8918 1719 L1639.8918 1709.6781 L1609.7388 1709.6781 L1609.7388 1719 ZM1677.5831 1719 L1677.5831 1711.2378 L1647.4301 1711.2378 L1647.4301 1719 ZM1715.2744 1719 L1715.2744 1712.5155 L1685.1213 1712.5155 L1685.1213 1719 ZM1752.9657 1719 L1752.9657 1713.4613 L1722.8126 1713.4613 L1722.8126 1719 ZM1790.6571 1719 L1790.6571 1714.0302 L1760.5039 1714.0302 L1760.5039 1719 ZM1828.3484 1719 L1828.3484 1714.1709 L1798.1952 1714.1709 L1798.1952 1719 ZM1866.0397 1719 L1866.0397 1713.8304 L1835.8865 1713.8304 L1835.8865 1719 ZM1903.731 1719 L1903.731 1712.9478 L1873.5778 1712.9478 L1873.5778 1719 ZM1941.4222 1719 L1941.4222 1711.4536 L1911.269 1711.4536 L1911.269 1719 ZM1979.1135 1719 L1979.1135 1709.2812 L1948.9603 1709.2812 L1948.9603 1719 ZM2016.8048 1719 L2016.8048 1706.3629 L1986.6516 1706.3629 L1986.6516 1719 ZM2054.4961 1719 L2054.4961 1702.6537 L2024.3429 1702.6537 L2024.3429 1719 ZM2092.1875 1719 L2092.1875 1698.1512 L2062.0342 1698.1512 L2062.0342 1719 ZM2129.8787 1719 L2129.8787 1692.9429 L2099.7256 1692.9429 L2099.7256 1719 ZM2167.5701 1719 L2167.5701 1687.1732 L2137.4167 1687.1732 L2137.4167 1719 ZM2205.2612 1719 L2205.2612 1681.157 L2175.1082 1681.157 L2175.1082 1719 ZM2242.9526 1719 L2242.9526 1675.2531 L2212.7993 1675.2531 L2212.7993 1719 ZM2280.6438 1719 L2280.6438 1669.943 L2250.4907 1669.943 L2250.4907 1719 ZM2318.3352 1719 L2318.3352 1665.8328 L2288.1819 1665.8328 L2288.1819 1719 ZM2356.0264 1719 L2356.0264 1663.7321 L2325.8733 1663.7321 L2325.8733 1719 ZM2393.7178 1719 L2393.7178 1664.068 L2363.5647 1664.068 L2363.5647 1719 ZM2431.4089 1719 L2431.4089 1666.4756 L2401.2559 1666.4756 L2401.2559 1719 ZM2469.1003 1719 L2469.1003 1670.1042 L2438.9473 1670.1042 L2438.9473 1719 ZM2506.7915 1719 L2506.7915 1674.4908 L2476.6384 1674.4908 L2476.6384 1719 ZM2544.4829 1719 L2544.4829 1679.2944 L2514.3298 1679.2944 L2514.3298 1719 ZM2582.1743 1719 L2582.1743 1684.2438 L2552.021 1684.2438 L2552.021 1719 ZM2619.8655 1719 L2619.8655 1689.1288 L2589.7124 1689.1288 L2589.7124 1719 ZM2657.5569 1719 L2657.5569 1693.788 L2627.4036 1693.788 L2627.4036 1719 ZM2695.248 1719 L2695.248 1698.1029 L2665.095 1698.1029 L2665.095 1719 ZM2732.9395 1719 L2732.9395 1701.9926 L2702.7861 1701.9926 L2702.7861 1719 ZM2770.6306 1719 L2770.6306 1705.4105 L2740.4775 1705.4105 L2740.4775 1719 ZM2808.322 1719 L2808.322 1708.3405 L2778.1687 1708.3405 L2778.1687 1719 ZM2846.0132 1719 L2846.0132 1710.7922 L2815.8601 1710.7922 L2815.8601 1719 ZM2883.7046 1719 L2883.7046 1712.7957 L2853.5515 1712.7957 L2853.5515 1719 ZM2921.3958 1719 L2921.3958 1714.3954 L2891.2427 1714.3954 L2891.2427 1719 ZM2959.0872 1719 L2959.0872 1715.6442 L2928.9341 1715.6442 L2928.9341 1719 ZM2996.7783 1719 L2996.7783 1716.5975 L2966.6252 1716.5975 L2966.6252 1719 ZM3034.4697 1719 L3034.4697 1717.3102 L3004.3167 1717.3102 L3004.3167 1719 ZM3072.1609 1719 L3072.1609 1717.8317 L3042.0078 1717.8317 L3042.0078 1719 ZM3109.8523 1719 L3109.8523 1718.2058 L3079.6992 1718.2058 L3079.6992 1719 ZM3147.5437 1719 L3147.5437 1718.469 L3117.3904 1718.469 L3117.3904 1719 ZM3185.2349 1719 L3185.2349 1718.6508 L3155.0818 1718.6508 L3155.0818 1719 ZM3222.9263 1719 L3222.9263 1718.7738 L3192.7729 1718.7738 L3192.7729 1719 ZM3260.6174 1719 L3260.6174 1718.8558 L3230.4644 1718.8558 L3230.4644 1719 ZM3298.3088 1719 L3298.3088 1718.9094 L3268.1555 1718.9094 L3268.1555 1719 ZM3336 1719 L3336 1718.8607 L3305.8469 1718.8607 L3305.8469 1719 Z"
    /></g
    ><g style="text-rendering:geometricPrecision; color-rendering:optimizeQuality; color-interpolation:linearRGB; stroke-linecap:butt; image-rendering:optimizeQuality;"
    ><path d="M479 1719 L479 1718.9998 L509.153 1718.9998 L509.153 1719 Z" style="fill:none; fill-rule:evenodd;"
      /><path d="M516.6913 1719 L516.6913 145 L546.8443 145 L546.8443 1719 Z" style="fill:none; fill-rule:evenodd;"
      /><path d="M554.3826 1719 L554.3826 530.2943 L584.5356 530.2943 L584.5356 1719 Z" style="fill:none; fill-rule:evenodd;"
      /><path d="M592.0739 1719 L592.0739 919.7955 L622.2269 919.7955 L622.2269 1719 Z" style="fill:none; fill-rule:evenodd;"
      /><path d="M629.7652 1719 L629.7652 1123.027 L659.9182 1123.027 L659.9182 1719 Z" style="fill:none; fill-rule:evenodd;"
      /><path d="M667.4565 1719 L667.4565 1279.0811 L697.6095 1279.0811 L697.6095 1719 Z" style="fill:none; fill-rule:evenodd;"
      /><path d="M705.1478 1719 L705.1478 1370.5194 L735.3008 1370.5194 L735.3008 1719 Z" style="fill:none; fill-rule:evenodd;"
      /><path d="M742.8391 1719 L742.8391 1461.1467 L772.9921 1461.1467 L772.9921 1719 Z" style="fill:none; fill-rule:evenodd;"
      /><path d="M780.5303 1719 L780.5303 1522.8309 L810.6833 1522.8309 L810.6833 1719 Z" style="fill:none; fill-rule:evenodd;"
      /><path d="M818.2217 1719 L818.2217 1564.0563 L848.3746 1564.0563 L848.3746 1719 Z" style="fill:none; fill-rule:evenodd;"
      /><path d="M855.913 1719 L855.913 1593.7878 L886.066 1593.7878 L886.066 1719 Z" style="fill:none; fill-rule:evenodd;"
      /><path d="M893.6042 1719 L893.6042 1615.9769 L923.7573 1615.9769 L923.7573 1719 Z" style="fill:none; fill-rule:evenodd;"
      /><path d="M931.2955 1719 L931.2955 1633.2983 L961.4485 1633.2983 L961.4485 1719 Z" style="fill:none; fill-rule:evenodd;"
      /><path d="M968.9868 1719 L968.9868 1647.0127 L999.1398 1647.0127 L999.1398 1719 Z" style="fill:none; fill-rule:evenodd;"
      /><path d="M1006.6781 1719 L1006.6781 1657.9091 L1036.8312 1657.9091 L1036.8312 1719 Z" style="fill:none; fill-rule:evenodd;"
      /><path d="M1044.3694 1719 L1044.3694 1666.6172 L1074.5225 1666.6172 L1074.5225 1719 Z" style="fill:none; fill-rule:evenodd;"
      /><path d="M1082.0607 1719 L1082.0607 1673.7621 L1112.2137 1673.7621 L1112.2137 1719 Z" style="fill:none; fill-rule:evenodd;"
      /><path d="M1119.752 1719 L1119.752 1679.5432 L1149.905 1679.5432 L1149.905 1719 Z" style="fill:none; fill-rule:evenodd;"
      /><path d="M1157.4432 1719 L1157.4432 1684.1362 L1187.5963 1684.1362 L1187.5963 1719 Z" style="fill:none; fill-rule:evenodd;"
      /><path d="M1195.1345 1719 L1195.1345 1687.8712 L1225.2876 1687.8712 L1225.2876 1719 Z" style="fill:none; fill-rule:evenodd;"
      /><path d="M1232.8259 1719 L1232.8259 1690.9459 L1262.9789 1690.9459 L1262.9789 1719 Z" style="fill:none; fill-rule:evenodd;"
      /><path d="M1270.5172 1719 L1270.5172 1693.1328 L1300.6702 1693.1328 L1300.6702 1719 Z" style="fill:none; fill-rule:evenodd;"
      /><path d="M1308.2085 1719 L1308.2085 1694.801 L1338.3615 1694.801 L1338.3615 1719 Z" style="fill:none; fill-rule:evenodd;"
      /><path d="M1345.8998 1719 L1345.8998 1696.0934 L1376.0527 1696.0934 L1376.0527 1719 Z" style="fill:none; fill-rule:evenodd;"
      /><path d="M1383.5911 1719 L1383.5911 1697.371 L1413.744 1697.371 L1413.744 1719 Z" style="fill:none; fill-rule:evenodd;"
      /><path d="M1421.2823 1719 L1421.2823 1698.9657 L1451.4353 1698.9657 L1451.4353 1719 Z" style="fill:none; fill-rule:evenodd;"
      /><path d="M1458.9736 1719 L1458.9736 1701.2592 L1489.1266 1701.2592 L1489.1266 1719 Z" style="fill:none; fill-rule:evenodd;"
      /><path d="M1496.6649 1719 L1496.6649 1703.6982 L1526.8179 1703.6982 L1526.8179 1719 Z" style="fill:none; fill-rule:evenodd;"
      /><path d="M1534.3562 1719 L1534.3562 1705.8948 L1564.5093 1705.8948 L1564.5093 1719 Z" style="fill:none; fill-rule:evenodd;"
      /><path d="M1572.0475 1719 L1572.0475 1707.8837 L1602.2006 1707.8837 L1602.2006 1719 Z" style="fill:none; fill-rule:evenodd;"
      /><path d="M1609.7388 1719 L1609.7388 1709.6781 L1639.8918 1709.6781 L1639.8918 1719 Z" style="fill:none; fill-rule:evenodd;"
      /><path d="M1647.4301 1719 L1647.4301 1711.2378 L1677.5831 1711.2378 L1677.5831 1719 Z" style="fill:none; fill-rule:evenodd;"
      /><path d="M1685.1213 1719 L1685.1213 1712.5155 L1715.2744 1712.5155 L1715.2744 1719 Z" style="fill:none; fill-rule:evenodd;"
      /><path d="M1722.8126 1719 L1722.8126 1713.4613 L1752.9657 1713.4613 L1752.9657 1719 Z" style="fill:none; fill-rule:evenodd;"
      /><path d="M1760.5039 1719 L1760.5039 1714.0302 L1790.6571 1714.0302 L1790.6571 1719 Z" style="fill:none; fill-rule:evenodd;"
      /><path d="M1798.1952 1719 L1798.1952 1714.1709 L1828.3484 1714.1709 L1828.3484 1719 Z" style="fill:none; fill-rule:evenodd;"
      /><path d="M1835.8865 1719 L1835.8865 1713.8304 L1866.0397 1713.8304 L1866.0397 1719 Z" style="fill:none; fill-rule:evenodd;"
      /><path d="M1873.5778 1719 L1873.5778 1712.9478 L1903.731 1712.9478 L1903.731 1719 Z" style="fill:none; fill-rule:evenodd;"
      /><path d="M1911.269 1719 L1911.269 1711.4536 L1941.4222 1711.4536 L1941.4222 1719 Z" style="fill:none; fill-rule:evenodd;"
      /><path d="M1948.9603 1719 L1948.9603 1709.2812 L1979.1135 1709.2812 L1979.1135 1719 Z" style="fill:none; fill-rule:evenodd;"
      /><path d="M1986.6516 1719 L1986.6516 1706.3629 L2016.8048 1706.3629 L2016.8048 1719 Z" style="fill:none; fill-rule:evenodd;"
      /><path d="M2024.3429 1719 L2024.3429 1702.6537 L2054.4961 1702.6537 L2054.4961 1719 Z" style="fill:none; fill-rule:evenodd;"
      /><path d="M2062.0342 1719 L2062.0342 1698.1512 L2092.1875 1698.1512 L2092.1875 1719 Z" style="fill:none; fill-rule:evenodd;"
      /><path d="M2099.7256 1719 L2099.7256 1692.9429 L2129.8787 1692.9429 L2129.8787 1719 Z" style="fill:none; fill-rule:evenodd;"
      /><path d="M2137.4167 1719 L2137.4167 1687.1732 L2167.5701 1687.1732 L2167.5701 1719 Z" style="fill:none; fill-rule:evenodd;"
      /><path d="M2175.1082 1719 L2175.1082 1681.157 L2205.2612 1681.157 L2205.2612 1719 Z" style="fill:none; fill-rule:evenodd;"
      /><path d="M2212.7993 1719 L2212.7993 1675.2531 L2242.9526 1675.2531 L2242.9526 1719 Z" style="fill:none; fill-rule:evenodd;"
      /><path d="M2250.4907 1719 L2250.4907 1669.943 L2280.6438 1669.943 L2280.6438 1719 Z" style="fill:none; fill-rule:evenodd;"
      /><path d="M2288.1819 1719 L2288.1819 1665.8328 L2318.3352 1665.8328 L2318.3352 1719 Z" style="fill:none; fill-rule:evenodd;"
      /><path d="M2325.8733 1719 L2325.8733 1663.7321 L2356.0264 1663.7321 L2356.0264 1719 Z" style="fill:none; fill-rule:evenodd;"
      /><path d="M2363.5647 1719 L2363.5647 1664.068 L2393.7178 1664.068 L2393.7178 1719 Z" style="fill:none; fill-rule:evenodd;"
      /><path d="M2401.2559 1719 L2401.2559 1666.4756 L2431.4089 1666.4756 L2431.4089 1719 Z" style="fill:none; fill-rule:evenodd;"
      /><path d="M2438.9473 1719 L2438.9473 1670.1042 L2469.1003 1670.1042 L2469.1003 1719 Z" style="fill:none; fill-rule:evenodd;"
      /><path d="M2476.6384 1719 L2476.6384 1674.4908 L2506.7915 1674.4908 L2506.7915 1719 Z" style="fill:none; fill-rule:evenodd;"
      /><path d="M2514.3298 1719 L2514.3298 1679.2944 L2544.4829 1679.2944 L2544.4829 1719 Z" style="fill:none; fill-rule:evenodd;"
      /><path d="M2552.021 1719 L2552.021 1684.2438 L2582.1743 1684.2438 L2582.1743 1719 Z" style="fill:none; fill-rule:evenodd;"
      /><path d="M2589.7124 1719 L2589.7124 1689.1288 L2619.8655 1689.1288 L2619.8655 1719 Z" style="fill:none; fill-rule:evenodd;"
      /><path d="M2627.4036 1719 L2627.4036 1693.788 L2657.5569 1693.788 L2657.5569 1719 Z" style="fill:none; fill-rule:evenodd;"
      /><path d="M2665.095 1719 L2665.095 1698.1029 L2695.248 1698.1029 L2695.248 1719 Z" style="fill:none; fill-rule:evenodd;"
      /><path d="M2702.7861 1719 L2702.7861 1701.9926 L2732.9395 1701.9926 L2732.9395 1719 Z" style="fill:none; fill-rule:evenodd;"
      /><path d="M2740.4775 1719 L2740.4775 1705.4105 L2770.6306 1705.4105 L2770.6306 1719 Z" style="fill:none; fill-rule:evenodd;"
      /><path d="M2778.1687 1719 L2778.1687 1708.3405 L2808.322 1708.3405 L2808.322 1719 Z" style="fill:none; fill-rule:evenodd;"
      /><path d="M2815.8601 1719 L2815.8601 1710.7922 L2846.0132 1710.7922 L2846.0132 1719 Z" style="fill:none; fill-rule:evenodd;"
      /><path d="M2853.5515 1719 L2853.5515 1712.7957 L2883.7046 1712.7957 L2883.7046 1719 Z" style="fill:none; fill-rule:evenodd;"
      /><path d="M2891.2427 1719 L2891.2427 1714.3954 L2921.3958 1714.3954 L2921.3958 1719 Z" style="fill:none; fill-rule:evenodd;"
      /><path d="M2928.9341 1719 L2928.9341 1715.6442 L2959.0872 1715.6442 L2959.0872 1719 Z" style="fill:none; fill-rule:evenodd;"
      /><path d="M2966.6252 1719 L2966.6252 1716.5975 L2996.7783 1716.5975 L2996.7783 1719 Z" style="fill:none; fill-rule:evenodd;"
      /><path d="M3004.3167 1719 L3004.3167 1717.3102 L3034.4697 1717.3102 L3034.4697 1719 Z" style="fill:none; fill-rule:evenodd;"
      /><path d="M3042.0078 1719 L3042.0078 1717.8317 L3072.1609 1717.8317 L3072.1609 1719 Z" style="fill:none; fill-rule:evenodd;"
      /><path d="M3079.6992 1719 L3079.6992 1718.2058 L3109.8523 1718.2058 L3109.8523 1719 Z" style="fill:none; fill-rule:evenodd;"
      /><path d="M3117.3904 1719 L3117.3904 1718.469 L3147.5437 1718.469 L3147.5437 1719 Z" style="fill:none; fill-rule:evenodd;"
      /><path d="M3155.0818 1719 L3155.0818 1718.6508 L3185.2349 1718.6508 L3185.2349 1719 Z" style="fill:none; fill-rule:evenodd;"
      /><path d="M3192.7729 1719 L3192.7729 1718.7738 L3222.9263 1718.7738 L3222.9263 1719 Z" style="fill:none; fill-rule:evenodd;"
      /><path d="M3230.4644 1719 L3230.4644 1718.8558 L3260.6174 1718.8558 L3260.6174 1719 Z" style="fill:none; fill-rule:evenodd;"
      /><path d="M3268.1555 1719 L3268.1555 1718.9094 L3298.3088 1718.9094 L3298.3088 1719 Z" style="fill:none; fill-rule:evenodd;"
      /><path d="M3305.8469 1719 L3305.8469 1718.8607 L3336 1718.8607 L3336 1719 Z" style="fill:none; fill-rule:evenodd;"
    /></g
    ><g style="fill:rgb(38,38,38); text-rendering:geometricPrecision; color-rendering:optimizeQuality; image-rendering:optimizeQuality; stroke-linejoin:round; stroke:rgb(38,38,38); color-interpolation:linearRGB;"
    ><line y2="1719" style="fill:none;" x1="479" x2="3336" y1="1719"
      /><line y2="145" style="fill:none;" x1="479" x2="3336" y1="145"
      /><line y2="1690.4301" style="fill:none;" x1="494.0765" x2="494.0765" y1="1719"
      /><line y2="1690.4301" style="fill:none;" x1="870.9894" x2="870.9894" y1="1719"
      /><line y2="1690.4301" style="fill:none;" x1="1247.9023" x2="1247.9023" y1="1719"
      /><line y2="1690.4301" style="fill:none;" x1="1624.8153" x2="1624.8153" y1="1719"
      /><line y2="1690.4301" style="fill:none;" x1="2001.7283" x2="2001.7283" y1="1719"
      /><line y2="1690.4301" style="fill:none;" x1="2378.6411" x2="2378.6411" y1="1719"
      /><line y2="1690.4301" style="fill:none;" x1="2755.5542" x2="2755.5542" y1="1719"
      /><line y2="1690.4301" style="fill:none;" x1="3132.467" x2="3132.467" y1="1719"
      /><line y2="173.57" style="fill:none;" x1="494.0765" x2="494.0765" y1="145"
      /><line y2="173.57" style="fill:none;" x1="870.9894" x2="870.9894" y1="145"
      /><line y2="173.57" style="fill:none;" x1="1247.9023" x2="1247.9023" y1="145"
      /><line y2="173.57" style="fill:none;" x1="1624.8153" x2="1624.8153" y1="145"
      /><line y2="173.57" style="fill:none;" x1="2001.7283" x2="2001.7283" y1="145"
      /><line y2="173.57" style="fill:none;" x1="2378.6411" x2="2378.6411" y1="145"
      /><line y2="173.57" style="fill:none;" x1="2755.5542" x2="2755.5542" y1="145"
      /><line y2="173.57" style="fill:none;" x1="3132.467" x2="3132.467" y1="145"
    /></g
    ><g transform="translate(494.0765,1727)" style="font-size:20px; fill:rgb(38,38,38); text-rendering:geometricPrecision; image-rendering:optimizeQuality; color-rendering:optimizeQuality; font-family:'SansSerif'; stroke:rgb(38,38,38); color-interpolation:linearRGB;"
    ><path style="stroke:none;" d="M-0.1406 5.7188 Q-1.6719 5.7188 -2.4375 7.2188 Q-3.2031 8.7188 -3.2031 11.7188 Q-3.2031 14.7188 -2.4375 16.2188 Q-1.6719 17.7188 -0.1406 17.7188 Q1.3906 17.7188 2.1562 16.2188 Q2.9219 14.7188 2.9219 11.7188 Q2.9219 8.7188 2.1562 7.2188 Q1.3906 5.7188 -0.1406 5.7188 ZM-0.1406 4.1562 Q2.3125 4.1562 3.6016 6.0938 Q4.8906 8.0312 4.8906 11.7188 Q4.8906 15.4062 3.6016 17.3438 Q2.3125 19.2812 -0.1406 19.2812 Q-2.5938 19.2812 -3.8906 17.3438 Q-5.1875 15.4062 -5.1875 11.7188 Q-5.1875 8.0312 -3.8906 6.0938 Q-2.5938 4.1562 -0.1406 4.1562 Z"
    /></g
    ><g transform="translate(870.9894,1727)" style="font-size:20px; fill:rgb(38,38,38); text-rendering:geometricPrecision; image-rendering:optimizeQuality; color-rendering:optimizeQuality; font-family:'SansSerif'; stroke:rgb(38,38,38); color-interpolation:linearRGB;"
    ><path style="stroke:none;" d="M-10.5156 17.3438 L-7.2969 17.3438 L-7.2969 6.2188 L-10.7969 6.9219 L-10.7969 5.125 L-7.3125 4.4219 L-5.3438 4.4219 L-5.3438 17.3438 L-2.125 17.3438 L-2.125 19 L-10.5156 19 L-10.5156 17.3438 ZM6.084 5.7188 Q4.5527 5.7188 3.7871 7.2188 Q3.0215 8.7188 3.0215 11.7188 Q3.0215 14.7188 3.7871 16.2188 Q4.5527 17.7188 6.084 17.7188 Q7.6152 17.7188 8.3809 16.2188 Q9.1465 14.7188 9.1465 11.7188 Q9.1465 8.7188 8.3809 7.2188 Q7.6152 5.7188 6.084 5.7188 ZM6.084 4.1562 Q8.5371 4.1562 9.8262 6.0938 Q11.1152 8.0312 11.1152 11.7188 Q11.1152 15.4062 9.8262 17.3438 Q8.5371 19.2812 6.084 19.2812 Q3.6309 19.2812 2.334 17.3438 Q1.0371 15.4062 1.0371 11.7188 Q1.0371 8.0312 2.334 6.0938 Q3.6309 4.1562 6.084 4.1562 Z"
    /></g
    ><g transform="translate(1247.9023,1727)" style="font-size:20px; fill:rgb(38,38,38); text-rendering:geometricPrecision; image-rendering:optimizeQuality; color-rendering:optimizeQuality; font-family:'SansSerif'; stroke:rgb(38,38,38); color-interpolation:linearRGB;"
    ><path style="stroke:none;" d="M-9.1562 17.3438 L-2.2812 17.3438 L-2.2812 19 L-11.5312 19 L-11.5312 17.3438 Q-10.4062 16.1719 -8.4688 14.2188 Q-6.5312 12.2656 -6.0312 11.6875 Q-5.0938 10.625 -4.7188 9.8906 Q-4.3438 9.1562 -4.3438 8.4375 Q-4.3438 7.2812 -5.1562 6.5469 Q-5.9688 5.8125 -7.2812 5.8125 Q-8.2031 5.8125 -9.2344 6.1328 Q-10.2656 6.4531 -11.4375 7.1094 L-11.4375 5.125 Q-10.25 4.6406 -9.2109 4.3984 Q-8.1719 4.1562 -7.3125 4.1562 Q-5.0469 4.1562 -3.7031 5.2891 Q-2.3594 6.4219 -2.3594 8.3125 Q-2.3594 9.2188 -2.6953 10.0234 Q-3.0312 10.8281 -3.9219 11.9219 Q-4.1562 12.2031 -5.4688 13.5547 Q-6.7812 14.9062 -9.1562 17.3438 ZM6.084 5.7188 Q4.5527 5.7188 3.7871 7.2188 Q3.0215 8.7188 3.0215 11.7188 Q3.0215 14.7188 3.7871 16.2188 Q4.5527 17.7188 6.084 17.7188 Q7.6152 17.7188 8.3809 16.2188 Q9.1465 14.7188 9.1465 11.7188 Q9.1465 8.7188 8.3809 7.2188 Q7.6152 5.7188 6.084 5.7188 ZM6.084 4.1562 Q8.5371 4.1562 9.8262 6.0938 Q11.1152 8.0312 11.1152 11.7188 Q11.1152 15.4062 9.8262 17.3438 Q8.5371 19.2812 6.084 19.2812 Q3.6309 19.2812 2.334 17.3438 Q1.0371 15.4062 1.0371 11.7188 Q1.0371 8.0312 2.334 6.0938 Q3.6309 4.1562 6.084 4.1562 Z"
    /></g
    ><g transform="translate(1624.8153,1727)" style="font-size:20px; fill:rgb(38,38,38); text-rendering:geometricPrecision; image-rendering:optimizeQuality; color-rendering:optimizeQuality; font-family:'SansSerif'; stroke:rgb(38,38,38); color-interpolation:linearRGB;"
    ><path style="stroke:none;" d="M-4.8906 11.1406 Q-3.4688 11.4375 -2.6719 12.3984 Q-1.875 13.3594 -1.875 14.7656 Q-1.875 16.9219 -3.3594 18.1016 Q-4.8438 19.2812 -7.5781 19.2812 Q-8.5 19.2812 -9.4688 19.1016 Q-10.4375 18.9219 -11.4688 18.5625 L-11.4688 16.6562 Q-10.6562 17.1406 -9.6797 17.3828 Q-8.7031 17.625 -7.6406 17.625 Q-5.7812 17.625 -4.8125 16.8906 Q-3.8438 16.1562 -3.8438 14.7656 Q-3.8438 13.4688 -4.7422 12.7422 Q-5.6406 12.0156 -7.25 12.0156 L-8.9531 12.0156 L-8.9531 10.3906 L-7.1719 10.3906 Q-5.7188 10.3906 -4.9531 9.8125 Q-4.1875 9.2344 -4.1875 8.1406 Q-4.1875 7.0156 -4.9766 6.4141 Q-5.7656 5.8125 -7.25 5.8125 Q-8.0625 5.8125 -8.9922 5.9922 Q-9.9219 6.1719 -11.0312 6.5312 L-11.0312 4.7812 Q-9.9062 4.4688 -8.9297 4.3125 Q-7.9531 4.1562 -7.0781 4.1562 Q-4.8281 4.1562 -3.5234 5.1797 Q-2.2188 6.2031 -2.2188 7.9375 Q-2.2188 9.1406 -2.9141 9.9766 Q-3.6094 10.8125 -4.8906 11.1406 ZM6.084 5.7188 Q4.5527 5.7188 3.7871 7.2188 Q3.0215 8.7188 3.0215 11.7188 Q3.0215 14.7188 3.7871 16.2188 Q4.5527 17.7188 6.084 17.7188 Q7.6152 17.7188 8.3809 16.2188 Q9.1465 14.7188 9.1465 11.7188 Q9.1465 8.7188 8.3809 7.2188 Q7.6152 5.7188 6.084 5.7188 ZM6.084 4.1562 Q8.5371 4.1562 9.8262 6.0938 Q11.1152 8.0312 11.1152 11.7188 Q11.1152 15.4062 9.8262 17.3438 Q8.5371 19.2812 6.084 19.2812 Q3.6309 19.2812 2.334 17.3438 Q1.0371 15.4062 1.0371 11.7188 Q1.0371 8.0312 2.334 6.0938 Q3.6309 4.1562 6.084 4.1562 Z"
    /></g
    ><g transform="translate(2001.7283,1727)" style="font-size:20px; fill:rgb(38,38,38); text-rendering:geometricPrecision; image-rendering:optimizeQuality; color-rendering:optimizeQuality; font-family:'SansSerif'; stroke:rgb(38,38,38); color-interpolation:linearRGB;"
    ><path style="stroke:none;" d="M-5.4375 6.1406 L-10.4219 13.9219 L-5.4375 13.9219 L-5.4375 6.1406 ZM-5.9531 4.4219 L-3.4844 4.4219 L-3.4844 13.9219 L-1.3906 13.9219 L-1.3906 15.5625 L-3.4844 15.5625 L-3.4844 19 L-5.4375 19 L-5.4375 15.5625 L-12.0156 15.5625 L-12.0156 13.6562 L-5.9531 4.4219 ZM6.084 5.7188 Q4.5527 5.7188 3.7871 7.2188 Q3.0215 8.7188 3.0215 11.7188 Q3.0215 14.7188 3.7871 16.2188 Q4.5527 17.7188 6.084 17.7188 Q7.6152 17.7188 8.3809 16.2188 Q9.1465 14.7188 9.1465 11.7188 Q9.1465 8.7188 8.3809 7.2188 Q7.6152 5.7188 6.084 5.7188 ZM6.084 4.1562 Q8.5371 4.1562 9.8262 6.0938 Q11.1152 8.0312 11.1152 11.7188 Q11.1152 15.4062 9.8262 17.3438 Q8.5371 19.2812 6.084 19.2812 Q3.6309 19.2812 2.334 17.3438 Q1.0371 15.4062 1.0371 11.7188 Q1.0371 8.0312 2.334 6.0938 Q3.6309 4.1562 6.084 4.1562 Z"
    /></g
    ><g transform="translate(2378.6411,1727)" style="font-size:20px; fill:rgb(38,38,38); text-rendering:geometricPrecision; image-rendering:optimizeQuality; color-rendering:optimizeQuality; font-family:'SansSerif'; stroke:rgb(38,38,38); color-interpolation:linearRGB;"
    ><path style="stroke:none;" d="M-10.8438 4.4219 L-3.0938 4.4219 L-3.0938 6.0781 L-9.0312 6.0781 L-9.0312 9.6562 Q-8.6094 9.5 -8.1797 9.4297 Q-7.75 9.3594 -7.3125 9.3594 Q-4.875 9.3594 -3.4453 10.6953 Q-2.0156 12.0312 -2.0156 14.3281 Q-2.0156 16.6719 -3.4844 17.9766 Q-4.9531 19.2812 -7.625 19.2812 Q-8.5312 19.2812 -9.4844 19.125 Q-10.4375 18.9688 -11.4531 18.6562 L-11.4531 16.6719 Q-10.5781 17.1562 -9.6406 17.3906 Q-8.7031 17.625 -7.6562 17.625 Q-5.9688 17.625 -4.9844 16.7344 Q-4 15.8438 -4 14.3281 Q-4 12.7969 -4.9844 11.9062 Q-5.9688 11.0156 -7.6562 11.0156 Q-8.4531 11.0156 -9.2344 11.1953 Q-10.0156 11.375 -10.8438 11.75 L-10.8438 4.4219 ZM6.084 5.7188 Q4.5527 5.7188 3.7871 7.2188 Q3.0215 8.7188 3.0215 11.7188 Q3.0215 14.7188 3.7871 16.2188 Q4.5527 17.7188 6.084 17.7188 Q7.6152 17.7188 8.3809 16.2188 Q9.1465 14.7188 9.1465 11.7188 Q9.1465 8.7188 8.3809 7.2188 Q7.6152 5.7188 6.084 5.7188 ZM6.084 4.1562 Q8.5371 4.1562 9.8262 6.0938 Q11.1152 8.0312 11.1152 11.7188 Q11.1152 15.4062 9.8262 17.3438 Q8.5371 19.2812 6.084 19.2812 Q3.6309 19.2812 2.334 17.3438 Q1.0371 15.4062 1.0371 11.7188 Q1.0371 8.0312 2.334 6.0938 Q3.6309 4.1562 6.084 4.1562 Z"
    /></g
    ><g transform="translate(2755.5542,1727)" style="font-size:20px; fill:rgb(38,38,38); text-rendering:geometricPrecision; image-rendering:optimizeQuality; color-rendering:optimizeQuality; font-family:'SansSerif'; stroke:rgb(38,38,38); color-interpolation:linearRGB;"
    ><path style="stroke:none;" d="M-6.3906 10.9219 Q-7.7188 10.9219 -8.5 11.8281 Q-9.2812 12.7344 -9.2812 14.3281 Q-9.2812 15.8906 -8.5 16.8047 Q-7.7188 17.7188 -6.3906 17.7188 Q-5.0625 17.7188 -4.2891 16.8047 Q-3.5156 15.8906 -3.5156 14.3281 Q-3.5156 12.7344 -4.2891 11.8281 Q-5.0625 10.9219 -6.3906 10.9219 ZM-2.4844 4.7344 L-2.4844 6.5312 Q-3.2188 6.1875 -3.9766 6 Q-4.7344 5.8125 -5.4844 5.8125 Q-7.4375 5.8125 -8.4688 7.1328 Q-9.5 8.4531 -9.6406 11.125 Q-9.0625 10.2656 -8.1953 9.8125 Q-7.3281 9.3594 -6.2812 9.3594 Q-4.0781 9.3594 -2.8047 10.6953 Q-1.5312 12.0312 -1.5312 14.3281 Q-1.5312 16.5625 -2.8594 17.9219 Q-4.1875 19.2812 -6.3906 19.2812 Q-8.9219 19.2812 -10.2656 17.3438 Q-11.6094 15.4062 -11.6094 11.7188 Q-11.6094 8.2656 -9.9688 6.2109 Q-8.3281 4.1562 -5.5625 4.1562 Q-4.8125 4.1562 -4.0547 4.3047 Q-3.2969 4.4531 -2.4844 4.7344 ZM6.084 5.7188 Q4.5527 5.7188 3.7871 7.2188 Q3.0215 8.7188 3.0215 11.7188 Q3.0215 14.7188 3.7871 16.2188 Q4.5527 17.7188 6.084 17.7188 Q7.6152 17.7188 8.3809 16.2188 Q9.1465 14.7188 9.1465 11.7188 Q9.1465 8.7188 8.3809 7.2188 Q7.6152 5.7188 6.084 5.7188 ZM6.084 4.1562 Q8.5371 4.1562 9.8262 6.0938 Q11.1152 8.0312 11.1152 11.7188 Q11.1152 15.4062 9.8262 17.3438 Q8.5371 19.2812 6.084 19.2812 Q3.6309 19.2812 2.334 17.3438 Q1.0371 15.4062 1.0371 11.7188 Q1.0371 8.0312 2.334 6.0938 Q3.6309 4.1562 6.084 4.1562 Z"
    /></g
    ><g transform="translate(3132.467,1727)" style="font-size:20px; fill:rgb(38,38,38); text-rendering:geometricPrecision; image-rendering:optimizeQuality; color-rendering:optimizeQuality; font-family:'SansSerif'; stroke:rgb(38,38,38); color-interpolation:linearRGB;"
    ><path style="stroke:none;" d="M-11.3594 4.4219 L-1.9844 4.4219 L-1.9844 5.2656 L-7.2812 19 L-9.3438 19 L-4.3594 6.0781 L-11.3594 6.0781 L-11.3594 4.4219 ZM6.084 5.7188 Q4.5527 5.7188 3.7871 7.2188 Q3.0215 8.7188 3.0215 11.7188 Q3.0215 14.7188 3.7871 16.2188 Q4.5527 17.7188 6.084 17.7188 Q7.6152 17.7188 8.3809 16.2188 Q9.1465 14.7188 9.1465 11.7188 Q9.1465 8.7188 8.3809 7.2188 Q7.6152 5.7188 6.084 5.7188 ZM6.084 4.1562 Q8.5371 4.1562 9.8262 6.0938 Q11.1152 8.0312 11.1152 11.7188 Q11.1152 15.4062 9.8262 17.3438 Q8.5371 19.2812 6.084 19.2812 Q3.6309 19.2812 2.334 17.3438 Q1.0371 15.4062 1.0371 11.7188 Q1.0371 8.0312 2.334 6.0938 Q3.6309 4.1562 6.084 4.1562 Z"
    /></g
    ><g transform="translate(1907.5015,1753)" style="font-size:24px; fill:rgb(38,38,38); text-rendering:geometricPrecision; image-rendering:optimizeQuality; color-rendering:optimizeQuality; font-family:'Ubuntu'; stroke:rgb(38,38,38); color-interpolation:linearRGB;"
    ><path style="stroke:none;" d="M-21.125 6.375 Q-21.875 7.1875 -22.8047 8.1797 Q-23.7344 9.1719 -24.7578 10.2188 Q-25.7812 11.2656 -26.7891 12.2734 Q-27.7969 13.2812 -28.6875 14.1406 Q-27.6562 14.8594 -26.5 15.9141 Q-25.3438 16.9688 -24.2422 18.1719 Q-23.1406 19.375 -22.1719 20.625 Q-21.2031 21.875 -20.5469 23 L-23.2812 23 Q-24 21.875 -24.9375 20.7344 Q-25.875 19.5938 -26.9219 18.5469 Q-27.9688 17.5 -29.0312 16.6172 Q-30.0938 15.7344 -31.1094 15.1094 L-31.1094 23 L-33.4375 23 L-33.4375 6.375 L-31.1094 6.375 L-31.1094 13.7188 Q-30.2656 12.9219 -29.2578 11.9219 Q-28.25 10.9219 -27.2656 9.9141 Q-26.2812 8.9062 -25.4062 7.9844 Q-24.5312 7.0625 -23.9375 6.375 L-21.125 6.375 ZM-14.2717 21.3906 Q-13.4748 21.3906 -12.8654 21.3516 Q-12.256 21.3125 -11.8498 21.2188 L-11.8498 17.5 Q-12.0842 17.3906 -12.6232 17.3047 Q-13.1623 17.2188 -13.9279 17.2188 Q-14.4435 17.2188 -15.006 17.2891 Q-15.5685 17.3594 -16.0373 17.5859 Q-16.506 17.8125 -16.8185 18.2109 Q-17.131 18.6094 -17.131 19.25 Q-17.131 20.4531 -16.3576 20.9219 Q-15.5842 21.3906 -14.2717 21.3906 ZM-14.4592 10.2031 Q-13.1154 10.2031 -12.1935 10.5547 Q-11.2717 10.9062 -10.7092 11.5391 Q-10.1467 12.1719 -9.9045 13.0469 Q-9.6623 13.9219 -9.6623 14.9844 L-9.6623 22.7812 Q-9.9435 22.8281 -10.4592 22.9141 Q-10.9748 23 -11.6232 23.0703 Q-12.2717 23.1406 -13.0295 23.2031 Q-13.7873 23.2656 -14.5373 23.2656 Q-15.5842 23.2656 -16.4748 23.0469 Q-17.3654 22.8281 -18.0139 22.3594 Q-18.6623 21.8906 -19.0217 21.125 Q-19.381 20.3594 -19.381 19.2812 Q-19.381 18.25 -18.9592 17.5078 Q-18.5373 16.7656 -17.8185 16.3047 Q-17.0998 15.8438 -16.1389 15.6328 Q-15.1779 15.4219 -14.131 15.4219 Q-13.7873 15.4219 -13.4279 15.4531 Q-13.0685 15.4844 -12.7482 15.5469 Q-12.4279 15.6094 -12.1857 15.6562 Q-11.9435 15.7031 -11.8498 15.7344 L-11.8498 15.1094 Q-11.8498 14.5469 -11.967 14.0078 Q-12.0842 13.4688 -12.3967 13.0469 Q-12.7092 12.625 -13.2482 12.375 Q-13.7873 12.125 -14.6467 12.125 Q-15.756 12.125 -16.5842 12.2812 Q-17.4123 12.4375 -17.8185 12.6094 L-18.0842 10.7656 Q-17.6467 10.5625 -16.6389 10.3828 Q-15.631 10.2031 -14.4592 10.2031 ZM-1.3599 10.25 Q-1.0787 10.25 -0.7037 10.2891 Q-0.3287 10.3281 0.0307 10.3906 Q0.3901 10.4531 0.687 10.5078 Q0.9838 10.5625 1.1401 10.6094 L0.7495 12.5625 Q0.4838 12.4688 -0.1255 12.3359 Q-0.7349 12.2031 -1.7037 12.2031 Q-2.3287 12.2031 -2.938 12.3359 Q-3.5474 12.4688 -3.7349 12.5156 L-3.7349 23 L-5.9693 23 L-5.9693 11.0469 Q-5.1724 10.7656 -4.0005 10.5078 Q-2.8287 10.25 -1.3599 10.25 ZM3.2896 10.875 Q4.0552 10.6875 5.313 10.4688 Q6.5709 10.25 8.2271 10.25 Q9.4302 10.25 10.2505 10.5781 Q11.0709 10.9062 11.6177 11.5312 Q11.7896 11.4062 12.149 11.1875 Q12.5084 10.9688 13.0318 10.7656 Q13.5552 10.5625 14.2037 10.4062 Q14.8521 10.25 15.6021 10.25 Q17.0396 10.25 17.9537 10.6719 Q18.8677 11.0938 19.3834 11.8594 Q19.899 12.625 20.0787 13.6875 Q20.2584 14.75 20.2584 15.9844 L20.2584 23 L18.024 23 L18.024 16.4688 Q18.024 15.375 17.9146 14.5781 Q17.8052 13.7812 17.5084 13.2578 Q17.2115 12.7344 16.6959 12.4766 Q16.1802 12.2188 15.3521 12.2188 Q14.2271 12.2188 13.5005 12.5234 Q12.774 12.8281 12.5084 13.0625 Q12.6959 13.6875 12.7896 14.4297 Q12.8834 15.1719 12.8834 15.9844 L12.8834 23 L10.649 23 L10.649 16.4688 Q10.649 15.375 10.5318 14.5781 Q10.4146 13.7812 10.1177 13.2578 Q9.8209 12.7344 9.3052 12.4766 Q8.7896 12.2188 7.9927 12.2188 Q7.649 12.2188 7.2662 12.2422 Q6.8834 12.2656 6.5396 12.3047 Q6.1959 12.3438 5.9068 12.3906 Q5.6177 12.4375 5.524 12.4688 L5.524 23 L3.2896 23 L3.2896 10.875 ZM28.161 21.3906 Q28.9579 21.3906 29.5673 21.3516 Q30.1766 21.3125 30.5829 21.2188 L30.5829 17.5 Q30.3485 17.3906 29.8094 17.3047 Q29.2704 17.2188 28.5048 17.2188 Q27.9891 17.2188 27.4266 17.2891 Q26.8641 17.3594 26.3954 17.5859 Q25.9266 17.8125 25.6141 18.2109 Q25.3016 18.6094 25.3016 19.25 Q25.3016 20.4531 26.0751 20.9219 Q26.8485 21.3906 28.161 21.3906 ZM27.9735 10.2031 Q29.3173 10.2031 30.2391 10.5547 Q31.161 10.9062 31.7235 11.5391 Q32.286 12.1719 32.5282 13.0469 Q32.7704 13.9219 32.7704 14.9844 L32.7704 22.7812 Q32.4891 22.8281 31.9735 22.9141 Q31.4579 23 30.8094 23.0703 Q30.161 23.1406 29.4032 23.2031 Q28.6454 23.2656 27.8954 23.2656 Q26.8485 23.2656 25.9579 23.0469 Q25.0673 22.8281 24.4188 22.3594 Q23.7704 21.8906 23.411 21.125 Q23.0516 20.3594 23.0516 19.2812 Q23.0516 18.25 23.4735 17.5078 Q23.8954 16.7656 24.6141 16.3047 Q25.3329 15.8438 26.2938 15.6328 Q27.2548 15.4219 28.3016 15.4219 Q28.6454 15.4219 29.0048 15.4531 Q29.3641 15.4844 29.6844 15.5469 Q30.0048 15.6094 30.2469 15.6562 Q30.4891 15.7031 30.5829 15.7344 L30.5829 15.1094 Q30.5829 14.5469 30.4657 14.0078 Q30.3485 13.4688 30.036 13.0469 Q29.7235 12.625 29.1844 12.375 Q28.6454 12.125 27.786 12.125 Q26.6766 12.125 25.8485 12.2812 Q25.0204 12.4375 24.6141 12.6094 L24.3485 10.7656 Q24.786 10.5625 25.7938 10.3828 Q26.8016 10.2031 27.9735 10.2031 Z"
    /></g
    ><g style="fill:rgb(38,38,38); text-rendering:geometricPrecision; color-rendering:optimizeQuality; image-rendering:optimizeQuality; stroke-linejoin:round; stroke:rgb(38,38,38); color-interpolation:linearRGB;"
    ><line y2="145" style="fill:none;" x1="479" x2="479" y1="1719"
      /><line y2="145" style="fill:none;" x1="3336" x2="3336" y1="1719"
      /><line y2="1719" style="fill:none;" x1="479" x2="507.57" y1="1719"
      /><line y2="1574.161" style="fill:none;" x1="479" x2="507.57" y1="1574.161"
      /><line y2="1429.3221" style="fill:none;" x1="479" x2="507.57" y1="1429.3221"
      /><line y2="1284.4832" style="fill:none;" x1="479" x2="507.57" y1="1284.4832"
      /><line y2="1139.6442" style="fill:none;" x1="479" x2="507.57" y1="1139.6442"
      /><line y2="994.8052" style="fill:none;" x1="479" x2="507.57" y1="994.8052"
      /><line y2="849.9663" style="fill:none;" x1="479" x2="507.57" y1="849.9663"
      /><line y2="705.1273" style="fill:none;" x1="479" x2="507.57" y1="705.1273"
      /><line y2="560.2884" style="fill:none;" x1="479" x2="507.57" y1="560.2884"
      /><line y2="415.4493" style="fill:none;" x1="479" x2="507.57" y1="415.4493"
      /><line y2="270.6104" style="fill:none;" x1="479" x2="507.57" y1="270.6104"
      /><line y2="1719" style="fill:none;" x1="3336" x2="3307.4299" y1="1719"
      /><line y2="1574.161" style="fill:none;" x1="3336" x2="3307.4299" y1="1574.161"
      /><line y2="1429.3221" style="fill:none;" x1="3336" x2="3307.4299" y1="1429.3221"
      /><line y2="1284.4832" style="fill:none;" x1="3336" x2="3307.4299" y1="1284.4832"
      /><line y2="1139.6442" style="fill:none;" x1="3336" x2="3307.4299" y1="1139.6442"
      /><line y2="994.8052" style="fill:none;" x1="3336" x2="3307.4299" y1="994.8052"
      /><line y2="849.9663" style="fill:none;" x1="3336" x2="3307.4299" y1="849.9663"
      /><line y2="705.1273" style="fill:none;" x1="3336" x2="3307.4299" y1="705.1273"
      /><line y2="560.2884" style="fill:none;" x1="3336" x2="3307.4299" y1="560.2884"
      /><line y2="415.4493" style="fill:none;" x1="3336" x2="3307.4299" y1="415.4493"
      /><line y2="270.6104" style="fill:none;" x1="3336" x2="3307.4299" y1="270.6104"
    /></g
    ><g transform="translate(471,1719)" style="font-size:20px; fill:rgb(38,38,38); text-rendering:geometricPrecision; image-rendering:optimizeQuality; color-rendering:optimizeQuality; font-family:'SansSerif'; stroke:rgb(38,38,38); color-interpolation:linearRGB;"
    ><path style="stroke:none;" d="M-6.6406 -6.2812 Q-8.1719 -6.2812 -8.9375 -4.7812 Q-9.7031 -3.2812 -9.7031 -0.2812 Q-9.7031 2.7188 -8.9375 4.2188 Q-8.1719 5.7188 -6.6406 5.7188 Q-5.1094 5.7188 -4.3438 4.2188 Q-3.5781 2.7188 -3.5781 -0.2812 Q-3.5781 -3.2812 -4.3438 -4.7812 Q-5.1094 -6.2812 -6.6406 -6.2812 ZM-6.6406 -7.8438 Q-4.1875 -7.8438 -2.8984 -5.9062 Q-1.6094 -3.9688 -1.6094 -0.2812 Q-1.6094 3.4062 -2.8984 5.3438 Q-4.1875 7.2812 -6.6406 7.2812 Q-9.0938 7.2812 -10.3906 5.3438 Q-11.6875 3.4062 -11.6875 -0.2812 Q-11.6875 -3.9688 -10.3906 -5.9062 Q-9.0938 -7.8438 -6.6406 -7.8438 Z"
    /></g
    ><g transform="translate(471,1574.161)" style="font-size:20px; fill:rgb(38,38,38); text-rendering:geometricPrecision; image-rendering:optimizeQuality; color-rendering:optimizeQuality; font-family:'SansSerif'; stroke:rgb(38,38,38); color-interpolation:linearRGB;"
    ><path style="stroke:none;" d="M-38.6406 -6.2812 Q-40.1719 -6.2812 -40.9375 -4.7812 Q-41.7031 -3.2812 -41.7031 -0.2812 Q-41.7031 2.7188 -40.9375 4.2188 Q-40.1719 5.7188 -38.6406 5.7188 Q-37.1094 5.7188 -36.3438 4.2188 Q-35.5781 2.7188 -35.5781 -0.2812 Q-35.5781 -3.2812 -36.3438 -4.7812 Q-37.1094 -6.2812 -38.6406 -6.2812 ZM-38.6406 -7.8438 Q-36.1875 -7.8438 -34.8984 -5.9062 Q-33.6094 -3.9688 -33.6094 -0.2812 Q-33.6094 3.4062 -34.8984 5.3438 Q-36.1875 7.2812 -38.6406 7.2812 Q-41.0938 7.2812 -42.3906 5.3438 Q-43.6875 3.4062 -43.6875 -0.2812 Q-43.6875 -3.9688 -42.3906 -5.9062 Q-41.0938 -7.8438 -38.6406 -7.8438 ZM-30.1348 4.5156 L-28.0723 4.5156 L-28.0723 7 L-30.1348 7 L-30.1348 4.5156 ZM-19.5586 -6.2812 Q-21.0898 -6.2812 -21.8555 -4.7812 Q-22.6211 -3.2812 -22.6211 -0.2812 Q-22.6211 2.7188 -21.8555 4.2188 Q-21.0898 5.7188 -19.5586 5.7188 Q-18.0273 5.7188 -17.2617 4.2188 Q-16.4961 2.7188 -16.4961 -0.2812 Q-16.4961 -3.2812 -17.2617 -4.7812 Q-18.0273 -6.2812 -19.5586 -6.2812 ZM-19.5586 -7.8438 Q-17.1055 -7.8438 -15.8164 -5.9062 Q-14.5273 -3.9688 -14.5273 -0.2812 Q-14.5273 3.4062 -15.8164 5.3438 Q-17.1055 7.2812 -19.5586 7.2812 Q-22.0117 7.2812 -23.3086 5.3438 Q-24.6055 3.4062 -24.6055 -0.2812 Q-24.6055 -3.9688 -23.3086 -5.9062 Q-22.0117 -7.8438 -19.5586 -7.8438 ZM-9.3496 5.3438 L-2.4746 5.3438 L-2.4746 7 L-11.7246 7 L-11.7246 5.3438 Q-10.5996 4.1719 -8.6621 2.2188 Q-6.7246 0.2656 -6.2246 -0.3125 Q-5.2871 -1.375 -4.9121 -2.1094 Q-4.5371 -2.8438 -4.5371 -3.5625 Q-4.5371 -4.7188 -5.3496 -5.4531 Q-6.1621 -6.1875 -7.4746 -6.1875 Q-8.3965 -6.1875 -9.4277 -5.8672 Q-10.459 -5.5469 -11.6309 -4.8906 L-11.6309 -6.875 Q-10.4434 -7.3594 -9.4043 -7.6016 Q-8.3652 -7.8438 -7.5059 -7.8438 Q-5.2402 -7.8438 -3.8965 -6.7109 Q-2.5527 -5.5781 -2.5527 -3.6875 Q-2.5527 -2.7812 -2.8887 -1.9766 Q-3.2246 -1.1719 -4.1152 -0.0781 Q-4.3496 0.2031 -5.6621 1.5547 Q-6.9746 2.9062 -9.3496 5.3438 Z"
    /></g
    ><g transform="translate(471,1429.3221)" style="font-size:20px; fill:rgb(38,38,38); text-rendering:geometricPrecision; image-rendering:optimizeQuality; color-rendering:optimizeQuality; font-family:'SansSerif'; stroke:rgb(38,38,38); color-interpolation:linearRGB;"
    ><path style="stroke:none;" d="M-38.6406 -6.2812 Q-40.1719 -6.2812 -40.9375 -4.7812 Q-41.7031 -3.2812 -41.7031 -0.2812 Q-41.7031 2.7188 -40.9375 4.2188 Q-40.1719 5.7188 -38.6406 5.7188 Q-37.1094 5.7188 -36.3438 4.2188 Q-35.5781 2.7188 -35.5781 -0.2812 Q-35.5781 -3.2812 -36.3438 -4.7812 Q-37.1094 -6.2812 -38.6406 -6.2812 ZM-38.6406 -7.8438 Q-36.1875 -7.8438 -34.8984 -5.9062 Q-33.6094 -3.9688 -33.6094 -0.2812 Q-33.6094 3.4062 -34.8984 5.3438 Q-36.1875 7.2812 -38.6406 7.2812 Q-41.0938 7.2812 -42.3906 5.3438 Q-43.6875 3.4062 -43.6875 -0.2812 Q-43.6875 -3.9688 -42.3906 -5.9062 Q-41.0938 -7.8438 -38.6406 -7.8438 ZM-30.1348 4.5156 L-28.0723 4.5156 L-28.0723 7 L-30.1348 7 L-30.1348 4.5156 ZM-19.5586 -6.2812 Q-21.0898 -6.2812 -21.8555 -4.7812 Q-22.6211 -3.2812 -22.6211 -0.2812 Q-22.6211 2.7188 -21.8555 4.2188 Q-21.0898 5.7188 -19.5586 5.7188 Q-18.0273 5.7188 -17.2617 4.2188 Q-16.4961 2.7188 -16.4961 -0.2812 Q-16.4961 -3.2812 -17.2617 -4.7812 Q-18.0273 -6.2812 -19.5586 -6.2812 ZM-19.5586 -7.8438 Q-17.1055 -7.8438 -15.8164 -5.9062 Q-14.5273 -3.9688 -14.5273 -0.2812 Q-14.5273 3.4062 -15.8164 5.3438 Q-17.1055 7.2812 -19.5586 7.2812 Q-22.0117 7.2812 -23.3086 5.3438 Q-24.6055 3.4062 -24.6055 -0.2812 Q-24.6055 -3.9688 -23.3086 -5.9062 Q-22.0117 -7.8438 -19.5586 -7.8438 ZM-5.6309 -5.8594 L-10.6152 1.9219 L-5.6309 1.9219 L-5.6309 -5.8594 ZM-6.1465 -7.5781 L-3.6777 -7.5781 L-3.6777 1.9219 L-1.584 1.9219 L-1.584 3.5625 L-3.6777 3.5625 L-3.6777 7 L-5.6309 7 L-5.6309 3.5625 L-12.209 3.5625 L-12.209 1.6562 L-6.1465 -7.5781 Z"
    /></g
    ><g transform="translate(471,1284.4832)" style="font-size:20px; fill:rgb(38,38,38); text-rendering:geometricPrecision; image-rendering:optimizeQuality; color-rendering:optimizeQuality; font-family:'SansSerif'; stroke:rgb(38,38,38); color-interpolation:linearRGB;"
    ><path style="stroke:none;" d="M-38.6406 -6.2812 Q-40.1719 -6.2812 -40.9375 -4.7812 Q-41.7031 -3.2812 -41.7031 -0.2812 Q-41.7031 2.7188 -40.9375 4.2188 Q-40.1719 5.7188 -38.6406 5.7188 Q-37.1094 5.7188 -36.3438 4.2188 Q-35.5781 2.7188 -35.5781 -0.2812 Q-35.5781 -3.2812 -36.3438 -4.7812 Q-37.1094 -6.2812 -38.6406 -6.2812 ZM-38.6406 -7.8438 Q-36.1875 -7.8438 -34.8984 -5.9062 Q-33.6094 -3.9688 -33.6094 -0.2812 Q-33.6094 3.4062 -34.8984 5.3438 Q-36.1875 7.2812 -38.6406 7.2812 Q-41.0938 7.2812 -42.3906 5.3438 Q-43.6875 3.4062 -43.6875 -0.2812 Q-43.6875 -3.9688 -42.3906 -5.9062 Q-41.0938 -7.8438 -38.6406 -7.8438 ZM-30.1348 4.5156 L-28.0723 4.5156 L-28.0723 7 L-30.1348 7 L-30.1348 4.5156 ZM-19.5586 -6.2812 Q-21.0898 -6.2812 -21.8555 -4.7812 Q-22.6211 -3.2812 -22.6211 -0.2812 Q-22.6211 2.7188 -21.8555 4.2188 Q-21.0898 5.7188 -19.5586 5.7188 Q-18.0273 5.7188 -17.2617 4.2188 Q-16.4961 2.7188 -16.4961 -0.2812 Q-16.4961 -3.2812 -17.2617 -4.7812 Q-18.0273 -6.2812 -19.5586 -6.2812 ZM-19.5586 -7.8438 Q-17.1055 -7.8438 -15.8164 -5.9062 Q-14.5273 -3.9688 -14.5273 -0.2812 Q-14.5273 3.4062 -15.8164 5.3438 Q-17.1055 7.2812 -19.5586 7.2812 Q-22.0117 7.2812 -23.3086 5.3438 Q-24.6055 3.4062 -24.6055 -0.2812 Q-24.6055 -3.9688 -23.3086 -5.9062 Q-22.0117 -7.8438 -19.5586 -7.8438 ZM-6.584 -1.0781 Q-7.9121 -1.0781 -8.6934 -0.1719 Q-9.4746 0.7344 -9.4746 2.3281 Q-9.4746 3.8906 -8.6934 4.8047 Q-7.9121 5.7188 -6.584 5.7188 Q-5.2559 5.7188 -4.4824 4.8047 Q-3.709 3.8906 -3.709 2.3281 Q-3.709 0.7344 -4.4824 -0.1719 Q-5.2559 -1.0781 -6.584 -1.0781 ZM-2.6777 -7.2656 L-2.6777 -5.4688 Q-3.4121 -5.8125 -4.1699 -6 Q-4.9277 -6.1875 -5.6777 -6.1875 Q-7.6309 -6.1875 -8.6621 -4.8672 Q-9.6934 -3.5469 -9.834 -0.875 Q-9.2559 -1.7344 -8.3887 -2.1875 Q-7.5215 -2.6406 -6.4746 -2.6406 Q-4.2715 -2.6406 -2.998 -1.3047 Q-1.7246 0.0312 -1.7246 2.3281 Q-1.7246 4.5625 -3.0527 5.9219 Q-4.3809 7.2812 -6.584 7.2812 Q-9.1152 7.2812 -10.459 5.3438 Q-11.8027 3.4062 -11.8027 -0.2812 Q-11.8027 -3.7344 -10.1621 -5.7891 Q-8.5215 -7.8438 -5.7559 -7.8438 Q-5.0059 -7.8438 -4.248 -7.6953 Q-3.4902 -7.5469 -2.6777 -7.2656 Z"
    /></g
    ><g transform="translate(471,1139.6442)" style="font-size:20px; fill:rgb(38,38,38); text-rendering:geometricPrecision; image-rendering:optimizeQuality; color-rendering:optimizeQuality; font-family:'SansSerif'; stroke:rgb(38,38,38); color-interpolation:linearRGB;"
    ><path style="stroke:none;" d="M-38.6406 -6.2812 Q-40.1719 -6.2812 -40.9375 -4.7812 Q-41.7031 -3.2812 -41.7031 -0.2812 Q-41.7031 2.7188 -40.9375 4.2188 Q-40.1719 5.7188 -38.6406 5.7188 Q-37.1094 5.7188 -36.3438 4.2188 Q-35.5781 2.7188 -35.5781 -0.2812 Q-35.5781 -3.2812 -36.3438 -4.7812 Q-37.1094 -6.2812 -38.6406 -6.2812 ZM-38.6406 -7.8438 Q-36.1875 -7.8438 -34.8984 -5.9062 Q-33.6094 -3.9688 -33.6094 -0.2812 Q-33.6094 3.4062 -34.8984 5.3438 Q-36.1875 7.2812 -38.6406 7.2812 Q-41.0938 7.2812 -42.3906 5.3438 Q-43.6875 3.4062 -43.6875 -0.2812 Q-43.6875 -3.9688 -42.3906 -5.9062 Q-41.0938 -7.8438 -38.6406 -7.8438 ZM-30.1348 4.5156 L-28.0723 4.5156 L-28.0723 7 L-30.1348 7 L-30.1348 4.5156 ZM-19.5586 -6.2812 Q-21.0898 -6.2812 -21.8555 -4.7812 Q-22.6211 -3.2812 -22.6211 -0.2812 Q-22.6211 2.7188 -21.8555 4.2188 Q-21.0898 5.7188 -19.5586 5.7188 Q-18.0273 5.7188 -17.2617 4.2188 Q-16.4961 2.7188 -16.4961 -0.2812 Q-16.4961 -3.2812 -17.2617 -4.7812 Q-18.0273 -6.2812 -19.5586 -6.2812 ZM-19.5586 -7.8438 Q-17.1055 -7.8438 -15.8164 -5.9062 Q-14.5273 -3.9688 -14.5273 -0.2812 Q-14.5273 3.4062 -15.8164 5.3438 Q-17.1055 7.2812 -19.5586 7.2812 Q-22.0117 7.2812 -23.3086 5.3438 Q-24.6055 3.4062 -24.6055 -0.2812 Q-24.6055 -3.9688 -23.3086 -5.9062 Q-22.0117 -7.8438 -19.5586 -7.8438 ZM-6.834 0.0781 Q-8.2402 0.0781 -9.0449 0.8281 Q-9.8496 1.5781 -9.8496 2.8906 Q-9.8496 4.2188 -9.0449 4.9688 Q-8.2402 5.7188 -6.834 5.7188 Q-5.4277 5.7188 -4.6152 4.9609 Q-3.8027 4.2031 -3.8027 2.8906 Q-3.8027 1.5781 -4.6074 0.8281 Q-5.4121 0.0781 -6.834 0.0781 ZM-8.8027 -0.7656 Q-10.084 -1.0781 -10.7871 -1.9453 Q-11.4902 -2.8125 -11.4902 -4.0625 Q-11.4902 -5.8125 -10.248 -6.8281 Q-9.0059 -7.8438 -6.834 -7.8438 Q-4.6621 -7.8438 -3.4199 -6.8281 Q-2.1777 -5.8125 -2.1777 -4.0625 Q-2.1777 -2.8125 -2.8887 -1.9453 Q-3.5996 -1.0781 -4.8496 -0.7656 Q-3.4277 -0.4375 -2.6309 0.5312 Q-1.834 1.5 -1.834 2.8906 Q-1.834 5.0156 -3.1309 6.1484 Q-4.4277 7.2812 -6.834 7.2812 Q-9.2402 7.2812 -10.5371 6.1484 Q-11.834 5.0156 -11.834 2.8906 Q-11.834 1.5 -11.0371 0.5312 Q-10.2402 -0.4375 -8.8027 -0.7656 ZM-9.5371 -3.875 Q-9.5371 -2.75 -8.8262 -2.1172 Q-8.1152 -1.4844 -6.834 -1.4844 Q-5.5684 -1.4844 -4.8496 -2.1172 Q-4.1309 -2.75 -4.1309 -3.875 Q-4.1309 -5.0156 -4.8496 -5.6484 Q-5.5684 -6.2812 -6.834 -6.2812 Q-8.1152 -6.2812 -8.8262 -5.6484 Q-9.5371 -5.0156 -9.5371 -3.875 Z"
    /></g
    ><g transform="translate(471,994.8052)" style="font-size:20px; fill:rgb(38,38,38); text-rendering:geometricPrecision; image-rendering:optimizeQuality; color-rendering:optimizeQuality; font-family:'SansSerif'; stroke:rgb(38,38,38); color-interpolation:linearRGB;"
    ><path style="stroke:none;" d="M-25.6406 -6.2812 Q-27.1719 -6.2812 -27.9375 -4.7812 Q-28.7031 -3.2812 -28.7031 -0.2812 Q-28.7031 2.7188 -27.9375 4.2188 Q-27.1719 5.7188 -25.6406 5.7188 Q-24.1094 5.7188 -23.3438 4.2188 Q-22.5781 2.7188 -22.5781 -0.2812 Q-22.5781 -3.2812 -23.3438 -4.7812 Q-24.1094 -6.2812 -25.6406 -6.2812 ZM-25.6406 -7.8438 Q-23.1875 -7.8438 -21.8984 -5.9062 Q-20.6094 -3.9688 -20.6094 -0.2812 Q-20.6094 3.4062 -21.8984 5.3438 Q-23.1875 7.2812 -25.6406 7.2812 Q-28.0938 7.2812 -29.3906 5.3438 Q-30.6875 3.4062 -30.6875 -0.2812 Q-30.6875 -3.9688 -29.3906 -5.9062 Q-28.0938 -7.8438 -25.6406 -7.8438 ZM-17.1348 4.5156 L-15.0723 4.5156 L-15.0723 7 L-17.1348 7 L-17.1348 4.5156 ZM-10.4336 5.3438 L-7.2148 5.3438 L-7.2148 -5.7812 L-10.7148 -5.0781 L-10.7148 -6.875 L-7.2305 -7.5781 L-5.2617 -7.5781 L-5.2617 5.3438 L-2.043 5.3438 L-2.043 7 L-10.4336 7 L-10.4336 5.3438 Z"
    /></g
    ><g transform="translate(471,849.9663)" style="font-size:20px; fill:rgb(38,38,38); text-rendering:geometricPrecision; image-rendering:optimizeQuality; color-rendering:optimizeQuality; font-family:'SansSerif'; stroke:rgb(38,38,38); color-interpolation:linearRGB;"
    ><path style="stroke:none;" d="M-38.6406 -6.2812 Q-40.1719 -6.2812 -40.9375 -4.7812 Q-41.7031 -3.2812 -41.7031 -0.2812 Q-41.7031 2.7188 -40.9375 4.2188 Q-40.1719 5.7188 -38.6406 5.7188 Q-37.1094 5.7188 -36.3438 4.2188 Q-35.5781 2.7188 -35.5781 -0.2812 Q-35.5781 -3.2812 -36.3438 -4.7812 Q-37.1094 -6.2812 -38.6406 -6.2812 ZM-38.6406 -7.8438 Q-36.1875 -7.8438 -34.8984 -5.9062 Q-33.6094 -3.9688 -33.6094 -0.2812 Q-33.6094 3.4062 -34.8984 5.3438 Q-36.1875 7.2812 -38.6406 7.2812 Q-41.0938 7.2812 -42.3906 5.3438 Q-43.6875 3.4062 -43.6875 -0.2812 Q-43.6875 -3.9688 -42.3906 -5.9062 Q-41.0938 -7.8438 -38.6406 -7.8438 ZM-30.1348 4.5156 L-28.0723 4.5156 L-28.0723 7 L-30.1348 7 L-30.1348 4.5156 ZM-23.4336 5.3438 L-20.2148 5.3438 L-20.2148 -5.7812 L-23.7148 -5.0781 L-23.7148 -6.875 L-20.2305 -7.5781 L-18.2617 -7.5781 L-18.2617 5.3438 L-15.043 5.3438 L-15.043 7 L-23.4336 7 L-23.4336 5.3438 ZM-9.3496 5.3438 L-2.4746 5.3438 L-2.4746 7 L-11.7246 7 L-11.7246 5.3438 Q-10.5996 4.1719 -8.6621 2.2188 Q-6.7246 0.2656 -6.2246 -0.3125 Q-5.2871 -1.375 -4.9121 -2.1094 Q-4.5371 -2.8438 -4.5371 -3.5625 Q-4.5371 -4.7188 -5.3496 -5.4531 Q-6.1621 -6.1875 -7.4746 -6.1875 Q-8.3965 -6.1875 -9.4277 -5.8672 Q-10.459 -5.5469 -11.6309 -4.8906 L-11.6309 -6.875 Q-10.4434 -7.3594 -9.4043 -7.6016 Q-8.3652 -7.8438 -7.5059 -7.8438 Q-5.2402 -7.8438 -3.8965 -6.7109 Q-2.5527 -5.5781 -2.5527 -3.6875 Q-2.5527 -2.7812 -2.8887 -1.9766 Q-3.2246 -1.1719 -4.1152 -0.0781 Q-4.3496 0.2031 -5.6621 1.5547 Q-6.9746 2.9062 -9.3496 5.3438 Z"
    /></g
    ><g transform="translate(471,705.1273)" style="font-size:20px; fill:rgb(38,38,38); text-rendering:geometricPrecision; image-rendering:optimizeQuality; color-rendering:optimizeQuality; font-family:'SansSerif'; stroke:rgb(38,38,38); color-interpolation:linearRGB;"
    ><path style="stroke:none;" d="M-38.6406 -6.2812 Q-40.1719 -6.2812 -40.9375 -4.7812 Q-41.7031 -3.2812 -41.7031 -0.2812 Q-41.7031 2.7188 -40.9375 4.2188 Q-40.1719 5.7188 -38.6406 5.7188 Q-37.1094 5.7188 -36.3438 4.2188 Q-35.5781 2.7188 -35.5781 -0.2812 Q-35.5781 -3.2812 -36.3438 -4.7812 Q-37.1094 -6.2812 -38.6406 -6.2812 ZM-38.6406 -7.8438 Q-36.1875 -7.8438 -34.8984 -5.9062 Q-33.6094 -3.9688 -33.6094 -0.2812 Q-33.6094 3.4062 -34.8984 5.3438 Q-36.1875 7.2812 -38.6406 7.2812 Q-41.0938 7.2812 -42.3906 5.3438 Q-43.6875 3.4062 -43.6875 -0.2812 Q-43.6875 -3.9688 -42.3906 -5.9062 Q-41.0938 -7.8438 -38.6406 -7.8438 ZM-30.1348 4.5156 L-28.0723 4.5156 L-28.0723 7 L-30.1348 7 L-30.1348 4.5156 ZM-23.4336 5.3438 L-20.2148 5.3438 L-20.2148 -5.7812 L-23.7148 -5.0781 L-23.7148 -6.875 L-20.2305 -7.5781 L-18.2617 -7.5781 L-18.2617 5.3438 L-15.043 5.3438 L-15.043 7 L-23.4336 7 L-23.4336 5.3438 ZM-5.6309 -5.8594 L-10.6152 1.9219 L-5.6309 1.9219 L-5.6309 -5.8594 ZM-6.1465 -7.5781 L-3.6777 -7.5781 L-3.6777 1.9219 L-1.584 1.9219 L-1.584 3.5625 L-3.6777 3.5625 L-3.6777 7 L-5.6309 7 L-5.6309 3.5625 L-12.209 3.5625 L-12.209 1.6562 L-6.1465 -7.5781 Z"
    /></g
    ><g transform="translate(471,560.2884)" style="font-size:20px; fill:rgb(38,38,38); text-rendering:geometricPrecision; image-rendering:optimizeQuality; color-rendering:optimizeQuality; font-family:'SansSerif'; stroke:rgb(38,38,38); color-interpolation:linearRGB;"
    ><path style="stroke:none;" d="M-38.6406 -6.2812 Q-40.1719 -6.2812 -40.9375 -4.7812 Q-41.7031 -3.2812 -41.7031 -0.2812 Q-41.7031 2.7188 -40.9375 4.2188 Q-40.1719 5.7188 -38.6406 5.7188 Q-37.1094 5.7188 -36.3438 4.2188 Q-35.5781 2.7188 -35.5781 -0.2812 Q-35.5781 -3.2812 -36.3438 -4.7812 Q-37.1094 -6.2812 -38.6406 -6.2812 ZM-38.6406 -7.8438 Q-36.1875 -7.8438 -34.8984 -5.9062 Q-33.6094 -3.9688 -33.6094 -0.2812 Q-33.6094 3.4062 -34.8984 5.3438 Q-36.1875 7.2812 -38.6406 7.2812 Q-41.0938 7.2812 -42.3906 5.3438 Q-43.6875 3.4062 -43.6875 -0.2812 Q-43.6875 -3.9688 -42.3906 -5.9062 Q-41.0938 -7.8438 -38.6406 -7.8438 ZM-30.1348 4.5156 L-28.0723 4.5156 L-28.0723 7 L-30.1348 7 L-30.1348 4.5156 ZM-23.4336 5.3438 L-20.2148 5.3438 L-20.2148 -5.7812 L-23.7148 -5.0781 L-23.7148 -6.875 L-20.2305 -7.5781 L-18.2617 -7.5781 L-18.2617 5.3438 L-15.043 5.3438 L-15.043 7 L-23.4336 7 L-23.4336 5.3438 ZM-6.584 -1.0781 Q-7.9121 -1.0781 -8.6934 -0.1719 Q-9.4746 0.7344 -9.4746 2.3281 Q-9.4746 3.8906 -8.6934 4.8047 Q-7.9121 5.7188 -6.584 5.7188 Q-5.2559 5.7188 -4.4824 4.8047 Q-3.709 3.8906 -3.709 2.3281 Q-3.709 0.7344 -4.4824 -0.1719 Q-5.2559 -1.0781 -6.584 -1.0781 ZM-2.6777 -7.2656 L-2.6777 -5.4688 Q-3.4121 -5.8125 -4.1699 -6 Q-4.9277 -6.1875 -5.6777 -6.1875 Q-7.6309 -6.1875 -8.6621 -4.8672 Q-9.6934 -3.5469 -9.834 -0.875 Q-9.2559 -1.7344 -8.3887 -2.1875 Q-7.5215 -2.6406 -6.4746 -2.6406 Q-4.2715 -2.6406 -2.998 -1.3047 Q-1.7246 0.0312 -1.7246 2.3281 Q-1.7246 4.5625 -3.0527 5.9219 Q-4.3809 7.2812 -6.584 7.2812 Q-9.1152 7.2812 -10.459 5.3438 Q-11.8027 3.4062 -11.8027 -0.2812 Q-11.8027 -3.7344 -10.1621 -5.7891 Q-8.5215 -7.8438 -5.7559 -7.8438 Q-5.0059 -7.8438 -4.248 -7.6953 Q-3.4902 -7.5469 -2.6777 -7.2656 Z"
    /></g
    ><g transform="translate(471,415.4493)" style="font-size:20px; fill:rgb(38,38,38); text-rendering:geometricPrecision; image-rendering:optimizeQuality; color-rendering:optimizeQuality; font-family:'SansSerif'; stroke:rgb(38,38,38); color-interpolation:linearRGB;"
    ><path style="stroke:none;" d="M-38.6406 -6.2812 Q-40.1719 -6.2812 -40.9375 -4.7812 Q-41.7031 -3.2812 -41.7031 -0.2812 Q-41.7031 2.7188 -40.9375 4.2188 Q-40.1719 5.7188 -38.6406 5.7188 Q-37.1094 5.7188 -36.3438 4.2188 Q-35.5781 2.7188 -35.5781 -0.2812 Q-35.5781 -3.2812 -36.3438 -4.7812 Q-37.1094 -6.2812 -38.6406 -6.2812 ZM-38.6406 -7.8438 Q-36.1875 -7.8438 -34.8984 -5.9062 Q-33.6094 -3.9688 -33.6094 -0.2812 Q-33.6094 3.4062 -34.8984 5.3438 Q-36.1875 7.2812 -38.6406 7.2812 Q-41.0938 7.2812 -42.3906 5.3438 Q-43.6875 3.4062 -43.6875 -0.2812 Q-43.6875 -3.9688 -42.3906 -5.9062 Q-41.0938 -7.8438 -38.6406 -7.8438 ZM-30.1348 4.5156 L-28.0723 4.5156 L-28.0723 7 L-30.1348 7 L-30.1348 4.5156 ZM-23.4336 5.3438 L-20.2148 5.3438 L-20.2148 -5.7812 L-23.7148 -5.0781 L-23.7148 -6.875 L-20.2305 -7.5781 L-18.2617 -7.5781 L-18.2617 5.3438 L-15.043 5.3438 L-15.043 7 L-23.4336 7 L-23.4336 5.3438 ZM-6.834 0.0781 Q-8.2402 0.0781 -9.0449 0.8281 Q-9.8496 1.5781 -9.8496 2.8906 Q-9.8496 4.2188 -9.0449 4.9688 Q-8.2402 5.7188 -6.834 5.7188 Q-5.4277 5.7188 -4.6152 4.9609 Q-3.8027 4.2031 -3.8027 2.8906 Q-3.8027 1.5781 -4.6074 0.8281 Q-5.4121 0.0781 -6.834 0.0781 ZM-8.8027 -0.7656 Q-10.084 -1.0781 -10.7871 -1.9453 Q-11.4902 -2.8125 -11.4902 -4.0625 Q-11.4902 -5.8125 -10.248 -6.8281 Q-9.0059 -7.8438 -6.834 -7.8438 Q-4.6621 -7.8438 -3.4199 -6.8281 Q-2.1777 -5.8125 -2.1777 -4.0625 Q-2.1777 -2.8125 -2.8887 -1.9453 Q-3.5996 -1.0781 -4.8496 -0.7656 Q-3.4277 -0.4375 -2.6309 0.5312 Q-1.834 1.5 -1.834 2.8906 Q-1.834 5.0156 -3.1309 6.1484 Q-4.4277 7.2812 -6.834 7.2812 Q-9.2402 7.2812 -10.5371 6.1484 Q-11.834 5.0156 -11.834 2.8906 Q-11.834 1.5 -11.0371 0.5312 Q-10.2402 -0.4375 -8.8027 -0.7656 ZM-9.5371 -3.875 Q-9.5371 -2.75 -8.8262 -2.1172 Q-8.1152 -1.4844 -6.834 -1.4844 Q-5.5684 -1.4844 -4.8496 -2.1172 Q-4.1309 -2.75 -4.1309 -3.875 Q-4.1309 -5.0156 -4.8496 -5.6484 Q-5.5684 -6.2812 -6.834 -6.2812 Q-8.1152 -6.2812 -8.8262 -5.6484 Q-9.5371 -5.0156 -9.5371 -3.875 Z"
    /></g
    ><g transform="translate(471,270.6104)" style="font-size:20px; fill:rgb(38,38,38); text-rendering:geometricPrecision; image-rendering:optimizeQuality; color-rendering:optimizeQuality; font-family:'SansSerif'; stroke:rgb(38,38,38); color-interpolation:linearRGB;"
    ><path style="stroke:none;" d="M-25.6406 -6.2812 Q-27.1719 -6.2812 -27.9375 -4.7812 Q-28.7031 -3.2812 -28.7031 -0.2812 Q-28.7031 2.7188 -27.9375 4.2188 Q-27.1719 5.7188 -25.6406 5.7188 Q-24.1094 5.7188 -23.3438 4.2188 Q-22.5781 2.7188 -22.5781 -0.2812 Q-22.5781 -3.2812 -23.3438 -4.7812 Q-24.1094 -6.2812 -25.6406 -6.2812 ZM-25.6406 -7.8438 Q-23.1875 -7.8438 -21.8984 -5.9062 Q-20.6094 -3.9688 -20.6094 -0.2812 Q-20.6094 3.4062 -21.8984 5.3438 Q-23.1875 7.2812 -25.6406 7.2812 Q-28.0938 7.2812 -29.3906 5.3438 Q-30.6875 3.4062 -30.6875 -0.2812 Q-30.6875 -3.9688 -29.3906 -5.9062 Q-28.0938 -7.8438 -25.6406 -7.8438 ZM-17.1348 4.5156 L-15.0723 4.5156 L-15.0723 7 L-17.1348 7 L-17.1348 4.5156 ZM-9.0742 5.3438 L-2.1992 5.3438 L-2.1992 7 L-11.4492 7 L-11.4492 5.3438 Q-10.3242 4.1719 -8.3867 2.2188 Q-6.4492 0.2656 -5.9492 -0.3125 Q-5.0117 -1.375 -4.6367 -2.1094 Q-4.2617 -2.8438 -4.2617 -3.5625 Q-4.2617 -4.7188 -5.0742 -5.4531 Q-5.8867 -6.1875 -7.1992 -6.1875 Q-8.1211 -6.1875 -9.1523 -5.8672 Q-10.1836 -5.5469 -11.3555 -4.8906 L-11.3555 -6.875 Q-10.168 -7.3594 -9.1289 -7.6016 Q-8.0898 -7.8438 -7.2305 -7.8438 Q-4.9648 -7.8438 -3.6211 -6.7109 Q-2.2773 -5.5781 -2.2773 -3.6875 Q-2.2773 -2.7812 -2.6133 -1.9766 Q-2.9492 -1.1719 -3.8398 -0.0781 Q-4.0742 0.2031 -5.3867 1.5547 Q-6.6992 2.9062 -9.0742 5.3438 Z"
    /></g
    ><g transform="translate(420,931.9993) rotate(-90)" style="font-size:24px; fill:rgb(38,38,38); text-rendering:geometricPrecision; image-rendering:optimizeQuality; color-rendering:optimizeQuality; font-family:'Ubuntu'; stroke:rgb(38,38,38); color-interpolation:linearRGB;"
    ><path style="stroke:none;" d="M-53.5156 -21.7969 Q-50.0156 -21.7969 -48.1328 -20.4688 Q-46.25 -19.1406 -46.25 -16.5 Q-46.25 -15.0625 -46.7656 -14.0391 Q-47.2812 -13.0156 -48.25 -12.3828 Q-49.2188 -11.75 -50.6172 -11.4609 Q-52.0156 -11.1719 -53.7656 -11.1719 L-55.6094 -11.1719 L-55.6094 -5 L-57.9375 -5 L-57.9375 -21.3906 Q-56.9531 -21.625 -55.7422 -21.7109 Q-54.5312 -21.7969 -53.5156 -21.7969 ZM-53.3281 -19.7656 Q-54.8125 -19.7656 -55.6094 -19.6875 L-55.6094 -13.1562 L-53.8594 -13.1562 Q-52.6562 -13.1562 -51.6953 -13.3125 Q-50.7344 -13.4688 -50.0781 -13.8438 Q-49.4219 -14.2188 -49.0625 -14.8672 Q-48.7031 -15.5156 -48.7031 -16.5156 Q-48.7031 -17.4844 -49.0703 -18.1094 Q-49.4375 -18.7344 -50.0781 -19.1016 Q-50.7188 -19.4688 -51.5547 -19.6172 Q-52.3906 -19.7656 -53.3281 -19.7656 ZM-38.8848 -17.75 Q-38.6035 -17.75 -38.2285 -17.7109 Q-37.8535 -17.6719 -37.4941 -17.6094 Q-37.1348 -17.5469 -36.8379 -17.4922 Q-36.541 -17.4375 -36.3848 -17.3906 L-36.7754 -15.4375 Q-37.041 -15.5312 -37.6504 -15.6641 Q-38.2598 -15.7969 -39.2285 -15.7969 Q-39.8535 -15.7969 -40.4629 -15.6641 Q-41.0723 -15.5312 -41.2598 -15.4844 L-41.2598 -5 L-43.4941 -5 L-43.4941 -16.9531 Q-42.6973 -17.2344 -41.5254 -17.4922 Q-40.3535 -17.75 -38.8848 -17.75 ZM-23.2196 -11.2344 Q-23.2196 -9.75 -23.6493 -8.5547 Q-24.079 -7.3594 -24.8602 -6.4922 Q-25.6415 -5.625 -26.7196 -5.1562 Q-27.7977 -4.6875 -29.079 -4.6875 Q-30.3446 -4.6875 -31.4305 -5.1562 Q-32.5165 -5.625 -33.2899 -6.4922 Q-34.0634 -7.3594 -34.5009 -8.5547 Q-34.9384 -9.75 -34.9384 -11.2344 Q-34.9384 -12.7031 -34.5009 -13.9141 Q-34.0634 -15.125 -33.2899 -15.9922 Q-32.5165 -16.8594 -31.4305 -17.3281 Q-30.3446 -17.7969 -29.079 -17.7969 Q-27.7977 -17.7969 -26.7196 -17.3281 Q-25.6415 -16.8594 -24.8602 -15.9922 Q-24.079 -15.125 -23.6493 -13.9141 Q-23.2196 -12.7031 -23.2196 -11.2344 ZM-25.5477 -11.2344 Q-25.5477 -13.3594 -26.493 -14.5938 Q-27.4384 -15.8281 -29.079 -15.8281 Q-30.704 -15.8281 -31.6571 -14.5938 Q-32.6102 -13.3594 -32.6102 -11.2344 Q-32.6102 -9.125 -31.6571 -7.8906 Q-30.704 -6.6562 -29.079 -6.6562 Q-27.4384 -6.6562 -26.493 -7.8906 Q-25.5477 -9.125 -25.5477 -11.2344 ZM-17.8486 -16.9219 Q-17.4424 -17.1875 -16.6143 -17.4766 Q-15.7861 -17.7656 -14.708 -17.7656 Q-13.3643 -17.7656 -12.3174 -17.2891 Q-11.2705 -16.8125 -10.5518 -15.9453 Q-9.833 -15.0781 -9.4658 -13.8828 Q-9.0986 -12.6875 -9.0986 -11.2344 Q-9.0986 -9.7344 -9.5361 -8.5156 Q-9.9736 -7.2969 -10.7939 -6.4609 Q-11.6143 -5.625 -12.7627 -5.1719 Q-13.9111 -4.7188 -15.3643 -4.7188 Q-16.9111 -4.7188 -18.1143 -4.9297 Q-19.3174 -5.1406 -20.083 -5.3594 L-20.083 -23.2344 L-17.8486 -23.625 L-17.8486 -16.9219 ZM-17.8486 -6.9375 Q-17.5205 -6.8438 -16.9033 -6.7656 Q-16.2861 -6.6875 -15.3799 -6.6875 Q-13.583 -6.6875 -12.5049 -7.875 Q-11.4268 -9.0625 -11.4268 -11.2344 Q-11.4268 -12.2031 -11.6143 -13.0391 Q-11.8018 -13.875 -12.2314 -14.4922 Q-12.6611 -15.1094 -13.3486 -15.4531 Q-14.0361 -15.7969 -14.9893 -15.7969 Q-15.9111 -15.7969 -16.6768 -15.4844 Q-17.4424 -15.1719 -17.8486 -14.8438 L-17.8486 -6.9375 ZM-1.736 -6.6094 Q-0.9391 -6.6094 -0.3298 -6.6484 Q0.2796 -6.6875 0.6859 -6.7812 L0.6859 -10.5 Q0.4515 -10.6094 -0.0876 -10.6953 Q-0.6266 -10.7812 -1.3923 -10.7812 Q-1.9079 -10.7812 -2.4704 -10.7109 Q-3.0329 -10.6406 -3.5016 -10.4141 Q-3.9704 -10.1875 -4.2829 -9.7891 Q-4.5954 -9.3906 -4.5954 -8.75 Q-4.5954 -7.5469 -3.822 -7.0781 Q-3.0485 -6.6094 -1.736 -6.6094 ZM-1.9235 -17.7969 Q-0.5798 -17.7969 0.3421 -17.4453 Q1.264 -17.0938 1.8265 -16.4609 Q2.389 -15.8281 2.6312 -14.9531 Q2.8734 -14.0781 2.8734 -13.0156 L2.8734 -5.2188 Q2.5921 -5.1719 2.0765 -5.0859 Q1.5609 -5 0.9124 -4.9297 Q0.264 -4.8594 -0.4938 -4.7969 Q-1.2516 -4.7344 -2.0016 -4.7344 Q-3.0485 -4.7344 -3.9391 -4.9531 Q-4.8298 -5.1719 -5.4782 -5.6406 Q-6.1266 -6.1094 -6.486 -6.875 Q-6.8454 -7.6406 -6.8454 -8.7188 Q-6.8454 -9.75 -6.4235 -10.4922 Q-6.0016 -11.2344 -5.2829 -11.6953 Q-4.5641 -12.1562 -3.6032 -12.3672 Q-2.6423 -12.5781 -1.5954 -12.5781 Q-1.2516 -12.5781 -0.8923 -12.5469 Q-0.5329 -12.5156 -0.2126 -12.4531 Q0.1077 -12.3906 0.3499 -12.3438 Q0.5921 -12.2969 0.6859 -12.2656 L0.6859 -12.8906 Q0.6859 -13.4531 0.5687 -13.9922 Q0.4515 -14.5312 0.139 -14.9531 Q-0.1735 -15.375 -0.7126 -15.625 Q-1.2516 -15.875 -2.111 -15.875 Q-3.2204 -15.875 -4.0485 -15.7188 Q-4.8766 -15.5625 -5.2829 -15.3906 L-5.5485 -17.2344 Q-5.111 -17.4375 -4.1032 -17.6172 Q-3.0954 -17.7969 -1.9235 -17.7969 ZM8.8007 -16.9219 Q9.207 -17.1875 10.0351 -17.4766 Q10.8632 -17.7656 11.9413 -17.7656 Q13.2851 -17.7656 14.332 -17.2891 Q15.3788 -16.8125 16.0976 -15.9453 Q16.8163 -15.0781 17.1835 -13.8828 Q17.5507 -12.6875 17.5507 -11.2344 Q17.5507 -9.7344 17.1132 -8.5156 Q16.6757 -7.2969 15.8554 -6.4609 Q15.0351 -5.625 13.8867 -5.1719 Q12.7382 -4.7188 11.2851 -4.7188 Q9.7382 -4.7188 8.5351 -4.9297 Q7.332 -5.1406 6.5663 -5.3594 L6.5663 -23.2344 L8.8007 -23.625 L8.8007 -16.9219 ZM8.8007 -6.9375 Q9.1288 -6.8438 9.746 -6.7656 Q10.3632 -6.6875 11.2695 -6.6875 Q13.0663 -6.6875 14.1445 -7.875 Q15.2226 -9.0625 15.2226 -11.2344 Q15.2226 -12.2031 15.0351 -13.0391 Q14.8476 -13.875 14.4179 -14.4922 Q13.9882 -15.1094 13.3007 -15.4531 Q12.6132 -15.7969 11.6601 -15.7969 Q10.7382 -15.7969 9.9726 -15.4844 Q9.207 -15.1719 8.8007 -14.8438 L8.8007 -6.9375 ZM22.929 -5 L20.6946 -5 L20.6946 -17.4844 L22.929 -17.4844 L22.929 -5 ZM21.804 -19.7344 Q21.1946 -19.7344 20.7727 -20.1328 Q20.3508 -20.5312 20.3508 -21.2031 Q20.3508 -21.875 20.7727 -22.2656 Q21.1946 -22.6562 21.804 -22.6562 Q22.3977 -22.6562 22.8196 -22.2656 Q23.2415 -21.875 23.2415 -21.2031 Q23.2415 -20.5312 22.8196 -20.1328 Q22.3977 -19.7344 21.804 -19.7344 ZM30.4976 -4.7656 Q28.4351 -4.8125 27.5757 -5.6484 Q26.7164 -6.4844 26.7164 -8.2656 L26.7164 -23.2344 L28.9507 -23.625 L28.9507 -8.625 Q28.9507 -8.0781 29.0445 -7.7188 Q29.1382 -7.3594 29.357 -7.1406 Q29.5757 -6.9219 29.9351 -6.8125 Q30.2945 -6.7031 30.8101 -6.625 L30.4976 -4.7656 ZM35.546 -5 L33.3116 -5 L33.3116 -17.4844 L35.546 -17.4844 L35.546 -5 ZM34.421 -19.7344 Q33.8116 -19.7344 33.3898 -20.1328 Q32.9679 -20.5312 32.9679 -21.2031 Q32.9679 -21.875 33.3898 -22.2656 Q33.8116 -22.6562 34.421 -22.6562 Q35.0148 -22.6562 35.4366 -22.2656 Q35.8585 -21.875 35.8585 -21.2031 Q35.8585 -20.5312 35.4366 -20.1328 Q35.0148 -19.7344 34.421 -19.7344 ZM41.4741 -17.4844 L46.1928 -17.4844 L46.1928 -15.6094 L41.4741 -15.6094 L41.4741 -9.8438 Q41.4741 -8.9062 41.6147 -8.2969 Q41.7553 -7.6875 42.0444 -7.3359 Q42.3334 -6.9844 42.7631 -6.8438 Q43.1928 -6.7031 43.7709 -6.7031 Q44.7709 -6.7031 45.3881 -6.9297 Q46.0053 -7.1562 46.2397 -7.25 L46.6772 -5.4062 Q46.3334 -5.2344 45.4975 -4.9844 Q44.6616 -4.7344 43.5834 -4.7344 Q42.3022 -4.7344 41.4741 -5.0625 Q40.6459 -5.3906 40.1459 -6.0391 Q39.6459 -6.6875 39.4428 -7.6328 Q39.2397 -8.5781 39.2397 -9.8281 L39.2397 -20.9531 L41.4741 -21.3438 L41.4741 -17.4844 ZM47.5543 -2.6719 Q47.8199 -2.5469 48.2418 -2.4453 Q48.6636 -2.3438 49.0699 -2.3438 Q50.3824 -2.3438 51.1324 -2.9297 Q51.8824 -3.5156 52.4761 -4.8281 Q50.9605 -7.7188 49.6558 -10.9453 Q48.3511 -14.1719 47.4918 -17.4844 L49.8824 -17.4844 Q50.148 -16.4062 50.523 -15.1562 Q50.898 -13.9062 51.3511 -12.5859 Q51.8043 -11.2656 52.3355 -9.9453 Q52.8668 -8.625 53.4449 -7.4062 Q54.3511 -9.9219 55.023 -12.3906 Q55.6949 -14.8594 56.2886 -17.4844 L58.6011 -17.4844 Q57.7261 -13.9531 56.6714 -10.7031 Q55.6168 -7.4531 54.398 -4.6094 Q53.9136 -3.5312 53.398 -2.75 Q52.8824 -1.9688 52.2574 -1.4688 Q51.6324 -0.9688 50.8511 -0.7266 Q50.0699 -0.4844 49.0855 -0.4844 Q48.8355 -0.4844 48.5464 -0.5234 Q48.2574 -0.5625 47.9761 -0.625 Q47.6949 -0.6875 47.4683 -0.7578 Q47.2418 -0.8281 47.148 -0.875 L47.5543 -2.6719 Z"
    /></g
  ></g
></svg
>
