<?xml version="1.0"?>
<!DOCTYPE svg PUBLIC '-//W3C//DTD SVG 1.0//EN'
          'http://www.w3.org/TR/2001/REC-SVG-20010904/DTD/svg10.dtd'>
<svg xmlns:xlink="http://www.w3.org/1999/xlink" style="fill-opacity:1; color-rendering:auto; color-interpolation:auto; text-rendering:auto; stroke:black; stroke-linecap:square; stroke-miterlimit:10; shape-rendering:auto; stroke-opacity:1; fill:black; stroke-dasharray:none; font-weight:normal; stroke-width:1; font-family:'Dialog'; font-style:normal; stroke-linejoin:miter; font-size:12px; stroke-dashoffset:0; image-rendering:auto;" width="3696" height="1932" xmlns="http://www.w3.org/2000/svg"
><!--Generated by the Batik Graphics2D SVG Generator--><defs id="genericDefs"
  /><g
  ><defs id="defs1"
    ><clipPath clipPathUnits="userSpaceOnUse" id="clipPath1"
      ><path d="M0 0 L3696 0 L3696 1932 L0 1932 L0 0 Z"
      /></clipPath
    ></defs
    ><g style="fill:white; stroke:white;"
    ><rect x="0" y="0" width="3696" style="clip-path:url(#clipPath1); stroke:none;" height="1932"
    /></g
    ><g style="fill:white; text-rendering:optimizeSpeed; color-rendering:optimizeSpeed; image-rendering:optimizeSpeed; shape-rendering:crispEdges; stroke:white; color-interpolation:sRGB;"
    ><rect x="0" width="3696" height="1932" y="0" style="stroke:none;"
      /><path style="stroke:none;" d="M480 1719 L3182 1719 L3182 145 L480 145 Z"
    /></g
    ><g style="fill:rgb(38,38,38); text-rendering:geometricPrecision; image-rendering:optimizeQuality; color-rendering:optimizeQuality; stroke-linejoin:round; stroke:rgb(38,38,38); color-interpolation:linearRGB; stroke-width:0.9931;"
    ><line y2="1719" style="fill:none;" x1="480" x2="3182" y1="1719"
      /><line y2="1691.98" style="fill:none;" x1="480" x2="480" y1="1719"
      /><line y2="1691.98" style="fill:none;" x1="750.2" x2="750.2" y1="1719"
      /><line y2="1691.98" style="fill:none;" x1="1020.4" x2="1020.4" y1="1719"
      /><line y2="1691.98" style="fill:none;" x1="1290.6" x2="1290.6" y1="1719"
      /><line y2="1691.98" style="fill:none;" x1="1560.8" x2="1560.8" y1="1719"
      /><line y2="1691.98" style="fill:none;" x1="1831" x2="1831" y1="1719"
      /><line y2="1691.98" style="fill:none;" x1="2101.2" x2="2101.2" y1="1719"
      /><line y2="1691.98" style="fill:none;" x1="2371.3999" x2="2371.3999" y1="1719"
      /><line y2="1691.98" style="fill:none;" x1="2641.6001" x2="2641.6001" y1="1719"
      /><line y2="1691.98" style="fill:none;" x1="2911.8" x2="2911.8" y1="1719"
      /><line y2="1691.98" style="fill:none;" x1="3182" x2="3182" y1="1719"
    /></g
    ><g transform="translate(480,1726.9445)" style="font-size:19.8611px; fill:rgb(38,38,38); text-rendering:geometricPrecision; image-rendering:optimizeQuality; color-rendering:optimizeQuality; font-family:'SansSerif'; stroke:rgb(38,38,38); color-interpolation:linearRGB;"
    ><path style="stroke:none;" d="M-0.1406 5.7188 Q-1.6719 5.7188 -2.4375 7.2188 Q-3.2031 8.7188 -3.2031 11.7188 Q-3.2031 14.7188 -2.4375 16.2188 Q-1.6719 17.7188 -0.1406 17.7188 Q1.3906 17.7188 2.1562 16.2188 Q2.9219 14.7188 2.9219 11.7188 Q2.9219 8.7188 2.1562 7.2188 Q1.3906 5.7188 -0.1406 5.7188 ZM-0.1406 4.1562 Q2.3125 4.1562 3.6016 6.0938 Q4.8906 8.0312 4.8906 11.7188 Q4.8906 15.4062 3.6016 17.3438 Q2.3125 19.2812 -0.1406 19.2812 Q-2.5938 19.2812 -3.8906 17.3438 Q-5.1875 15.4062 -5.1875 11.7188 Q-5.1875 8.0312 -3.8906 6.0938 Q-2.5938 4.1562 -0.1406 4.1562 Z"
    /></g
    ><g transform="translate(750.2,1726.9445)" style="font-size:19.8611px; fill:rgb(38,38,38); text-rendering:geometricPrecision; image-rendering:optimizeQuality; color-rendering:optimizeQuality; font-family:'SansSerif'; stroke:rgb(38,38,38); color-interpolation:linearRGB;"
    ><path style="stroke:none;" d="M-4.3438 4.4219 L3.4062 4.4219 L3.4062 6.0781 L-2.5312 6.0781 L-2.5312 9.6562 Q-2.1094 9.5 -1.6797 9.4297 Q-1.25 9.3594 -0.8125 9.3594 Q1.625 9.3594 3.0547 10.6953 Q4.4844 12.0312 4.4844 14.3281 Q4.4844 16.6719 3.0156 17.9766 Q1.5469 19.2812 -1.125 19.2812 Q-2.0312 19.2812 -2.9844 19.125 Q-3.9375 18.9688 -4.9531 18.6562 L-4.9531 16.6719 Q-4.0781 17.1562 -3.1406 17.3906 Q-2.2031 17.625 -1.1562 17.625 Q0.5312 17.625 1.5156 16.7344 Q2.5 15.8438 2.5 14.3281 Q2.5 12.7969 1.5156 11.9062 Q0.5312 11.0156 -1.1562 11.0156 Q-1.9531 11.0156 -2.7344 11.1953 Q-3.5156 11.375 -4.3438 11.75 L-4.3438 4.4219 Z"
    /></g
    ><g transform="translate(1020.4,1726.9445)" style="font-size:19.8611px; fill:rgb(38,38,38); text-rendering:geometricPrecision; image-rendering:optimizeQuality; color-rendering:optimizeQuality; font-family:'SansSerif'; stroke:rgb(38,38,38); color-interpolation:linearRGB;"
    ><path style="stroke:none;" d="M-10.5156 17.3438 L-7.2969 17.3438 L-7.2969 6.2188 L-10.7969 6.9219 L-10.7969 5.125 L-7.3125 4.4219 L-5.3438 4.4219 L-5.3438 17.3438 L-2.125 17.3438 L-2.125 19 L-10.5156 19 L-10.5156 17.3438 ZM5.9846 5.7188 Q4.4533 5.7188 3.6877 7.2188 Q2.9221 8.7188 2.9221 11.7188 Q2.9221 14.7188 3.6877 16.2188 Q4.4533 17.7188 5.9846 17.7188 Q7.5158 17.7188 8.2814 16.2188 Q9.0471 14.7188 9.0471 11.7188 Q9.0471 8.7188 8.2814 7.2188 Q7.5158 5.7188 5.9846 5.7188 ZM5.9846 4.1562 Q8.4377 4.1562 9.7268 6.0938 Q11.0158 8.0312 11.0158 11.7188 Q11.0158 15.4062 9.7268 17.3438 Q8.4377 19.2812 5.9846 19.2812 Q3.5314 19.2812 2.2346 17.3438 Q0.9377 15.4062 0.9377 11.7188 Q0.9377 8.0312 2.2346 6.0938 Q3.5314 4.1562 5.9846 4.1562 Z"
    /></g
    ><g transform="translate(1290.6,1726.9445)" style="font-size:19.8611px; fill:rgb(38,38,38); text-rendering:geometricPrecision; image-rendering:optimizeQuality; color-rendering:optimizeQuality; font-family:'SansSerif'; stroke:rgb(38,38,38); color-interpolation:linearRGB;"
    ><path style="stroke:none;" d="M-10.5156 17.3438 L-7.2969 17.3438 L-7.2969 6.2188 L-10.7969 6.9219 L-10.7969 5.125 L-7.3125 4.4219 L-5.3438 4.4219 L-5.3438 17.3438 L-2.125 17.3438 L-2.125 19 L-10.5156 19 L-10.5156 17.3438 ZM1.7814 4.4219 L9.5314 4.4219 L9.5314 6.0781 L3.5939 6.0781 L3.5939 9.6562 Q4.0158 9.5 4.4455 9.4297 Q4.8752 9.3594 5.3127 9.3594 Q7.7502 9.3594 9.1799 10.6953 Q10.6096 12.0312 10.6096 14.3281 Q10.6096 16.6719 9.1408 17.9766 Q7.6721 19.2812 5.0002 19.2812 Q4.0939 19.2812 3.1408 19.125 Q2.1877 18.9688 1.1721 18.6562 L1.1721 16.6719 Q2.0471 17.1562 2.9846 17.3906 Q3.9221 17.625 4.9689 17.625 Q6.6564 17.625 7.6408 16.7344 Q8.6252 15.8438 8.6252 14.3281 Q8.6252 12.7969 7.6408 11.9062 Q6.6564 11.0156 4.9689 11.0156 Q4.1721 11.0156 3.3908 11.1953 Q2.6096 11.375 1.7814 11.75 L1.7814 4.4219 Z"
    /></g
    ><g transform="translate(1560.8,1726.9445)" style="font-size:19.8611px; fill:rgb(38,38,38); text-rendering:geometricPrecision; image-rendering:optimizeQuality; color-rendering:optimizeQuality; font-family:'SansSerif'; stroke:rgb(38,38,38); color-interpolation:linearRGB;"
    ><path style="stroke:none;" d="M-9.1562 17.3438 L-2.2812 17.3438 L-2.2812 19 L-11.5312 19 L-11.5312 17.3438 Q-10.4062 16.1719 -8.4688 14.2188 Q-6.5312 12.2656 -6.0312 11.6875 Q-5.0938 10.625 -4.7188 9.8906 Q-4.3438 9.1562 -4.3438 8.4375 Q-4.3438 7.2812 -5.1562 6.5469 Q-5.9688 5.8125 -7.2812 5.8125 Q-8.2031 5.8125 -9.2344 6.1328 Q-10.2656 6.4531 -11.4375 7.1094 L-11.4375 5.125 Q-10.25 4.6406 -9.2109 4.3984 Q-8.1719 4.1562 -7.3125 4.1562 Q-5.0469 4.1562 -3.7031 5.2891 Q-2.3594 6.4219 -2.3594 8.3125 Q-2.3594 9.2188 -2.6953 10.0234 Q-3.0312 10.8281 -3.9219 11.9219 Q-4.1562 12.2031 -5.4688 13.5547 Q-6.7812 14.9062 -9.1562 17.3438 ZM5.9846 5.7188 Q4.4533 5.7188 3.6877 7.2188 Q2.9221 8.7188 2.9221 11.7188 Q2.9221 14.7188 3.6877 16.2188 Q4.4533 17.7188 5.9846 17.7188 Q7.5158 17.7188 8.2814 16.2188 Q9.0471 14.7188 9.0471 11.7188 Q9.0471 8.7188 8.2814 7.2188 Q7.5158 5.7188 5.9846 5.7188 ZM5.9846 4.1562 Q8.4377 4.1562 9.7268 6.0938 Q11.0158 8.0312 11.0158 11.7188 Q11.0158 15.4062 9.7268 17.3438 Q8.4377 19.2812 5.9846 19.2812 Q3.5314 19.2812 2.2346 17.3438 Q0.9377 15.4062 0.9377 11.7188 Q0.9377 8.0312 2.2346 6.0938 Q3.5314 4.1562 5.9846 4.1562 Z"
    /></g
    ><g transform="translate(1831,1726.9445)" style="font-size:19.8611px; fill:rgb(38,38,38); text-rendering:geometricPrecision; image-rendering:optimizeQuality; color-rendering:optimizeQuality; font-family:'SansSerif'; stroke:rgb(38,38,38); color-interpolation:linearRGB;"
    ><path style="stroke:none;" d="M-9.1562 17.3438 L-2.2812 17.3438 L-2.2812 19 L-11.5312 19 L-11.5312 17.3438 Q-10.4062 16.1719 -8.4688 14.2188 Q-6.5312 12.2656 -6.0312 11.6875 Q-5.0938 10.625 -4.7188 9.8906 Q-4.3438 9.1562 -4.3438 8.4375 Q-4.3438 7.2812 -5.1562 6.5469 Q-5.9688 5.8125 -7.2812 5.8125 Q-8.2031 5.8125 -9.2344 6.1328 Q-10.2656 6.4531 -11.4375 7.1094 L-11.4375 5.125 Q-10.25 4.6406 -9.2109 4.3984 Q-8.1719 4.1562 -7.3125 4.1562 Q-5.0469 4.1562 -3.7031 5.2891 Q-2.3594 6.4219 -2.3594 8.3125 Q-2.3594 9.2188 -2.6953 10.0234 Q-3.0312 10.8281 -3.9219 11.9219 Q-4.1562 12.2031 -5.4688 13.5547 Q-6.7812 14.9062 -9.1562 17.3438 ZM1.7814 4.4219 L9.5314 4.4219 L9.5314 6.0781 L3.5939 6.0781 L3.5939 9.6562 Q4.0158 9.5 4.4455 9.4297 Q4.8752 9.3594 5.3127 9.3594 Q7.7502 9.3594 9.1799 10.6953 Q10.6096 12.0312 10.6096 14.3281 Q10.6096 16.6719 9.1408 17.9766 Q7.6721 19.2812 5.0002 19.2812 Q4.0939 19.2812 3.1408 19.125 Q2.1877 18.9688 1.1721 18.6562 L1.1721 16.6719 Q2.0471 17.1562 2.9846 17.3906 Q3.9221 17.625 4.9689 17.625 Q6.6564 17.625 7.6408 16.7344 Q8.6252 15.8438 8.6252 14.3281 Q8.6252 12.7969 7.6408 11.9062 Q6.6564 11.0156 4.9689 11.0156 Q4.1721 11.0156 3.3908 11.1953 Q2.6096 11.375 1.7814 11.75 L1.7814 4.4219 Z"
    /></g
    ><g transform="translate(2101.2,1726.9445)" style="font-size:19.8611px; fill:rgb(38,38,38); text-rendering:geometricPrecision; image-rendering:optimizeQuality; color-rendering:optimizeQuality; font-family:'SansSerif'; stroke:rgb(38,38,38); color-interpolation:linearRGB;"
    ><path style="stroke:none;" d="M-4.8906 11.1406 Q-3.4688 11.4375 -2.6719 12.3984 Q-1.875 13.3594 -1.875 14.7656 Q-1.875 16.9219 -3.3594 18.1016 Q-4.8438 19.2812 -7.5781 19.2812 Q-8.5 19.2812 -9.4688 19.1016 Q-10.4375 18.9219 -11.4688 18.5625 L-11.4688 16.6562 Q-10.6562 17.1406 -9.6797 17.3828 Q-8.7031 17.625 -7.6406 17.625 Q-5.7812 17.625 -4.8125 16.8906 Q-3.8438 16.1562 -3.8438 14.7656 Q-3.8438 13.4688 -4.7422 12.7422 Q-5.6406 12.0156 -7.25 12.0156 L-8.9531 12.0156 L-8.9531 10.3906 L-7.1719 10.3906 Q-5.7188 10.3906 -4.9531 9.8125 Q-4.1875 9.2344 -4.1875 8.1406 Q-4.1875 7.0156 -4.9766 6.4141 Q-5.7656 5.8125 -7.25 5.8125 Q-8.0625 5.8125 -8.9922 5.9922 Q-9.9219 6.1719 -11.0312 6.5312 L-11.0312 4.7812 Q-9.9062 4.4688 -8.9297 4.3125 Q-7.9531 4.1562 -7.0781 4.1562 Q-4.8281 4.1562 -3.5234 5.1797 Q-2.2188 6.2031 -2.2188 7.9375 Q-2.2188 9.1406 -2.9141 9.9766 Q-3.6094 10.8125 -4.8906 11.1406 ZM5.9846 5.7188 Q4.4533 5.7188 3.6877 7.2188 Q2.9221 8.7188 2.9221 11.7188 Q2.9221 14.7188 3.6877 16.2188 Q4.4533 17.7188 5.9846 17.7188 Q7.5158 17.7188 8.2814 16.2188 Q9.0471 14.7188 9.0471 11.7188 Q9.0471 8.7188 8.2814 7.2188 Q7.5158 5.7188 5.9846 5.7188 ZM5.9846 4.1562 Q8.4377 4.1562 9.7268 6.0938 Q11.0158 8.0312 11.0158 11.7188 Q11.0158 15.4062 9.7268 17.3438 Q8.4377 19.2812 5.9846 19.2812 Q3.5314 19.2812 2.2346 17.3438 Q0.9377 15.4062 0.9377 11.7188 Q0.9377 8.0312 2.2346 6.0938 Q3.5314 4.1562 5.9846 4.1562 Z"
    /></g
    ><g transform="translate(2371.3999,1726.9445)" style="font-size:19.8611px; fill:rgb(38,38,38); text-rendering:geometricPrecision; image-rendering:optimizeQuality; color-rendering:optimizeQuality; font-family:'SansSerif'; stroke:rgb(38,38,38); color-interpolation:linearRGB;"
    ><path style="stroke:none;" d="M-4.8906 11.1406 Q-3.4688 11.4375 -2.6719 12.3984 Q-1.875 13.3594 -1.875 14.7656 Q-1.875 16.9219 -3.3594 18.1016 Q-4.8438 19.2812 -7.5781 19.2812 Q-8.5 19.2812 -9.4688 19.1016 Q-10.4375 18.9219 -11.4688 18.5625 L-11.4688 16.6562 Q-10.6562 17.1406 -9.6797 17.3828 Q-8.7031 17.625 -7.6406 17.625 Q-5.7812 17.625 -4.8125 16.8906 Q-3.8438 16.1562 -3.8438 14.7656 Q-3.8438 13.4688 -4.7422 12.7422 Q-5.6406 12.0156 -7.25 12.0156 L-8.9531 12.0156 L-8.9531 10.3906 L-7.1719 10.3906 Q-5.7188 10.3906 -4.9531 9.8125 Q-4.1875 9.2344 -4.1875 8.1406 Q-4.1875 7.0156 -4.9766 6.4141 Q-5.7656 5.8125 -7.25 5.8125 Q-8.0625 5.8125 -8.9922 5.9922 Q-9.9219 6.1719 -11.0312 6.5312 L-11.0312 4.7812 Q-9.9062 4.4688 -8.9297 4.3125 Q-7.9531 4.1562 -7.0781 4.1562 Q-4.8281 4.1562 -3.5234 5.1797 Q-2.2188 6.2031 -2.2188 7.9375 Q-2.2188 9.1406 -2.9141 9.9766 Q-3.6094 10.8125 -4.8906 11.1406 ZM1.7814 4.4219 L9.5314 4.4219 L9.5314 6.0781 L3.5939 6.0781 L3.5939 9.6562 Q4.0158 9.5 4.4455 9.4297 Q4.8752 9.3594 5.3127 9.3594 Q7.7502 9.3594 9.1799 10.6953 Q10.6096 12.0312 10.6096 14.3281 Q10.6096 16.6719 9.1408 17.9766 Q7.6721 19.2812 5.0002 19.2812 Q4.0939 19.2812 3.1408 19.125 Q2.1877 18.9688 1.1721 18.6562 L1.1721 16.6719 Q2.0471 17.1562 2.9846 17.3906 Q3.9221 17.625 4.9689 17.625 Q6.6564 17.625 7.6408 16.7344 Q8.6252 15.8438 8.6252 14.3281 Q8.6252 12.7969 7.6408 11.9062 Q6.6564 11.0156 4.9689 11.0156 Q4.1721 11.0156 3.3908 11.1953 Q2.6096 11.375 1.7814 11.75 L1.7814 4.4219 Z"
    /></g
    ><g transform="translate(2641.6001,1726.9445)" style="font-size:19.8611px; fill:rgb(38,38,38); text-rendering:geometricPrecision; image-rendering:optimizeQuality; color-rendering:optimizeQuality; font-family:'SansSerif'; stroke:rgb(38,38,38); color-interpolation:linearRGB;"
    ><path style="stroke:none;" d="M-5.4375 6.1406 L-10.4219 13.9219 L-5.4375 13.9219 L-5.4375 6.1406 ZM-5.9531 4.4219 L-3.4844 4.4219 L-3.4844 13.9219 L-1.3906 13.9219 L-1.3906 15.5625 L-3.4844 15.5625 L-3.4844 19 L-5.4375 19 L-5.4375 15.5625 L-12.0156 15.5625 L-12.0156 13.6562 L-5.9531 4.4219 ZM5.9846 5.7188 Q4.4533 5.7188 3.6877 7.2188 Q2.9221 8.7188 2.9221 11.7188 Q2.9221 14.7188 3.6877 16.2188 Q4.4533 17.7188 5.9846 17.7188 Q7.5158 17.7188 8.2814 16.2188 Q9.0471 14.7188 9.0471 11.7188 Q9.0471 8.7188 8.2814 7.2188 Q7.5158 5.7188 5.9846 5.7188 ZM5.9846 4.1562 Q8.4377 4.1562 9.7268 6.0938 Q11.0158 8.0312 11.0158 11.7188 Q11.0158 15.4062 9.7268 17.3438 Q8.4377 19.2812 5.9846 19.2812 Q3.5314 19.2812 2.2346 17.3438 Q0.9377 15.4062 0.9377 11.7188 Q0.9377 8.0312 2.2346 6.0938 Q3.5314 4.1562 5.9846 4.1562 Z"
    /></g
    ><g transform="translate(2911.8,1726.9445)" style="font-size:19.8611px; fill:rgb(38,38,38); text-rendering:geometricPrecision; image-rendering:optimizeQuality; color-rendering:optimizeQuality; font-family:'SansSerif'; stroke:rgb(38,38,38); color-interpolation:linearRGB;"
    ><path style="stroke:none;" d="M-5.4375 6.1406 L-10.4219 13.9219 L-5.4375 13.9219 L-5.4375 6.1406 ZM-5.9531 4.4219 L-3.4844 4.4219 L-3.4844 13.9219 L-1.3906 13.9219 L-1.3906 15.5625 L-3.4844 15.5625 L-3.4844 19 L-5.4375 19 L-5.4375 15.5625 L-12.0156 15.5625 L-12.0156 13.6562 L-5.9531 4.4219 ZM1.7814 4.4219 L9.5314 4.4219 L9.5314 6.0781 L3.5939 6.0781 L3.5939 9.6562 Q4.0158 9.5 4.4455 9.4297 Q4.8752 9.3594 5.3127 9.3594 Q7.7502 9.3594 9.1799 10.6953 Q10.6096 12.0312 10.6096 14.3281 Q10.6096 16.6719 9.1408 17.9766 Q7.6721 19.2812 5.0002 19.2812 Q4.0939 19.2812 3.1408 19.125 Q2.1877 18.9688 1.1721 18.6562 L1.1721 16.6719 Q2.0471 17.1562 2.9846 17.3906 Q3.9221 17.625 4.9689 17.625 Q6.6564 17.625 7.6408 16.7344 Q8.6252 15.8438 8.6252 14.3281 Q8.6252 12.7969 7.6408 11.9062 Q6.6564 11.0156 4.9689 11.0156 Q4.1721 11.0156 3.3908 11.1953 Q2.6096 11.375 1.7814 11.75 L1.7814 4.4219 Z"
    /></g
    ><g transform="translate(3182,1726.9445)" style="font-size:19.8611px; fill:rgb(38,38,38); text-rendering:geometricPrecision; image-rendering:optimizeQuality; color-rendering:optimizeQuality; font-family:'SansSerif'; stroke:rgb(38,38,38); color-interpolation:linearRGB;"
    ><path style="stroke:none;" d="M-10.8438 4.4219 L-3.0938 4.4219 L-3.0938 6.0781 L-9.0312 6.0781 L-9.0312 9.6562 Q-8.6094 9.5 -8.1797 9.4297 Q-7.75 9.3594 -7.3125 9.3594 Q-4.875 9.3594 -3.4453 10.6953 Q-2.0156 12.0312 -2.0156 14.3281 Q-2.0156 16.6719 -3.4844 17.9766 Q-4.9531 19.2812 -7.625 19.2812 Q-8.5312 19.2812 -9.4844 19.125 Q-10.4375 18.9688 -11.4531 18.6562 L-11.4531 16.6719 Q-10.5781 17.1562 -9.6406 17.3906 Q-8.7031 17.625 -7.6562 17.625 Q-5.9688 17.625 -4.9844 16.7344 Q-4 15.8438 -4 14.3281 Q-4 12.7969 -4.9844 11.9062 Q-5.9688 11.0156 -7.6562 11.0156 Q-8.4531 11.0156 -9.2344 11.1953 Q-10.0156 11.375 -10.8438 11.75 L-10.8438 4.4219 ZM5.9846 5.7188 Q4.4533 5.7188 3.6877 7.2188 Q2.9221 8.7188 2.9221 11.7188 Q2.9221 14.7188 3.6877 16.2188 Q4.4533 17.7188 5.9846 17.7188 Q7.5158 17.7188 8.2814 16.2188 Q9.0471 14.7188 9.0471 11.7188 Q9.0471 8.7188 8.2814 7.2188 Q7.5158 5.7188 5.9846 5.7188 ZM5.9846 4.1562 Q8.4377 4.1562 9.7268 6.0938 Q11.0158 8.0312 11.0158 11.7188 Q11.0158 15.4062 9.7268 17.3438 Q8.4377 19.2812 5.9846 19.2812 Q3.5314 19.2812 2.2346 17.3438 Q0.9377 15.4062 0.9377 11.7188 Q0.9377 8.0312 2.2346 6.0938 Q3.5314 4.1562 5.9846 4.1562 Z"
    /></g
    ><g transform="translate(1831.0012,1752.9305)" style="font-size:23.8333px; fill:rgb(38,38,38); text-rendering:geometricPrecision; image-rendering:optimizeQuality; color-rendering:optimizeQuality; font-family:'Ubuntu'; stroke:rgb(38,38,38); color-interpolation:linearRGB;"
    ><path style="stroke:none;" d="M-20.625 6.375 Q-21.375 7.1875 -22.3047 8.1797 Q-23.2344 9.1719 -24.2578 10.2188 Q-25.2812 11.2656 -26.2891 12.2734 Q-27.2969 13.2812 -28.1875 14.1406 Q-27.1562 14.8594 -26 15.9141 Q-24.8438 16.9688 -23.7422 18.1719 Q-22.6406 19.375 -21.6719 20.625 Q-20.7031 21.875 -20.0469 23 L-22.7812 23 Q-23.5 21.875 -24.4375 20.7344 Q-25.375 19.5938 -26.4219 18.5469 Q-27.4688 17.5 -28.5312 16.6172 Q-29.5938 15.7344 -30.6094 15.1094 L-30.6094 23 L-32.9375 23 L-32.9375 6.375 L-30.6094 6.375 L-30.6094 13.7188 Q-29.7656 12.9219 -28.7578 11.9219 Q-27.75 10.9219 -26.7656 9.9141 Q-25.7812 8.9062 -24.9062 7.9844 Q-24.0312 7.0625 -23.4375 6.375 L-20.625 6.375 ZM-13.8772 21.3906 Q-13.0804 21.3906 -12.471 21.3516 Q-11.8616 21.3125 -11.4554 21.2188 L-11.4554 17.5 Q-11.6897 17.3906 -12.2288 17.3047 Q-12.7679 17.2188 -13.5335 17.2188 Q-14.0491 17.2188 -14.6116 17.2891 Q-15.1741 17.3594 -15.6429 17.5859 Q-16.1116 17.8125 -16.4241 18.2109 Q-16.7366 18.6094 -16.7366 19.25 Q-16.7366 20.4531 -15.9632 20.9219 Q-15.1897 21.3906 -13.8772 21.3906 ZM-14.0647 10.2031 Q-12.721 10.2031 -11.7991 10.5547 Q-10.8772 10.9062 -10.3147 11.5391 Q-9.7522 12.1719 -9.5101 13.0469 Q-9.2679 13.9219 -9.2679 14.9844 L-9.2679 22.7812 Q-9.5491 22.8281 -10.0647 22.9141 Q-10.5804 23 -11.2288 23.0703 Q-11.8772 23.1406 -12.6351 23.2031 Q-13.3929 23.2656 -14.1429 23.2656 Q-15.1897 23.2656 -16.0804 23.0469 Q-16.971 22.8281 -17.6194 22.3594 Q-18.2679 21.8906 -18.6272 21.125 Q-18.9866 20.3594 -18.9866 19.2812 Q-18.9866 18.25 -18.5647 17.5078 Q-18.1429 16.7656 -17.4241 16.3047 Q-16.7054 15.8438 -15.7444 15.6328 Q-14.7835 15.4219 -13.7366 15.4219 Q-13.3929 15.4219 -13.0335 15.4531 Q-12.6741 15.4844 -12.3538 15.5469 Q-12.0335 15.6094 -11.7913 15.6562 Q-11.5491 15.7031 -11.4554 15.7344 L-11.4554 15.1094 Q-11.4554 14.5469 -11.5726 14.0078 Q-11.6897 13.4688 -12.0022 13.0469 Q-12.3147 12.625 -12.8538 12.375 Q-13.3929 12.125 -14.2522 12.125 Q-15.3616 12.125 -16.1897 12.2812 Q-17.0179 12.4375 -17.4241 12.6094 L-17.6897 10.7656 Q-17.2522 10.5625 -16.2444 10.3828 Q-15.2366 10.2031 -14.0647 10.2031 ZM-1.0531 10.25 Q-0.7719 10.25 -0.3969 10.2891 Q-0.0219 10.3281 0.3375 10.3906 Q0.6969 10.4531 0.9938 10.5078 Q1.2906 10.5625 1.4469 10.6094 L1.0563 12.5625 Q0.7906 12.4688 0.1813 12.3359 Q-0.4281 12.2031 -1.3969 12.2031 Q-2.0219 12.2031 -2.6312 12.3359 Q-3.2406 12.4688 -3.4281 12.5156 L-3.4281 23 L-5.6625 23 L-5.6625 11.0469 Q-4.8656 10.7656 -3.6937 10.5078 Q-2.5219 10.25 -1.0531 10.25 ZM3.5316 10.875 Q4.2973 10.6875 5.5551 10.4688 Q6.8129 10.25 8.4691 10.25 Q9.6723 10.25 10.4926 10.5781 Q11.3129 10.9062 11.8598 11.5312 Q12.0316 11.4062 12.391 11.1875 Q12.7504 10.9688 13.2738 10.7656 Q13.7973 10.5625 14.4457 10.4062 Q15.0941 10.25 15.8441 10.25 Q17.2816 10.25 18.1957 10.6719 Q19.1098 11.0938 19.6254 11.8594 Q20.141 12.625 20.3207 13.6875 Q20.5004 14.75 20.5004 15.9844 L20.5004 23 L18.266 23 L18.266 16.4688 Q18.266 15.375 18.1566 14.5781 Q18.0473 13.7812 17.7504 13.2578 Q17.4535 12.7344 16.9379 12.4766 Q16.4223 12.2188 15.5941 12.2188 Q14.4691 12.2188 13.7426 12.5234 Q13.016 12.8281 12.7504 13.0625 Q12.9379 13.6875 13.0316 14.4297 Q13.1254 15.1719 13.1254 15.9844 L13.1254 23 L10.891 23 L10.891 16.4688 Q10.891 15.375 10.7738 14.5781 Q10.6566 13.7812 10.3598 13.2578 Q10.0629 12.7344 9.5473 12.4766 Q9.0316 12.2188 8.2348 12.2188 Q7.891 12.2188 7.5082 12.2422 Q7.1254 12.2656 6.7816 12.3047 Q6.4379 12.3438 6.1488 12.3906 Q5.8598 12.4375 5.766 12.4688 L5.766 23 L3.5316 23 L3.5316 10.875 ZM28.2585 21.3906 Q29.0554 21.3906 29.6648 21.3516 Q30.2741 21.3125 30.6804 21.2188 L30.6804 17.5 Q30.446 17.3906 29.907 17.3047 Q29.3679 17.2188 28.6023 17.2188 Q28.0866 17.2188 27.5241 17.2891 Q26.9616 17.3594 26.4929 17.5859 Q26.0241 17.8125 25.7116 18.2109 Q25.3991 18.6094 25.3991 19.25 Q25.3991 20.4531 26.1726 20.9219 Q26.946 21.3906 28.2585 21.3906 ZM28.071 10.2031 Q29.4148 10.2031 30.3366 10.5547 Q31.2585 10.9062 31.821 11.5391 Q32.3835 12.1719 32.6257 13.0469 Q32.8679 13.9219 32.8679 14.9844 L32.8679 22.7812 Q32.5866 22.8281 32.071 22.9141 Q31.5554 23 30.907 23.0703 Q30.2585 23.1406 29.5007 23.2031 Q28.7429 23.2656 27.9929 23.2656 Q26.946 23.2656 26.0554 23.0469 Q25.1648 22.8281 24.5163 22.3594 Q23.8679 21.8906 23.5085 21.125 Q23.1491 20.3594 23.1491 19.2812 Q23.1491 18.25 23.571 17.5078 Q23.9929 16.7656 24.7116 16.3047 Q25.4304 15.8438 26.3913 15.6328 Q27.3523 15.4219 28.3991 15.4219 Q28.7429 15.4219 29.1023 15.4531 Q29.4616 15.4844 29.782 15.5469 Q30.1023 15.6094 30.3445 15.6562 Q30.5866 15.7031 30.6804 15.7344 L30.6804 15.1094 Q30.6804 14.5469 30.5632 14.0078 Q30.446 13.4688 30.1335 13.0469 Q29.821 12.625 29.282 12.375 Q28.7429 12.125 27.8835 12.125 Q26.7741 12.125 25.946 12.2812 Q25.1179 12.4375 24.7116 12.6094 L24.446 10.7656 Q24.8835 10.5625 25.8913 10.3828 Q26.8991 10.2031 28.071 10.2031 Z"
    /></g
    ><g style="fill:rgb(38,38,38); text-rendering:geometricPrecision; image-rendering:optimizeQuality; color-rendering:optimizeQuality; stroke-linejoin:round; stroke:rgb(38,38,38); color-interpolation:linearRGB; stroke-width:0.9931;"
    ><line y2="145" style="fill:none;" x1="480" x2="480" y1="1719"
      /><line y2="1719" style="fill:none;" x1="480" x2="507.02" y1="1719"
      /><line y2="1404.2" style="fill:none;" x1="480" x2="507.02" y1="1404.2"
      /><line y2="1089.4" style="fill:none;" x1="480" x2="507.02" y1="1089.4"
      /><line y2="774.6" style="fill:none;" x1="480" x2="507.02" y1="774.6"
      /><line y2="459.8" style="fill:none;" x1="480" x2="507.02" y1="459.8"
    /></g
    ><g transform="translate(472.0555,1719)" style="font-size:19.8611px; fill:rgb(38,38,38); text-rendering:geometricPrecision; image-rendering:optimizeQuality; color-rendering:optimizeQuality; font-family:'SansSerif'; stroke:rgb(38,38,38); color-interpolation:linearRGB;"
    ><path style="stroke:none;" d="M-6.6406 -6.2812 Q-8.1719 -6.2812 -8.9375 -4.7812 Q-9.7031 -3.2812 -9.7031 -0.2812 Q-9.7031 2.7188 -8.9375 4.2188 Q-8.1719 5.7188 -6.6406 5.7188 Q-5.1094 5.7188 -4.3438 4.2188 Q-3.5781 2.7188 -3.5781 -0.2812 Q-3.5781 -3.2812 -4.3438 -4.7812 Q-5.1094 -6.2812 -6.6406 -6.2812 ZM-6.6406 -7.8438 Q-4.1875 -7.8438 -2.8984 -5.9062 Q-1.6094 -3.9688 -1.6094 -0.2812 Q-1.6094 3.4062 -2.8984 5.3438 Q-4.1875 7.2812 -6.6406 7.2812 Q-9.0938 7.2812 -10.3906 5.3438 Q-11.6875 3.4062 -11.6875 -0.2812 Q-11.6875 -3.9688 -10.3906 -5.9062 Q-9.0938 -7.8438 -6.6406 -7.8438 Z"
    /></g
    ><g transform="translate(472.0555,1404.2)" style="font-size:19.8611px; fill:rgb(38,38,38); text-rendering:geometricPrecision; image-rendering:optimizeQuality; color-rendering:optimizeQuality; font-family:'SansSerif'; stroke:rgb(38,38,38); color-interpolation:linearRGB;"
    ><path style="stroke:none;" d="M-10.8438 -7.5781 L-3.0938 -7.5781 L-3.0938 -5.9219 L-9.0312 -5.9219 L-9.0312 -2.3438 Q-8.6094 -2.5 -8.1797 -2.5703 Q-7.75 -2.6406 -7.3125 -2.6406 Q-4.875 -2.6406 -3.4453 -1.3047 Q-2.0156 0.0312 -2.0156 2.3281 Q-2.0156 4.6719 -3.4844 5.9766 Q-4.9531 7.2812 -7.625 7.2812 Q-8.5312 7.2812 -9.4844 7.125 Q-10.4375 6.9688 -11.4531 6.6562 L-11.4531 4.6719 Q-10.5781 5.1562 -9.6406 5.3906 Q-8.7031 5.625 -7.6562 5.625 Q-5.9688 5.625 -4.9844 4.7344 Q-4 3.8438 -4 2.3281 Q-4 0.7969 -4.9844 -0.0938 Q-5.9688 -0.9844 -7.6562 -0.9844 Q-8.4531 -0.9844 -9.2344 -0.8047 Q-10.0156 -0.625 -10.8438 -0.25 L-10.8438 -7.5781 Z"
    /></g
    ><g transform="translate(472.0555,1089.4)" style="font-size:19.8611px; fill:rgb(38,38,38); text-rendering:geometricPrecision; image-rendering:optimizeQuality; color-rendering:optimizeQuality; font-family:'SansSerif'; stroke:rgb(38,38,38); color-interpolation:linearRGB;"
    ><path style="stroke:none;" d="M-23.5156 5.3438 L-20.2969 5.3438 L-20.2969 -5.7812 L-23.7969 -5.0781 L-23.7969 -6.875 L-20.3125 -7.5781 L-18.3438 -7.5781 L-18.3438 5.3438 L-15.125 5.3438 L-15.125 7 L-23.5156 7 L-23.5156 5.3438 ZM-7.0154 -6.2812 Q-8.5467 -6.2812 -9.3123 -4.7812 Q-10.0779 -3.2812 -10.0779 -0.2812 Q-10.0779 2.7188 -9.3123 4.2188 Q-8.5467 5.7188 -7.0154 5.7188 Q-5.4842 5.7188 -4.7186 4.2188 Q-3.9529 2.7188 -3.9529 -0.2812 Q-3.9529 -3.2812 -4.7186 -4.7812 Q-5.4842 -6.2812 -7.0154 -6.2812 ZM-7.0154 -7.8438 Q-4.5623 -7.8438 -3.2732 -5.9062 Q-1.9842 -3.9688 -1.9842 -0.2812 Q-1.9842 3.4062 -3.2732 5.3438 Q-4.5623 7.2812 -7.0154 7.2812 Q-9.4686 7.2812 -10.7654 5.3438 Q-12.0623 3.4062 -12.0623 -0.2812 Q-12.0623 -3.9688 -10.7654 -5.9062 Q-9.4686 -7.8438 -7.0154 -7.8438 Z"
    /></g
    ><g transform="translate(472.0555,774.6)" style="font-size:19.8611px; fill:rgb(38,38,38); text-rendering:geometricPrecision; image-rendering:optimizeQuality; color-rendering:optimizeQuality; font-family:'SansSerif'; stroke:rgb(38,38,38); color-interpolation:linearRGB;"
    ><path style="stroke:none;" d="M-23.5156 5.3438 L-20.2969 5.3438 L-20.2969 -5.7812 L-23.7969 -5.0781 L-23.7969 -6.875 L-20.3125 -7.5781 L-18.3438 -7.5781 L-18.3438 5.3438 L-15.125 5.3438 L-15.125 7 L-23.5156 7 L-23.5156 5.3438 ZM-11.2186 -7.5781 L-3.4686 -7.5781 L-3.4686 -5.9219 L-9.4061 -5.9219 L-9.4061 -2.3438 Q-8.9842 -2.5 -8.5545 -2.5703 Q-8.1248 -2.6406 -7.6873 -2.6406 Q-5.2498 -2.6406 -3.8201 -1.3047 Q-2.3904 0.0312 -2.3904 2.3281 Q-2.3904 4.6719 -3.8592 5.9766 Q-5.3279 7.2812 -7.9998 7.2812 Q-8.9061 7.2812 -9.8592 7.125 Q-10.8123 6.9688 -11.8279 6.6562 L-11.8279 4.6719 Q-10.9529 5.1562 -10.0154 5.3906 Q-9.0779 5.625 -8.0311 5.625 Q-6.3436 5.625 -5.3592 4.7344 Q-4.3748 3.8438 -4.3748 2.3281 Q-4.3748 0.7969 -5.3592 -0.0938 Q-6.3436 -0.9844 -8.0311 -0.9844 Q-8.8279 -0.9844 -9.6092 -0.8047 Q-10.3904 -0.625 -11.2186 -0.25 L-11.2186 -7.5781 Z"
    /></g
    ><g transform="translate(472.0555,459.8)" style="font-size:19.8611px; fill:rgb(38,38,38); text-rendering:geometricPrecision; image-rendering:optimizeQuality; color-rendering:optimizeQuality; font-family:'SansSerif'; stroke:rgb(38,38,38); color-interpolation:linearRGB;"
    ><path style="stroke:none;" d="M-22.1562 5.3438 L-15.2812 5.3438 L-15.2812 7 L-24.5312 7 L-24.5312 5.3438 Q-23.4062 4.1719 -21.4688 2.2188 Q-19.5312 0.2656 -19.0312 -0.3125 Q-18.0938 -1.375 -17.7188 -2.1094 Q-17.3438 -2.8438 -17.3438 -3.5625 Q-17.3438 -4.7188 -18.1562 -5.4531 Q-18.9688 -6.1875 -20.2812 -6.1875 Q-21.2031 -6.1875 -22.2344 -5.8672 Q-23.2656 -5.5469 -24.4375 -4.8906 L-24.4375 -6.875 Q-23.25 -7.3594 -22.2109 -7.6016 Q-21.1719 -7.8438 -20.3125 -7.8438 Q-18.0469 -7.8438 -16.7031 -6.7109 Q-15.3594 -5.5781 -15.3594 -3.6875 Q-15.3594 -2.7812 -15.6953 -1.9766 Q-16.0312 -1.1719 -16.9219 -0.0781 Q-17.1562 0.2031 -18.4688 1.5547 Q-19.7812 2.9062 -22.1562 5.3438 ZM-7.0154 -6.2812 Q-8.5467 -6.2812 -9.3123 -4.7812 Q-10.0779 -3.2812 -10.0779 -0.2812 Q-10.0779 2.7188 -9.3123 4.2188 Q-8.5467 5.7188 -7.0154 5.7188 Q-5.4842 5.7188 -4.7186 4.2188 Q-3.9529 2.7188 -3.9529 -0.2812 Q-3.9529 -3.2812 -4.7186 -4.7812 Q-5.4842 -6.2812 -7.0154 -6.2812 ZM-7.0154 -7.8438 Q-4.5623 -7.8438 -3.2732 -5.9062 Q-1.9842 -3.9688 -1.9842 -0.2812 Q-1.9842 3.4062 -3.2732 5.3438 Q-4.5623 7.2812 -7.0154 7.2812 Q-9.4686 7.2812 -10.7654 5.3438 Q-12.0623 3.4062 -12.0623 -0.2812 Q-12.0623 -3.9688 -10.7654 -5.9062 Q-9.4686 -7.8438 -7.0154 -7.8438 Z"
    /></g
    ><g transform="translate(440.0972,931.9993) rotate(-90)" style="font-size:23.8333px; fill:rgb(38,38,38); text-rendering:geometricPrecision; image-rendering:optimizeQuality; color-rendering:optimizeQuality; font-family:'Ubuntu'; stroke:rgb(38,38,38); color-interpolation:linearRGB;"
    ><path style="stroke:none;" d="M-24.75 -4.6406 Q-26.375 -4.6406 -27.5781 -5.1406 Q-28.7812 -5.6406 -29.5469 -6.5234 Q-30.3125 -7.4062 -30.6875 -8.6016 Q-31.0625 -9.7969 -31.0625 -11.1875 L-31.0625 -21.625 L-28.7344 -21.625 L-28.7344 -11.4531 Q-28.7344 -8.9531 -27.625 -7.8281 Q-26.5156 -6.7031 -24.75 -6.7031 Q-23.8594 -6.7031 -23.125 -6.9766 Q-22.3906 -7.25 -21.8672 -7.8281 Q-21.3438 -8.4062 -21.0547 -9.3047 Q-20.7656 -10.2031 -20.7656 -11.4531 L-20.7656 -21.625 L-18.4375 -21.625 L-18.4375 -11.1875 Q-18.4375 -9.7969 -18.8047 -8.6016 Q-19.1719 -7.4062 -19.9531 -6.5234 Q-20.7344 -5.6406 -21.9219 -5.1406 Q-23.1094 -4.6406 -24.75 -4.6406 ZM-12.5969 -17.4844 L-7.8782 -17.4844 L-7.8782 -15.6094 L-12.5969 -15.6094 L-12.5969 -9.8438 Q-12.5969 -8.9062 -12.4563 -8.2969 Q-12.3157 -7.6875 -12.0266 -7.3359 Q-11.7375 -6.9844 -11.3079 -6.8438 Q-10.8782 -6.7031 -10.3 -6.7031 Q-9.3 -6.7031 -8.6829 -6.9297 Q-8.0657 -7.1562 -7.8313 -7.25 L-7.3938 -5.4062 Q-7.7375 -5.2344 -8.5735 -4.9844 Q-9.4094 -4.7344 -10.4875 -4.7344 Q-11.7688 -4.7344 -12.5969 -5.0625 Q-13.425 -5.3906 -13.925 -6.0391 Q-14.425 -6.6875 -14.6282 -7.6328 Q-14.8313 -8.5781 -14.8313 -9.8281 L-14.8313 -20.9531 L-12.5969 -21.3438 L-12.5969 -17.4844 ZM-2.8811 -5 L-5.1154 -5 L-5.1154 -17.4844 L-2.8811 -17.4844 L-2.8811 -5 ZM-4.0061 -19.7344 Q-4.6154 -19.7344 -5.0373 -20.1328 Q-5.4592 -20.5312 -5.4592 -21.2031 Q-5.4592 -21.875 -5.0373 -22.2656 Q-4.6154 -22.6562 -4.0061 -22.6562 Q-3.4123 -22.6562 -2.9904 -22.2656 Q-2.5686 -21.875 -2.5686 -21.2031 Q-2.5686 -20.5312 -2.9904 -20.1328 Q-3.4123 -19.7344 -4.0061 -19.7344 ZM4.6451 -4.7656 Q2.5826 -4.8125 1.7233 -5.6484 Q0.8639 -6.4844 0.8639 -8.2656 L0.8639 -23.2344 L3.0983 -23.625 L3.0983 -8.625 Q3.0983 -8.0781 3.192 -7.7188 Q3.2858 -7.3594 3.5045 -7.1406 Q3.7233 -6.9219 4.0826 -6.8125 Q4.442 -6.7031 4.9576 -6.625 L4.6451 -4.7656 ZM9.6477 -5 L7.4133 -5 L7.4133 -17.4844 L9.6477 -17.4844 L9.6477 -5 ZM8.5227 -19.7344 Q7.9133 -19.7344 7.4915 -20.1328 Q7.0696 -20.5312 7.0696 -21.2031 Q7.0696 -21.875 7.4915 -22.2656 Q7.9133 -22.6562 8.5227 -22.6562 Q9.1165 -22.6562 9.5383 -22.2656 Q9.9602 -21.875 9.9602 -21.2031 Q9.9602 -20.5312 9.5383 -20.1328 Q9.1165 -19.7344 8.5227 -19.7344 ZM15.5333 -17.4844 L20.252 -17.4844 L20.252 -15.6094 L15.5333 -15.6094 L15.5333 -9.8438 Q15.5333 -8.9062 15.6739 -8.2969 Q15.8145 -7.6875 16.1036 -7.3359 Q16.3927 -6.9844 16.8223 -6.8438 Q17.252 -6.7031 17.8302 -6.7031 Q18.8302 -6.7031 19.4473 -6.9297 Q20.0645 -7.1562 20.2989 -7.25 L20.7364 -5.4062 Q20.3927 -5.2344 19.5567 -4.9844 Q18.7208 -4.7344 17.6427 -4.7344 Q16.3614 -4.7344 15.5333 -5.0625 Q14.7052 -5.3906 14.2052 -6.0391 Q13.7052 -6.6875 13.502 -7.6328 Q13.2989 -8.5781 13.2989 -9.8281 L13.2989 -20.9531 L15.5333 -21.3438 L15.5333 -17.4844 ZM21.546 -2.6719 Q21.8116 -2.5469 22.2335 -2.4453 Q22.6554 -2.3438 23.0616 -2.3438 Q24.3741 -2.3438 25.1241 -2.9297 Q25.8741 -3.5156 26.4679 -4.8281 Q24.9523 -7.7188 23.6476 -10.9453 Q22.3429 -14.1719 21.4835 -17.4844 L23.8741 -17.4844 Q24.1398 -16.4062 24.5148 -15.1562 Q24.8898 -13.9062 25.3429 -12.5859 Q25.796 -11.2656 26.3273 -9.9453 Q26.8585 -8.625 27.4366 -7.4062 Q28.3429 -9.9219 29.0148 -12.3906 Q29.6866 -14.8594 30.2804 -17.4844 L32.5929 -17.4844 Q31.7179 -13.9531 30.6632 -10.7031 Q29.6085 -7.4531 28.3898 -4.6094 Q27.9054 -3.5312 27.3898 -2.75 Q26.8741 -1.9688 26.2491 -1.4688 Q25.6241 -0.9688 24.8429 -0.7266 Q24.0616 -0.4844 23.0773 -0.4844 Q22.8273 -0.4844 22.5382 -0.5234 Q22.2491 -0.5625 21.9679 -0.625 Q21.6866 -0.6875 21.4601 -0.7578 Q21.2335 -0.8281 21.1398 -0.875 L21.546 -2.6719 Z"
    /></g
    ><g transform="translate(1468,127)" style="font-size:23.8333px; text-rendering:geometricPrecision; image-rendering:optimizeQuality; color-rendering:optimizeQuality; font-family:'Ubuntu'; color-interpolation:linearRGB; font-weight:bold;"
    ><path style="stroke:none;" d="M5.25 -8.0625 Q5.7812 -8.6406 6.3438 -9.2656 Q6.9062 -9.8906 7.4375 -10.5 Q7.9688 -11.1094 8.4375 -11.6641 Q8.9062 -12.2188 9.2344 -12.625 L13.4844 -12.625 Q12.2188 -11.1562 11.0078 -9.8281 Q9.7969 -8.5 8.3594 -7.0781 Q9.0781 -6.4375 9.8438 -5.5312 Q10.6094 -4.625 11.3281 -3.6719 Q12.0469 -2.7188 12.6484 -1.7578 Q13.25 -0.7969 13.6562 0 L9.5469 0 Q9.1719 -0.625 8.6797 -1.3828 Q8.1875 -2.1406 7.6328 -2.8906 Q7.0781 -3.6406 6.4688 -4.3438 Q5.8594 -5.0469 5.25 -5.5156 L5.25 0 L1.6875 0 L1.6875 -18.0469 L5.25 -18.625 L5.25 -8.0625 Z"
    /></g
    ><g transform="translate(1482,138)" style="font-size:19.0667px; text-rendering:geometricPrecision; image-rendering:optimizeQuality; color-rendering:optimizeQuality; font-family:'Ubuntu'; color-interpolation:linearRGB; font-weight:bold;"
    ><path style="stroke:none;" d="M7.7344 -5.0781 Q7.7344 -7.8125 5.7188 -7.8125 Q5.2812 -7.8125 4.8516 -7.6953 Q4.4219 -7.5781 4.1562 -7.4062 L4.1562 -2.2656 Q4.375 -2.2188 4.6953 -2.1953 Q5.0156 -2.1719 5.3906 -2.1719 Q6.5625 -2.1719 7.1484 -2.9688 Q7.7344 -3.7656 7.7344 -5.0781 ZM10.625 -5 Q10.625 -3.7969 10.2734 -2.8281 Q9.9219 -1.8594 9.2578 -1.1797 Q8.5938 -0.5 7.625 -0.125 Q6.6562 0.25 5.4219 0.25 Q4.9062 0.25 4.3438 0.2031 Q3.7812 0.1562 3.2422 0.0781 Q2.7031 0 2.2031 -0.1016 Q1.7031 -0.2031 1.3281 -0.3281 L1.3281 -14.2812 L4.1562 -14.75 L4.1562 -9.7656 Q4.6406 -9.9688 5.1484 -10.0859 Q5.6562 -10.2031 6.25 -10.2031 Q7.3125 -10.2031 8.1328 -9.8359 Q8.9531 -9.4688 9.5 -8.7812 Q10.0469 -8.0938 10.3359 -7.1328 Q10.625 -6.1719 10.625 -5 ZM16.6674 -1.9688 Q17.0737 -1.9688 17.4565 -1.9922 Q17.8393 -2.0156 18.0737 -2.0469 L18.0737 -4.2031 Q17.9018 -4.2344 17.558 -4.2734 Q17.2143 -4.3125 16.933 -4.3125 Q16.5268 -4.3125 16.1752 -4.2656 Q15.8237 -4.2188 15.558 -4.0859 Q15.2924 -3.9531 15.144 -3.7266 Q14.9955 -3.5 14.9955 -3.1562 Q14.9955 -2.4844 15.4409 -2.2266 Q15.8862 -1.9688 16.6674 -1.9688 ZM16.433 -10.2656 Q17.683 -10.2656 18.519 -9.9766 Q19.3549 -9.6875 19.8627 -9.1562 Q20.3705 -8.625 20.5737 -7.8672 Q20.7768 -7.1094 20.7768 -6.1719 L20.7768 -0.2812 Q20.1674 -0.1562 19.0893 0.0234 Q18.0112 0.2031 16.4643 0.2031 Q15.4955 0.2031 14.7065 0.0312 Q13.9174 -0.1406 13.3471 -0.5234 Q12.7768 -0.9062 12.4799 -1.5391 Q12.183 -2.1719 12.183 -3.0781 Q12.183 -3.9531 12.5346 -4.5625 Q12.8862 -5.1719 13.4721 -5.5312 Q14.058 -5.8906 14.8159 -6.0547 Q15.5737 -6.2188 16.4018 -6.2188 Q16.9487 -6.2188 17.3705 -6.1719 Q17.7924 -6.125 18.0737 -6.0469 L18.0737 -6.3125 Q18.0737 -7.0312 17.6362 -7.4688 Q17.1987 -7.9062 16.1049 -7.9062 Q15.3862 -7.9062 14.683 -7.7969 Q13.9799 -7.6875 13.4643 -7.5 L13.1049 -9.7812 Q13.3549 -9.8594 13.7221 -9.9453 Q14.0893 -10.0312 14.5268 -10.1016 Q14.9643 -10.1719 15.4487 -10.2188 Q15.933 -10.2656 16.433 -10.2656 ZM29.4097 -7.4844 Q29.0191 -7.5781 28.5113 -7.6875 Q28.0035 -7.7969 27.4097 -7.7969 Q27.1441 -7.7969 26.7691 -7.7422 Q26.3941 -7.6875 26.2066 -7.6406 L26.2066 0 L23.3785 0 L23.3785 -9.4688 Q24.1441 -9.7344 25.1754 -9.9688 Q26.2066 -10.2031 27.4879 -10.2031 Q27.7066 -10.2031 28.0347 -10.1719 Q28.3629 -10.1406 28.6832 -10.0938 Q29.0035 -10.0469 29.3238 -9.9844 Q29.6441 -9.9219 29.8785 -9.8281 L29.4097 -7.4844 Z"
    /></g
    ><g transform="translate(1513,127)" style="font-size:23.8333px; text-rendering:geometricPrecision; image-rendering:optimizeQuality; color-rendering:optimizeQuality; font-family:'Ubuntu'; color-interpolation:linearRGB; font-weight:bold;"
    ><path style="stroke:none;" d="M6.8884 -6.0312 L18.1697 -6.0312 L18.1697 -3.0312 L6.8884 -3.0312 L6.8884 -6.0312 ZM6.8884 -11.2812 L18.1697 -11.2812 L18.1697 -8.2812 L6.8884 -8.2812 L6.8884 -11.2812 ZM26.6498 -13.1719 Q27.3373 -13.4688 28.0951 -13.8359 Q28.8529 -14.2031 29.5717 -14.6484 Q30.2904 -15.0938 30.9467 -15.5859 Q31.6029 -16.0781 32.1342 -16.625 L34.6342 -16.625 L34.6342 0 L31.056 0 L31.056 -11.9688 Q30.3373 -11.5 29.4467 -11.1016 Q28.556 -10.7031 27.7279 -10.4219 L26.6498 -13.1719 ZM51.304 -8.3594 Q51.304 -4.1562 49.7102 -1.9062 Q48.1165 0.3438 45.304 0.3438 Q42.5071 0.3438 40.9055 -1.9062 Q39.304 -4.1562 39.304 -8.3594 Q39.304 -10.4375 39.7258 -12.0469 Q40.1477 -13.6562 40.9368 -14.7578 Q41.7258 -15.8594 42.8352 -16.4375 Q43.9446 -17.0156 45.304 -17.0156 Q48.1165 -17.0156 49.7102 -14.7734 Q51.304 -12.5312 51.304 -8.3594 ZM47.6633 -8.3594 Q47.6633 -9.5938 47.5383 -10.6172 Q47.4133 -11.6406 47.1555 -12.3828 Q46.8977 -13.125 46.4368 -13.5312 Q45.9758 -13.9375 45.304 -13.9375 Q44.6321 -13.9375 44.1868 -13.5312 Q43.7415 -13.125 43.468 -12.3828 Q43.1946 -11.6406 43.0774 -10.6172 Q42.9602 -9.5938 42.9602 -8.3594 Q42.9602 -7.1094 43.0774 -6.0781 Q43.1946 -5.0469 43.468 -4.2969 Q43.7415 -3.5469 44.1868 -3.1406 Q44.6321 -2.7344 45.304 -2.7344 Q45.9758 -2.7344 46.4368 -3.1406 Q46.8977 -3.5469 47.1555 -4.2969 Q47.4133 -5.0469 47.5383 -6.0781 Q47.6633 -7.1094 47.6633 -8.3594 ZM64.1903 -2.8594 Q64.9872 -2.8594 65.5028 -2.9922 Q66.0184 -3.125 66.3309 -3.3516 Q66.6434 -3.5781 66.7606 -3.8906 Q66.8778 -4.2031 66.8778 -4.5781 Q66.8778 -5.4062 66.1122 -5.9453 Q65.3466 -6.4844 63.4716 -7.1094 Q62.6591 -7.3906 61.8387 -7.7656 Q61.0184 -8.1406 60.37 -8.7031 Q59.7216 -9.2656 59.3153 -10.0703 Q58.9091 -10.875 58.9091 -12.0312 Q58.9091 -13.1719 59.3466 -14.1016 Q59.7841 -15.0312 60.5731 -15.6719 Q61.3622 -16.3125 62.4872 -16.6641 Q63.6122 -17.0156 65.0341 -17.0156 Q66.7059 -17.0156 67.9325 -16.6562 Q69.1591 -16.2969 69.9559 -15.8594 L68.8778 -12.9062 Q68.1747 -13.2656 67.3231 -13.5469 Q66.4716 -13.8281 65.2684 -13.8281 Q63.9247 -13.8281 63.3387 -13.4531 Q62.7528 -13.0781 62.7528 -12.3125 Q62.7528 -11.8594 62.9716 -11.5469 Q63.1903 -11.2344 63.5809 -10.9844 Q63.9716 -10.7344 64.4872 -10.5234 Q65.0028 -10.3125 65.6278 -10.1094 Q66.9247 -9.625 67.8856 -9.1562 Q68.8466 -8.6875 69.4872 -8.0625 Q70.1278 -7.4375 70.4403 -6.6016 Q70.7528 -5.7656 70.7528 -4.5625 Q70.7528 -2.2344 69.12 -0.9453 Q67.4872 0.3438 64.1903 0.3438 Q63.0966 0.3438 62.2059 0.2109 Q61.3153 0.0781 60.6278 -0.1172 Q59.9403 -0.3125 59.4481 -0.5312 Q58.9559 -0.75 58.6278 -0.9375 L59.6747 -3.9062 Q60.4247 -3.5 61.5184 -3.1797 Q62.6122 -2.8594 64.1903 -2.8594 ZM73.5217 0 L73.5217 -16.625 L84.7561 -16.625 L84.7561 -13.4844 L77.2561 -13.4844 L77.2561 -10.2188 L83.9123 -10.2188 L83.9123 -7.1562 L77.2561 -7.1562 L77.2561 -3.1406 L85.3029 -3.1406 L85.3029 0 L73.5217 0 ZM101.0319 -9.4531 Q100.5632 -9.5781 99.9147 -9.7109 Q99.2663 -9.8438 98.5163 -9.8438 Q98.1882 -9.8438 97.7194 -9.7812 Q97.2507 -9.7188 97.0007 -9.6406 L97.0007 0 L93.4382 0 L93.4382 -11.9531 Q94.3913 -12.2812 95.696 -12.5859 Q97.0007 -12.8906 98.61 -12.8906 Q98.9069 -12.8906 99.3132 -12.8516 Q99.7194 -12.8125 100.1257 -12.7578 Q100.5319 -12.7031 100.9382 -12.6172 Q101.3444 -12.5312 101.6413 -12.4062 L101.0319 -9.4531 ZM102.8804 -6.2188 Q102.8804 -7.8906 103.396 -9.1562 Q103.9117 -10.4219 104.7554 -11.2578 Q105.5992 -12.0938 106.6851 -12.5234 Q107.771 -12.9531 108.9273 -12.9531 Q111.6148 -12.9531 113.1773 -11.3125 Q114.7398 -9.6719 114.7398 -6.4844 Q114.7398 -6.1719 114.7163 -5.7969 Q114.6929 -5.4219 114.6617 -5.1406 L106.5523 -5.1406 Q106.6773 -4.0312 107.5913 -3.3828 Q108.5054 -2.7344 110.0367 -2.7344 Q111.021 -2.7344 111.9663 -2.9141 Q112.9117 -3.0938 113.521 -3.3594 L113.9898 -0.4531 Q113.7085 -0.3125 113.2242 -0.1719 Q112.7398 -0.0312 112.1538 0.0781 Q111.5679 0.1875 110.896 0.2656 Q110.2242 0.3438 109.5523 0.3438 Q107.8492 0.3438 106.5913 -0.1641 Q105.3335 -0.6719 104.5054 -1.5469 Q103.6773 -2.4219 103.2788 -3.625 Q102.8804 -4.8281 102.8804 -6.2188 ZM111.2867 -7.5781 Q111.2554 -8.0469 111.1226 -8.4766 Q110.9898 -8.9062 110.7163 -9.2422 Q110.4429 -9.5781 110.021 -9.7969 Q109.5992 -10.0156 108.9742 -10.0156 Q108.3804 -10.0156 107.9507 -9.8047 Q107.521 -9.5938 107.232 -9.2578 Q106.9429 -8.9219 106.7867 -8.4844 Q106.6304 -8.0469 106.5523 -7.5781 L111.2867 -7.5781 ZM122.4313 0.2344 Q120.8688 0.2188 119.9001 -0.0938 Q118.9313 -0.4062 118.3688 -0.9688 Q117.8063 -1.5312 117.6032 -2.3359 Q117.4001 -3.1406 117.4001 -4.1562 L117.4001 -18.0469 L120.9626 -18.625 L120.9626 -4.875 Q120.9626 -4.3906 121.0407 -4.0078 Q121.1188 -3.625 121.3219 -3.3594 Q121.5251 -3.0938 121.9079 -2.9297 Q122.2907 -2.7656 122.9313 -2.7188 L122.4313 0.2344 ZM129.7393 -2.5 Q130.2706 -2.5 130.7472 -2.5234 Q131.2237 -2.5469 131.5206 -2.5938 L131.5206 -5.2969 Q131.3018 -5.3594 130.8722 -5.4062 Q130.4425 -5.4531 130.0831 -5.4531 Q129.5831 -5.4531 129.1378 -5.3906 Q128.6925 -5.3281 128.3565 -5.1562 Q128.0206 -4.9844 127.8253 -4.7031 Q127.63 -4.4219 127.63 -3.9844 Q127.63 -3.1406 128.1925 -2.8203 Q128.755 -2.5 129.7393 -2.5 ZM129.4581 -12.9531 Q131.0362 -12.9531 132.0909 -12.5938 Q133.1456 -12.2344 133.7862 -11.5625 Q134.4268 -10.8906 134.6925 -9.9297 Q134.9581 -8.9688 134.9581 -7.7969 L134.9581 -0.3594 Q134.1768 -0.1875 132.8097 0.0391 Q131.4425 0.2656 129.505 0.2656 Q128.2862 0.2656 127.2862 0.0469 Q126.2862 -0.1719 125.5675 -0.6641 Q124.8487 -1.1562 124.4659 -1.9453 Q124.0831 -2.7344 124.0831 -3.8906 Q124.0831 -4.9844 124.5284 -5.7578 Q124.9737 -6.5312 125.7159 -6.9844 Q126.4581 -7.4375 127.419 -7.6406 Q128.38 -7.8438 129.4112 -7.8438 Q130.0987 -7.8438 130.6378 -7.7891 Q131.1768 -7.7344 131.5206 -7.625 L131.5206 -7.9688 Q131.5206 -8.875 130.9659 -9.4297 Q130.4112 -9.9844 129.0518 -9.9844 Q128.13 -9.9844 127.2472 -9.8516 Q126.3643 -9.7188 125.7081 -9.4844 L125.255 -12.3594 Q125.5675 -12.4531 126.0362 -12.5625 Q126.505 -12.6719 127.0597 -12.7578 Q127.6143 -12.8438 128.2237 -12.8984 Q128.8331 -12.9531 129.4581 -12.9531 ZM137.9737 -15.7656 L141.5519 -16.3438 L141.5519 -12.625 L145.8487 -12.625 L145.8487 -9.6406 L141.5519 -9.6406 L141.5519 -5.2031 Q141.5519 -4.0781 141.9425 -3.4062 Q142.3331 -2.7344 143.5362 -2.7344 Q144.1144 -2.7344 144.7237 -2.8438 Q145.3331 -2.9531 145.8487 -3.1406 L146.3487 -0.3594 Q145.6925 -0.0938 144.9034 0.0938 Q144.1144 0.2812 142.9581 0.2812 Q141.505 0.2812 140.5441 -0.1094 Q139.5831 -0.5 139.005 -1.2109 Q138.4269 -1.9219 138.2003 -2.9297 Q137.9737 -3.9375 137.9737 -5.1562 L137.9737 -15.7656 ZM152.2369 0 L148.6744 0 L148.6744 -12.625 L152.2369 -12.625 L152.2369 0 ZM152.5806 -16.2656 Q152.5806 -15.2812 151.94 -14.7188 Q151.2994 -14.1562 150.44 -14.1562 Q149.5806 -14.1562 148.94 -14.7188 Q148.2994 -15.2812 148.2994 -16.2656 Q148.2994 -17.25 148.94 -17.8203 Q149.5806 -18.3906 150.44 -18.3906 Q151.2994 -18.3906 151.94 -17.8203 Q152.5806 -17.25 152.5806 -16.2656 ZM158.9799 0 Q157.7612 -2.4062 156.5034 -5.6172 Q155.2455 -8.8281 154.1049 -12.625 L157.9018 -12.625 Q158.1362 -11.6875 158.4643 -10.5938 Q158.7924 -9.5 159.1362 -8.3828 Q159.4799 -7.2656 159.8315 -6.2109 Q160.183 -5.1562 160.5112 -4.2969 Q160.8237 -5.1562 161.1909 -6.2109 Q161.558 -7.2656 161.9018 -8.3828 Q162.2455 -9.5 162.5737 -10.5938 Q162.9018 -11.6875 163.1362 -12.625 L166.8237 -12.625 Q165.6987 -8.8281 164.4409 -5.6172 Q163.183 -2.4062 161.9643 0 L158.9799 0 ZM168.0491 -6.2188 Q168.0491 -7.8906 168.5647 -9.1562 Q169.0804 -10.4219 169.9241 -11.2578 Q170.7679 -12.0938 171.8538 -12.5234 Q172.9397 -12.9531 174.096 -12.9531 Q176.7835 -12.9531 178.346 -11.3125 Q179.9085 -9.6719 179.9085 -6.4844 Q179.9085 -6.1719 179.885 -5.7969 Q179.8616 -5.4219 179.8304 -5.1406 L171.721 -5.1406 Q171.846 -4.0312 172.76 -3.3828 Q173.6741 -2.7344 175.2054 -2.7344 Q176.1897 -2.7344 177.135 -2.9141 Q178.0804 -3.0938 178.6897 -3.3594 L179.1585 -0.4531 Q178.8772 -0.3125 178.3929 -0.1719 Q177.9085 -0.0312 177.3225 0.0781 Q176.7366 0.1875 176.0647 0.2656 Q175.3929 0.3438 174.721 0.3438 Q173.0179 0.3438 171.76 -0.1641 Q170.5022 -0.6719 169.6741 -1.5469 Q168.846 -2.4219 168.4475 -3.625 Q168.0491 -4.8281 168.0491 -6.2188 ZM176.4554 -7.5781 Q176.4241 -8.0469 176.2913 -8.4766 Q176.1585 -8.9062 175.885 -9.2422 Q175.6116 -9.5781 175.1897 -9.7969 Q174.7679 -10.0156 174.1429 -10.0156 Q173.5491 -10.0156 173.1194 -9.8047 Q172.6897 -9.5938 172.4007 -9.2578 Q172.1116 -8.9219 171.9554 -8.4844 Q171.7991 -8.0469 171.721 -7.5781 L176.4554 -7.5781 ZM188.1603 -15.7656 L191.7384 -16.3438 L191.7384 -12.625 L196.0353 -12.625 L196.0353 -9.6406 L191.7384 -9.6406 L191.7384 -5.2031 Q191.7384 -4.0781 192.1291 -3.4062 Q192.5197 -2.7344 193.7228 -2.7344 Q194.3009 -2.7344 194.9103 -2.8438 Q195.5197 -2.9531 196.0353 -3.1406 L196.5353 -0.3594 Q195.8791 -0.0938 195.09 0.0938 Q194.3009 0.2812 193.1447 0.2812 Q191.6916 0.2812 190.7306 -0.1094 Q189.7697 -0.5 189.1916 -1.2109 Q188.6134 -1.9219 188.3869 -2.9297 Q188.1603 -3.9375 188.1603 -5.1562 L188.1603 -15.7656 ZM210.6578 -6.3438 Q210.6578 -4.8438 210.2281 -3.6094 Q209.7984 -2.375 208.9781 -1.5 Q208.1578 -0.625 207.025 -0.1406 Q205.8922 0.3438 204.4703 0.3438 Q203.0797 0.3438 201.9391 -0.1406 Q200.7984 -0.625 199.9781 -1.5 Q199.1578 -2.375 198.7047 -3.6094 Q198.2516 -4.8438 198.2516 -6.3438 Q198.2516 -7.8281 198.7203 -9.0469 Q199.1891 -10.2656 200.0172 -11.1328 Q200.8453 -12 201.9859 -12.4766 Q203.1266 -12.9531 204.4703 -12.9531 Q205.8297 -12.9531 206.9703 -12.4766 Q208.1109 -12 208.9312 -11.1328 Q209.7516 -10.2656 210.2047 -9.0469 Q210.6578 -7.8281 210.6578 -6.3438 ZM207.0172 -6.3438 Q207.0172 -7.9844 206.3531 -8.9375 Q205.6891 -9.8906 204.4703 -9.8906 Q203.2516 -9.8906 202.5797 -8.9375 Q201.9078 -7.9844 201.9078 -6.3438 Q201.9078 -4.6875 202.5797 -3.7109 Q203.2516 -2.7344 204.4703 -2.7344 Q205.6891 -2.7344 206.3531 -3.7109 Q207.0172 -4.6875 207.0172 -6.3438 ZM223.8481 -2.5 Q224.3793 -2.5 224.8559 -2.5234 Q225.3325 -2.5469 225.6293 -2.5938 L225.6293 -5.2969 Q225.4106 -5.3594 224.9809 -5.4062 Q224.5512 -5.4531 224.1918 -5.4531 Q223.6918 -5.4531 223.2465 -5.3906 Q222.8012 -5.3281 222.4653 -5.1562 Q222.1293 -4.9844 221.934 -4.7031 Q221.7387 -4.4219 221.7387 -3.9844 Q221.7387 -3.1406 222.3012 -2.8203 Q222.8637 -2.5 223.8481 -2.5 ZM223.5668 -12.9531 Q225.145 -12.9531 226.1997 -12.5938 Q227.2543 -12.2344 227.895 -11.5625 Q228.5356 -10.8906 228.8012 -9.9297 Q229.0668 -8.9688 229.0668 -7.7969 L229.0668 -0.3594 Q228.2856 -0.1875 226.9184 0.0391 Q225.5512 0.2656 223.6137 0.2656 Q222.395 0.2656 221.395 0.0469 Q220.395 -0.1719 219.6762 -0.6641 Q218.9575 -1.1562 218.5747 -1.9453 Q218.1918 -2.7344 218.1918 -3.8906 Q218.1918 -4.9844 218.6372 -5.7578 Q219.0825 -6.5312 219.8247 -6.9844 Q220.5668 -7.4375 221.5278 -7.6406 Q222.4887 -7.8438 223.52 -7.8438 Q224.2075 -7.8438 224.7465 -7.7891 Q225.2856 -7.7344 225.6293 -7.625 L225.6293 -7.9688 Q225.6293 -8.875 225.0747 -9.4297 Q224.52 -9.9844 223.1606 -9.9844 Q222.2387 -9.9844 221.3559 -9.8516 Q220.4731 -9.7188 219.8168 -9.4844 L219.3637 -12.3594 Q219.6762 -12.4531 220.145 -12.5625 Q220.6137 -12.6719 221.1684 -12.7578 Q221.7231 -12.8438 222.3325 -12.8984 Q222.9418 -12.9531 223.5668 -12.9531 ZM235.6294 0 Q234.4106 -2.4062 233.1528 -5.6172 Q231.895 -8.8281 230.7544 -12.625 L234.5512 -12.625 Q234.7856 -11.6875 235.1137 -10.5938 Q235.4419 -9.5 235.7856 -8.3828 Q236.1294 -7.2656 236.4809 -6.2109 Q236.8325 -5.1562 237.1606 -4.2969 Q237.4731 -5.1562 237.8403 -6.2109 Q238.2075 -7.2656 238.5512 -8.3828 Q238.895 -9.5 239.2231 -10.5938 Q239.5512 -11.6875 239.7856 -12.625 L243.4731 -12.625 Q242.3481 -8.8281 241.0903 -5.6172 Q239.8325 -2.4062 238.6137 0 L235.6294 0 ZM244.6985 -6.2188 Q244.6985 -7.8906 245.2142 -9.1562 Q245.7298 -10.4219 246.5735 -11.2578 Q247.4173 -12.0938 248.5032 -12.5234 Q249.5892 -12.9531 250.7454 -12.9531 Q253.4329 -12.9531 254.9954 -11.3125 Q256.5579 -9.6719 256.5579 -6.4844 Q256.5579 -6.1719 256.5345 -5.7969 Q256.511 -5.4219 256.4798 -5.1406 L248.3704 -5.1406 Q248.4954 -4.0312 249.4095 -3.3828 Q250.3235 -2.7344 251.8548 -2.7344 Q252.8392 -2.7344 253.7845 -2.9141 Q254.7298 -3.0938 255.3392 -3.3594 L255.8079 -0.4531 Q255.5267 -0.3125 255.0423 -0.1719 Q254.5579 -0.0312 253.972 0.0781 Q253.386 0.1875 252.7142 0.2656 Q252.0423 0.3438 251.3704 0.3438 Q249.6673 0.3438 248.4095 -0.1641 Q247.1517 -0.6719 246.3235 -1.5469 Q245.4954 -2.4219 245.097 -3.625 Q244.6985 -4.8281 244.6985 -6.2188 ZM253.1048 -7.5781 Q253.0735 -8.0469 252.9407 -8.4766 Q252.8079 -8.9062 252.5345 -9.2422 Q252.261 -9.5781 251.8392 -9.7969 Q251.4173 -10.0156 250.7923 -10.0156 Q250.1985 -10.0156 249.7689 -9.8047 Q249.3392 -9.5938 249.0501 -9.2578 Q248.761 -8.9219 248.6048 -8.4844 Q248.4485 -8.0469 248.3704 -7.5781 L253.1048 -7.5781 ZM266.812 -9.4531 Q266.3432 -9.5781 265.6948 -9.7109 Q265.0463 -9.8438 264.2963 -9.8438 Q263.9682 -9.8438 263.4995 -9.7812 Q263.0307 -9.7188 262.7807 -9.6406 L262.7807 0 L259.2182 0 L259.2182 -11.9531 Q260.1713 -12.2812 261.476 -12.5859 Q262.7807 -12.8906 264.3901 -12.8906 Q264.687 -12.8906 265.0932 -12.8516 Q265.4995 -12.8125 265.9057 -12.7578 Q266.312 -12.7031 266.7182 -12.6172 Q267.1245 -12.5312 267.4213 -12.4062 L266.812 -9.4531 ZM274.0823 -2.5 Q274.6136 -2.5 275.0901 -2.5234 Q275.5667 -2.5469 275.8636 -2.5938 L275.8636 -5.2969 Q275.6448 -5.3594 275.2151 -5.4062 Q274.7854 -5.4531 274.4261 -5.4531 Q273.9261 -5.4531 273.4807 -5.3906 Q273.0354 -5.3281 272.6995 -5.1562 Q272.3636 -4.9844 272.1682 -4.7031 Q271.9729 -4.4219 271.9729 -3.9844 Q271.9729 -3.1406 272.5354 -2.8203 Q273.0979 -2.5 274.0823 -2.5 ZM273.8011 -12.9531 Q275.3792 -12.9531 276.4339 -12.5938 Q277.4886 -12.2344 278.1292 -11.5625 Q278.7698 -10.8906 279.0354 -9.9297 Q279.3011 -8.9688 279.3011 -7.7969 L279.3011 -0.3594 Q278.5198 -0.1875 277.1526 0.0391 Q275.7854 0.2656 273.8479 0.2656 Q272.6292 0.2656 271.6292 0.0469 Q270.6292 -0.1719 269.9104 -0.6641 Q269.1917 -1.1562 268.8089 -1.9453 Q268.4261 -2.7344 268.4261 -3.8906 Q268.4261 -4.9844 268.8714 -5.7578 Q269.3167 -6.5312 270.0589 -6.9844 Q270.8011 -7.4375 271.762 -7.6406 Q272.7229 -7.8438 273.7542 -7.8438 Q274.4417 -7.8438 274.9807 -7.7891 Q275.5198 -7.7344 275.8636 -7.625 L275.8636 -7.9688 Q275.8636 -8.875 275.3089 -9.4297 Q274.7542 -9.9844 273.3948 -9.9844 Q272.4729 -9.9844 271.5901 -9.8516 Q270.7073 -9.7188 270.0511 -9.4844 L269.5979 -12.3594 Q269.9104 -12.4531 270.3792 -12.5625 Q270.8479 -12.6719 271.4026 -12.7578 Q271.9573 -12.8438 272.5667 -12.8984 Q273.1761 -12.9531 273.8011 -12.9531 ZM285.4886 -6.7188 Q285.4886 -3.7188 287.9105 -3.7188 Q288.4573 -3.7188 288.9339 -3.8672 Q289.4105 -4.0156 289.7542 -4.2031 L289.7542 -9.9062 Q289.4886 -9.9531 289.1292 -9.9922 Q288.7698 -10.0312 288.2855 -10.0312 Q286.8792 -10.0312 286.1839 -9.0938 Q285.4886 -8.1562 285.4886 -6.7188 ZM293.3323 -1.5781 Q293.3323 1.5156 291.762 3.0156 Q290.1917 4.5156 286.8948 4.5156 Q285.7386 4.5156 284.5901 4.3125 Q283.4417 4.1094 282.4573 3.7656 L283.0823 0.7656 Q283.9261 1.1094 284.848 1.2969 Q285.7698 1.4844 286.9417 1.4844 Q288.4886 1.4844 289.1214 0.8125 Q289.7542 0.1406 289.7542 -0.9062 L289.7542 -1.375 Q289.1761 -1.1094 288.5667 -0.9766 Q287.9573 -0.8438 287.2386 -0.8438 Q284.6136 -0.8438 283.223 -2.3906 Q281.8323 -3.9375 281.8323 -6.7188 Q281.8323 -8.1094 282.262 -9.25 Q282.6917 -10.3906 283.5198 -11.2109 Q284.348 -12.0312 285.5511 -12.4688 Q286.7542 -12.9062 288.2698 -12.9062 Q288.9105 -12.9062 289.598 -12.8516 Q290.2855 -12.7969 290.9573 -12.6953 Q291.6292 -12.5938 292.2386 -12.4688 Q292.848 -12.3438 293.3323 -12.1875 L293.3323 -1.5781 ZM295.9808 -6.2188 Q295.9808 -7.8906 296.4964 -9.1562 Q297.0121 -10.4219 297.8558 -11.2578 Q298.6996 -12.0938 299.7855 -12.5234 Q300.8714 -12.9531 302.0277 -12.9531 Q304.7152 -12.9531 306.2777 -11.3125 Q307.8402 -9.6719 307.8402 -6.4844 Q307.8402 -6.1719 307.8167 -5.7969 Q307.7933 -5.4219 307.7621 -5.1406 L299.6527 -5.1406 Q299.7777 -4.0312 300.6917 -3.3828 Q301.6058 -2.7344 303.1371 -2.7344 Q304.1214 -2.7344 305.0667 -2.9141 Q306.0121 -3.0938 306.6214 -3.3594 L307.0902 -0.4531 Q306.8089 -0.3125 306.3246 -0.1719 Q305.8402 -0.0312 305.2542 0.0781 Q304.6683 0.1875 303.9964 0.2656 Q303.3246 0.3438 302.6527 0.3438 Q300.9496 0.3438 299.6917 -0.1641 Q298.4339 -0.6719 297.6058 -1.5469 Q296.7777 -2.4219 296.3792 -3.625 Q295.9808 -4.8281 295.9808 -6.2188 ZM304.3871 -7.5781 Q304.3558 -8.0469 304.223 -8.4766 Q304.0902 -8.9062 303.8167 -9.2422 Q303.5433 -9.5781 303.1214 -9.7969 Q302.6996 -10.0156 302.0746 -10.0156 Q301.4808 -10.0156 301.0511 -9.8047 Q300.6214 -9.5938 300.3324 -9.2578 Q300.0433 -8.9219 299.8871 -8.4844 Q299.7308 -8.0469 299.6527 -7.5781 L304.3871 -7.5781 ZM319.6389 0 Q318.4201 -2.4062 317.1623 -5.6172 Q315.9045 -8.8281 314.7639 -12.625 L318.5608 -12.625 Q318.7951 -11.6875 319.1233 -10.5938 Q319.4514 -9.5 319.7951 -8.3828 Q320.1389 -7.2656 320.4904 -6.2109 Q320.842 -5.1562 321.1701 -4.2969 Q321.4826 -5.1562 321.8498 -6.2109 Q322.217 -7.2656 322.5608 -8.3828 Q322.9045 -9.5 323.2326 -10.5938 Q323.5608 -11.6875 323.7951 -12.625 L327.4826 -12.625 Q326.3576 -8.8281 325.0998 -5.6172 Q323.842 -2.4062 322.6233 0 L319.6389 0 ZM334.1299 -2.5 Q334.6612 -2.5 335.1378 -2.5234 Q335.6143 -2.5469 335.9112 -2.5938 L335.9112 -5.2969 Q335.6924 -5.3594 335.2628 -5.4062 Q334.8331 -5.4531 334.4737 -5.4531 Q333.9737 -5.4531 333.5284 -5.3906 Q333.0831 -5.3281 332.7471 -5.1562 Q332.4112 -4.9844 332.2159 -4.7031 Q332.0206 -4.4219 332.0206 -3.9844 Q332.0206 -3.1406 332.5831 -2.8203 Q333.1456 -2.5 334.1299 -2.5 ZM333.8487 -12.9531 Q335.4268 -12.9531 336.4815 -12.5938 Q337.5362 -12.2344 338.1768 -11.5625 Q338.8174 -10.8906 339.0831 -9.9297 Q339.3487 -8.9688 339.3487 -7.7969 L339.3487 -0.3594 Q338.5674 -0.1875 337.2003 0.0391 Q335.8331 0.2656 333.8956 0.2656 Q332.6768 0.2656 331.6768 0.0469 Q330.6768 -0.1719 329.9581 -0.6641 Q329.2393 -1.1562 328.8565 -1.9453 Q328.4737 -2.7344 328.4737 -3.8906 Q328.4737 -4.9844 328.919 -5.7578 Q329.3643 -6.5312 330.1065 -6.9844 Q330.8487 -7.4375 331.8096 -7.6406 Q332.7706 -7.8438 333.8018 -7.8438 Q334.4893 -7.8438 335.0284 -7.7891 Q335.5674 -7.7344 335.9112 -7.625 L335.9112 -7.9688 Q335.9112 -8.875 335.3565 -9.4297 Q334.8018 -9.9844 333.4424 -9.9844 Q332.5206 -9.9844 331.6378 -9.8516 Q330.7549 -9.7188 330.0987 -9.4844 L329.6456 -12.3594 Q329.9581 -12.4531 330.4268 -12.5625 Q330.8956 -12.6719 331.4503 -12.7578 Q332.0049 -12.8438 332.6143 -12.8984 Q333.2237 -12.9531 333.8487 -12.9531 ZM347.5206 0.2344 Q345.9581 0.2188 344.9893 -0.0938 Q344.0206 -0.4062 343.4581 -0.9688 Q342.8956 -1.5312 342.6924 -2.3359 Q342.4893 -3.1406 342.4893 -4.1562 L342.4893 -18.0469 L346.0518 -18.625 L346.0518 -4.875 Q346.0518 -4.3906 346.1299 -4.0078 Q346.2081 -3.625 346.4112 -3.3594 Q346.6143 -3.0938 346.9971 -2.9297 Q347.3799 -2.7656 348.0206 -2.7188 L347.5206 0.2344 ZM360.7817 -0.4375 Q359.8755 -0.1719 358.4302 0.0547 Q356.9849 0.2812 355.4067 0.2812 Q353.7974 0.2812 352.7349 -0.1484 Q351.6724 -0.5781 351.0474 -1.3594 Q350.4224 -2.1406 350.1567 -3.2188 Q349.8911 -4.2969 349.8911 -5.5938 L349.8911 -12.625 L353.4692 -12.625 L353.4692 -6.0312 Q353.4692 -4.2969 353.9224 -3.5312 Q354.3755 -2.7656 355.6255 -2.7656 Q356.0161 -2.7656 356.4458 -2.7969 Q356.8755 -2.8281 357.2036 -2.875 L357.2036 -12.625 L360.7817 -12.625 L360.7817 -0.4375 ZM363.4361 -6.2188 Q363.4361 -7.8906 363.9517 -9.1562 Q364.4673 -10.4219 365.3111 -11.2578 Q366.1548 -12.0938 367.2408 -12.5234 Q368.3267 -12.9531 369.483 -12.9531 Q372.1705 -12.9531 373.733 -11.3125 Q375.2955 -9.6719 375.2955 -6.4844 Q375.2955 -6.1719 375.272 -5.7969 Q375.2486 -5.4219 375.2173 -5.1406 L367.108 -5.1406 Q367.233 -4.0312 368.147 -3.3828 Q369.0611 -2.7344 370.5923 -2.7344 Q371.5767 -2.7344 372.522 -2.9141 Q373.4673 -3.0938 374.0767 -3.3594 L374.5455 -0.4531 Q374.2642 -0.3125 373.7798 -0.1719 Q373.2955 -0.0312 372.7095 0.0781 Q372.1236 0.1875 371.4517 0.2656 Q370.7798 0.3438 370.108 0.3438 Q368.4048 0.3438 367.147 -0.1641 Q365.8892 -0.6719 365.0611 -1.5469 Q364.233 -2.4219 363.8345 -3.625 Q363.4361 -4.8281 363.4361 -6.2188 ZM371.8423 -7.5781 Q371.8111 -8.0469 371.6783 -8.4766 Q371.5455 -8.9062 371.272 -9.2422 Q370.9986 -9.5781 370.5767 -9.7969 Q370.1548 -10.0156 369.5298 -10.0156 Q368.9361 -10.0156 368.5064 -9.8047 Q368.0767 -9.5938 367.7877 -9.2578 Q367.4986 -8.9219 367.3423 -8.4844 Q367.1861 -8.0469 367.108 -7.5781 L371.8423 -7.5781 ZM389.1411 -18.625 Q390.1411 -18.625 390.9848 -18.4219 Q391.8286 -18.2188 392.2817 -18.0312 L391.5786 -15.1719 Q391.1098 -15.3906 390.5395 -15.4922 Q389.9692 -15.5938 389.5004 -15.5938 Q388.8442 -15.5938 388.3989 -15.4141 Q387.9536 -15.2344 387.7036 -14.9219 Q387.4536 -14.6094 387.3442 -14.1797 Q387.2348 -13.75 387.2348 -13.25 L387.2348 -12.625 L391.6567 -12.625 L391.6567 -9.6406 L387.2348 -9.6406 L387.2348 0 L383.6723 0 L383.6723 -13.2969 Q383.6723 -15.75 385.0473 -17.1875 Q386.4223 -18.625 389.1411 -18.625 ZM404.4895 -0.4375 Q403.5833 -0.1719 402.138 0.0547 Q400.6927 0.2812 399.1145 0.2812 Q397.5052 0.2812 396.4427 -0.1484 Q395.3802 -0.5781 394.7552 -1.3594 Q394.1302 -2.1406 393.8645 -3.2188 Q393.5989 -4.2969 393.5989 -5.5938 L393.5989 -12.625 L397.177 -12.625 L397.177 -6.0312 Q397.177 -4.2969 397.6302 -3.5312 Q398.0833 -2.7656 399.3333 -2.7656 Q399.7239 -2.7656 400.1536 -2.7969 Q400.5833 -2.8281 400.9114 -2.875 L400.9114 -12.625 L404.4895 -12.625 L404.4895 -0.4375 ZM407.7533 -12.1875 Q408.6595 -12.4531 410.097 -12.6797 Q411.5345 -12.9062 413.1283 -12.9062 Q414.722 -12.9062 415.7924 -12.4922 Q416.8627 -12.0781 417.4877 -11.3047 Q418.1127 -10.5312 418.3783 -9.4766 Q418.6439 -8.4219 418.6439 -7.125 L418.6439 0 L415.0658 0 L415.0658 -6.7031 Q415.0658 -8.4219 414.6127 -9.1406 Q414.1595 -9.8594 412.9095 -9.8594 Q412.5189 -9.8594 412.0892 -9.8281 Q411.6595 -9.7969 411.3158 -9.75 L411.3158 0 L407.7533 0 L407.7533 -12.1875 ZM421.1733 -6.3125 Q421.1733 -7.6875 421.6186 -8.8984 Q422.0639 -10.1094 422.8998 -11.0078 Q423.7358 -11.9062 424.9389 -12.4297 Q426.142 -12.9531 427.6733 -12.9531 Q428.6889 -12.9531 429.5248 -12.7734 Q430.3608 -12.5938 431.1577 -12.2656 L430.4077 -9.4062 Q429.9077 -9.5938 429.3061 -9.7422 Q428.7045 -9.8906 427.9702 -9.8906 Q426.3764 -9.8906 425.603 -8.9062 Q424.8295 -7.9219 424.8295 -6.3125 Q424.8295 -4.6094 425.5561 -3.6719 Q426.2827 -2.7344 428.1108 -2.7344 Q428.7514 -2.7344 429.5014 -2.8516 Q430.2514 -2.9688 430.8764 -3.2344 L431.3764 -0.3125 Q430.7514 -0.0469 429.8139 0.1484 Q428.8764 0.3438 427.7514 0.3438 Q426.017 0.3438 424.7748 -0.1797 Q423.5327 -0.7031 422.728 -1.5859 Q421.9233 -2.4688 421.5483 -3.6797 Q421.1733 -4.8906 421.1733 -6.3125 ZM433.5671 -15.7656 L437.1453 -16.3438 L437.1453 -12.625 L441.4421 -12.625 L441.4421 -9.6406 L437.1453 -9.6406 L437.1453 -5.2031 Q437.1453 -4.0781 437.5359 -3.4062 Q437.9265 -2.7344 439.1296 -2.7344 Q439.7078 -2.7344 440.3171 -2.8438 Q440.9265 -2.9531 441.4421 -3.1406 L441.9421 -0.3594 Q441.2859 -0.0938 440.4968 0.0938 Q439.7078 0.2812 438.5515 0.2812 Q437.0984 0.2812 436.1375 -0.1094 Q435.1765 -0.5 434.5984 -1.2109 Q434.0203 -1.9219 433.7937 -2.9297 Q433.5671 -3.9375 433.5671 -5.1562 L433.5671 -15.7656 ZM447.8303 0 L444.2678 0 L444.2678 -12.625 L447.8303 -12.625 L447.8303 0 ZM448.174 -16.2656 Q448.174 -15.2812 447.5334 -14.7188 Q446.8928 -14.1562 446.0334 -14.1562 Q445.174 -14.1562 444.5334 -14.7188 Q443.8928 -15.2812 443.8928 -16.2656 Q443.8928 -17.25 444.5334 -17.8203 Q445.174 -18.3906 446.0334 -18.3906 Q446.8928 -18.3906 447.5334 -17.8203 Q448.174 -17.25 448.174 -16.2656 ZM462.9483 -6.3438 Q462.9483 -4.8438 462.5186 -3.6094 Q462.0889 -2.375 461.2686 -1.5 Q460.4483 -0.625 459.3155 -0.1406 Q458.1827 0.3438 456.7608 0.3438 Q455.3702 0.3438 454.2296 -0.1406 Q453.0889 -0.625 452.2686 -1.5 Q451.4483 -2.375 450.9952 -3.6094 Q450.5421 -4.8438 450.5421 -6.3438 Q450.5421 -7.8281 451.0108 -9.0469 Q451.4796 -10.2656 452.3077 -11.1328 Q453.1358 -12 454.2764 -12.4766 Q455.4171 -12.9531 456.7608 -12.9531 Q458.1202 -12.9531 459.2608 -12.4766 Q460.4014 -12 461.2217 -11.1328 Q462.0421 -10.2656 462.4952 -9.0469 Q462.9483 -7.8281 462.9483 -6.3438 ZM459.3077 -6.3438 Q459.3077 -7.9844 458.6436 -8.9375 Q457.9796 -9.8906 456.7608 -9.8906 Q455.5421 -9.8906 454.8702 -8.9375 Q454.1983 -7.9844 454.1983 -6.3438 Q454.1983 -4.6875 454.8702 -3.7109 Q455.5421 -2.7344 456.7608 -2.7344 Q457.9796 -2.7344 458.6436 -3.7109 Q459.3077 -4.6875 459.3077 -6.3438 ZM465.6096 -12.1875 Q466.5158 -12.4531 467.9533 -12.6797 Q469.3908 -12.9062 470.9846 -12.9062 Q472.5783 -12.9062 473.6486 -12.4922 Q474.7189 -12.0781 475.3439 -11.3047 Q475.9689 -10.5312 476.2346 -9.4766 Q476.5002 -8.4219 476.5002 -7.125 L476.5002 0 L472.9221 0 L472.9221 -6.7031 Q472.9221 -8.4219 472.4689 -9.1406 Q472.0158 -9.8594 470.7658 -9.8594 Q470.3752 -9.8594 469.9455 -9.8281 Q469.5158 -9.7969 469.1721 -9.75 L469.1721 0 L465.6096 0 L465.6096 -12.1875 ZM490.8242 -18.625 Q491.8242 -18.625 492.668 -18.4219 Q493.5117 -18.2188 493.9648 -18.0312 L493.2617 -15.1719 Q492.793 -15.3906 492.2227 -15.4922 Q491.6523 -15.5938 491.1836 -15.5938 Q490.5273 -15.5938 490.082 -15.4141 Q489.6367 -15.2344 489.3867 -14.9219 Q489.1367 -14.6094 489.0273 -14.1797 Q488.918 -13.75 488.918 -13.25 L488.918 -12.625 L493.3398 -12.625 L493.3398 -9.6406 L488.918 -9.6406 L488.918 0 L485.3555 0 L485.3555 -13.2969 Q485.3555 -15.75 486.7305 -17.1875 Q488.1055 -18.625 490.8242 -18.625 ZM507.2039 -6.3438 Q507.2039 -4.8438 506.7743 -3.6094 Q506.3446 -2.375 505.5243 -1.5 Q504.7039 -0.625 503.5711 -0.1406 Q502.4383 0.3438 501.0164 0.3438 Q499.6258 0.3438 498.4852 -0.1406 Q497.3446 -0.625 496.5243 -1.5 Q495.7039 -2.375 495.2508 -3.6094 Q494.7977 -4.8438 494.7977 -6.3438 Q494.7977 -7.8281 495.2664 -9.0469 Q495.7352 -10.2656 496.5633 -11.1328 Q497.3914 -12 498.5321 -12.4766 Q499.6727 -12.9531 501.0164 -12.9531 Q502.3758 -12.9531 503.5164 -12.4766 Q504.6571 -12 505.4774 -11.1328 Q506.2977 -10.2656 506.7508 -9.0469 Q507.2039 -7.8281 507.2039 -6.3438 ZM503.5633 -6.3438 Q503.5633 -7.9844 502.8993 -8.9375 Q502.2352 -9.8906 501.0164 -9.8906 Q499.7977 -9.8906 499.1258 -8.9375 Q498.4539 -7.9844 498.4539 -6.3438 Q498.4539 -4.6875 499.1258 -3.7109 Q499.7977 -2.7344 501.0164 -2.7344 Q502.2352 -2.7344 502.8993 -3.7109 Q503.5633 -4.6875 503.5633 -6.3438 ZM517.4589 -9.4531 Q516.9902 -9.5781 516.3417 -9.7109 Q515.6933 -9.8438 514.9433 -9.8438 Q514.6152 -9.8438 514.1464 -9.7812 Q513.6777 -9.7188 513.4277 -9.6406 L513.4277 0 L509.8652 0 L509.8652 -11.9531 Q510.8183 -12.2812 512.123 -12.5859 Q513.4277 -12.8906 515.037 -12.8906 Q515.3339 -12.8906 515.7402 -12.8516 Q516.1464 -12.8125 516.5527 -12.7578 Q516.9589 -12.7031 517.3652 -12.6172 Q517.7714 -12.5312 518.0683 -12.4062 L517.4589 -9.4531 Z"
    /></g
    ><g transform="translate(2037,127)" style="font-size:23.8333px; text-rendering:geometricPrecision; image-rendering:optimizeQuality; color-rendering:optimizeQuality; font-family:'mwb_cmmi10'; color-interpolation:linearRGB; font-weight:bold;"
    ><path style="stroke:none;" d="M0.6719 4.5156 Q0.6719 4.375 0.6875 4.3281 L4.2188 -9.8438 Q4.3281 -10.1875 4.6016 -10.3984 Q4.875 -10.6094 5.2344 -10.6094 Q6.5312 -10.6094 6.7422 -10.4297 Q6.9531 -10.25 6.9531 -9.9375 Q6.9531 -9.875 6.9453 -9.8281 Q6.9375 -9.7812 6.9375 -9.7344 L5.5156 -4.125 Q5.2812 -3.125 5.2812 -2.4062 Q5.2812 -1.5156 5.7031 -0.9375 Q6.125 -0.3594 6.125 -0.3594 Q7.7188 -0.3594 9.0469 -2.5469 Q9.0625 -2.5625 9.0703 -2.5781 Q9.0781 -2.5938 9.0781 -2.6094 L10.8125 -9.5781 Q10.8906 -9.8906 11.1797 -10.1172 Q11.4688 -10.3438 11.8125 -10.3438 Q13.0938 -10.3438 13.3125 -10.1562 Q13.5312 -9.9688 13.5312 -9.6719 Q13.5312 -9.5312 13.5 -9.4844 L11.7812 -2.5625 Q11.6094 -1.8906 11.6094 -1.3906 Q11.6094 -0.3594 11.6094 -0.3594 Q12.0625 -0.3594 12.4453 -1.2891 Q12.8281 -2.2188 13.1094 -3.5312 Q13.1562 -3.6719 13.2969 -3.6719 L13.5781 -3.6719 Q14.6719 -3.6719 14.7422 -3.5938 Q14.8125 -3.5156 14.8125 -3.4375 Q14.3906 -1.7656 13.8906 -0.75 Q13.3906 0.2656 11.2656 0.2656 Q10.4688 0.2656 9.8516 -0.1875 Q9.2344 -0.6406 9.2344 -0.6406 Q9.2344 -0.6406 8.5391 -0.1875 Q7.8438 0.2656 5.9531 0.2656 Q4.4531 0.2656 4.3125 0.1406 L3.375 4.4219 Q3.3125 4.7656 3.0312 4.9766 Q2.75 5.1875 1.3906 5.1875 Q1.1094 5.1875 0.8906 5 Q0.6719 4.8125 0.6719 4.5156 Z"
    /></g
    ><g transform="translate(2053,127)" style="font-size:23.8333px; text-rendering:geometricPrecision; image-rendering:optimizeQuality; color-rendering:optimizeQuality; font-family:'Ubuntu'; color-interpolation:linearRGB; font-weight:bold;"
    ><path style="stroke:none;" d="M6.8884 -6.0312 L18.1697 -6.0312 L18.1697 -3.0312 L6.8884 -3.0312 L6.8884 -6.0312 ZM6.8884 -11.2812 L18.1697 -11.2812 L18.1697 -8.2812 L6.8884 -8.2812 L6.8884 -11.2812 ZM26.6498 -13.1719 Q27.3373 -13.4688 28.0951 -13.8359 Q28.8529 -14.2031 29.5717 -14.6484 Q30.2904 -15.0938 30.9467 -15.5859 Q31.6029 -16.0781 32.1342 -16.625 L34.6342 -16.625 L34.6342 0 L31.056 0 L31.056 -11.9688 Q30.3373 -11.5 29.4467 -11.1016 Q28.556 -10.7031 27.7279 -10.4219 L26.6498 -13.1719 ZM43.554 -3.6406 Q43.6008 -3.0781 43.6165 -2.8359 Q43.6321 -2.5938 43.6321 -2.4219 Q43.6321 -1.7031 43.4993 -0.8984 Q43.3665 -0.0938 43.1243 0.7188 Q42.8821 1.5312 42.5227 2.3516 Q42.1633 3.1719 41.7102 3.9062 L38.8977 3.2188 Q39.4446 1.625 39.6633 0.2344 Q39.8821 -1.1562 39.8821 -2.0625 Q39.8821 -2.2031 39.8743 -2.4297 Q39.8665 -2.6562 39.8508 -2.8984 Q39.8352 -3.1406 39.8196 -3.3594 Q39.804 -3.5781 39.804 -3.6406 L43.554 -3.6406 Z"
    /></g
    ><g transform="translate(2104,127)" style="font-size:23.8333px; text-rendering:geometricPrecision; image-rendering:optimizeQuality; color-rendering:optimizeQuality; font-family:'mwb_cmmi10'; color-interpolation:linearRGB; font-weight:bold;"
    ><path style="stroke:none;" d="M4.8281 0.2656 Q3.6875 0.2656 2.8047 -0.2734 Q1.9219 -0.8125 1.4453 -1.7266 Q0.9688 -2.6406 0.9688 -3.7969 Q0.9688 -5.4219 1.875 -7.0156 Q2.7812 -8.6094 4.2891 -9.6094 Q5.7969 -10.6094 7.4375 -10.6094 Q9.6562 -10.6094 10.5859 -9.9688 Q11.5156 -9.3281 11.9922 -8.2656 Q12.4688 -7.2031 12.4688 -6 L12.4688 -5.125 Q12.4688 -5.5312 12.9609 -6.7578 Q13.4531 -7.9844 13.7656 -9.2969 Q13.8125 -9.4375 13.9531 -9.4375 L14.2344 -9.4375 Q15.4531 -9.4375 15.4531 -9.2188 Q15.4531 -9.1875 15.4219 -9.1406 Q15.1406 -8.0469 14.7188 -7.0312 Q14.2969 -6.0156 13.7344 -5.0625 Q13.1719 -4.1094 12.5 -3.3438 Q12.5 -0.3594 12.5 -0.3594 Q12.6406 -0.3594 12.9219 -0.625 Q13.2031 -0.8906 13.4219 -1.2812 Q13.6406 -1.6719 13.7031 -1.6719 L14 -1.6719 Q15.1875 -1.6719 15.1875 -1.4375 Q15.1875 -0.8438 14.5 -0.2891 Q13.8125 0.2656 12.1406 0.2656 Q11.2812 0.2656 10.7031 -0.2969 Q10.125 -0.8594 10.0781 -1.0312 Q9.7969 -0.7969 8.4844 -0.2656 Q7.1719 0.2656 4.8281 0.2656 ZM4.875 -0.3594 Q7.4375 -0.3594 9.7969 -2.4688 Q9.7812 -2.6094 9.7578 -2.8203 Q9.7344 -3.0312 9.7344 -3.0469 L9.7344 -5.6406 Q9.7344 -9.9844 7.3906 -9.9844 Q6.9844 -9.9844 5.9297 -8.7812 Q4.875 -7.5781 4.3438 -5.9141 Q3.8125 -4.25 3.8125 -2.8594 Q3.8125 -1.8125 4.3438 -1.0859 Q4.875 -0.3594 4.875 -0.3594 Z"
    /></g
    ><g transform="translate(2121,127)" style="font-size:23.8333px; text-rendering:geometricPrecision; image-rendering:optimizeQuality; color-rendering:optimizeQuality; font-family:'Ubuntu'; color-interpolation:linearRGB; font-weight:bold;"
    ><path style="stroke:none;" d="M6.8884 -6.0312 L18.1697 -6.0312 L18.1697 -3.0312 L6.8884 -3.0312 L6.8884 -6.0312 ZM6.8884 -11.2812 L18.1697 -11.2812 L18.1697 -8.2812 L6.8884 -8.2812 L6.8884 -11.2812 ZM26.6498 -13.1719 Q27.3373 -13.4688 28.0951 -13.8359 Q28.8529 -14.2031 29.5717 -14.6484 Q30.2904 -15.0938 30.9467 -15.5859 Q31.6029 -16.0781 32.1342 -16.625 L34.6342 -16.625 L34.6342 0 L31.056 0 L31.056 -11.9688 Q30.3373 -11.5 29.4467 -11.1016 Q28.556 -10.7031 27.7279 -10.4219 L26.6498 -13.1719 ZM43.679 -1.8906 Q43.679 -0.8125 42.9915 -0.25 Q42.304 0.3125 41.4446 0.3125 Q40.5852 0.3125 39.8977 -0.25 Q39.2102 -0.8125 39.2102 -1.8906 Q39.2102 -2.9688 39.8977 -3.5391 Q40.5852 -4.1094 41.4446 -4.1094 Q42.304 -4.1094 42.9915 -3.5391 Q43.679 -2.9688 43.679 -1.8906 ZM57.1634 -8.3594 Q57.1634 -4.1562 55.5697 -1.9062 Q53.9759 0.3438 51.1634 0.3438 Q48.3665 0.3438 46.765 -1.9062 Q45.1634 -4.1562 45.1634 -8.3594 Q45.1634 -10.4375 45.5853 -12.0469 Q46.0072 -13.6562 46.7962 -14.7578 Q47.5853 -15.8594 48.6947 -16.4375 Q49.804 -17.0156 51.1634 -17.0156 Q53.9759 -17.0156 55.5697 -14.7734 Q57.1634 -12.5312 57.1634 -8.3594 ZM53.5228 -8.3594 Q53.5228 -9.5938 53.3978 -10.6172 Q53.2728 -11.6406 53.015 -12.3828 Q52.7572 -13.125 52.2962 -13.5312 Q51.8353 -13.9375 51.1634 -13.9375 Q50.4915 -13.9375 50.0462 -13.5312 Q49.6009 -13.125 49.3275 -12.3828 Q49.054 -11.6406 48.9369 -10.6172 Q48.8197 -9.5938 48.8197 -8.3594 Q48.8197 -7.1094 48.9369 -6.0781 Q49.054 -5.0469 49.3275 -4.2969 Q49.6009 -3.5469 50.0462 -3.1406 Q50.4915 -2.7344 51.1634 -2.7344 Q51.8353 -2.7344 52.2962 -3.1406 Q52.7572 -3.5469 53.015 -4.2969 Q53.2728 -5.0469 53.3978 -6.0781 Q53.5228 -7.1094 53.5228 -8.3594 ZM70.6926 -8.3594 Q70.6926 -4.1562 69.0988 -1.9062 Q67.5051 0.3438 64.6926 0.3438 Q61.8957 0.3438 60.2942 -1.9062 Q58.6926 -4.1562 58.6926 -8.3594 Q58.6926 -10.4375 59.1145 -12.0469 Q59.5363 -13.6562 60.3254 -14.7578 Q61.1145 -15.8594 62.2238 -16.4375 Q63.3332 -17.0156 64.6926 -17.0156 Q67.5051 -17.0156 69.0988 -14.7734 Q70.6926 -12.5312 70.6926 -8.3594 ZM67.052 -8.3594 Q67.052 -9.5938 66.927 -10.6172 Q66.802 -11.6406 66.5442 -12.3828 Q66.2863 -13.125 65.8254 -13.5312 Q65.3645 -13.9375 64.6926 -13.9375 Q64.0207 -13.9375 63.5754 -13.5312 Q63.1301 -13.125 62.8567 -12.3828 Q62.5832 -11.6406 62.466 -10.6172 Q62.3488 -9.5938 62.3488 -8.3594 Q62.3488 -7.1094 62.466 -6.0781 Q62.5832 -5.0469 62.8567 -4.2969 Q63.1301 -3.5469 63.5754 -3.1406 Q64.0207 -2.7344 64.6926 -2.7344 Q65.3645 -2.7344 65.8254 -3.1406 Q66.2863 -3.5469 66.5442 -4.2969 Q66.802 -5.0469 66.927 -6.0781 Q67.052 -7.1094 67.052 -8.3594 Z"
    /></g
    ><g style="stroke-linecap:butt; fill:rgb(0,114,189); text-rendering:geometricPrecision; image-rendering:optimizeQuality; color-rendering:optimizeQuality; stroke-linejoin:round; stroke:rgb(0,114,189); color-interpolation:linearRGB; stroke-width:3.9722;"
    ><path d="M480 1719 L534.04 1687.52 L588.08 1656.04 L642.12 1624.5601 L696.16 1593.08 L750.2 1561.6 L804.24 1530.12 L858.28 1498.64 L912.32 1467.16 L966.36 1435.6801 L1020.4 1404.2 L1074.4399 1372.72 L1128.48 1341.24 L1182.52 1309.76 L1236.5601 1278.28 L1290.6 1246.8 L1344.64 1215.3199 L1398.6801 1183.84 L1452.72 1152.36 L1506.76 1120.88 L1560.8 1089.4 L1614.84 1057.92 L1668.88 1026.4399 L1722.92 994.96 L1776.96 963.48 L1831 932 L1885.04 900.52 L1939.08 869.04 L1993.12 837.56 L2047.16 806.08 L2101.2 774.6 L2155.24 743.12 L2209.28 711.64 L2263.3201 680.16 L2317.3601 648.68 L2371.3999 617.2 L2425.4399 585.72 L2479.48 554.24 L2533.52 522.76 L2587.5601 491.28 L2641.6001 459.8 L2695.6399 428.32 L2749.6799 396.84 L2803.72 365.36 L2857.76 333.88 L2911.8 302.4 L2965.8401 270.92 L3019.8799 239.44 L3073.9199 207.96 L3127.96 176.48 L3182 145" style="fill:none; fill-rule:evenodd;"
      /><path d="M-4.2132 -4.2132 L4.2132 4.2132 M-4.2132 4.2132 L4.2132 -4.2132" style="fill:none; stroke-linejoin:miter;" transform="translate(480,1719)"
      /><path d="M-4.2132 -4.2132 L4.2132 4.2132 M-4.2132 4.2132 L4.2132 -4.2132" style="fill:none; stroke-linejoin:miter;" transform="translate(534.04,1687.52)"
      /><path d="M-4.2132 -4.2132 L4.2132 4.2132 M-4.2132 4.2132 L4.2132 -4.2132" style="fill:none; stroke-linejoin:miter;" transform="translate(588.08,1656.04)"
      /><path d="M-4.2132 -4.2132 L4.2132 4.2132 M-4.2132 4.2132 L4.2132 -4.2132" style="fill:none; stroke-linejoin:miter;" transform="translate(642.12,1624.5601)"
      /><path d="M-4.2132 -4.2132 L4.2132 4.2132 M-4.2132 4.2132 L4.2132 -4.2132" style="fill:none; stroke-linejoin:miter;" transform="translate(696.16,1593.08)"
      /><path d="M-4.2132 -4.2132 L4.2132 4.2132 M-4.2132 4.2132 L4.2132 -4.2132" style="fill:none; stroke-linejoin:miter;" transform="translate(750.2,1561.6)"
      /><path d="M-4.2132 -4.2132 L4.2132 4.2132 M-4.2132 4.2132 L4.2132 -4.2132" style="fill:none; stroke-linejoin:miter;" transform="translate(804.24,1530.12)"
      /><path d="M-4.2132 -4.2132 L4.2132 4.2132 M-4.2132 4.2132 L4.2132 -4.2132" style="fill:none; stroke-linejoin:miter;" transform="translate(858.28,1498.64)"
      /><path d="M-4.2132 -4.2132 L4.2132 4.2132 M-4.2132 4.2132 L4.2132 -4.2132" style="fill:none; stroke-linejoin:miter;" transform="translate(912.32,1467.16)"
      /><path d="M-4.2132 -4.2132 L4.2132 4.2132 M-4.2132 4.2132 L4.2132 -4.2132" style="fill:none; stroke-linejoin:miter;" transform="translate(966.36,1435.6801)"
      /><path d="M-4.2132 -4.2132 L4.2132 4.2132 M-4.2132 4.2132 L4.2132 -4.2132" style="fill:none; stroke-linejoin:miter;" transform="translate(1020.4,1404.2)"
      /><path d="M-4.2132 -4.2132 L4.2132 4.2132 M-4.2132 4.2132 L4.2132 -4.2132" style="fill:none; stroke-linejoin:miter;" transform="translate(1074.4399,1372.72)"
      /><path d="M-4.2132 -4.2132 L4.2132 4.2132 M-4.2132 4.2132 L4.2132 -4.2132" style="fill:none; stroke-linejoin:miter;" transform="translate(1128.48,1341.24)"
      /><path d="M-4.2132 -4.2132 L4.2132 4.2132 M-4.2132 4.2132 L4.2132 -4.2132" style="fill:none; stroke-linejoin:miter;" transform="translate(1182.52,1309.76)"
      /><path d="M-4.2132 -4.2132 L4.2132 4.2132 M-4.2132 4.2132 L4.2132 -4.2132" style="fill:none; stroke-linejoin:miter;" transform="translate(1236.5601,1278.28)"
      /><path d="M-4.2132 -4.2132 L4.2132 4.2132 M-4.2132 4.2132 L4.2132 -4.2132" style="fill:none; stroke-linejoin:miter;" transform="translate(1290.6,1246.8)"
      /><path d="M-4.2132 -4.2132 L4.2132 4.2132 M-4.2132 4.2132 L4.2132 -4.2132" style="fill:none; stroke-linejoin:miter;" transform="translate(1344.64,1215.3199)"
      /><path d="M-4.2132 -4.2132 L4.2132 4.2132 M-4.2132 4.2132 L4.2132 -4.2132" style="fill:none; stroke-linejoin:miter;" transform="translate(1398.6801,1183.84)"
      /><path d="M-4.2132 -4.2132 L4.2132 4.2132 M-4.2132 4.2132 L4.2132 -4.2132" style="fill:none; stroke-linejoin:miter;" transform="translate(1452.72,1152.36)"
      /><path d="M-4.2132 -4.2132 L4.2132 4.2132 M-4.2132 4.2132 L4.2132 -4.2132" style="fill:none; stroke-linejoin:miter;" transform="translate(1506.76,1120.88)"
      /><path d="M-4.2132 -4.2132 L4.2132 4.2132 M-4.2132 4.2132 L4.2132 -4.2132" style="fill:none; stroke-linejoin:miter;" transform="translate(1560.8,1089.4)"
      /><path d="M-4.2132 -4.2132 L4.2132 4.2132 M-4.2132 4.2132 L4.2132 -4.2132" style="fill:none; stroke-linejoin:miter;" transform="translate(1614.84,1057.92)"
      /><path d="M-4.2132 -4.2132 L4.2132 4.2132 M-4.2132 4.2132 L4.2132 -4.2132" style="fill:none; stroke-linejoin:miter;" transform="translate(1668.88,1026.4399)"
      /><path d="M-4.2132 -4.2132 L4.2132 4.2132 M-4.2132 4.2132 L4.2132 -4.2132" style="fill:none; stroke-linejoin:miter;" transform="translate(1722.92,994.96)"
      /><path d="M-4.2132 -4.2132 L4.2132 4.2132 M-4.2132 4.2132 L4.2132 -4.2132" style="fill:none; stroke-linejoin:miter;" transform="translate(1776.96,963.48)"
      /><path d="M-4.2132 -4.2132 L4.2132 4.2132 M-4.2132 4.2132 L4.2132 -4.2132" style="fill:none; stroke-linejoin:miter;" transform="translate(1831,932)"
      /><path d="M-4.2132 -4.2132 L4.2132 4.2132 M-4.2132 4.2132 L4.2132 -4.2132" style="fill:none; stroke-linejoin:miter;" transform="translate(1885.04,900.52)"
      /><path d="M-4.2132 -4.2132 L4.2132 4.2132 M-4.2132 4.2132 L4.2132 -4.2132" style="fill:none; stroke-linejoin:miter;" transform="translate(1939.08,869.04)"
      /><path d="M-4.2132 -4.2132 L4.2132 4.2132 M-4.2132 4.2132 L4.2132 -4.2132" style="fill:none; stroke-linejoin:miter;" transform="translate(1993.12,837.56)"
      /><path d="M-4.2132 -4.2132 L4.2132 4.2132 M-4.2132 4.2132 L4.2132 -4.2132" style="fill:none; stroke-linejoin:miter;" transform="translate(2047.16,806.08)"
      /><path d="M-4.2132 -4.2132 L4.2132 4.2132 M-4.2132 4.2132 L4.2132 -4.2132" style="fill:none; stroke-linejoin:miter;" transform="translate(2101.2,774.6)"
      /><path d="M-4.2132 -4.2132 L4.2132 4.2132 M-4.2132 4.2132 L4.2132 -4.2132" style="fill:none; stroke-linejoin:miter;" transform="translate(2155.24,743.12)"
      /><path d="M-4.2132 -4.2132 L4.2132 4.2132 M-4.2132 4.2132 L4.2132 -4.2132" style="fill:none; stroke-linejoin:miter;" transform="translate(2209.28,711.64)"
      /><path d="M-4.2132 -4.2132 L4.2132 4.2132 M-4.2132 4.2132 L4.2132 -4.2132" style="fill:none; stroke-linejoin:miter;" transform="translate(2263.3201,680.16)"
      /><path d="M-4.2132 -4.2132 L4.2132 4.2132 M-4.2132 4.2132 L4.2132 -4.2132" style="fill:none; stroke-linejoin:miter;" transform="translate(2317.3601,648.68)"
      /><path d="M-4.2132 -4.2132 L4.2132 4.2132 M-4.2132 4.2132 L4.2132 -4.2132" style="fill:none; stroke-linejoin:miter;" transform="translate(2371.3999,617.2)"
      /><path d="M-4.2132 -4.2132 L4.2132 4.2132 M-4.2132 4.2132 L4.2132 -4.2132" style="fill:none; stroke-linejoin:miter;" transform="translate(2425.4399,585.72)"
      /><path d="M-4.2132 -4.2132 L4.2132 4.2132 M-4.2132 4.2132 L4.2132 -4.2132" style="fill:none; stroke-linejoin:miter;" transform="translate(2479.48,554.24)"
      /><path d="M-4.2132 -4.2132 L4.2132 4.2132 M-4.2132 4.2132 L4.2132 -4.2132" style="fill:none; stroke-linejoin:miter;" transform="translate(2533.52,522.76)"
      /><path d="M-4.2132 -4.2132 L4.2132 4.2132 M-4.2132 4.2132 L4.2132 -4.2132" style="fill:none; stroke-linejoin:miter;" transform="translate(2587.5601,491.28)"
      /><path d="M-4.2132 -4.2132 L4.2132 4.2132 M-4.2132 4.2132 L4.2132 -4.2132" style="fill:none; stroke-linejoin:miter;" transform="translate(2641.6001,459.8)"
      /><path d="M-4.2132 -4.2132 L4.2132 4.2132 M-4.2132 4.2132 L4.2132 -4.2132" style="fill:none; stroke-linejoin:miter;" transform="translate(2695.6399,428.32)"
      /><path d="M-4.2132 -4.2132 L4.2132 4.2132 M-4.2132 4.2132 L4.2132 -4.2132" style="fill:none; stroke-linejoin:miter;" transform="translate(2749.6799,396.84)"
      /><path d="M-4.2132 -4.2132 L4.2132 4.2132 M-4.2132 4.2132 L4.2132 -4.2132" style="fill:none; stroke-linejoin:miter;" transform="translate(2803.72,365.36)"
      /><path d="M-4.2132 -4.2132 L4.2132 4.2132 M-4.2132 4.2132 L4.2132 -4.2132" style="fill:none; stroke-linejoin:miter;" transform="translate(2857.76,333.88)"
      /><path d="M-4.2132 -4.2132 L4.2132 4.2132 M-4.2132 4.2132 L4.2132 -4.2132" style="fill:none; stroke-linejoin:miter;" transform="translate(2911.8,302.4)"
      /><path d="M-4.2132 -4.2132 L4.2132 4.2132 M-4.2132 4.2132 L4.2132 -4.2132" style="fill:none; stroke-linejoin:miter;" transform="translate(2965.8401,270.92)"
      /><path d="M-4.2132 -4.2132 L4.2132 4.2132 M-4.2132 4.2132 L4.2132 -4.2132" style="fill:none; stroke-linejoin:miter;" transform="translate(3019.8799,239.44)"
      /><path d="M-4.2132 -4.2132 L4.2132 4.2132 M-4.2132 4.2132 L4.2132 -4.2132" style="fill:none; stroke-linejoin:miter;" transform="translate(3073.9199,207.96)"
      /><path d="M-4.2132 -4.2132 L4.2132 4.2132 M-4.2132 4.2132 L4.2132 -4.2132" style="fill:none; stroke-linejoin:miter;" transform="translate(3127.96,176.48)"
      /><path d="M-4.2132 -4.2132 L4.2132 4.2132 M-4.2132 4.2132 L4.2132 -4.2132" style="fill:none; stroke-linejoin:miter;" transform="translate(3182,145)"
    /></g
    ><g style="fill:white; text-rendering:optimizeSpeed; color-rendering:optimizeSpeed; image-rendering:optimizeSpeed; shape-rendering:crispEdges; stroke:white; color-interpolation:sRGB;"
    ><path style="stroke:none;" d="M3344 181 L3344 145 L3211 145 L3211 181 Z"
    /></g
    ><g transform="translate(3284.262,163)" style="font-size:23.8333px; text-rendering:geometricPrecision; color-rendering:optimizeQuality; image-rendering:optimizeQuality; font-family:'Ubuntu'; color-interpolation:linearRGB;"
    ><path style="stroke:none;" d="M11.8594 8.6406 Q11.0938 8.8281 9.8281 9.0469 Q8.5625 9.2656 6.9062 9.2656 Q5.4688 9.2656 4.4844 8.8438 Q3.5 8.4219 2.8984 7.6562 Q2.2969 6.8906 2.0391 5.8438 Q1.7812 4.7969 1.7812 3.5312 L1.7812 -3.4844 L4.0156 -3.4844 L4.0156 3.0469 Q4.0156 5.3281 4.7344 6.3125 Q5.4531 7.2969 7.1562 7.2969 Q7.5156 7.2969 7.8984 7.2734 Q8.2812 7.25 8.6172 7.2109 Q8.9531 7.1719 9.2266 7.1406 Q9.5 7.1094 9.625 7.0625 L9.625 -3.4844 L11.8594 -3.4844 L11.8594 8.6406 ZM20.4399 3.4375 L31.4399 3.4375 L31.4399 5.3281 L20.4399 5.3281 L20.4399 3.4375 ZM20.4399 -1.6875 L31.4399 -1.6875 L31.4399 0.2188 L20.4399 0.2188 L20.4399 -1.6875 ZM40.3447 -4.2031 Q41.7041 -4.7344 43.001 -5.5625 Q44.2979 -6.3906 45.376 -7.625 L46.9697 -7.625 L46.9697 9 L44.7354 9 L44.7354 -4.5312 Q44.4541 -4.2656 44.0322 -3.9844 Q43.6104 -3.7031 43.1182 -3.4375 Q42.626 -3.1719 42.0869 -2.9297 Q41.5479 -2.6875 41.0322 -2.5156 L40.3447 -4.2031 Z"
    /></g
    ><g style="stroke-linecap:butt; fill:rgb(0,114,189); text-rendering:geometricPrecision; image-rendering:optimizeQuality; color-rendering:optimizeQuality; stroke-linejoin:round; stroke:rgb(0,114,189); color-interpolation:linearRGB; stroke-width:3.9722;"
    ><line y2="163" style="fill:none;" x1="3218.9651" x2="3278.2883" y1="163"
      /><path d="M-4.2132 -4.2132 L4.2132 4.2132 M-4.2132 4.2132 L4.2132 -4.2132" style="fill:none; stroke-linejoin:miter;" transform="translate(3248.6267,163)"
    /></g
    ><g style="stroke-linecap:butt; fill:rgb(38,38,38); text-rendering:geometricPrecision; color-rendering:optimizeQuality; image-rendering:optimizeQuality; stroke:rgb(38,38,38); color-interpolation:linearRGB; stroke-width:0.9931;"
    ><path d="M3211 181 L3211 145 L3344 145 L3344 181 Z" style="fill:none; fill-rule:evenodd;"
    /></g
  ></g
></svg
>
