<?xml version="1.0"?>
<!DOCTYPE svg PUBLIC '-//W3C//DTD SVG 1.0//EN'
          'http://www.w3.org/TR/2001/REC-SVG-20010904/DTD/svg10.dtd'>
<svg xmlns:xlink="http://www.w3.org/1999/xlink" style="fill-opacity:1; color-rendering:auto; color-interpolation:auto; text-rendering:auto; stroke:black; stroke-linecap:square; stroke-miterlimit:10; shape-rendering:auto; stroke-opacity:1; fill:black; stroke-dasharray:none; font-weight:normal; stroke-width:1; font-family:'Dialog'; font-style:normal; stroke-linejoin:miter; font-size:12px; stroke-dashoffset:0; image-rendering:auto;" width="3696" height="1932" xmlns="http://www.w3.org/2000/svg"
><!--Generated by the Batik Graphics2D SVG Generator--><defs id="genericDefs"
  /><g
  ><defs id="defs1"
    ><clipPath clipPathUnits="userSpaceOnUse" id="clipPath1"
      ><path d="M0 0 L3696 0 L3696 1932 L0 1932 L0 0 Z"
      /></clipPath
    ></defs
    ><g style="fill:white; stroke:white;"
    ><rect x="0" y="0" width="3696" style="clip-path:url(#clipPath1); stroke:none;" height="1932"
    /></g
    ><g style="fill:white; text-rendering:optimizeSpeed; color-rendering:optimizeSpeed; image-rendering:optimizeSpeed; shape-rendering:crispEdges; stroke:white; color-interpolation:sRGB;"
    ><rect x="0" width="3696" height="1932" y="0" style="stroke:none;"
      /><path style="stroke:none;" d="M480 1719 L3182 1719 L3182 145 L480 145 Z"
    /></g
    ><g style="fill:rgb(38,38,38); text-rendering:geometricPrecision; image-rendering:optimizeQuality; color-rendering:optimizeQuality; stroke-linejoin:round; stroke:rgb(38,38,38); color-interpolation:linearRGB; stroke-width:0.9931;"
    ><line y2="1719" style="fill:none;" x1="480" x2="3182" y1="1719"
      /><line y2="1691.98" style="fill:none;" x1="480" x2="480" y1="1719"
      /><line y2="1691.98" style="fill:none;" x1="750.2" x2="750.2" y1="1719"
      /><line y2="1691.98" style="fill:none;" x1="1020.4" x2="1020.4" y1="1719"
      /><line y2="1691.98" style="fill:none;" x1="1290.6" x2="1290.6" y1="1719"
      /><line y2="1691.98" style="fill:none;" x1="1560.8" x2="1560.8" y1="1719"
      /><line y2="1691.98" style="fill:none;" x1="1831" x2="1831" y1="1719"
      /><line y2="1691.98" style="fill:none;" x1="2101.2" x2="2101.2" y1="1719"
      /><line y2="1691.98" style="fill:none;" x1="2371.3999" x2="2371.3999" y1="1719"
      /><line y2="1691.98" style="fill:none;" x1="2641.6001" x2="2641.6001" y1="1719"
      /><line y2="1691.98" style="fill:none;" x1="2911.8" x2="2911.8" y1="1719"
      /><line y2="1691.98" style="fill:none;" x1="3182" x2="3182" y1="1719"
    /></g
    ><g transform="translate(480,1726.9445)" style="font-size:19.8611px; fill:rgb(38,38,38); text-rendering:geometricPrecision; image-rendering:optimizeQuality; color-rendering:optimizeQuality; font-family:'SansSerif'; stroke:rgb(38,38,38); color-interpolation:linearRGB;"
    ><path style="stroke:none;" d="M-0.1406 5.7188 Q-1.6719 5.7188 -2.4375 7.2188 Q-3.2031 8.7188 -3.2031 11.7188 Q-3.2031 14.7188 -2.4375 16.2188 Q-1.6719 17.7188 -0.1406 17.7188 Q1.3906 17.7188 2.1562 16.2188 Q2.9219 14.7188 2.9219 11.7188 Q2.9219 8.7188 2.1562 7.2188 Q1.3906 5.7188 -0.1406 5.7188 ZM-0.1406 4.1562 Q2.3125 4.1562 3.6016 6.0938 Q4.8906 8.0312 4.8906 11.7188 Q4.8906 15.4062 3.6016 17.3438 Q2.3125 19.2812 -0.1406 19.2812 Q-2.5938 19.2812 -3.8906 17.3438 Q-5.1875 15.4062 -5.1875 11.7188 Q-5.1875 8.0312 -3.8906 6.0938 Q-2.5938 4.1562 -0.1406 4.1562 Z"
    /></g
    ><g transform="translate(750.2,1726.9445)" style="font-size:19.8611px; fill:rgb(38,38,38); text-rendering:geometricPrecision; image-rendering:optimizeQuality; color-rendering:optimizeQuality; font-family:'SansSerif'; stroke:rgb(38,38,38); color-interpolation:linearRGB;"
    ><path style="stroke:none;" d="M-4.3438 4.4219 L3.4062 4.4219 L3.4062 6.0781 L-2.5312 6.0781 L-2.5312 9.6562 Q-2.1094 9.5 -1.6797 9.4297 Q-1.25 9.3594 -0.8125 9.3594 Q1.625 9.3594 3.0547 10.6953 Q4.4844 12.0312 4.4844 14.3281 Q4.4844 16.6719 3.0156 17.9766 Q1.5469 19.2812 -1.125 19.2812 Q-2.0312 19.2812 -2.9844 19.125 Q-3.9375 18.9688 -4.9531 18.6562 L-4.9531 16.6719 Q-4.0781 17.1562 -3.1406 17.3906 Q-2.2031 17.625 -1.1562 17.625 Q0.5312 17.625 1.5156 16.7344 Q2.5 15.8438 2.5 14.3281 Q2.5 12.7969 1.5156 11.9062 Q0.5312 11.0156 -1.1562 11.0156 Q-1.9531 11.0156 -2.7344 11.1953 Q-3.5156 11.375 -4.3438 11.75 L-4.3438 4.4219 Z"
    /></g
    ><g transform="translate(1020.4,1726.9445)" style="font-size:19.8611px; fill:rgb(38,38,38); text-rendering:geometricPrecision; image-rendering:optimizeQuality; color-rendering:optimizeQuality; font-family:'SansSerif'; stroke:rgb(38,38,38); color-interpolation:linearRGB;"
    ><path style="stroke:none;" d="M-10.5156 17.3438 L-7.2969 17.3438 L-7.2969 6.2188 L-10.7969 6.9219 L-10.7969 5.125 L-7.3125 4.4219 L-5.3438 4.4219 L-5.3438 17.3438 L-2.125 17.3438 L-2.125 19 L-10.5156 19 L-10.5156 17.3438 ZM5.9846 5.7188 Q4.4533 5.7188 3.6877 7.2188 Q2.9221 8.7188 2.9221 11.7188 Q2.9221 14.7188 3.6877 16.2188 Q4.4533 17.7188 5.9846 17.7188 Q7.5158 17.7188 8.2814 16.2188 Q9.0471 14.7188 9.0471 11.7188 Q9.0471 8.7188 8.2814 7.2188 Q7.5158 5.7188 5.9846 5.7188 ZM5.9846 4.1562 Q8.4377 4.1562 9.7268 6.0938 Q11.0158 8.0312 11.0158 11.7188 Q11.0158 15.4062 9.7268 17.3438 Q8.4377 19.2812 5.9846 19.2812 Q3.5314 19.2812 2.2346 17.3438 Q0.9377 15.4062 0.9377 11.7188 Q0.9377 8.0312 2.2346 6.0938 Q3.5314 4.1562 5.9846 4.1562 Z"
    /></g
    ><g transform="translate(1290.6,1726.9445)" style="font-size:19.8611px; fill:rgb(38,38,38); text-rendering:geometricPrecision; image-rendering:optimizeQuality; color-rendering:optimizeQuality; font-family:'SansSerif'; stroke:rgb(38,38,38); color-interpolation:linearRGB;"
    ><path style="stroke:none;" d="M-10.5156 17.3438 L-7.2969 17.3438 L-7.2969 6.2188 L-10.7969 6.9219 L-10.7969 5.125 L-7.3125 4.4219 L-5.3438 4.4219 L-5.3438 17.3438 L-2.125 17.3438 L-2.125 19 L-10.5156 19 L-10.5156 17.3438 ZM1.7814 4.4219 L9.5314 4.4219 L9.5314 6.0781 L3.5939 6.0781 L3.5939 9.6562 Q4.0158 9.5 4.4455 9.4297 Q4.8752 9.3594 5.3127 9.3594 Q7.7502 9.3594 9.1799 10.6953 Q10.6096 12.0312 10.6096 14.3281 Q10.6096 16.6719 9.1408 17.9766 Q7.6721 19.2812 5.0002 19.2812 Q4.0939 19.2812 3.1408 19.125 Q2.1877 18.9688 1.1721 18.6562 L1.1721 16.6719 Q2.0471 17.1562 2.9846 17.3906 Q3.9221 17.625 4.9689 17.625 Q6.6564 17.625 7.6408 16.7344 Q8.6252 15.8438 8.6252 14.3281 Q8.6252 12.7969 7.6408 11.9062 Q6.6564 11.0156 4.9689 11.0156 Q4.1721 11.0156 3.3908 11.1953 Q2.6096 11.375 1.7814 11.75 L1.7814 4.4219 Z"
    /></g
    ><g transform="translate(1560.8,1726.9445)" style="font-size:19.8611px; fill:rgb(38,38,38); text-rendering:geometricPrecision; image-rendering:optimizeQuality; color-rendering:optimizeQuality; font-family:'SansSerif'; stroke:rgb(38,38,38); color-interpolation:linearRGB;"
    ><path style="stroke:none;" d="M-9.1562 17.3438 L-2.2812 17.3438 L-2.2812 19 L-11.5312 19 L-11.5312 17.3438 Q-10.4062 16.1719 -8.4688 14.2188 Q-6.5312 12.2656 -6.0312 11.6875 Q-5.0938 10.625 -4.7188 9.8906 Q-4.3438 9.1562 -4.3438 8.4375 Q-4.3438 7.2812 -5.1562 6.5469 Q-5.9688 5.8125 -7.2812 5.8125 Q-8.2031 5.8125 -9.2344 6.1328 Q-10.2656 6.4531 -11.4375 7.1094 L-11.4375 5.125 Q-10.25 4.6406 -9.2109 4.3984 Q-8.1719 4.1562 -7.3125 4.1562 Q-5.0469 4.1562 -3.7031 5.2891 Q-2.3594 6.4219 -2.3594 8.3125 Q-2.3594 9.2188 -2.6953 10.0234 Q-3.0312 10.8281 -3.9219 11.9219 Q-4.1562 12.2031 -5.4688 13.5547 Q-6.7812 14.9062 -9.1562 17.3438 ZM5.9846 5.7188 Q4.4533 5.7188 3.6877 7.2188 Q2.9221 8.7188 2.9221 11.7188 Q2.9221 14.7188 3.6877 16.2188 Q4.4533 17.7188 5.9846 17.7188 Q7.5158 17.7188 8.2814 16.2188 Q9.0471 14.7188 9.0471 11.7188 Q9.0471 8.7188 8.2814 7.2188 Q7.5158 5.7188 5.9846 5.7188 ZM5.9846 4.1562 Q8.4377 4.1562 9.7268 6.0938 Q11.0158 8.0312 11.0158 11.7188 Q11.0158 15.4062 9.7268 17.3438 Q8.4377 19.2812 5.9846 19.2812 Q3.5314 19.2812 2.2346 17.3438 Q0.9377 15.4062 0.9377 11.7188 Q0.9377 8.0312 2.2346 6.0938 Q3.5314 4.1562 5.9846 4.1562 Z"
    /></g
    ><g transform="translate(1831,1726.9445)" style="font-size:19.8611px; fill:rgb(38,38,38); text-rendering:geometricPrecision; image-rendering:optimizeQuality; color-rendering:optimizeQuality; font-family:'SansSerif'; stroke:rgb(38,38,38); color-interpolation:linearRGB;"
    ><path style="stroke:none;" d="M-9.1562 17.3438 L-2.2812 17.3438 L-2.2812 19 L-11.5312 19 L-11.5312 17.3438 Q-10.4062 16.1719 -8.4688 14.2188 Q-6.5312 12.2656 -6.0312 11.6875 Q-5.0938 10.625 -4.7188 9.8906 Q-4.3438 9.1562 -4.3438 8.4375 Q-4.3438 7.2812 -5.1562 6.5469 Q-5.9688 5.8125 -7.2812 5.8125 Q-8.2031 5.8125 -9.2344 6.1328 Q-10.2656 6.4531 -11.4375 7.1094 L-11.4375 5.125 Q-10.25 4.6406 -9.2109 4.3984 Q-8.1719 4.1562 -7.3125 4.1562 Q-5.0469 4.1562 -3.7031 5.2891 Q-2.3594 6.4219 -2.3594 8.3125 Q-2.3594 9.2188 -2.6953 10.0234 Q-3.0312 10.8281 -3.9219 11.9219 Q-4.1562 12.2031 -5.4688 13.5547 Q-6.7812 14.9062 -9.1562 17.3438 ZM1.7814 4.4219 L9.5314 4.4219 L9.5314 6.0781 L3.5939 6.0781 L3.5939 9.6562 Q4.0158 9.5 4.4455 9.4297 Q4.8752 9.3594 5.3127 9.3594 Q7.7502 9.3594 9.1799 10.6953 Q10.6096 12.0312 10.6096 14.3281 Q10.6096 16.6719 9.1408 17.9766 Q7.6721 19.2812 5.0002 19.2812 Q4.0939 19.2812 3.1408 19.125 Q2.1877 18.9688 1.1721 18.6562 L1.1721 16.6719 Q2.0471 17.1562 2.9846 17.3906 Q3.9221 17.625 4.9689 17.625 Q6.6564 17.625 7.6408 16.7344 Q8.6252 15.8438 8.6252 14.3281 Q8.6252 12.7969 7.6408 11.9062 Q6.6564 11.0156 4.9689 11.0156 Q4.1721 11.0156 3.3908 11.1953 Q2.6096 11.375 1.7814 11.75 L1.7814 4.4219 Z"
    /></g
    ><g transform="translate(2101.2,1726.9445)" style="font-size:19.8611px; fill:rgb(38,38,38); text-rendering:geometricPrecision; image-rendering:optimizeQuality; color-rendering:optimizeQuality; font-family:'SansSerif'; stroke:rgb(38,38,38); color-interpolation:linearRGB;"
    ><path style="stroke:none;" d="M-4.8906 11.1406 Q-3.4688 11.4375 -2.6719 12.3984 Q-1.875 13.3594 -1.875 14.7656 Q-1.875 16.9219 -3.3594 18.1016 Q-4.8438 19.2812 -7.5781 19.2812 Q-8.5 19.2812 -9.4688 19.1016 Q-10.4375 18.9219 -11.4688 18.5625 L-11.4688 16.6562 Q-10.6562 17.1406 -9.6797 17.3828 Q-8.7031 17.625 -7.6406 17.625 Q-5.7812 17.625 -4.8125 16.8906 Q-3.8438 16.1562 -3.8438 14.7656 Q-3.8438 13.4688 -4.7422 12.7422 Q-5.6406 12.0156 -7.25 12.0156 L-8.9531 12.0156 L-8.9531 10.3906 L-7.1719 10.3906 Q-5.7188 10.3906 -4.9531 9.8125 Q-4.1875 9.2344 -4.1875 8.1406 Q-4.1875 7.0156 -4.9766 6.4141 Q-5.7656 5.8125 -7.25 5.8125 Q-8.0625 5.8125 -8.9922 5.9922 Q-9.9219 6.1719 -11.0312 6.5312 L-11.0312 4.7812 Q-9.9062 4.4688 -8.9297 4.3125 Q-7.9531 4.1562 -7.0781 4.1562 Q-4.8281 4.1562 -3.5234 5.1797 Q-2.2188 6.2031 -2.2188 7.9375 Q-2.2188 9.1406 -2.9141 9.9766 Q-3.6094 10.8125 -4.8906 11.1406 ZM5.9846 5.7188 Q4.4533 5.7188 3.6877 7.2188 Q2.9221 8.7188 2.9221 11.7188 Q2.9221 14.7188 3.6877 16.2188 Q4.4533 17.7188 5.9846 17.7188 Q7.5158 17.7188 8.2814 16.2188 Q9.0471 14.7188 9.0471 11.7188 Q9.0471 8.7188 8.2814 7.2188 Q7.5158 5.7188 5.9846 5.7188 ZM5.9846 4.1562 Q8.4377 4.1562 9.7268 6.0938 Q11.0158 8.0312 11.0158 11.7188 Q11.0158 15.4062 9.7268 17.3438 Q8.4377 19.2812 5.9846 19.2812 Q3.5314 19.2812 2.2346 17.3438 Q0.9377 15.4062 0.9377 11.7188 Q0.9377 8.0312 2.2346 6.0938 Q3.5314 4.1562 5.9846 4.1562 Z"
    /></g
    ><g transform="translate(2371.3999,1726.9445)" style="font-size:19.8611px; fill:rgb(38,38,38); text-rendering:geometricPrecision; image-rendering:optimizeQuality; color-rendering:optimizeQuality; font-family:'SansSerif'; stroke:rgb(38,38,38); color-interpolation:linearRGB;"
    ><path style="stroke:none;" d="M-4.8906 11.1406 Q-3.4688 11.4375 -2.6719 12.3984 Q-1.875 13.3594 -1.875 14.7656 Q-1.875 16.9219 -3.3594 18.1016 Q-4.8438 19.2812 -7.5781 19.2812 Q-8.5 19.2812 -9.4688 19.1016 Q-10.4375 18.9219 -11.4688 18.5625 L-11.4688 16.6562 Q-10.6562 17.1406 -9.6797 17.3828 Q-8.7031 17.625 -7.6406 17.625 Q-5.7812 17.625 -4.8125 16.8906 Q-3.8438 16.1562 -3.8438 14.7656 Q-3.8438 13.4688 -4.7422 12.7422 Q-5.6406 12.0156 -7.25 12.0156 L-8.9531 12.0156 L-8.9531 10.3906 L-7.1719 10.3906 Q-5.7188 10.3906 -4.9531 9.8125 Q-4.1875 9.2344 -4.1875 8.1406 Q-4.1875 7.0156 -4.9766 6.4141 Q-5.7656 5.8125 -7.25 5.8125 Q-8.0625 5.8125 -8.9922 5.9922 Q-9.9219 6.1719 -11.0312 6.5312 L-11.0312 4.7812 Q-9.9062 4.4688 -8.9297 4.3125 Q-7.9531 4.1562 -7.0781 4.1562 Q-4.8281 4.1562 -3.5234 5.1797 Q-2.2188 6.2031 -2.2188 7.9375 Q-2.2188 9.1406 -2.9141 9.9766 Q-3.6094 10.8125 -4.8906 11.1406 ZM1.7814 4.4219 L9.5314 4.4219 L9.5314 6.0781 L3.5939 6.0781 L3.5939 9.6562 Q4.0158 9.5 4.4455 9.4297 Q4.8752 9.3594 5.3127 9.3594 Q7.7502 9.3594 9.1799 10.6953 Q10.6096 12.0312 10.6096 14.3281 Q10.6096 16.6719 9.1408 17.9766 Q7.6721 19.2812 5.0002 19.2812 Q4.0939 19.2812 3.1408 19.125 Q2.1877 18.9688 1.1721 18.6562 L1.1721 16.6719 Q2.0471 17.1562 2.9846 17.3906 Q3.9221 17.625 4.9689 17.625 Q6.6564 17.625 7.6408 16.7344 Q8.6252 15.8438 8.6252 14.3281 Q8.6252 12.7969 7.6408 11.9062 Q6.6564 11.0156 4.9689 11.0156 Q4.1721 11.0156 3.3908 11.1953 Q2.6096 11.375 1.7814 11.75 L1.7814 4.4219 Z"
    /></g
    ><g transform="translate(2641.6001,1726.9445)" style="font-size:19.8611px; fill:rgb(38,38,38); text-rendering:geometricPrecision; image-rendering:optimizeQuality; color-rendering:optimizeQuality; font-family:'SansSerif'; stroke:rgb(38,38,38); color-interpolation:linearRGB;"
    ><path style="stroke:none;" d="M-5.4375 6.1406 L-10.4219 13.9219 L-5.4375 13.9219 L-5.4375 6.1406 ZM-5.9531 4.4219 L-3.4844 4.4219 L-3.4844 13.9219 L-1.3906 13.9219 L-1.3906 15.5625 L-3.4844 15.5625 L-3.4844 19 L-5.4375 19 L-5.4375 15.5625 L-12.0156 15.5625 L-12.0156 13.6562 L-5.9531 4.4219 ZM5.9846 5.7188 Q4.4533 5.7188 3.6877 7.2188 Q2.9221 8.7188 2.9221 11.7188 Q2.9221 14.7188 3.6877 16.2188 Q4.4533 17.7188 5.9846 17.7188 Q7.5158 17.7188 8.2814 16.2188 Q9.0471 14.7188 9.0471 11.7188 Q9.0471 8.7188 8.2814 7.2188 Q7.5158 5.7188 5.9846 5.7188 ZM5.9846 4.1562 Q8.4377 4.1562 9.7268 6.0938 Q11.0158 8.0312 11.0158 11.7188 Q11.0158 15.4062 9.7268 17.3438 Q8.4377 19.2812 5.9846 19.2812 Q3.5314 19.2812 2.2346 17.3438 Q0.9377 15.4062 0.9377 11.7188 Q0.9377 8.0312 2.2346 6.0938 Q3.5314 4.1562 5.9846 4.1562 Z"
    /></g
    ><g transform="translate(2911.8,1726.9445)" style="font-size:19.8611px; fill:rgb(38,38,38); text-rendering:geometricPrecision; image-rendering:optimizeQuality; color-rendering:optimizeQuality; font-family:'SansSerif'; stroke:rgb(38,38,38); color-interpolation:linearRGB;"
    ><path style="stroke:none;" d="M-5.4375 6.1406 L-10.4219 13.9219 L-5.4375 13.9219 L-5.4375 6.1406 ZM-5.9531 4.4219 L-3.4844 4.4219 L-3.4844 13.9219 L-1.3906 13.9219 L-1.3906 15.5625 L-3.4844 15.5625 L-3.4844 19 L-5.4375 19 L-5.4375 15.5625 L-12.0156 15.5625 L-12.0156 13.6562 L-5.9531 4.4219 ZM1.7814 4.4219 L9.5314 4.4219 L9.5314 6.0781 L3.5939 6.0781 L3.5939 9.6562 Q4.0158 9.5 4.4455 9.4297 Q4.8752 9.3594 5.3127 9.3594 Q7.7502 9.3594 9.1799 10.6953 Q10.6096 12.0312 10.6096 14.3281 Q10.6096 16.6719 9.1408 17.9766 Q7.6721 19.2812 5.0002 19.2812 Q4.0939 19.2812 3.1408 19.125 Q2.1877 18.9688 1.1721 18.6562 L1.1721 16.6719 Q2.0471 17.1562 2.9846 17.3906 Q3.9221 17.625 4.9689 17.625 Q6.6564 17.625 7.6408 16.7344 Q8.6252 15.8438 8.6252 14.3281 Q8.6252 12.7969 7.6408 11.9062 Q6.6564 11.0156 4.9689 11.0156 Q4.1721 11.0156 3.3908 11.1953 Q2.6096 11.375 1.7814 11.75 L1.7814 4.4219 Z"
    /></g
    ><g transform="translate(3182,1726.9445)" style="font-size:19.8611px; fill:rgb(38,38,38); text-rendering:geometricPrecision; image-rendering:optimizeQuality; color-rendering:optimizeQuality; font-family:'SansSerif'; stroke:rgb(38,38,38); color-interpolation:linearRGB;"
    ><path style="stroke:none;" d="M-10.8438 4.4219 L-3.0938 4.4219 L-3.0938 6.0781 L-9.0312 6.0781 L-9.0312 9.6562 Q-8.6094 9.5 -8.1797 9.4297 Q-7.75 9.3594 -7.3125 9.3594 Q-4.875 9.3594 -3.4453 10.6953 Q-2.0156 12.0312 -2.0156 14.3281 Q-2.0156 16.6719 -3.4844 17.9766 Q-4.9531 19.2812 -7.625 19.2812 Q-8.5312 19.2812 -9.4844 19.125 Q-10.4375 18.9688 -11.4531 18.6562 L-11.4531 16.6719 Q-10.5781 17.1562 -9.6406 17.3906 Q-8.7031 17.625 -7.6562 17.625 Q-5.9688 17.625 -4.9844 16.7344 Q-4 15.8438 -4 14.3281 Q-4 12.7969 -4.9844 11.9062 Q-5.9688 11.0156 -7.6562 11.0156 Q-8.4531 11.0156 -9.2344 11.1953 Q-10.0156 11.375 -10.8438 11.75 L-10.8438 4.4219 ZM5.9846 5.7188 Q4.4533 5.7188 3.6877 7.2188 Q2.9221 8.7188 2.9221 11.7188 Q2.9221 14.7188 3.6877 16.2188 Q4.4533 17.7188 5.9846 17.7188 Q7.5158 17.7188 8.2814 16.2188 Q9.0471 14.7188 9.0471 11.7188 Q9.0471 8.7188 8.2814 7.2188 Q7.5158 5.7188 5.9846 5.7188 ZM5.9846 4.1562 Q8.4377 4.1562 9.7268 6.0938 Q11.0158 8.0312 11.0158 11.7188 Q11.0158 15.4062 9.7268 17.3438 Q8.4377 19.2812 5.9846 19.2812 Q3.5314 19.2812 2.2346 17.3438 Q0.9377 15.4062 0.9377 11.7188 Q0.9377 8.0312 2.2346 6.0938 Q3.5314 4.1562 5.9846 4.1562 Z"
    /></g
    ><g transform="translate(1831.0013,1752.9305)" style="font-size:23.8333px; fill:rgb(38,38,38); text-rendering:geometricPrecision; image-rendering:optimizeQuality; color-rendering:optimizeQuality; font-family:'Ubuntu'; stroke:rgb(38,38,38); color-interpolation:linearRGB;"
    ><path style="stroke:none;" d="M-20.625 6.375 Q-21.375 7.1875 -22.3047 8.1797 Q-23.2344 9.1719 -24.2578 10.2188 Q-25.2812 11.2656 -26.2891 12.2734 Q-27.2969 13.2812 -28.1875 14.1406 Q-27.1562 14.8594 -26 15.9141 Q-24.8438 16.9688 -23.7422 18.1719 Q-22.6406 19.375 -21.6719 20.625 Q-20.7031 21.875 -20.0469 23 L-22.7812 23 Q-23.5 21.875 -24.4375 20.7344 Q-25.375 19.5938 -26.4219 18.5469 Q-27.4688 17.5 -28.5312 16.6172 Q-29.5938 15.7344 -30.6094 15.1094 L-30.6094 23 L-32.9375 23 L-32.9375 6.375 L-30.6094 6.375 L-30.6094 13.7188 Q-29.7656 12.9219 -28.7578 11.9219 Q-27.75 10.9219 -26.7656 9.9141 Q-25.7812 8.9062 -24.9062 7.9844 Q-24.0312 7.0625 -23.4375 6.375 L-20.625 6.375 ZM-13.8772 21.3906 Q-13.0804 21.3906 -12.471 21.3516 Q-11.8616 21.3125 -11.4554 21.2188 L-11.4554 17.5 Q-11.6897 17.3906 -12.2288 17.3047 Q-12.7679 17.2188 -13.5335 17.2188 Q-14.0491 17.2188 -14.6116 17.2891 Q-15.1741 17.3594 -15.6429 17.5859 Q-16.1116 17.8125 -16.4241 18.2109 Q-16.7366 18.6094 -16.7366 19.25 Q-16.7366 20.4531 -15.9632 20.9219 Q-15.1897 21.3906 -13.8772 21.3906 ZM-14.0647 10.2031 Q-12.721 10.2031 -11.7991 10.5547 Q-10.8772 10.9062 -10.3147 11.5391 Q-9.7522 12.1719 -9.5101 13.0469 Q-9.2679 13.9219 -9.2679 14.9844 L-9.2679 22.7812 Q-9.5491 22.8281 -10.0647 22.9141 Q-10.5804 23 -11.2288 23.0703 Q-11.8772 23.1406 -12.6351 23.2031 Q-13.3929 23.2656 -14.1429 23.2656 Q-15.1897 23.2656 -16.0804 23.0469 Q-16.971 22.8281 -17.6194 22.3594 Q-18.2679 21.8906 -18.6272 21.125 Q-18.9866 20.3594 -18.9866 19.2812 Q-18.9866 18.25 -18.5647 17.5078 Q-18.1429 16.7656 -17.4241 16.3047 Q-16.7054 15.8438 -15.7444 15.6328 Q-14.7835 15.4219 -13.7366 15.4219 Q-13.3929 15.4219 -13.0335 15.4531 Q-12.6741 15.4844 -12.3538 15.5469 Q-12.0335 15.6094 -11.7913 15.6562 Q-11.5491 15.7031 -11.4554 15.7344 L-11.4554 15.1094 Q-11.4554 14.5469 -11.5726 14.0078 Q-11.6897 13.4688 -12.0022 13.0469 Q-12.3147 12.625 -12.8538 12.375 Q-13.3929 12.125 -14.2522 12.125 Q-15.3616 12.125 -16.1897 12.2812 Q-17.0179 12.4375 -17.4241 12.6094 L-17.6897 10.7656 Q-17.2522 10.5625 -16.2444 10.3828 Q-15.2366 10.2031 -14.0647 10.2031 ZM-1.0531 10.25 Q-0.7719 10.25 -0.3969 10.2891 Q-0.0219 10.3281 0.3375 10.3906 Q0.6969 10.4531 0.9938 10.5078 Q1.2906 10.5625 1.4469 10.6094 L1.0563 12.5625 Q0.7906 12.4688 0.1813 12.3359 Q-0.4281 12.2031 -1.3969 12.2031 Q-2.0219 12.2031 -2.6312 12.3359 Q-3.2406 12.4688 -3.4281 12.5156 L-3.4281 23 L-5.6625 23 L-5.6625 11.0469 Q-4.8656 10.7656 -3.6937 10.5078 Q-2.5219 10.25 -1.0531 10.25 ZM3.5316 10.875 Q4.2973 10.6875 5.5551 10.4688 Q6.8129 10.25 8.4691 10.25 Q9.6723 10.25 10.4926 10.5781 Q11.3129 10.9062 11.8598 11.5312 Q12.0316 11.4062 12.391 11.1875 Q12.7504 10.9688 13.2738 10.7656 Q13.7973 10.5625 14.4457 10.4062 Q15.0941 10.25 15.8441 10.25 Q17.2816 10.25 18.1957 10.6719 Q19.1098 11.0938 19.6254 11.8594 Q20.141 12.625 20.3207 13.6875 Q20.5004 14.75 20.5004 15.9844 L20.5004 23 L18.266 23 L18.266 16.4688 Q18.266 15.375 18.1566 14.5781 Q18.0473 13.7812 17.7504 13.2578 Q17.4535 12.7344 16.9379 12.4766 Q16.4223 12.2188 15.5941 12.2188 Q14.4691 12.2188 13.7426 12.5234 Q13.016 12.8281 12.7504 13.0625 Q12.9379 13.6875 13.0316 14.4297 Q13.1254 15.1719 13.1254 15.9844 L13.1254 23 L10.891 23 L10.891 16.4688 Q10.891 15.375 10.7738 14.5781 Q10.6566 13.7812 10.3598 13.2578 Q10.0629 12.7344 9.5473 12.4766 Q9.0316 12.2188 8.2348 12.2188 Q7.891 12.2188 7.5082 12.2422 Q7.1254 12.2656 6.7816 12.3047 Q6.4379 12.3438 6.1488 12.3906 Q5.8598 12.4375 5.766 12.4688 L5.766 23 L3.5316 23 L3.5316 10.875 ZM28.2585 21.3906 Q29.0554 21.3906 29.6648 21.3516 Q30.2741 21.3125 30.6804 21.2188 L30.6804 17.5 Q30.446 17.3906 29.907 17.3047 Q29.3679 17.2188 28.6023 17.2188 Q28.0866 17.2188 27.5241 17.2891 Q26.9616 17.3594 26.4929 17.5859 Q26.0241 17.8125 25.7116 18.2109 Q25.3991 18.6094 25.3991 19.25 Q25.3991 20.4531 26.1726 20.9219 Q26.946 21.3906 28.2585 21.3906 ZM28.071 10.2031 Q29.4148 10.2031 30.3366 10.5547 Q31.2585 10.9062 31.821 11.5391 Q32.3835 12.1719 32.6257 13.0469 Q32.8679 13.9219 32.8679 14.9844 L32.8679 22.7812 Q32.5866 22.8281 32.071 22.9141 Q31.5554 23 30.907 23.0703 Q30.2585 23.1406 29.5007 23.2031 Q28.7429 23.2656 27.9929 23.2656 Q26.946 23.2656 26.0554 23.0469 Q25.1648 22.8281 24.5163 22.3594 Q23.8679 21.8906 23.5085 21.125 Q23.1491 20.3594 23.1491 19.2812 Q23.1491 18.25 23.571 17.5078 Q23.9929 16.7656 24.7116 16.3047 Q25.4304 15.8438 26.3913 15.6328 Q27.3523 15.4219 28.3991 15.4219 Q28.7429 15.4219 29.1023 15.4531 Q29.4616 15.4844 29.782 15.5469 Q30.1023 15.6094 30.3445 15.6562 Q30.5866 15.7031 30.6804 15.7344 L30.6804 15.1094 Q30.6804 14.5469 30.5632 14.0078 Q30.446 13.4688 30.1335 13.0469 Q29.821 12.625 29.282 12.375 Q28.7429 12.125 27.8835 12.125 Q26.7741 12.125 25.946 12.2812 Q25.1179 12.4375 24.7116 12.6094 L24.446 10.7656 Q24.8835 10.5625 25.8913 10.3828 Q26.8991 10.2031 28.071 10.2031 Z"
    /></g
    ><g style="fill:rgb(38,38,38); text-rendering:geometricPrecision; image-rendering:optimizeQuality; color-rendering:optimizeQuality; stroke-linejoin:round; stroke:rgb(38,38,38); color-interpolation:linearRGB; stroke-width:0.9931;"
    ><line y2="145" style="fill:none;" x1="480" x2="480" y1="1719"
      /><line y2="1583.566" style="fill:none;" x1="480" x2="507.02" y1="1583.566"
      /><line y2="1343.8049" style="fill:none;" x1="480" x2="507.02" y1="1343.8049"
      /><line y2="1104.0438" style="fill:none;" x1="480" x2="507.02" y1="1104.0438"
      /><line y2="864.2827" style="fill:none;" x1="480" x2="507.02" y1="864.2827"
      /><line y2="624.5216" style="fill:none;" x1="480" x2="507.02" y1="624.5216"
      /><line y2="384.7605" style="fill:none;" x1="480" x2="507.02" y1="384.7605"
    /></g
    ><g transform="translate(472.0555,1583.566)" style="font-size:19.8611px; fill:rgb(38,38,38); text-rendering:geometricPrecision; image-rendering:optimizeQuality; color-rendering:optimizeQuality; font-family:'SansSerif'; stroke:rgb(38,38,38); color-interpolation:linearRGB;"
    ><path style="stroke:none;" d="M-19.0156 0.7188 L-13.7656 0.7188 L-13.7656 2.3281 L-19.0156 2.3281 L-19.0156 0.7188 ZM-4.7302 -0.8594 Q-3.3083 -0.5625 -2.5115 0.3984 Q-1.7146 1.3594 -1.7146 2.7656 Q-1.7146 4.9219 -3.199 6.1016 Q-4.6833 7.2812 -7.4177 7.2812 Q-8.3396 7.2812 -9.3083 7.1016 Q-10.2771 6.9219 -11.3083 6.5625 L-11.3083 4.6562 Q-10.4958 5.1406 -9.5193 5.3828 Q-8.5427 5.625 -7.4802 5.625 Q-5.6208 5.625 -4.6521 4.8906 Q-3.6833 4.1562 -3.6833 2.7656 Q-3.6833 1.4688 -4.5818 0.7422 Q-5.4802 0.0156 -7.0896 0.0156 L-8.7927 0.0156 L-8.7927 -1.6094 L-7.0115 -1.6094 Q-5.5583 -1.6094 -4.7927 -2.1875 Q-4.0271 -2.7656 -4.0271 -3.8594 Q-4.0271 -4.9844 -4.8161 -5.5859 Q-5.6052 -6.1875 -7.0896 -6.1875 Q-7.9021 -6.1875 -8.8318 -6.0078 Q-9.7615 -5.8281 -10.8708 -5.4688 L-10.8708 -7.2188 Q-9.7458 -7.5312 -8.7693 -7.6875 Q-7.7927 -7.8438 -6.9177 -7.8438 Q-4.6677 -7.8438 -3.363 -6.8203 Q-2.0583 -5.7969 -2.0583 -4.0625 Q-2.0583 -2.8594 -2.7536 -2.0234 Q-3.449 -1.1875 -4.7302 -0.8594 Z"
    /></g
    ><g transform="translate(472.0555,1343.8049)" style="font-size:19.8611px; fill:rgb(38,38,38); text-rendering:geometricPrecision; image-rendering:optimizeQuality; color-rendering:optimizeQuality; font-family:'SansSerif'; stroke:rgb(38,38,38); color-interpolation:linearRGB;"
    ><path style="stroke:none;" d="M-38.0156 0.7188 L-32.7656 0.7188 L-32.7656 2.3281 L-38.0156 2.3281 L-38.0156 0.7188 ZM-27.9958 5.3438 L-21.1208 5.3438 L-21.1208 7 L-30.3708 7 L-30.3708 5.3438 Q-29.2458 4.1719 -27.3083 2.2188 Q-25.3708 0.2656 -24.8708 -0.3125 Q-23.9333 -1.375 -23.5583 -2.1094 Q-23.1833 -2.8438 -23.1833 -3.5625 Q-23.1833 -4.7188 -23.9958 -5.4531 Q-24.8083 -6.1875 -26.1208 -6.1875 Q-27.0427 -6.1875 -28.074 -5.8672 Q-29.1052 -5.5469 -30.2771 -4.8906 L-30.2771 -6.875 Q-29.0896 -7.3594 -28.0505 -7.6016 Q-27.0115 -7.8438 -26.1521 -7.8438 Q-23.8865 -7.8438 -22.5427 -6.7109 Q-21.199 -5.5781 -21.199 -3.6875 Q-21.199 -2.7812 -21.5349 -1.9766 Q-21.8708 -1.1719 -22.7615 -0.0781 Q-22.9958 0.2031 -24.3083 1.5547 Q-25.6208 2.9062 -27.9958 5.3438 ZM-17.0738 4.5156 L-15.0113 4.5156 L-15.0113 7 L-17.0738 7 L-17.0738 4.5156 ZM-10.7504 -7.5781 L-3.0004 -7.5781 L-3.0004 -5.9219 L-8.9379 -5.9219 L-8.9379 -2.3438 Q-8.516 -2.5 -8.0863 -2.5703 Q-7.6566 -2.6406 -7.2191 -2.6406 Q-4.7816 -2.6406 -3.3519 -1.3047 Q-1.9223 0.0312 -1.9223 2.3281 Q-1.9223 4.6719 -3.391 5.9766 Q-4.8598 7.2812 -7.5316 7.2812 Q-8.4379 7.2812 -9.391 7.125 Q-10.3441 6.9688 -11.3598 6.6562 L-11.3598 4.6719 Q-10.4848 5.1562 -9.5473 5.3906 Q-8.6098 5.625 -7.5629 5.625 Q-5.8754 5.625 -4.891 4.7344 Q-3.9066 3.8438 -3.9066 2.3281 Q-3.9066 0.7969 -4.891 -0.0938 Q-5.8754 -0.9844 -7.5629 -0.9844 Q-8.3598 -0.9844 -9.141 -0.8047 Q-9.9223 -0.625 -10.7504 -0.25 L-10.7504 -7.5781 Z"
    /></g
    ><g transform="translate(472.0555,1104.0438)" style="font-size:19.8611px; fill:rgb(38,38,38); text-rendering:geometricPrecision; image-rendering:optimizeQuality; color-rendering:optimizeQuality; font-family:'SansSerif'; stroke:rgb(38,38,38); color-interpolation:linearRGB;"
    ><path style="stroke:none;" d="M-19.0156 0.7188 L-13.7656 0.7188 L-13.7656 2.3281 L-19.0156 2.3281 L-19.0156 0.7188 ZM-8.9958 5.3438 L-2.1208 5.3438 L-2.1208 7 L-11.3708 7 L-11.3708 5.3438 Q-10.2458 4.1719 -8.3083 2.2188 Q-6.3708 0.2656 -5.8708 -0.3125 Q-4.9333 -1.375 -4.5583 -2.1094 Q-4.1833 -2.8438 -4.1833 -3.5625 Q-4.1833 -4.7188 -4.9958 -5.4531 Q-5.8083 -6.1875 -7.1208 -6.1875 Q-8.0427 -6.1875 -9.074 -5.8672 Q-10.1052 -5.5469 -11.2771 -4.8906 L-11.2771 -6.875 Q-10.0896 -7.3594 -9.0505 -7.6016 Q-8.0115 -7.8438 -7.1521 -7.8438 Q-4.8865 -7.8438 -3.5427 -6.7109 Q-2.199 -5.5781 -2.199 -3.6875 Q-2.199 -2.7812 -2.5349 -1.9766 Q-2.8708 -1.1719 -3.7615 -0.0781 Q-3.9958 0.2031 -5.3083 1.5547 Q-6.6208 2.9062 -8.9958 5.3438 Z"
    /></g
    ><g transform="translate(472.0555,864.2827)" style="font-size:19.8611px; fill:rgb(38,38,38); text-rendering:geometricPrecision; image-rendering:optimizeQuality; color-rendering:optimizeQuality; font-family:'SansSerif'; stroke:rgb(38,38,38); color-interpolation:linearRGB;"
    ><path style="stroke:none;" d="M-38.0156 0.7188 L-32.7656 0.7188 L-32.7656 2.3281 L-38.0156 2.3281 L-38.0156 0.7188 ZM-29.3552 5.3438 L-26.1365 5.3438 L-26.1365 -5.7812 L-29.6365 -5.0781 L-29.6365 -6.875 L-26.1521 -7.5781 L-24.1833 -7.5781 L-24.1833 5.3438 L-20.9646 5.3438 L-20.9646 7 L-29.3552 7 L-29.3552 5.3438 ZM-17.0738 4.5156 L-15.0113 4.5156 L-15.0113 7 L-17.0738 7 L-17.0738 4.5156 ZM-10.7504 -7.5781 L-3.0004 -7.5781 L-3.0004 -5.9219 L-8.9379 -5.9219 L-8.9379 -2.3438 Q-8.516 -2.5 -8.0863 -2.5703 Q-7.6566 -2.6406 -7.2191 -2.6406 Q-4.7816 -2.6406 -3.3519 -1.3047 Q-1.9223 0.0312 -1.9223 2.3281 Q-1.9223 4.6719 -3.391 5.9766 Q-4.8598 7.2812 -7.5316 7.2812 Q-8.4379 7.2812 -9.391 7.125 Q-10.3441 6.9688 -11.3598 6.6562 L-11.3598 4.6719 Q-10.4848 5.1562 -9.5473 5.3906 Q-8.6098 5.625 -7.5629 5.625 Q-5.8754 5.625 -4.891 4.7344 Q-3.9066 3.8438 -3.9066 2.3281 Q-3.9066 0.7969 -4.891 -0.0938 Q-5.8754 -0.9844 -7.5629 -0.9844 Q-8.3598 -0.9844 -9.141 -0.8047 Q-9.9223 -0.625 -10.7504 -0.25 L-10.7504 -7.5781 Z"
    /></g
    ><g transform="translate(472.0555,624.5216)" style="font-size:19.8611px; fill:rgb(38,38,38); text-rendering:geometricPrecision; image-rendering:optimizeQuality; color-rendering:optimizeQuality; font-family:'SansSerif'; stroke:rgb(38,38,38); color-interpolation:linearRGB;"
    ><path style="stroke:none;" d="M-19.0156 0.7188 L-13.7656 0.7188 L-13.7656 2.3281 L-19.0156 2.3281 L-19.0156 0.7188 ZM-10.3552 5.3438 L-7.1365 5.3438 L-7.1365 -5.7812 L-10.6365 -5.0781 L-10.6365 -6.875 L-7.1521 -7.5781 L-5.1833 -7.5781 L-5.1833 5.3438 L-1.9646 5.3438 L-1.9646 7 L-10.3552 7 L-10.3552 5.3438 Z"
    /></g
    ><g transform="translate(472.0555,384.7605)" style="font-size:19.8611px; fill:rgb(38,38,38); text-rendering:geometricPrecision; image-rendering:optimizeQuality; color-rendering:optimizeQuality; font-family:'SansSerif'; stroke:rgb(38,38,38); color-interpolation:linearRGB;"
    ><path style="stroke:none;" d="M-38.0156 0.7188 L-32.7656 0.7188 L-32.7656 2.3281 L-38.0156 2.3281 L-38.0156 0.7188 ZM-25.4802 -6.2812 Q-27.0115 -6.2812 -27.7771 -4.7812 Q-28.5427 -3.2812 -28.5427 -0.2812 Q-28.5427 2.7188 -27.7771 4.2188 Q-27.0115 5.7188 -25.4802 5.7188 Q-23.949 5.7188 -23.1833 4.2188 Q-22.4177 2.7188 -22.4177 -0.2812 Q-22.4177 -3.2812 -23.1833 -4.7812 Q-23.949 -6.2812 -25.4802 -6.2812 ZM-25.4802 -7.8438 Q-23.0271 -7.8438 -21.738 -5.9062 Q-20.449 -3.9688 -20.449 -0.2812 Q-20.449 3.4062 -21.738 5.3438 Q-23.0271 7.2812 -25.4802 7.2812 Q-27.9333 7.2812 -29.2302 5.3438 Q-30.5271 3.4062 -30.5271 -0.2812 Q-30.5271 -3.9688 -29.2302 -5.9062 Q-27.9333 -7.8438 -25.4802 -7.8438 ZM-17.0738 4.5156 L-15.0113 4.5156 L-15.0113 7 L-17.0738 7 L-17.0738 4.5156 ZM-10.7504 -7.5781 L-3.0004 -7.5781 L-3.0004 -5.9219 L-8.9379 -5.9219 L-8.9379 -2.3438 Q-8.516 -2.5 -8.0863 -2.5703 Q-7.6566 -2.6406 -7.2191 -2.6406 Q-4.7816 -2.6406 -3.3519 -1.3047 Q-1.9223 0.0312 -1.9223 2.3281 Q-1.9223 4.6719 -3.391 5.9766 Q-4.8598 7.2812 -7.5316 7.2812 Q-8.4379 7.2812 -9.391 7.125 Q-10.3441 6.9688 -11.3598 6.6562 L-11.3598 4.6719 Q-10.4848 5.1562 -9.5473 5.3906 Q-8.6098 5.625 -7.5629 5.625 Q-5.8754 5.625 -4.891 4.7344 Q-3.9066 3.8438 -3.9066 2.3281 Q-3.9066 0.7969 -4.891 -0.0938 Q-5.8754 -0.9844 -7.5629 -0.9844 Q-8.3598 -0.9844 -9.141 -0.8047 Q-9.9223 -0.625 -10.7504 -0.25 L-10.7504 -7.5781 Z"
    /></g
    ><g transform="translate(427.0972,931.9993) rotate(-90)" style="font-size:23.8333px; fill:rgb(38,38,38); text-rendering:geometricPrecision; image-rendering:optimizeQuality; color-rendering:optimizeQuality; font-family:'Ubuntu'; stroke:rgb(38,38,38); color-interpolation:linearRGB;"
    ><path style="stroke:none;" d="M-24.75 -4.6406 Q-26.375 -4.6406 -27.5781 -5.1406 Q-28.7812 -5.6406 -29.5469 -6.5234 Q-30.3125 -7.4062 -30.6875 -8.6016 Q-31.0625 -9.7969 -31.0625 -11.1875 L-31.0625 -21.625 L-28.7344 -21.625 L-28.7344 -11.4531 Q-28.7344 -8.9531 -27.625 -7.8281 Q-26.5156 -6.7031 -24.75 -6.7031 Q-23.8594 -6.7031 -23.125 -6.9766 Q-22.3906 -7.25 -21.8672 -7.8281 Q-21.3438 -8.4062 -21.0547 -9.3047 Q-20.7656 -10.2031 -20.7656 -11.4531 L-20.7656 -21.625 L-18.4375 -21.625 L-18.4375 -11.1875 Q-18.4375 -9.7969 -18.8047 -8.6016 Q-19.1719 -7.4062 -19.9531 -6.5234 Q-20.7344 -5.6406 -21.9219 -5.1406 Q-23.1094 -4.6406 -24.75 -4.6406 ZM-12.5969 -17.4844 L-7.8782 -17.4844 L-7.8782 -15.6094 L-12.5969 -15.6094 L-12.5969 -9.8438 Q-12.5969 -8.9062 -12.4563 -8.2969 Q-12.3157 -7.6875 -12.0266 -7.3359 Q-11.7375 -6.9844 -11.3079 -6.8438 Q-10.8782 -6.7031 -10.3 -6.7031 Q-9.3 -6.7031 -8.6829 -6.9297 Q-8.0657 -7.1562 -7.8313 -7.25 L-7.3938 -5.4062 Q-7.7375 -5.2344 -8.5735 -4.9844 Q-9.4094 -4.7344 -10.4875 -4.7344 Q-11.7688 -4.7344 -12.5969 -5.0625 Q-13.425 -5.3906 -13.925 -6.0391 Q-14.425 -6.6875 -14.6282 -7.6328 Q-14.8313 -8.5781 -14.8313 -9.8281 L-14.8313 -20.9531 L-12.5969 -21.3438 L-12.5969 -17.4844 ZM-2.8811 -5 L-5.1154 -5 L-5.1154 -17.4844 L-2.8811 -17.4844 L-2.8811 -5 ZM-4.0061 -19.7344 Q-4.6154 -19.7344 -5.0373 -20.1328 Q-5.4592 -20.5312 -5.4592 -21.2031 Q-5.4592 -21.875 -5.0373 -22.2656 Q-4.6154 -22.6562 -4.0061 -22.6562 Q-3.4123 -22.6562 -2.9904 -22.2656 Q-2.5686 -21.875 -2.5686 -21.2031 Q-2.5686 -20.5312 -2.9904 -20.1328 Q-3.4123 -19.7344 -4.0061 -19.7344 ZM4.6451 -4.7656 Q2.5826 -4.8125 1.7233 -5.6484 Q0.8639 -6.4844 0.8639 -8.2656 L0.8639 -23.2344 L3.0983 -23.625 L3.0983 -8.625 Q3.0983 -8.0781 3.192 -7.7188 Q3.2858 -7.3594 3.5045 -7.1406 Q3.7233 -6.9219 4.0826 -6.8125 Q4.442 -6.7031 4.9576 -6.625 L4.6451 -4.7656 ZM9.6477 -5 L7.4133 -5 L7.4133 -17.4844 L9.6477 -17.4844 L9.6477 -5 ZM8.5227 -19.7344 Q7.9133 -19.7344 7.4915 -20.1328 Q7.0696 -20.5312 7.0696 -21.2031 Q7.0696 -21.875 7.4915 -22.2656 Q7.9133 -22.6562 8.5227 -22.6562 Q9.1165 -22.6562 9.5383 -22.2656 Q9.9602 -21.875 9.9602 -21.2031 Q9.9602 -20.5312 9.5383 -20.1328 Q9.1165 -19.7344 8.5227 -19.7344 ZM15.5333 -17.4844 L20.252 -17.4844 L20.252 -15.6094 L15.5333 -15.6094 L15.5333 -9.8438 Q15.5333 -8.9062 15.6739 -8.2969 Q15.8145 -7.6875 16.1036 -7.3359 Q16.3927 -6.9844 16.8223 -6.8438 Q17.252 -6.7031 17.8302 -6.7031 Q18.8302 -6.7031 19.4473 -6.9297 Q20.0645 -7.1562 20.2989 -7.25 L20.7364 -5.4062 Q20.3927 -5.2344 19.5567 -4.9844 Q18.7208 -4.7344 17.6427 -4.7344 Q16.3614 -4.7344 15.5333 -5.0625 Q14.7052 -5.3906 14.2052 -6.0391 Q13.7052 -6.6875 13.502 -7.6328 Q13.2989 -8.5781 13.2989 -9.8281 L13.2989 -20.9531 L15.5333 -21.3438 L15.5333 -17.4844 ZM21.546 -2.6719 Q21.8116 -2.5469 22.2335 -2.4453 Q22.6554 -2.3438 23.0616 -2.3438 Q24.3741 -2.3438 25.1241 -2.9297 Q25.8741 -3.5156 26.4679 -4.8281 Q24.9523 -7.7188 23.6476 -10.9453 Q22.3429 -14.1719 21.4835 -17.4844 L23.8741 -17.4844 Q24.1398 -16.4062 24.5148 -15.1562 Q24.8898 -13.9062 25.3429 -12.5859 Q25.796 -11.2656 26.3273 -9.9453 Q26.8585 -8.625 27.4366 -7.4062 Q28.3429 -9.9219 29.0148 -12.3906 Q29.6866 -14.8594 30.2804 -17.4844 L32.5929 -17.4844 Q31.7179 -13.9531 30.6632 -10.7031 Q29.6085 -7.4531 28.3898 -4.6094 Q27.9054 -3.5312 27.3898 -2.75 Q26.8741 -1.9688 26.2491 -1.4688 Q25.6241 -0.9688 24.8429 -0.7266 Q24.0616 -0.4844 23.0773 -0.4844 Q22.8273 -0.4844 22.5382 -0.5234 Q22.2491 -0.5625 21.9679 -0.625 Q21.6866 -0.6875 21.4601 -0.7578 Q21.2335 -0.8281 21.1398 -0.875 L21.546 -2.6719 Z"
    /></g
    ><g transform="translate(1579,127)" style="font-size:23.8333px; text-rendering:geometricPrecision; image-rendering:optimizeQuality; color-rendering:optimizeQuality; font-family:'Ubuntu'; color-interpolation:linearRGB; font-weight:bold;"
    ><path style="stroke:none;" d="M5.25 -8.0625 Q5.7812 -8.6406 6.3438 -9.2656 Q6.9062 -9.8906 7.4375 -10.5 Q7.9688 -11.1094 8.4375 -11.6641 Q8.9062 -12.2188 9.2344 -12.625 L13.4844 -12.625 Q12.2188 -11.1562 11.0078 -9.8281 Q9.7969 -8.5 8.3594 -7.0781 Q9.0781 -6.4375 9.8438 -5.5312 Q10.6094 -4.625 11.3281 -3.6719 Q12.0469 -2.7188 12.6484 -1.7578 Q13.25 -0.7969 13.6562 0 L9.5469 0 Q9.1719 -0.625 8.6797 -1.3828 Q8.1875 -2.1406 7.6328 -2.8906 Q7.0781 -3.6406 6.4688 -4.3438 Q5.8594 -5.0469 5.25 -5.5156 L5.25 0 L1.6875 0 L1.6875 -18.0469 L5.25 -18.625 L5.25 -8.0625 Z"
    /></g
    ><g transform="translate(1593,138)" style="font-size:19.0667px; text-rendering:geometricPrecision; image-rendering:optimizeQuality; color-rendering:optimizeQuality; font-family:'Ubuntu'; color-interpolation:linearRGB; font-weight:bold;"
    ><path style="stroke:none;" d="M7.7344 -5.0781 Q7.7344 -7.8125 5.7188 -7.8125 Q5.2812 -7.8125 4.8516 -7.6953 Q4.4219 -7.5781 4.1562 -7.4062 L4.1562 -2.2656 Q4.375 -2.2188 4.6953 -2.1953 Q5.0156 -2.1719 5.3906 -2.1719 Q6.5625 -2.1719 7.1484 -2.9688 Q7.7344 -3.7656 7.7344 -5.0781 ZM10.625 -5 Q10.625 -3.7969 10.2734 -2.8281 Q9.9219 -1.8594 9.2578 -1.1797 Q8.5938 -0.5 7.625 -0.125 Q6.6562 0.25 5.4219 0.25 Q4.9062 0.25 4.3438 0.2031 Q3.7812 0.1562 3.2422 0.0781 Q2.7031 0 2.2031 -0.1016 Q1.7031 -0.2031 1.3281 -0.3281 L1.3281 -14.2812 L4.1562 -14.75 L4.1562 -9.7656 Q4.6406 -9.9688 5.1484 -10.0859 Q5.6562 -10.2031 6.25 -10.2031 Q7.3125 -10.2031 8.1328 -9.8359 Q8.9531 -9.4688 9.5 -8.7812 Q10.0469 -8.0938 10.3359 -7.1328 Q10.625 -6.1719 10.625 -5 ZM16.6674 -1.9688 Q17.0737 -1.9688 17.4565 -1.9922 Q17.8393 -2.0156 18.0737 -2.0469 L18.0737 -4.2031 Q17.9018 -4.2344 17.558 -4.2734 Q17.2143 -4.3125 16.933 -4.3125 Q16.5268 -4.3125 16.1752 -4.2656 Q15.8237 -4.2188 15.558 -4.0859 Q15.2924 -3.9531 15.144 -3.7266 Q14.9955 -3.5 14.9955 -3.1562 Q14.9955 -2.4844 15.4409 -2.2266 Q15.8862 -1.9688 16.6674 -1.9688 ZM16.433 -10.2656 Q17.683 -10.2656 18.519 -9.9766 Q19.3549 -9.6875 19.8627 -9.1562 Q20.3705 -8.625 20.5737 -7.8672 Q20.7768 -7.1094 20.7768 -6.1719 L20.7768 -0.2812 Q20.1674 -0.1562 19.0893 0.0234 Q18.0112 0.2031 16.4643 0.2031 Q15.4955 0.2031 14.7065 0.0312 Q13.9174 -0.1406 13.3471 -0.5234 Q12.7768 -0.9062 12.4799 -1.5391 Q12.183 -2.1719 12.183 -3.0781 Q12.183 -3.9531 12.5346 -4.5625 Q12.8862 -5.1719 13.4721 -5.5312 Q14.058 -5.8906 14.8159 -6.0547 Q15.5737 -6.2188 16.4018 -6.2188 Q16.9487 -6.2188 17.3705 -6.1719 Q17.7924 -6.125 18.0737 -6.0469 L18.0737 -6.3125 Q18.0737 -7.0312 17.6362 -7.4688 Q17.1987 -7.9062 16.1049 -7.9062 Q15.3862 -7.9062 14.683 -7.7969 Q13.9799 -7.6875 13.4643 -7.5 L13.1049 -9.7812 Q13.3549 -9.8594 13.7221 -9.9453 Q14.0893 -10.0312 14.5268 -10.1016 Q14.9643 -10.1719 15.4487 -10.2188 Q15.933 -10.2656 16.433 -10.2656 ZM29.4097 -7.4844 Q29.0191 -7.5781 28.5113 -7.6875 Q28.0035 -7.7969 27.4097 -7.7969 Q27.1441 -7.7969 26.7691 -7.7422 Q26.3941 -7.6875 26.2066 -7.6406 L26.2066 0 L23.3785 0 L23.3785 -9.4688 Q24.1441 -9.7344 25.1754 -9.9688 Q26.2066 -10.2031 27.4879 -10.2031 Q27.7066 -10.2031 28.0347 -10.1719 Q28.3629 -10.1406 28.6832 -10.0938 Q29.0035 -10.0469 29.3238 -9.9844 Q29.6441 -9.9219 29.8785 -9.8281 L29.4097 -7.4844 Z"
    /></g
    ><g transform="translate(1624,127)" style="font-size:23.8333px; text-rendering:geometricPrecision; image-rendering:optimizeQuality; color-rendering:optimizeQuality; font-family:'Ubuntu'; color-interpolation:linearRGB; font-weight:bold;"
    ><path style="stroke:none;" d="M6.8884 -6.0312 L18.1697 -6.0312 L18.1697 -3.0312 L6.8884 -3.0312 L6.8884 -6.0312 ZM6.8884 -11.2812 L18.1697 -11.2812 L18.1697 -8.2812 L6.8884 -8.2812 L6.8884 -11.2812 ZM26.6498 -13.1719 Q27.3373 -13.4688 28.0951 -13.8359 Q28.8529 -14.2031 29.5717 -14.6484 Q30.2904 -15.0938 30.9467 -15.5859 Q31.6029 -16.0781 32.1342 -16.625 L34.6342 -16.625 L34.6342 0 L31.056 0 L31.056 -11.9688 Q30.3373 -11.5 29.4467 -11.1016 Q28.556 -10.7031 27.7279 -10.4219 L26.6498 -13.1719 ZM51.304 -8.3594 Q51.304 -4.1562 49.7102 -1.9062 Q48.1165 0.3438 45.304 0.3438 Q42.5071 0.3438 40.9055 -1.9062 Q39.304 -4.1562 39.304 -8.3594 Q39.304 -10.4375 39.7258 -12.0469 Q40.1477 -13.6562 40.9368 -14.7578 Q41.7258 -15.8594 42.8352 -16.4375 Q43.9446 -17.0156 45.304 -17.0156 Q48.1165 -17.0156 49.7102 -14.7734 Q51.304 -12.5312 51.304 -8.3594 ZM47.6633 -8.3594 Q47.6633 -9.5938 47.5383 -10.6172 Q47.4133 -11.6406 47.1555 -12.3828 Q46.8977 -13.125 46.4368 -13.5312 Q45.9758 -13.9375 45.304 -13.9375 Q44.6321 -13.9375 44.1868 -13.5312 Q43.7415 -13.125 43.468 -12.3828 Q43.1946 -11.6406 43.0774 -10.6172 Q42.9602 -9.5938 42.9602 -8.3594 Q42.9602 -7.1094 43.0774 -6.0781 Q43.1946 -5.0469 43.468 -4.2969 Q43.7415 -3.5469 44.1868 -3.1406 Q44.6321 -2.7344 45.304 -2.7344 Q45.9758 -2.7344 46.4368 -3.1406 Q46.8977 -3.5469 47.1555 -4.2969 Q47.4133 -5.0469 47.5383 -6.0781 Q47.6633 -7.1094 47.6633 -8.3594 ZM64.1903 -2.8594 Q64.9872 -2.8594 65.5028 -2.9922 Q66.0184 -3.125 66.3309 -3.3516 Q66.6434 -3.5781 66.7606 -3.8906 Q66.8778 -4.2031 66.8778 -4.5781 Q66.8778 -5.4062 66.1122 -5.9453 Q65.3466 -6.4844 63.4716 -7.1094 Q62.6591 -7.3906 61.8387 -7.7656 Q61.0184 -8.1406 60.37 -8.7031 Q59.7216 -9.2656 59.3153 -10.0703 Q58.9091 -10.875 58.9091 -12.0312 Q58.9091 -13.1719 59.3466 -14.1016 Q59.7841 -15.0312 60.5731 -15.6719 Q61.3622 -16.3125 62.4872 -16.6641 Q63.6122 -17.0156 65.0341 -17.0156 Q66.7059 -17.0156 67.9325 -16.6562 Q69.1591 -16.2969 69.9559 -15.8594 L68.8778 -12.9062 Q68.1747 -13.2656 67.3231 -13.5469 Q66.4716 -13.8281 65.2684 -13.8281 Q63.9247 -13.8281 63.3387 -13.4531 Q62.7528 -13.0781 62.7528 -12.3125 Q62.7528 -11.8594 62.9716 -11.5469 Q63.1903 -11.2344 63.5809 -10.9844 Q63.9716 -10.7344 64.4872 -10.5234 Q65.0028 -10.3125 65.6278 -10.1094 Q66.9247 -9.625 67.8856 -9.1562 Q68.8466 -8.6875 69.4872 -8.0625 Q70.1278 -7.4375 70.4403 -6.6016 Q70.7528 -5.7656 70.7528 -4.5625 Q70.7528 -2.2344 69.12 -0.9453 Q67.4872 0.3438 64.1903 0.3438 Q63.0966 0.3438 62.2059 0.2109 Q61.3153 0.0781 60.6278 -0.1172 Q59.9403 -0.3125 59.4481 -0.5312 Q58.9559 -0.75 58.6278 -0.9375 L59.6747 -3.9062 Q60.4247 -3.5 61.5184 -3.1797 Q62.6122 -2.8594 64.1903 -2.8594 ZM73.5217 0 L73.5217 -16.625 L84.7561 -16.625 L84.7561 -13.4844 L77.2561 -13.4844 L77.2561 -10.2188 L83.9123 -10.2188 L83.9123 -7.1562 L77.2561 -7.1562 L77.2561 -3.1406 L85.3029 -3.1406 L85.3029 0 L73.5217 0 ZM96.86 0 Q95.6413 -2.4062 94.3835 -5.6172 Q93.1257 -8.8281 91.985 -12.625 L95.7819 -12.625 Q96.0163 -11.6875 96.3444 -10.5938 Q96.6725 -9.5 97.0163 -8.3828 Q97.36 -7.2656 97.7116 -6.2109 Q98.0632 -5.1562 98.3913 -4.2969 Q98.7038 -5.1562 99.071 -6.2109 Q99.4382 -7.2656 99.7819 -8.3828 Q100.1257 -9.5 100.4538 -10.5938 Q100.7819 -11.6875 101.0163 -12.625 L104.7038 -12.625 Q103.5788 -8.8281 102.321 -5.6172 Q101.0632 -2.4062 99.8444 0 L96.86 0 ZM111.3511 -2.5 Q111.8824 -2.5 112.3589 -2.5234 Q112.8355 -2.5469 113.1324 -2.5938 L113.1324 -5.2969 Q112.9136 -5.3594 112.4839 -5.4062 Q112.0542 -5.4531 111.6949 -5.4531 Q111.1949 -5.4531 110.7495 -5.3906 Q110.3042 -5.3281 109.9683 -5.1562 Q109.6324 -4.9844 109.437 -4.7031 Q109.2417 -4.4219 109.2417 -3.9844 Q109.2417 -3.1406 109.8042 -2.8203 Q110.3667 -2.5 111.3511 -2.5 ZM111.0699 -12.9531 Q112.648 -12.9531 113.7027 -12.5938 Q114.7574 -12.2344 115.398 -11.5625 Q116.0386 -10.8906 116.3042 -9.9297 Q116.5699 -8.9688 116.5699 -7.7969 L116.5699 -0.3594 Q115.7886 -0.1875 114.4214 0.0391 Q113.0542 0.2656 111.1167 0.2656 Q109.898 0.2656 108.898 0.0469 Q107.898 -0.1719 107.1792 -0.6641 Q106.4605 -1.1562 106.0777 -1.9453 Q105.6949 -2.7344 105.6949 -3.8906 Q105.6949 -4.9844 106.1402 -5.7578 Q106.5855 -6.5312 107.3277 -6.9844 Q108.0699 -7.4375 109.0308 -7.6406 Q109.9917 -7.8438 111.023 -7.8438 Q111.7105 -7.8438 112.2495 -7.7891 Q112.7886 -7.7344 113.1324 -7.625 L113.1324 -7.9688 Q113.1324 -8.875 112.5777 -9.4297 Q112.023 -9.9844 110.6636 -9.9844 Q109.7417 -9.9844 108.8589 -9.8516 Q107.9761 -9.7188 107.3199 -9.4844 L106.8667 -12.3594 Q107.1792 -12.4531 107.648 -12.5625 Q108.1167 -12.6719 108.6714 -12.7578 Q109.2261 -12.8438 109.8355 -12.8984 Q110.4449 -12.9531 111.0699 -12.9531 ZM124.7417 0.2344 Q123.1792 0.2188 122.2105 -0.0938 Q121.2417 -0.4062 120.6792 -0.9688 Q120.1167 -1.5312 119.9136 -2.3359 Q119.7105 -3.1406 119.7105 -4.1562 L119.7105 -18.0469 L123.273 -18.625 L123.273 -4.875 Q123.273 -4.3906 123.3511 -4.0078 Q123.4292 -3.625 123.6324 -3.3594 Q123.8355 -3.0938 124.2183 -2.9297 Q124.6011 -2.7656 125.2417 -2.7188 L124.7417 0.2344 ZM138.0029 -0.4375 Q137.0967 -0.1719 135.6514 0.0547 Q134.206 0.2812 132.6279 0.2812 Q131.0185 0.2812 129.956 -0.1484 Q128.8935 -0.5781 128.2685 -1.3594 Q127.6435 -2.1406 127.3779 -3.2188 Q127.1123 -4.2969 127.1123 -5.5938 L127.1123 -12.625 L130.6904 -12.625 L130.6904 -6.0312 Q130.6904 -4.2969 131.1435 -3.5312 Q131.5967 -2.7656 132.8467 -2.7656 Q133.2373 -2.7656 133.667 -2.7969 Q134.0967 -2.8281 134.4248 -2.875 L134.4248 -12.625 L138.0029 -12.625 L138.0029 -0.4375 ZM140.6573 -6.2188 Q140.6573 -7.8906 141.1729 -9.1562 Q141.6885 -10.4219 142.5323 -11.2578 Q143.376 -12.0938 144.462 -12.5234 Q145.5479 -12.9531 146.7042 -12.9531 Q149.3917 -12.9531 150.9542 -11.3125 Q152.5167 -9.6719 152.5167 -6.4844 Q152.5167 -6.1719 152.4932 -5.7969 Q152.4698 -5.4219 152.4385 -5.1406 L144.3292 -5.1406 Q144.4542 -4.0312 145.3682 -3.3828 Q146.2823 -2.7344 147.8135 -2.7344 Q148.7979 -2.7344 149.7432 -2.9141 Q150.6885 -3.0938 151.2979 -3.3594 L151.7667 -0.4531 Q151.4854 -0.3125 151.001 -0.1719 Q150.5167 -0.0312 149.9307 0.0781 Q149.3448 0.1875 148.6729 0.2656 Q148.001 0.3438 147.3292 0.3438 Q145.626 0.3438 144.3682 -0.1641 Q143.1104 -0.6719 142.2823 -1.5469 Q141.4542 -2.4219 141.0557 -3.625 Q140.6573 -4.8281 140.6573 -6.2188 ZM149.0635 -7.5781 Q149.0323 -8.0469 148.8995 -8.4766 Q148.7667 -8.9062 148.4932 -9.2422 Q148.2198 -9.5781 147.7979 -9.7969 Q147.376 -10.0156 146.751 -10.0156 Q146.1573 -10.0156 145.7276 -9.8047 Q145.2979 -9.5938 145.0089 -9.2578 Q144.7198 -8.9219 144.5635 -8.4844 Q144.4073 -8.0469 144.3292 -7.5781 L149.0635 -7.5781 ZM166.3622 -18.625 Q167.3622 -18.625 168.206 -18.4219 Q169.0497 -18.2188 169.5029 -18.0312 L168.7997 -15.1719 Q168.331 -15.3906 167.7607 -15.4922 Q167.1904 -15.5938 166.7216 -15.5938 Q166.0654 -15.5938 165.6201 -15.4141 Q165.1747 -15.2344 164.9247 -14.9219 Q164.6747 -14.6094 164.5654 -14.1797 Q164.456 -13.75 164.456 -13.25 L164.456 -12.625 L168.8779 -12.625 L168.8779 -9.6406 L164.456 -9.6406 L164.456 0 L160.8935 0 L160.8935 -13.2969 Q160.8935 -15.75 162.2685 -17.1875 Q163.6435 -18.625 166.3622 -18.625 ZM181.7107 -0.4375 Q180.8045 -0.1719 179.3592 0.0547 Q177.9138 0.2812 176.3357 0.2812 Q174.7263 0.2812 173.6638 -0.1484 Q172.6013 -0.5781 171.9763 -1.3594 Q171.3513 -2.1406 171.0857 -3.2188 Q170.8201 -4.2969 170.8201 -5.5938 L170.8201 -12.625 L174.3982 -12.625 L174.3982 -6.0312 Q174.3982 -4.2969 174.8513 -3.5312 Q175.3045 -2.7656 176.5545 -2.7656 Q176.9451 -2.7656 177.3748 -2.7969 Q177.8045 -2.8281 178.1326 -2.875 L178.1326 -12.625 L181.7107 -12.625 L181.7107 -0.4375 ZM184.9745 -12.1875 Q185.8807 -12.4531 187.3182 -12.6797 Q188.7557 -12.9062 190.3495 -12.9062 Q191.9432 -12.9062 193.0135 -12.4922 Q194.0838 -12.0781 194.7088 -11.3047 Q195.3338 -10.5312 195.5995 -9.4766 Q195.8651 -8.4219 195.8651 -7.125 L195.8651 0 L192.287 0 L192.287 -6.7031 Q192.287 -8.4219 191.8338 -9.1406 Q191.3807 -9.8594 190.1307 -9.8594 Q189.7401 -9.8594 189.3104 -9.8281 Q188.8807 -9.7969 188.537 -9.75 L188.537 0 L184.9745 0 L184.9745 -12.1875 ZM198.3945 -6.3125 Q198.3945 -7.6875 198.8398 -8.8984 Q199.2851 -10.1094 200.121 -11.0078 Q200.957 -11.9062 202.1601 -12.4297 Q203.3632 -12.9531 204.8945 -12.9531 Q205.9101 -12.9531 206.746 -12.7734 Q207.582 -12.5938 208.3788 -12.2656 L207.6288 -9.4062 Q207.1288 -9.5938 206.5273 -9.7422 Q205.9257 -9.8906 205.1913 -9.8906 Q203.5976 -9.8906 202.8242 -8.9062 Q202.0507 -7.9219 202.0507 -6.3125 Q202.0507 -4.6094 202.7773 -3.6719 Q203.5038 -2.7344 205.332 -2.7344 Q205.9726 -2.7344 206.7226 -2.8516 Q207.4726 -2.9688 208.0976 -3.2344 L208.5976 -0.3125 Q207.9726 -0.0469 207.0351 0.1484 Q206.0976 0.3438 204.9726 0.3438 Q203.2382 0.3438 201.996 -0.1797 Q200.7538 -0.7031 199.9492 -1.5859 Q199.1445 -2.4688 198.7695 -3.6797 Q198.3945 -4.8906 198.3945 -6.3125 ZM210.7883 -15.7656 L214.3665 -16.3438 L214.3665 -12.625 L218.6633 -12.625 L218.6633 -9.6406 L214.3665 -9.6406 L214.3665 -5.2031 Q214.3665 -4.0781 214.7571 -3.4062 Q215.1477 -2.7344 216.3508 -2.7344 Q216.929 -2.7344 217.5383 -2.8438 Q218.1477 -2.9531 218.6633 -3.1406 L219.1633 -0.3594 Q218.5071 -0.0938 217.718 0.0938 Q216.929 0.2812 215.7727 0.2812 Q214.3196 0.2812 213.3586 -0.1094 Q212.3977 -0.5 211.8196 -1.2109 Q211.2415 -1.9219 211.0149 -2.9297 Q210.7883 -3.9375 210.7883 -5.1562 L210.7883 -15.7656 ZM225.0515 0 L221.489 0 L221.489 -12.625 L225.0515 -12.625 L225.0515 0 ZM225.3952 -16.2656 Q225.3952 -15.2812 224.7546 -14.7188 Q224.114 -14.1562 223.2546 -14.1562 Q222.3952 -14.1562 221.7546 -14.7188 Q221.114 -15.2812 221.114 -16.2656 Q221.114 -17.25 221.7546 -17.8203 Q222.3952 -18.3906 223.2546 -18.3906 Q224.114 -18.3906 224.7546 -17.8203 Q225.3952 -17.25 225.3952 -16.2656 ZM240.1695 -6.3438 Q240.1695 -4.8438 239.7398 -3.6094 Q239.3101 -2.375 238.4898 -1.5 Q237.6695 -0.625 236.5367 -0.1406 Q235.4039 0.3438 233.982 0.3438 Q232.5914 0.3438 231.4508 -0.1406 Q230.3101 -0.625 229.4898 -1.5 Q228.6695 -2.375 228.2164 -3.6094 Q227.7633 -4.8438 227.7633 -6.3438 Q227.7633 -7.8281 228.232 -9.0469 Q228.7008 -10.2656 229.5289 -11.1328 Q230.357 -12 231.4976 -12.4766 Q232.6383 -12.9531 233.982 -12.9531 Q235.3414 -12.9531 236.482 -12.4766 Q237.6226 -12 238.4429 -11.1328 Q239.2633 -10.2656 239.7164 -9.0469 Q240.1695 -7.8281 240.1695 -6.3438 ZM236.5289 -6.3438 Q236.5289 -7.9844 235.8648 -8.9375 Q235.2008 -9.8906 233.982 -9.8906 Q232.7633 -9.8906 232.0914 -8.9375 Q231.4195 -7.9844 231.4195 -6.3438 Q231.4195 -4.6875 232.0914 -3.7109 Q232.7633 -2.7344 233.982 -2.7344 Q235.2008 -2.7344 235.8648 -3.7109 Q236.5289 -4.6875 236.5289 -6.3438 ZM242.8307 -12.1875 Q243.737 -12.4531 245.1745 -12.6797 Q246.612 -12.9062 248.2057 -12.9062 Q249.7995 -12.9062 250.8698 -12.4922 Q251.9401 -12.0781 252.5651 -11.3047 Q253.1901 -10.5312 253.4557 -9.4766 Q253.7214 -8.4219 253.7214 -7.125 L253.7214 0 L250.1432 0 L250.1432 -6.7031 Q250.1432 -8.4219 249.6901 -9.1406 Q249.237 -9.8594 247.987 -9.8594 Q247.5964 -9.8594 247.1667 -9.8281 Q246.737 -9.7969 246.3932 -9.75 L246.3932 0 L242.8307 0 L242.8307 -12.1875 ZM268.0454 -18.625 Q269.0454 -18.625 269.8892 -18.4219 Q270.7329 -18.2188 271.186 -18.0312 L270.4829 -15.1719 Q270.0142 -15.3906 269.4438 -15.4922 Q268.8735 -15.5938 268.4048 -15.5938 Q267.7485 -15.5938 267.3032 -15.4141 Q266.8579 -15.2344 266.6079 -14.9219 Q266.3579 -14.6094 266.2485 -14.1797 Q266.1392 -13.75 266.1392 -13.25 L266.1392 -12.625 L270.561 -12.625 L270.561 -9.6406 L266.1392 -9.6406 L266.1392 0 L262.5767 0 L262.5767 -13.2969 Q262.5767 -15.75 263.9517 -17.1875 Q265.3267 -18.625 268.0454 -18.625 ZM284.4251 -6.3438 Q284.4251 -4.8438 283.9955 -3.6094 Q283.5658 -2.375 282.7455 -1.5 Q281.9251 -0.625 280.7923 -0.1406 Q279.6595 0.3438 278.2376 0.3438 Q276.847 0.3438 275.7064 -0.1406 Q274.5658 -0.625 273.7455 -1.5 Q272.9251 -2.375 272.472 -3.6094 Q272.0189 -4.8438 272.0189 -6.3438 Q272.0189 -7.8281 272.4876 -9.0469 Q272.9564 -10.2656 273.7845 -11.1328 Q274.6126 -12 275.7533 -12.4766 Q276.8939 -12.9531 278.2376 -12.9531 Q279.597 -12.9531 280.7376 -12.4766 Q281.8783 -12 282.6986 -11.1328 Q283.5189 -10.2656 283.972 -9.0469 Q284.4251 -7.8281 284.4251 -6.3438 ZM280.7845 -6.3438 Q280.7845 -7.9844 280.1205 -8.9375 Q279.4564 -9.8906 278.2376 -9.8906 Q277.0189 -9.8906 276.347 -8.9375 Q275.6751 -7.9844 275.6751 -6.3438 Q275.6751 -4.6875 276.347 -3.7109 Q277.0189 -2.7344 278.2376 -2.7344 Q279.4564 -2.7344 280.1205 -3.7109 Q280.7845 -4.6875 280.7845 -6.3438 ZM294.6801 -9.4531 Q294.2114 -9.5781 293.5629 -9.7109 Q292.9145 -9.8438 292.1645 -9.8438 Q291.8364 -9.8438 291.3676 -9.7812 Q290.8989 -9.7188 290.6489 -9.6406 L290.6489 0 L287.0864 0 L287.0864 -11.9531 Q288.0395 -12.2812 289.3442 -12.5859 Q290.6489 -12.8906 292.2582 -12.8906 Q292.5551 -12.8906 292.9614 -12.8516 Q293.3676 -12.8125 293.7739 -12.7578 Q294.1801 -12.7031 294.5864 -12.6172 Q294.9926 -12.5312 295.2895 -12.4062 L294.6801 -9.4531 Z"
    /></g
    ><g transform="translate(1926,127)" style="font-size:23.8333px; text-rendering:geometricPrecision; image-rendering:optimizeQuality; color-rendering:optimizeQuality; font-family:'mwb_cmmi10'; color-interpolation:linearRGB; font-weight:bold;"
    ><path style="stroke:none;" d="M0.6719 4.5156 Q0.6719 4.375 0.6875 4.3281 L4.2188 -9.8438 Q4.3281 -10.1875 4.6016 -10.3984 Q4.875 -10.6094 5.2344 -10.6094 Q6.5312 -10.6094 6.7422 -10.4297 Q6.9531 -10.25 6.9531 -9.9375 Q6.9531 -9.875 6.9453 -9.8281 Q6.9375 -9.7812 6.9375 -9.7344 L5.5156 -4.125 Q5.2812 -3.125 5.2812 -2.4062 Q5.2812 -1.5156 5.7031 -0.9375 Q6.125 -0.3594 6.125 -0.3594 Q7.7188 -0.3594 9.0469 -2.5469 Q9.0625 -2.5625 9.0703 -2.5781 Q9.0781 -2.5938 9.0781 -2.6094 L10.8125 -9.5781 Q10.8906 -9.8906 11.1797 -10.1172 Q11.4688 -10.3438 11.8125 -10.3438 Q13.0938 -10.3438 13.3125 -10.1562 Q13.5312 -9.9688 13.5312 -9.6719 Q13.5312 -9.5312 13.5 -9.4844 L11.7812 -2.5625 Q11.6094 -1.8906 11.6094 -1.3906 Q11.6094 -0.3594 11.6094 -0.3594 Q12.0625 -0.3594 12.4453 -1.2891 Q12.8281 -2.2188 13.1094 -3.5312 Q13.1562 -3.6719 13.2969 -3.6719 L13.5781 -3.6719 Q14.6719 -3.6719 14.7422 -3.5938 Q14.8125 -3.5156 14.8125 -3.4375 Q14.3906 -1.7656 13.8906 -0.75 Q13.3906 0.2656 11.2656 0.2656 Q10.4688 0.2656 9.8516 -0.1875 Q9.2344 -0.6406 9.2344 -0.6406 Q9.2344 -0.6406 8.5391 -0.1875 Q7.8438 0.2656 5.9531 0.2656 Q4.4531 0.2656 4.3125 0.1406 L3.375 4.4219 Q3.3125 4.7656 3.0312 4.9766 Q2.75 5.1875 1.3906 5.1875 Q1.1094 5.1875 0.8906 5 Q0.6719 4.8125 0.6719 4.5156 Z"
    /></g
    ><g transform="translate(1942,127)" style="font-size:23.8333px; text-rendering:geometricPrecision; image-rendering:optimizeQuality; color-rendering:optimizeQuality; font-family:'Ubuntu'; color-interpolation:linearRGB; font-weight:bold;"
    ><path style="stroke:none;" d="M6.8884 -6.0312 L18.1697 -6.0312 L18.1697 -3.0312 L6.8884 -3.0312 L6.8884 -6.0312 ZM6.8884 -11.2812 L18.1697 -11.2812 L18.1697 -8.2812 L6.8884 -8.2812 L6.8884 -11.2812 ZM26.6498 -13.1719 Q27.3373 -13.4688 28.0951 -13.8359 Q28.8529 -14.2031 29.5717 -14.6484 Q30.2904 -15.0938 30.9467 -15.5859 Q31.6029 -16.0781 32.1342 -16.625 L34.6342 -16.625 L34.6342 0 L31.056 0 L31.056 -11.9688 Q30.3373 -11.5 29.4467 -11.1016 Q28.556 -10.7031 27.7279 -10.4219 L26.6498 -13.1719 ZM43.554 -3.6406 Q43.6008 -3.0781 43.6165 -2.8359 Q43.6321 -2.5938 43.6321 -2.4219 Q43.6321 -1.7031 43.4993 -0.8984 Q43.3665 -0.0938 43.1243 0.7188 Q42.8821 1.5312 42.5227 2.3516 Q42.1633 3.1719 41.7102 3.9062 L38.8977 3.2188 Q39.4446 1.625 39.6633 0.2344 Q39.8821 -1.1562 39.8821 -2.0625 Q39.8821 -2.2031 39.8743 -2.4297 Q39.8665 -2.6562 39.8508 -2.8984 Q39.8352 -3.1406 39.8196 -3.3594 Q39.804 -3.5781 39.804 -3.6406 L43.554 -3.6406 Z"
    /></g
    ><g transform="translate(1993,127)" style="font-size:23.8333px; text-rendering:geometricPrecision; image-rendering:optimizeQuality; color-rendering:optimizeQuality; font-family:'mwb_cmmi10'; color-interpolation:linearRGB; font-weight:bold;"
    ><path style="stroke:none;" d="M4.8281 0.2656 Q3.6875 0.2656 2.8047 -0.2734 Q1.9219 -0.8125 1.4453 -1.7266 Q0.9688 -2.6406 0.9688 -3.7969 Q0.9688 -5.4219 1.875 -7.0156 Q2.7812 -8.6094 4.2891 -9.6094 Q5.7969 -10.6094 7.4375 -10.6094 Q9.6562 -10.6094 10.5859 -9.9688 Q11.5156 -9.3281 11.9922 -8.2656 Q12.4688 -7.2031 12.4688 -6 L12.4688 -5.125 Q12.4688 -5.5312 12.9609 -6.7578 Q13.4531 -7.9844 13.7656 -9.2969 Q13.8125 -9.4375 13.9531 -9.4375 L14.2344 -9.4375 Q15.4531 -9.4375 15.4531 -9.2188 Q15.4531 -9.1875 15.4219 -9.1406 Q15.1406 -8.0469 14.7188 -7.0312 Q14.2969 -6.0156 13.7344 -5.0625 Q13.1719 -4.1094 12.5 -3.3438 Q12.5 -0.3594 12.5 -0.3594 Q12.6406 -0.3594 12.9219 -0.625 Q13.2031 -0.8906 13.4219 -1.2812 Q13.6406 -1.6719 13.7031 -1.6719 L14 -1.6719 Q15.1875 -1.6719 15.1875 -1.4375 Q15.1875 -0.8438 14.5 -0.2891 Q13.8125 0.2656 12.1406 0.2656 Q11.2812 0.2656 10.7031 -0.2969 Q10.125 -0.8594 10.0781 -1.0312 Q9.7969 -0.7969 8.4844 -0.2656 Q7.1719 0.2656 4.8281 0.2656 ZM4.875 -0.3594 Q7.4375 -0.3594 9.7969 -2.4688 Q9.7812 -2.6094 9.7578 -2.8203 Q9.7344 -3.0312 9.7344 -3.0469 L9.7344 -5.6406 Q9.7344 -9.9844 7.3906 -9.9844 Q6.9844 -9.9844 5.9297 -8.7812 Q4.875 -7.5781 4.3438 -5.9141 Q3.8125 -4.25 3.8125 -2.8594 Q3.8125 -1.8125 4.3438 -1.0859 Q4.875 -0.3594 4.875 -0.3594 Z"
    /></g
    ><g transform="translate(2010,127)" style="font-size:23.8333px; text-rendering:geometricPrecision; image-rendering:optimizeQuality; color-rendering:optimizeQuality; font-family:'Ubuntu'; color-interpolation:linearRGB; font-weight:bold;"
    ><path style="stroke:none;" d="M6.8884 -6.0312 L18.1697 -6.0312 L18.1697 -3.0312 L6.8884 -3.0312 L6.8884 -6.0312 ZM6.8884 -11.2812 L18.1697 -11.2812 L18.1697 -8.2812 L6.8884 -8.2812 L6.8884 -11.2812 ZM37.7748 -8.3594 Q37.7748 -4.1562 36.181 -1.9062 Q34.5873 0.3438 31.7748 0.3438 Q28.9779 0.3438 27.3763 -1.9062 Q25.7748 -4.1562 25.7748 -8.3594 Q25.7748 -10.4375 26.1967 -12.0469 Q26.6185 -13.6562 27.4076 -14.7578 Q28.1967 -15.8594 29.306 -16.4375 Q30.4154 -17.0156 31.7748 -17.0156 Q34.5873 -17.0156 36.181 -14.7734 Q37.7748 -12.5312 37.7748 -8.3594 ZM34.1342 -8.3594 Q34.1342 -9.5938 34.0092 -10.6172 Q33.8842 -11.6406 33.6263 -12.3828 Q33.3685 -13.125 32.9076 -13.5312 Q32.4467 -13.9375 31.7748 -13.9375 Q31.1029 -13.9375 30.6576 -13.5312 Q30.2123 -13.125 29.9388 -12.3828 Q29.6654 -11.6406 29.5482 -10.6172 Q29.431 -9.5938 29.431 -8.3594 Q29.431 -7.1094 29.5482 -6.0781 Q29.6654 -5.0469 29.9388 -4.2969 Q30.2123 -3.5469 30.6576 -3.1406 Q31.1029 -2.7344 31.7748 -2.7344 Q32.4467 -2.7344 32.9076 -3.1406 Q33.3685 -3.5469 33.6263 -4.2969 Q33.8842 -5.0469 34.0092 -6.0781 Q34.1342 -7.1094 34.1342 -8.3594 ZM43.679 -1.8906 Q43.679 -0.8125 42.9915 -0.25 Q42.304 0.3125 41.4446 0.3125 Q40.5852 0.3125 39.8977 -0.25 Q39.2102 -0.8125 39.2102 -1.8906 Q39.2102 -2.9688 39.8977 -3.5391 Q40.5852 -4.1094 41.4446 -4.1094 Q42.304 -4.1094 42.9915 -3.5391 Q43.679 -2.9688 43.679 -1.8906 ZM47.7572 0 Q47.8978 -1.75 48.3587 -3.6484 Q48.8197 -5.5469 49.4759 -7.3672 Q50.1322 -9.1875 50.9525 -10.8125 Q51.7728 -12.4375 52.6009 -13.6094 L45.3822 -13.6094 L45.3822 -16.6562 L57.0228 -16.6562 L57.0228 -14.0625 Q56.2572 -13.2188 55.3353 -11.7344 Q54.4134 -10.25 53.5853 -8.3672 Q52.7572 -6.4844 52.14 -4.3203 Q51.5228 -2.1562 51.3822 0 L47.7572 0 ZM70.6926 -8.3594 Q70.6926 -4.1562 69.0988 -1.9062 Q67.5051 0.3438 64.6926 0.3438 Q61.8957 0.3438 60.2942 -1.9062 Q58.6926 -4.1562 58.6926 -8.3594 Q58.6926 -10.4375 59.1145 -12.0469 Q59.5363 -13.6562 60.3254 -14.7578 Q61.1145 -15.8594 62.2238 -16.4375 Q63.3332 -17.0156 64.6926 -17.0156 Q67.5051 -17.0156 69.0988 -14.7734 Q70.6926 -12.5312 70.6926 -8.3594 ZM67.052 -8.3594 Q67.052 -9.5938 66.927 -10.6172 Q66.802 -11.6406 66.5442 -12.3828 Q66.2863 -13.125 65.8254 -13.5312 Q65.3645 -13.9375 64.6926 -13.9375 Q64.0207 -13.9375 63.5754 -13.5312 Q63.1301 -13.125 62.8567 -12.3828 Q62.5832 -11.6406 62.466 -10.6172 Q62.3488 -9.5938 62.3488 -8.3594 Q62.3488 -7.1094 62.466 -6.0781 Q62.5832 -5.0469 62.8567 -4.2969 Q63.1301 -3.5469 63.5754 -3.1406 Q64.0207 -2.7344 64.6926 -2.7344 Q65.3645 -2.7344 65.8254 -3.1406 Q66.2863 -3.5469 66.5442 -4.2969 Q66.802 -5.0469 66.927 -6.0781 Q67.052 -7.1094 67.052 -8.3594 Z"
    /></g
    ><g style="stroke-linecap:butt; fill:rgb(0,114,189); text-rendering:geometricPrecision; image-rendering:optimizeQuality; color-rendering:optimizeQuality; stroke-linejoin:round; stroke:rgb(0,114,189); color-interpolation:linearRGB; stroke-width:3.9722;"
    ><path d="M480 1719 L534.04 1708.5399 L588.08 1693.597 L642.12 1672.2501 L696.16 1641.7544 L750.2 1598.1891 L804.24 1535.953 L858.28 1447.0443 L912.32 1320.2579 L966.36 1147.5476 L1020.4 944.2031 L1074.4399 740.8586 L1128.48 568.1483 L1182.52 441.3618 L1236.5601 352.4532 L1290.6 290.217 L1344.64 246.6518 L1398.6801 216.1561 L1452.72 194.8091 L1506.76 179.8662 L1560.8 169.4062 L1614.84 162.0842 L1668.88 156.9587 L1722.92 153.371 L1776.96 150.8595 L1831 149.1015 L1885.04 147.8709 L1939.08 147.0094 L1993.12 146.4064 L2047.16 145.9843 L2101.2 145.6889 L2155.24 145.4821 L2209.28 145.3373 L2263.3201 145.2359 L2317.3601 145.165 L2371.3999 145.1153 L2425.4399 145.0806 L2479.48 145.0562 L2533.52 145.0392 L2587.5601 145.0273 L2641.6001 145.0189 L2695.6399 145.0131 L2749.6799 145.009 L2803.72 145.0061 L2857.76 145.0041 L2911.8 145.0027 L2965.8401 145.0017 L3019.8799 145.0011 L3073.9199 145.0006 L3127.96 145.0002 L3182 145" style="fill:none; fill-rule:evenodd;"
      /><path d="M-4.2132 -4.2132 L4.2132 4.2132 M-4.2132 4.2132 L4.2132 -4.2132" style="fill:none; stroke-linejoin:miter;" transform="translate(480,1719)"
      /><path d="M-4.2132 -4.2132 L4.2132 4.2132 M-4.2132 4.2132 L4.2132 -4.2132" style="fill:none; stroke-linejoin:miter;" transform="translate(534.04,1708.5399)"
      /><path d="M-4.2132 -4.2132 L4.2132 4.2132 M-4.2132 4.2132 L4.2132 -4.2132" style="fill:none; stroke-linejoin:miter;" transform="translate(588.08,1693.597)"
      /><path d="M-4.2132 -4.2132 L4.2132 4.2132 M-4.2132 4.2132 L4.2132 -4.2132" style="fill:none; stroke-linejoin:miter;" transform="translate(642.12,1672.2501)"
      /><path d="M-4.2132 -4.2132 L4.2132 4.2132 M-4.2132 4.2132 L4.2132 -4.2132" style="fill:none; stroke-linejoin:miter;" transform="translate(696.16,1641.7544)"
      /><path d="M-4.2132 -4.2132 L4.2132 4.2132 M-4.2132 4.2132 L4.2132 -4.2132" style="fill:none; stroke-linejoin:miter;" transform="translate(750.2,1598.1891)"
      /><path d="M-4.2132 -4.2132 L4.2132 4.2132 M-4.2132 4.2132 L4.2132 -4.2132" style="fill:none; stroke-linejoin:miter;" transform="translate(804.24,1535.953)"
      /><path d="M-4.2132 -4.2132 L4.2132 4.2132 M-4.2132 4.2132 L4.2132 -4.2132" style="fill:none; stroke-linejoin:miter;" transform="translate(858.28,1447.0443)"
      /><path d="M-4.2132 -4.2132 L4.2132 4.2132 M-4.2132 4.2132 L4.2132 -4.2132" style="fill:none; stroke-linejoin:miter;" transform="translate(912.32,1320.2579)"
      /><path d="M-4.2132 -4.2132 L4.2132 4.2132 M-4.2132 4.2132 L4.2132 -4.2132" style="fill:none; stroke-linejoin:miter;" transform="translate(966.36,1147.5476)"
      /><path d="M-4.2132 -4.2132 L4.2132 4.2132 M-4.2132 4.2132 L4.2132 -4.2132" style="fill:none; stroke-linejoin:miter;" transform="translate(1020.4,944.2031)"
      /><path d="M-4.2132 -4.2132 L4.2132 4.2132 M-4.2132 4.2132 L4.2132 -4.2132" style="fill:none; stroke-linejoin:miter;" transform="translate(1074.4399,740.8586)"
      /><path d="M-4.2132 -4.2132 L4.2132 4.2132 M-4.2132 4.2132 L4.2132 -4.2132" style="fill:none; stroke-linejoin:miter;" transform="translate(1128.48,568.1483)"
      /><path d="M-4.2132 -4.2132 L4.2132 4.2132 M-4.2132 4.2132 L4.2132 -4.2132" style="fill:none; stroke-linejoin:miter;" transform="translate(1182.52,441.3618)"
      /><path d="M-4.2132 -4.2132 L4.2132 4.2132 M-4.2132 4.2132 L4.2132 -4.2132" style="fill:none; stroke-linejoin:miter;" transform="translate(1236.5601,352.4532)"
      /><path d="M-4.2132 -4.2132 L4.2132 4.2132 M-4.2132 4.2132 L4.2132 -4.2132" style="fill:none; stroke-linejoin:miter;" transform="translate(1290.6,290.217)"
      /><path d="M-4.2132 -4.2132 L4.2132 4.2132 M-4.2132 4.2132 L4.2132 -4.2132" style="fill:none; stroke-linejoin:miter;" transform="translate(1344.64,246.6518)"
      /><path d="M-4.2132 -4.2132 L4.2132 4.2132 M-4.2132 4.2132 L4.2132 -4.2132" style="fill:none; stroke-linejoin:miter;" transform="translate(1398.6801,216.1561)"
      /><path d="M-4.2132 -4.2132 L4.2132 4.2132 M-4.2132 4.2132 L4.2132 -4.2132" style="fill:none; stroke-linejoin:miter;" transform="translate(1452.72,194.8091)"
      /><path d="M-4.2132 -4.2132 L4.2132 4.2132 M-4.2132 4.2132 L4.2132 -4.2132" style="fill:none; stroke-linejoin:miter;" transform="translate(1506.76,179.8662)"
      /><path d="M-4.2132 -4.2132 L4.2132 4.2132 M-4.2132 4.2132 L4.2132 -4.2132" style="fill:none; stroke-linejoin:miter;" transform="translate(1560.8,169.4062)"
      /><path d="M-4.2132 -4.2132 L4.2132 4.2132 M-4.2132 4.2132 L4.2132 -4.2132" style="fill:none; stroke-linejoin:miter;" transform="translate(1614.84,162.0842)"
      /><path d="M-4.2132 -4.2132 L4.2132 4.2132 M-4.2132 4.2132 L4.2132 -4.2132" style="fill:none; stroke-linejoin:miter;" transform="translate(1668.88,156.9587)"
      /><path d="M-4.2132 -4.2132 L4.2132 4.2132 M-4.2132 4.2132 L4.2132 -4.2132" style="fill:none; stroke-linejoin:miter;" transform="translate(1722.92,153.371)"
      /><path d="M-4.2132 -4.2132 L4.2132 4.2132 M-4.2132 4.2132 L4.2132 -4.2132" style="fill:none; stroke-linejoin:miter;" transform="translate(1776.96,150.8595)"
      /><path d="M-4.2132 -4.2132 L4.2132 4.2132 M-4.2132 4.2132 L4.2132 -4.2132" style="fill:none; stroke-linejoin:miter;" transform="translate(1831,149.1015)"
      /><path d="M-4.2132 -4.2132 L4.2132 4.2132 M-4.2132 4.2132 L4.2132 -4.2132" style="fill:none; stroke-linejoin:miter;" transform="translate(1885.04,147.8709)"
      /><path d="M-4.2132 -4.2132 L4.2132 4.2132 M-4.2132 4.2132 L4.2132 -4.2132" style="fill:none; stroke-linejoin:miter;" transform="translate(1939.08,147.0094)"
      /><path d="M-4.2132 -4.2132 L4.2132 4.2132 M-4.2132 4.2132 L4.2132 -4.2132" style="fill:none; stroke-linejoin:miter;" transform="translate(1993.12,146.4064)"
      /><path d="M-4.2132 -4.2132 L4.2132 4.2132 M-4.2132 4.2132 L4.2132 -4.2132" style="fill:none; stroke-linejoin:miter;" transform="translate(2047.16,145.9843)"
      /><path d="M-4.2132 -4.2132 L4.2132 4.2132 M-4.2132 4.2132 L4.2132 -4.2132" style="fill:none; stroke-linejoin:miter;" transform="translate(2101.2,145.6889)"
      /><path d="M-4.2132 -4.2132 L4.2132 4.2132 M-4.2132 4.2132 L4.2132 -4.2132" style="fill:none; stroke-linejoin:miter;" transform="translate(2155.24,145.4821)"
      /><path d="M-4.2132 -4.2132 L4.2132 4.2132 M-4.2132 4.2132 L4.2132 -4.2132" style="fill:none; stroke-linejoin:miter;" transform="translate(2209.28,145.3373)"
      /><path d="M-4.2132 -4.2132 L4.2132 4.2132 M-4.2132 4.2132 L4.2132 -4.2132" style="fill:none; stroke-linejoin:miter;" transform="translate(2263.3201,145.2359)"
      /><path d="M-4.2132 -4.2132 L4.2132 4.2132 M-4.2132 4.2132 L4.2132 -4.2132" style="fill:none; stroke-linejoin:miter;" transform="translate(2317.3601,145.165)"
      /><path d="M-4.2132 -4.2132 L4.2132 4.2132 M-4.2132 4.2132 L4.2132 -4.2132" style="fill:none; stroke-linejoin:miter;" transform="translate(2371.3999,145.1153)"
      /><path d="M-4.2132 -4.2132 L4.2132 4.2132 M-4.2132 4.2132 L4.2132 -4.2132" style="fill:none; stroke-linejoin:miter;" transform="translate(2425.4399,145.0806)"
      /><path d="M-4.2132 -4.2132 L4.2132 4.2132 M-4.2132 4.2132 L4.2132 -4.2132" style="fill:none; stroke-linejoin:miter;" transform="translate(2479.48,145.0562)"
      /><path d="M-4.2132 -4.2132 L4.2132 4.2132 M-4.2132 4.2132 L4.2132 -4.2132" style="fill:none; stroke-linejoin:miter;" transform="translate(2533.52,145.0392)"
      /><path d="M-4.2132 -4.2132 L4.2132 4.2132 M-4.2132 4.2132 L4.2132 -4.2132" style="fill:none; stroke-linejoin:miter;" transform="translate(2587.5601,145.0273)"
      /><path d="M-4.2132 -4.2132 L4.2132 4.2132 M-4.2132 4.2132 L4.2132 -4.2132" style="fill:none; stroke-linejoin:miter;" transform="translate(2641.6001,145.0189)"
      /><path d="M-4.2132 -4.2132 L4.2132 4.2132 M-4.2132 4.2132 L4.2132 -4.2132" style="fill:none; stroke-linejoin:miter;" transform="translate(2695.6399,145.0131)"
      /><path d="M-4.2132 -4.2132 L4.2132 4.2132 M-4.2132 4.2132 L4.2132 -4.2132" style="fill:none; stroke-linejoin:miter;" transform="translate(2749.6799,145.009)"
      /><path d="M-4.2132 -4.2132 L4.2132 4.2132 M-4.2132 4.2132 L4.2132 -4.2132" style="fill:none; stroke-linejoin:miter;" transform="translate(2803.72,145.0061)"
      /><path d="M-4.2132 -4.2132 L4.2132 4.2132 M-4.2132 4.2132 L4.2132 -4.2132" style="fill:none; stroke-linejoin:miter;" transform="translate(2857.76,145.0041)"
      /><path d="M-4.2132 -4.2132 L4.2132 4.2132 M-4.2132 4.2132 L4.2132 -4.2132" style="fill:none; stroke-linejoin:miter;" transform="translate(2911.8,145.0027)"
      /><path d="M-4.2132 -4.2132 L4.2132 4.2132 M-4.2132 4.2132 L4.2132 -4.2132" style="fill:none; stroke-linejoin:miter;" transform="translate(2965.8401,145.0017)"
      /><path d="M-4.2132 -4.2132 L4.2132 4.2132 M-4.2132 4.2132 L4.2132 -4.2132" style="fill:none; stroke-linejoin:miter;" transform="translate(3019.8799,145.0011)"
      /><path d="M-4.2132 -4.2132 L4.2132 4.2132 M-4.2132 4.2132 L4.2132 -4.2132" style="fill:none; stroke-linejoin:miter;" transform="translate(3073.9199,145.0006)"
      /><path d="M-4.2132 -4.2132 L4.2132 4.2132 M-4.2132 4.2132 L4.2132 -4.2132" style="fill:none; stroke-linejoin:miter;" transform="translate(3127.96,145.0002)"
      /><path d="M-4.2132 -4.2132 L4.2132 4.2132 M-4.2132 4.2132 L4.2132 -4.2132" style="fill:none; stroke-linejoin:miter;" transform="translate(3182,145)"
    /></g
    ><g style="fill:white; text-rendering:optimizeSpeed; color-rendering:optimizeSpeed; image-rendering:optimizeSpeed; shape-rendering:crispEdges; stroke:white; color-interpolation:sRGB;"
    ><path style="stroke:none;" d="M3344 181 L3344 145 L3211 145 L3211 181 Z"
    /></g
    ><g transform="translate(3284.262,163)" style="font-size:23.8333px; text-rendering:geometricPrecision; color-rendering:optimizeQuality; image-rendering:optimizeQuality; font-family:'Ubuntu'; color-interpolation:linearRGB;"
    ><path style="stroke:none;" d="M11.8594 8.6406 Q11.0938 8.8281 9.8281 9.0469 Q8.5625 9.2656 6.9062 9.2656 Q5.4688 9.2656 4.4844 8.8438 Q3.5 8.4219 2.8984 7.6562 Q2.2969 6.8906 2.0391 5.8438 Q1.7812 4.7969 1.7812 3.5312 L1.7812 -3.4844 L4.0156 -3.4844 L4.0156 3.0469 Q4.0156 5.3281 4.7344 6.3125 Q5.4531 7.2969 7.1562 7.2969 Q7.5156 7.2969 7.8984 7.2734 Q8.2812 7.25 8.6172 7.2109 Q8.9531 7.1719 9.2266 7.1406 Q9.5 7.1094 9.625 7.0625 L9.625 -3.4844 L11.8594 -3.4844 L11.8594 8.6406 ZM20.4399 3.4375 L31.4399 3.4375 L31.4399 5.3281 L20.4399 5.3281 L20.4399 3.4375 ZM20.4399 -1.6875 L31.4399 -1.6875 L31.4399 0.2188 L20.4399 0.2188 L20.4399 -1.6875 ZM40.3447 -4.2031 Q41.7041 -4.7344 43.001 -5.5625 Q44.2979 -6.3906 45.376 -7.625 L46.9697 -7.625 L46.9697 9 L44.7354 9 L44.7354 -4.5312 Q44.4541 -4.2656 44.0322 -3.9844 Q43.6104 -3.7031 43.1182 -3.4375 Q42.626 -3.1719 42.0869 -2.9297 Q41.5479 -2.6875 41.0322 -2.5156 L40.3447 -4.2031 Z"
    /></g
    ><g style="stroke-linecap:butt; fill:rgb(0,114,189); text-rendering:geometricPrecision; image-rendering:optimizeQuality; color-rendering:optimizeQuality; stroke-linejoin:round; stroke:rgb(0,114,189); color-interpolation:linearRGB; stroke-width:3.9722;"
    ><line y2="163" style="fill:none;" x1="3218.9651" x2="3278.2883" y1="163"
      /><path d="M-4.2132 -4.2132 L4.2132 4.2132 M-4.2132 4.2132 L4.2132 -4.2132" style="fill:none; stroke-linejoin:miter;" transform="translate(3248.6267,163)"
    /></g
    ><g style="stroke-linecap:butt; fill:rgb(38,38,38); text-rendering:geometricPrecision; color-rendering:optimizeQuality; image-rendering:optimizeQuality; stroke:rgb(38,38,38); color-interpolation:linearRGB; stroke-width:0.9931;"
    ><path d="M3211 181 L3211 145 L3344 145 L3344 181 Z" style="fill:none; fill-rule:evenodd;"
    /></g
  ></g
></svg
>
