<?xml version="1.0"?>
<!DOCTYPE svg PUBLIC '-//W3C//DTD SVG 1.0//EN'
          'http://www.w3.org/TR/2001/REC-SVG-20010904/DTD/svg10.dtd'>
<svg xmlns:xlink="http://www.w3.org/1999/xlink" style="fill-opacity:1; color-rendering:auto; color-interpolation:auto; text-rendering:auto; stroke:black; stroke-linecap:square; stroke-miterlimit:10; shape-rendering:auto; stroke-opacity:1; fill:black; stroke-dasharray:none; font-weight:normal; stroke-width:1; font-family:'Dialog'; font-style:normal; stroke-linejoin:miter; font-size:12px; stroke-dashoffset:0; image-rendering:auto;" width="3686" height="1932" xmlns="http://www.w3.org/2000/svg"
><!--Generated by the Batik Graphics2D SVG Generator--><defs id="genericDefs"
  /><g
  ><defs id="defs1"
    ><clipPath clipPathUnits="userSpaceOnUse" id="clipPath1"
      ><path d="M0 0 L3686 0 L3686 1932 L0 1932 L0 0 Z"
      /></clipPath
    ></defs
    ><g style="fill:white; stroke:white;"
    ><rect x="0" y="0" width="3686" style="clip-path:url(#clipPath1); stroke:none;" height="1932"
    /></g
    ><g style="fill:white; text-rendering:optimizeSpeed; color-rendering:optimizeSpeed; image-rendering:optimizeSpeed; shape-rendering:crispEdges; stroke:white; color-interpolation:sRGB;"
    ><rect x="0" width="3686" height="1932" y="0" style="stroke:none;"
      /><path style="stroke:none;" d="M479 1719 L3336 1719 L3336 145 L479 145 Z"
    /></g
    ><g transform="translate(1682,126)" style="font-size:24px; text-rendering:geometricPrecision; image-rendering:optimizeQuality; color-rendering:optimizeQuality; font-family:'Ubuntu'; color-interpolation:linearRGB; font-weight:bold;"
    ><path style="stroke:none;" d="M5.25 -8.0625 Q5.7812 -8.6406 6.3438 -9.2656 Q6.9062 -9.8906 7.4375 -10.5 Q7.9688 -11.1094 8.4375 -11.6641 Q8.9062 -12.2188 9.2344 -12.625 L13.4844 -12.625 Q12.2188 -11.1562 11.0078 -9.8281 Q9.7969 -8.5 8.3594 -7.0781 Q9.0781 -6.4375 9.8438 -5.5312 Q10.6094 -4.625 11.3281 -3.6719 Q12.0469 -2.7188 12.6484 -1.7578 Q13.25 -0.7969 13.6562 0 L9.5469 0 Q9.1719 -0.625 8.6797 -1.3828 Q8.1875 -2.1406 7.6328 -2.8906 Q7.0781 -3.6406 6.4688 -4.3438 Q5.8594 -5.0469 5.25 -5.5156 L5.25 0 L1.6875 0 L1.6875 -18.0469 L5.25 -18.625 L5.25 -8.0625 Z"
    /></g
    ><g transform="translate(1696,138)" style="font-size:19.2px; text-rendering:geometricPrecision; image-rendering:optimizeQuality; color-rendering:optimizeQuality; font-family:'Ubuntu'; color-interpolation:linearRGB; font-weight:bold;"
    ><path style="stroke:none;" d="M7.7344 -5.0781 Q7.7344 -7.8125 5.7188 -7.8125 Q5.2812 -7.8125 4.8516 -7.6953 Q4.4219 -7.5781 4.1562 -7.4062 L4.1562 -2.2656 Q4.375 -2.2188 4.6953 -2.1953 Q5.0156 -2.1719 5.3906 -2.1719 Q6.5625 -2.1719 7.1484 -2.9688 Q7.7344 -3.7656 7.7344 -5.0781 ZM10.625 -5 Q10.625 -3.7969 10.2734 -2.8281 Q9.9219 -1.8594 9.2578 -1.1797 Q8.5938 -0.5 7.625 -0.125 Q6.6562 0.25 5.4219 0.25 Q4.9062 0.25 4.3438 0.2031 Q3.7812 0.1562 3.2422 0.0781 Q2.7031 0 2.2031 -0.1016 Q1.7031 -0.2031 1.3281 -0.3281 L1.3281 -14.2812 L4.1562 -14.75 L4.1562 -9.7656 Q4.6406 -9.9688 5.1484 -10.0859 Q5.6562 -10.2031 6.25 -10.2031 Q7.3125 -10.2031 8.1328 -9.8359 Q8.9531 -9.4688 9.5 -8.7812 Q10.0469 -8.0938 10.3359 -7.1328 Q10.625 -6.1719 10.625 -5 ZM16.7504 -1.9688 Q17.1566 -1.9688 17.5394 -1.9922 Q17.9222 -2.0156 18.1566 -2.0469 L18.1566 -4.2031 Q17.9847 -4.2344 17.641 -4.2734 Q17.2972 -4.3125 17.016 -4.3125 Q16.6097 -4.3125 16.2582 -4.2656 Q15.9066 -4.2188 15.641 -4.0859 Q15.3754 -3.9531 15.2269 -3.7266 Q15.0785 -3.5 15.0785 -3.1562 Q15.0785 -2.4844 15.5238 -2.2266 Q15.9691 -1.9688 16.7504 -1.9688 ZM16.516 -10.2656 Q17.766 -10.2656 18.6019 -9.9766 Q19.4379 -9.6875 19.9457 -9.1562 Q20.4535 -8.625 20.6566 -7.8672 Q20.8597 -7.1094 20.8597 -6.1719 L20.8597 -0.2812 Q20.2504 -0.1562 19.1722 0.0234 Q18.0941 0.2031 16.5472 0.2031 Q15.5785 0.2031 14.7894 0.0312 Q14.0004 -0.1406 13.4301 -0.5234 Q12.8597 -0.9062 12.5629 -1.5391 Q12.266 -2.1719 12.266 -3.0781 Q12.266 -3.9531 12.6176 -4.5625 Q12.9691 -5.1719 13.5551 -5.5312 Q14.141 -5.8906 14.8988 -6.0547 Q15.6566 -6.2188 16.4847 -6.2188 Q17.0316 -6.2188 17.4535 -6.1719 Q17.8754 -6.125 18.1566 -6.0469 L18.1566 -6.3125 Q18.1566 -7.0312 17.7191 -7.4688 Q17.2816 -7.9062 16.1879 -7.9062 Q15.4691 -7.9062 14.766 -7.7969 Q14.0629 -7.6875 13.5472 -7.5 L13.1879 -9.7812 Q13.4379 -9.8594 13.8051 -9.9453 Q14.1722 -10.0312 14.6097 -10.1016 Q15.0472 -10.1719 15.5316 -10.2188 Q16.016 -10.2656 16.516 -10.2656 ZM29.5686 -7.4844 Q29.178 -7.5781 28.6702 -7.6875 Q28.1624 -7.7969 27.5686 -7.7969 Q27.303 -7.7969 26.928 -7.7422 Q26.553 -7.6875 26.3655 -7.6406 L26.3655 0 L23.5374 0 L23.5374 -9.4688 Q24.303 -9.7344 25.3343 -9.9688 Q26.3655 -10.2031 27.6468 -10.2031 Q27.8655 -10.2031 28.1936 -10.1719 Q28.5218 -10.1406 28.8421 -10.0938 Q29.1624 -10.0469 29.4827 -9.9844 Q29.803 -9.9219 30.0374 -9.8281 L29.5686 -7.4844 Z"
    /></g
    ><g transform="translate(1727,126)" style="font-size:24px; text-rendering:geometricPrecision; image-rendering:optimizeQuality; color-rendering:optimizeQuality; font-family:'Ubuntu'; color-interpolation:linearRGB; font-weight:bold;"
    ><path style="stroke:none;" d="M6.9287 -6.0312 L18.21 -6.0312 L18.21 -3.0312 L6.9287 -3.0312 L6.9287 -6.0312 ZM6.9287 -11.2812 L18.21 -11.2812 L18.21 -8.2812 L6.9287 -8.2812 L6.9287 -11.2812 ZM26.8257 -13.1719 Q27.5132 -13.4688 28.271 -13.8359 Q29.0288 -14.2031 29.7476 -14.6484 Q30.4663 -15.0938 31.1226 -15.5859 Q31.7788 -16.0781 32.3101 -16.625 L34.8101 -16.625 L34.8101 0 L31.2319 0 L31.2319 -11.9688 Q30.5132 -11.5 29.6226 -11.1016 Q28.7319 -10.7031 27.9038 -10.4219 L26.8257 -13.1719 ZM51.5752 -8.3594 Q51.5752 -4.1562 49.9814 -1.9062 Q48.3877 0.3438 45.5752 0.3438 Q42.7783 0.3438 41.1768 -1.9062 Q39.5752 -4.1562 39.5752 -8.3594 Q39.5752 -10.4375 39.9971 -12.0469 Q40.4189 -13.6562 41.208 -14.7578 Q41.9971 -15.8594 43.1064 -16.4375 Q44.2158 -17.0156 45.5752 -17.0156 Q48.3877 -17.0156 49.9814 -14.7734 Q51.5752 -12.5312 51.5752 -8.3594 ZM47.9346 -8.3594 Q47.9346 -9.5938 47.8096 -10.6172 Q47.6846 -11.6406 47.4268 -12.3828 Q47.1689 -13.125 46.708 -13.5312 Q46.2471 -13.9375 45.5752 -13.9375 Q44.9033 -13.9375 44.458 -13.5312 Q44.0127 -13.125 43.7393 -12.3828 Q43.4658 -11.6406 43.3486 -10.6172 Q43.2314 -9.5938 43.2314 -8.3594 Q43.2314 -7.1094 43.3486 -6.0781 Q43.4658 -5.0469 43.7393 -4.2969 Q44.0127 -3.5469 44.458 -3.1406 Q44.9033 -2.7344 45.5752 -2.7344 Q46.2471 -2.7344 46.708 -3.1406 Q47.1689 -3.5469 47.4268 -4.2969 Q47.6846 -5.0469 47.8096 -6.0781 Q47.9346 -7.1094 47.9346 -8.3594 ZM64.5972 -2.8594 Q65.394 -2.8594 65.9097 -2.9922 Q66.4253 -3.125 66.7378 -3.3516 Q67.0503 -3.5781 67.1675 -3.8906 Q67.2847 -4.2031 67.2847 -4.5781 Q67.2847 -5.4062 66.519 -5.9453 Q65.7534 -6.4844 63.8784 -7.1094 Q63.0659 -7.3906 62.2456 -7.7656 Q61.4253 -8.1406 60.7769 -8.7031 Q60.1284 -9.2656 59.7222 -10.0703 Q59.3159 -10.875 59.3159 -12.0312 Q59.3159 -13.1719 59.7534 -14.1016 Q60.1909 -15.0312 60.98 -15.6719 Q61.769 -16.3125 62.894 -16.6641 Q64.019 -17.0156 65.4409 -17.0156 Q67.1128 -17.0156 68.3394 -16.6562 Q69.5659 -16.2969 70.3628 -15.8594 L69.2847 -12.9062 Q68.5815 -13.2656 67.73 -13.5469 Q66.8784 -13.8281 65.6753 -13.8281 Q64.3315 -13.8281 63.7456 -13.4531 Q63.1597 -13.0781 63.1597 -12.3125 Q63.1597 -11.8594 63.3784 -11.5469 Q63.5972 -11.2344 63.9878 -10.9844 Q64.3784 -10.7344 64.894 -10.5234 Q65.4097 -10.3125 66.0347 -10.1094 Q67.3315 -9.625 68.2925 -9.1562 Q69.2534 -8.6875 69.894 -8.0625 Q70.5347 -7.4375 70.8472 -6.6016 Q71.1597 -5.7656 71.1597 -4.5625 Q71.1597 -2.2344 69.5269 -0.9453 Q67.894 0.3438 64.5972 0.3438 Q63.5034 0.3438 62.6128 0.2109 Q61.7222 0.0781 61.0347 -0.1172 Q60.3472 -0.3125 59.855 -0.5312 Q59.3628 -0.75 59.0347 -0.9375 L60.0815 -3.9062 Q60.8315 -3.5 61.9253 -3.1797 Q63.019 -2.8594 64.5972 -2.8594 ZM74.0262 0 L74.0262 -16.625 L85.2606 -16.625 L85.2606 -13.4844 L77.7606 -13.4844 L77.7606 -10.2188 L84.4169 -10.2188 L84.4169 -7.1562 L77.7606 -7.1562 L77.7606 -3.1406 L85.8075 -3.1406 L85.8075 0 L74.0262 0 ZM102.1628 -6.4062 Q102.1628 -9.8594 99.616 -9.8594 Q99.0691 -9.8594 98.53 -9.7188 Q97.991 -9.5781 97.6472 -9.3594 L97.6472 -2.8594 Q97.9128 -2.8125 98.3269 -2.7734 Q98.741 -2.7344 99.2097 -2.7344 Q100.6785 -2.7344 101.4207 -3.7422 Q102.1628 -4.75 102.1628 -6.4062 ZM105.8191 -6.3125 Q105.8191 -4.7969 105.3738 -3.5781 Q104.9285 -2.3594 104.0847 -1.4922 Q103.241 -0.625 102.0222 -0.1562 Q100.8035 0.3125 99.241 0.3125 Q98.5847 0.3125 97.8816 0.25 Q97.1785 0.1875 96.491 0.0938 Q95.8035 0 95.1785 -0.1328 Q94.5535 -0.2656 94.0847 -0.4062 L94.0847 -18.0469 L97.6472 -18.625 L97.6472 -12.3438 Q98.2566 -12.5938 98.905 -12.7422 Q99.5535 -12.8906 100.2878 -12.8906 Q101.6316 -12.8906 102.6628 -12.4219 Q103.6941 -11.9531 104.3972 -11.0859 Q105.1003 -10.2188 105.4597 -9.0078 Q105.8191 -7.7969 105.8191 -6.3125 ZM112.1353 0 L108.5728 0 L108.5728 -12.625 L112.1353 -12.625 L112.1353 0 ZM112.479 -16.2656 Q112.479 -15.2812 111.8384 -14.7188 Q111.1978 -14.1562 110.3384 -14.1562 Q109.479 -14.1562 108.8384 -14.7188 Q108.1978 -15.2812 108.1978 -16.2656 Q108.1978 -17.25 108.8384 -17.8203 Q109.479 -18.3906 110.3384 -18.3906 Q111.1978 -18.3906 111.8384 -17.8203 Q112.479 -17.25 112.479 -16.2656 ZM118.5518 -6.4062 Q118.5518 -4.75 119.294 -3.7422 Q120.0362 -2.7344 121.5049 -2.7344 Q121.9737 -2.7344 122.3799 -2.7734 Q122.7862 -2.8125 123.0518 -2.8594 L123.0518 -9.3594 Q122.7237 -9.5781 122.1846 -9.7188 Q121.6456 -9.8594 121.0831 -9.8594 Q118.5518 -9.8594 118.5518 -6.4062 ZM126.6299 -0.4062 Q126.1612 -0.2656 125.5362 -0.1328 Q124.9112 0 124.2237 0.0938 Q123.5362 0.1875 122.8253 0.25 Q122.1143 0.3125 121.4737 0.3125 Q119.9112 0.3125 118.6846 -0.1406 Q117.4581 -0.5938 116.6221 -1.4453 Q115.7862 -2.2969 115.3409 -3.5156 Q114.8956 -4.7344 114.8956 -6.2344 Q114.8956 -7.7812 115.2784 -9.0156 Q115.6612 -10.25 116.3799 -11.1094 Q117.0987 -11.9688 118.1456 -12.4297 Q119.1924 -12.8906 120.5362 -12.8906 Q121.2862 -12.8906 121.8721 -12.7422 Q122.4581 -12.5938 123.0518 -12.3438 L123.0518 -18.0469 L126.6299 -18.625 L126.6299 -0.4062 ZM138.7967 -6.4062 Q138.7967 -4.75 139.5389 -3.7422 Q140.2811 -2.7344 141.7498 -2.7344 Q142.2186 -2.7344 142.6248 -2.7734 Q143.0311 -2.8125 143.2967 -2.8594 L143.2967 -9.3594 Q142.9686 -9.5781 142.4295 -9.7188 Q141.8904 -9.8594 141.3279 -9.8594 Q138.7967 -9.8594 138.7967 -6.4062 ZM146.8748 -0.4062 Q146.4061 -0.2656 145.7811 -0.1328 Q145.1561 0 144.4686 0.0938 Q143.7811 0.1875 143.0701 0.25 Q142.3592 0.3125 141.7186 0.3125 Q140.1561 0.3125 138.9295 -0.1406 Q137.7029 -0.5938 136.867 -1.4453 Q136.0311 -2.2969 135.5858 -3.5156 Q135.1404 -4.7344 135.1404 -6.2344 Q135.1404 -7.7812 135.5233 -9.0156 Q135.9061 -10.25 136.6248 -11.1094 Q137.3436 -11.9688 138.3904 -12.4297 Q139.4373 -12.8906 140.7811 -12.8906 Q141.5311 -12.8906 142.117 -12.7422 Q142.7029 -12.5938 143.2967 -12.3438 L143.2967 -18.0469 L146.8748 -18.625 L146.8748 -0.4062 ZM153.8004 0 L150.2379 0 L150.2379 -12.625 L153.8004 -12.625 L153.8004 0 ZM154.1441 -16.2656 Q154.1441 -15.2812 153.5035 -14.7188 Q152.8629 -14.1562 152.0035 -14.1562 Q151.1441 -14.1562 150.5035 -14.7188 Q149.8629 -15.2812 149.8629 -16.2656 Q149.8629 -17.25 150.5035 -17.8203 Q151.1441 -18.3906 152.0035 -18.3906 Q152.8629 -18.3906 153.5035 -17.8203 Q154.1441 -17.25 154.1441 -16.2656 ZM160.7794 -2.5625 Q161.7638 -2.5625 162.1779 -2.7578 Q162.5919 -2.9531 162.5919 -3.5 Q162.5919 -3.9375 162.0607 -4.2578 Q161.5294 -4.5781 160.4513 -4.9844 Q159.6075 -5.2969 158.9279 -5.6328 Q158.2482 -5.9688 157.7638 -6.4375 Q157.2794 -6.9062 157.0138 -7.5547 Q156.7482 -8.2031 156.7482 -9.125 Q156.7482 -10.8906 158.0685 -11.9219 Q159.3888 -12.9531 161.7013 -12.9531 Q162.8575 -12.9531 163.9122 -12.75 Q164.9669 -12.5469 165.5919 -12.3125 L164.9669 -9.5312 Q164.3419 -9.75 163.6075 -9.9141 Q162.8732 -10.0781 161.9669 -10.0781 Q160.2794 -10.0781 160.2794 -9.1406 Q160.2794 -8.9219 160.3497 -8.7578 Q160.42 -8.5938 160.6388 -8.4375 Q160.8575 -8.2812 161.2325 -8.1016 Q161.6075 -7.9219 162.1857 -7.7031 Q163.3575 -7.2656 164.1232 -6.8516 Q164.8888 -6.4375 165.3341 -5.9453 Q165.7794 -5.4531 165.9591 -4.8516 Q166.1388 -4.25 166.1388 -3.4531 Q166.1388 -1.5781 164.7325 -0.6172 Q163.3263 0.3438 160.7638 0.3438 Q159.0763 0.3438 157.9669 0.0547 Q156.8575 -0.2344 156.42 -0.4375 L157.0138 -3.3438 Q157.9357 -2.9688 158.8966 -2.7656 Q159.8575 -2.5625 160.7794 -2.5625 ZM168.6786 -15.7656 L172.2568 -16.3438 L172.2568 -12.625 L176.5536 -12.625 L176.5536 -9.6406 L172.2568 -9.6406 L172.2568 -5.2031 Q172.2568 -4.0781 172.6474 -3.4062 Q173.038 -2.7344 174.2411 -2.7344 Q174.8193 -2.7344 175.4286 -2.8438 Q176.038 -2.9531 176.5536 -3.1406 L177.0536 -0.3594 Q176.3974 -0.0938 175.6083 0.0938 Q174.8193 0.2812 173.663 0.2812 Q172.2099 0.2812 171.249 -0.1094 Q170.288 -0.5 169.7099 -1.2109 Q169.1318 -1.9219 168.9052 -2.9297 Q168.6786 -3.9375 168.6786 -5.1562 L168.6786 -15.7656 ZM187.0475 -9.4531 Q186.5788 -9.5781 185.9304 -9.7109 Q185.2819 -9.8438 184.5319 -9.8438 Q184.2038 -9.8438 183.735 -9.7812 Q183.2663 -9.7188 183.0163 -9.6406 L183.0163 0 L179.4538 0 L179.4538 -11.9531 Q180.4069 -12.2812 181.7116 -12.5859 Q183.0163 -12.8906 184.6257 -12.8906 Q184.9225 -12.8906 185.3288 -12.8516 Q185.735 -12.8125 186.1413 -12.7578 Q186.5475 -12.7031 186.9538 -12.6172 Q187.36 -12.5312 187.6569 -12.4062 L187.0475 -9.4531 ZM193.1387 0 L189.5762 0 L189.5762 -12.625 L193.1387 -12.625 L193.1387 0 ZM193.4825 -16.2656 Q193.4825 -15.2812 192.8419 -14.7188 Q192.2012 -14.1562 191.3419 -14.1562 Q190.4825 -14.1562 189.8419 -14.7188 Q189.2012 -15.2812 189.2012 -16.2656 Q189.2012 -17.25 189.8419 -17.8203 Q190.4825 -18.3906 191.3419 -18.3906 Q192.2012 -18.3906 192.8419 -17.8203 Q193.4825 -17.25 193.4825 -16.2656 ZM204.5865 -6.4062 Q204.5865 -9.8594 202.0397 -9.8594 Q201.4928 -9.8594 200.9537 -9.7188 Q200.4147 -9.5781 200.0709 -9.3594 L200.0709 -2.8594 Q200.3365 -2.8125 200.7506 -2.7734 Q201.1647 -2.7344 201.6334 -2.7344 Q203.1022 -2.7344 203.8444 -3.7422 Q204.5865 -4.75 204.5865 -6.4062 ZM208.2428 -6.3125 Q208.2428 -4.7969 207.7975 -3.5781 Q207.3522 -2.3594 206.5084 -1.4922 Q205.6647 -0.625 204.4459 -0.1562 Q203.2272 0.3125 201.6647 0.3125 Q201.0084 0.3125 200.3053 0.25 Q199.6022 0.1875 198.9147 0.0938 Q198.2272 0 197.6022 -0.1328 Q196.9772 -0.2656 196.5084 -0.4062 L196.5084 -18.0469 L200.0709 -18.625 L200.0709 -12.3438 Q200.6803 -12.5938 201.3287 -12.7422 Q201.9772 -12.8906 202.7115 -12.8906 Q204.0553 -12.8906 205.0865 -12.4219 Q206.1178 -11.9531 206.8209 -11.0859 Q207.524 -10.2188 207.8834 -9.0078 Q208.2428 -7.7969 208.2428 -6.3125 ZM221.7621 -0.4375 Q220.8558 -0.1719 219.4105 0.0547 Q217.9652 0.2812 216.3871 0.2812 Q214.7777 0.2812 213.7152 -0.1484 Q212.6527 -0.5781 212.0277 -1.3594 Q211.4027 -2.1406 211.1371 -3.2188 Q210.8715 -4.2969 210.8715 -5.5938 L210.8715 -12.625 L214.4496 -12.625 L214.4496 -6.0312 Q214.4496 -4.2969 214.9027 -3.5312 Q215.3558 -2.7656 216.6058 -2.7656 Q216.9965 -2.7656 217.4261 -2.7969 Q217.8558 -2.8281 218.184 -2.875 L218.184 -12.625 L221.7621 -12.625 L221.7621 -0.4375 ZM224.9997 -15.7656 L228.5778 -16.3438 L228.5778 -12.625 L232.8747 -12.625 L232.8747 -9.6406 L228.5778 -9.6406 L228.5778 -5.2031 Q228.5778 -4.0781 228.9684 -3.4062 Q229.3591 -2.7344 230.5622 -2.7344 Q231.1403 -2.7344 231.7497 -2.8438 Q232.3591 -2.9531 232.8747 -3.1406 L233.3747 -0.3594 Q232.7184 -0.0938 231.9294 0.0938 Q231.1403 0.2812 229.9841 0.2812 Q228.5309 0.2812 227.57 -0.1094 Q226.6091 -0.5 226.0309 -1.2109 Q225.4528 -1.9219 225.2263 -2.9297 Q224.9997 -3.9375 224.9997 -5.1562 L224.9997 -15.7656 ZM239.3373 0 L235.7748 0 L235.7748 -12.625 L239.3373 -12.625 L239.3373 0 ZM239.6811 -16.2656 Q239.6811 -15.2812 239.0405 -14.7188 Q238.3998 -14.1562 237.5405 -14.1562 Q236.6811 -14.1562 236.0405 -14.7188 Q235.3998 -15.2812 235.3998 -16.2656 Q235.3998 -17.25 236.0405 -17.8203 Q236.6811 -18.3906 237.5405 -18.3906 Q238.3998 -18.3906 239.0405 -17.8203 Q239.6811 -17.25 239.6811 -16.2656 ZM254.5039 -6.3438 Q254.5039 -4.8438 254.0742 -3.6094 Q253.6445 -2.375 252.8242 -1.5 Q252.0039 -0.625 250.8711 -0.1406 Q249.7383 0.3438 248.3164 0.3438 Q246.9258 0.3438 245.7852 -0.1406 Q244.6445 -0.625 243.8242 -1.5 Q243.0039 -2.375 242.5508 -3.6094 Q242.0977 -4.8438 242.0977 -6.3438 Q242.0977 -7.8281 242.5664 -9.0469 Q243.0352 -10.2656 243.8633 -11.1328 Q244.6914 -12 245.832 -12.4766 Q246.9727 -12.9531 248.3164 -12.9531 Q249.6758 -12.9531 250.8164 -12.4766 Q251.957 -12 252.7773 -11.1328 Q253.5977 -10.2656 254.0508 -9.0469 Q254.5039 -7.8281 254.5039 -6.3438 ZM250.8633 -6.3438 Q250.8633 -7.9844 250.1992 -8.9375 Q249.5352 -9.8906 248.3164 -9.8906 Q247.0977 -9.8906 246.4258 -8.9375 Q245.7539 -7.9844 245.7539 -6.3438 Q245.7539 -4.6875 246.4258 -3.7109 Q247.0977 -2.7344 248.3164 -2.7344 Q249.5352 -2.7344 250.1992 -3.7109 Q250.8633 -4.6875 250.8633 -6.3438 ZM257.267 -12.1875 Q258.1733 -12.4531 259.6108 -12.6797 Q261.0483 -12.9062 262.642 -12.9062 Q264.2358 -12.9062 265.3061 -12.4922 Q266.3764 -12.0781 267.0014 -11.3047 Q267.6264 -10.5312 267.892 -9.4766 Q268.1577 -8.4219 268.1577 -7.125 L268.1577 0 L264.5795 0 L264.5795 -6.7031 Q264.5795 -8.4219 264.1264 -9.1406 Q263.6733 -9.8594 262.4233 -9.8594 Q262.0327 -9.8594 261.603 -9.8281 Q261.1733 -9.7969 260.8295 -9.75 L260.8295 0 L257.267 0 L257.267 -12.1875 ZM282.6208 -18.625 Q283.6208 -18.625 284.4646 -18.4219 Q285.3083 -18.2188 285.7615 -18.0312 L285.0583 -15.1719 Q284.5896 -15.3906 284.0193 -15.4922 Q283.449 -15.5938 282.9802 -15.5938 Q282.324 -15.5938 281.8787 -15.4141 Q281.4333 -15.2344 281.1833 -14.9219 Q280.9333 -14.6094 280.824 -14.1797 Q280.7146 -13.75 280.7146 -13.25 L280.7146 -12.625 L285.1365 -12.625 L285.1365 -9.6406 L280.7146 -9.6406 L280.7146 0 L277.1521 0 L277.1521 -13.2969 Q277.1521 -15.75 278.5271 -17.1875 Q279.9021 -18.625 282.6208 -18.625 ZM299.0714 -6.3438 Q299.0714 -4.8438 298.6417 -3.6094 Q298.212 -2.375 297.3917 -1.5 Q296.5714 -0.625 295.4386 -0.1406 Q294.3058 0.3438 292.8839 0.3438 Q291.4933 0.3438 290.3527 -0.1406 Q289.212 -0.625 288.3917 -1.5 Q287.5714 -2.375 287.1183 -3.6094 Q286.6652 -4.8438 286.6652 -6.3438 Q286.6652 -7.8281 287.1339 -9.0469 Q287.6027 -10.2656 288.4308 -11.1328 Q289.2589 -12 290.3995 -12.4766 Q291.5402 -12.9531 292.8839 -12.9531 Q294.2433 -12.9531 295.3839 -12.4766 Q296.5245 -12 297.3448 -11.1328 Q298.1652 -10.2656 298.6183 -9.0469 Q299.0714 -7.8281 299.0714 -6.3438 ZM295.4308 -6.3438 Q295.4308 -7.9844 294.7667 -8.9375 Q294.1027 -9.8906 292.8839 -9.8906 Q291.6652 -9.8906 290.9933 -8.9375 Q290.3214 -7.9844 290.3214 -6.3438 Q290.3214 -4.6875 290.9933 -3.7109 Q291.6652 -2.7344 292.8839 -2.7344 Q294.1027 -2.7344 294.7667 -3.7109 Q295.4308 -4.6875 295.4308 -6.3438 ZM309.4283 -9.4531 Q308.9595 -9.5781 308.3111 -9.7109 Q307.6627 -9.8438 306.9127 -9.8438 Q306.5845 -9.8438 306.1158 -9.7812 Q305.647 -9.7188 305.397 -9.6406 L305.397 0 L301.8345 0 L301.8345 -11.9531 Q302.7877 -12.2812 304.0923 -12.5859 Q305.397 -12.8906 307.0064 -12.8906 Q307.3033 -12.8906 307.7095 -12.8516 Q308.1158 -12.8125 308.522 -12.7578 Q308.9283 -12.7031 309.3345 -12.6172 Q309.7408 -12.5312 310.0377 -12.4062 L309.4283 -9.4531 Z"
    /></g
    ><g transform="translate(2044,126)" style="font-size:24px; text-rendering:geometricPrecision; image-rendering:optimizeQuality; color-rendering:optimizeQuality; font-family:'mwb_cmmi10'; color-interpolation:linearRGB; font-weight:bold;"
    ><path style="stroke:none;" d="M4.8281 0.2656 Q3.6875 0.2656 2.8047 -0.2734 Q1.9219 -0.8125 1.4453 -1.7266 Q0.9688 -2.6406 0.9688 -3.7969 Q0.9688 -5.4219 1.875 -7.0156 Q2.7812 -8.6094 4.2891 -9.6094 Q5.7969 -10.6094 7.4375 -10.6094 Q9.6562 -10.6094 10.5859 -9.9688 Q11.5156 -9.3281 11.9922 -8.2656 Q12.4688 -7.2031 12.4688 -6 L12.4688 -5.125 Q12.4688 -5.5312 12.9609 -6.7578 Q13.4531 -7.9844 13.7656 -9.2969 Q13.8125 -9.4375 13.9531 -9.4375 L14.2344 -9.4375 Q15.4531 -9.4375 15.4531 -9.2188 Q15.4531 -9.1875 15.4219 -9.1406 Q15.1406 -8.0469 14.7188 -7.0312 Q14.2969 -6.0156 13.7344 -5.0625 Q13.1719 -4.1094 12.5 -3.3438 Q12.5 -0.3594 12.5 -0.3594 Q12.6406 -0.3594 12.9219 -0.625 Q13.2031 -0.8906 13.4219 -1.2812 Q13.6406 -1.6719 13.7031 -1.6719 L14 -1.6719 Q15.1875 -1.6719 15.1875 -1.4375 Q15.1875 -0.8438 14.5 -0.2891 Q13.8125 0.2656 12.1406 0.2656 Q11.2812 0.2656 10.7031 -0.2969 Q10.125 -0.8594 10.0781 -1.0312 Q9.7969 -0.7969 8.4844 -0.2656 Q7.1719 0.2656 4.8281 0.2656 ZM4.875 -0.3594 Q7.4375 -0.3594 9.7969 -2.4688 Q9.7812 -2.6094 9.7578 -2.8203 Q9.7344 -3.0312 9.7344 -3.0469 L9.7344 -5.6406 Q9.7344 -9.9844 7.3906 -9.9844 Q6.9844 -9.9844 5.9297 -8.7812 Q4.875 -7.5781 4.3438 -5.9141 Q3.8125 -4.25 3.8125 -2.8594 Q3.8125 -1.8125 4.3438 -1.0859 Q4.875 -0.3594 4.875 -0.3594 Z"
    /></g
    ><g transform="translate(2061,126)" style="font-size:24px; text-rendering:geometricPrecision; image-rendering:optimizeQuality; color-rendering:optimizeQuality; font-family:'Ubuntu'; color-interpolation:linearRGB; font-weight:bold;"
    ><path style="stroke:none;" d="M6.9287 -6.0312 L18.21 -6.0312 L18.21 -3.0312 L6.9287 -3.0312 L6.9287 -6.0312 ZM6.9287 -11.2812 L18.21 -11.2812 L18.21 -8.2812 L6.9287 -8.2812 L6.9287 -11.2812 ZM37.9507 -8.3594 Q37.9507 -4.1562 36.3569 -1.9062 Q34.7632 0.3438 31.9507 0.3438 Q29.1538 0.3438 27.5522 -1.9062 Q25.9507 -4.1562 25.9507 -8.3594 Q25.9507 -10.4375 26.3726 -12.0469 Q26.7944 -13.6562 27.5835 -14.7578 Q28.3726 -15.8594 29.4819 -16.4375 Q30.5913 -17.0156 31.9507 -17.0156 Q34.7632 -17.0156 36.3569 -14.7734 Q37.9507 -12.5312 37.9507 -8.3594 ZM34.3101 -8.3594 Q34.3101 -9.5938 34.1851 -10.6172 Q34.0601 -11.6406 33.8022 -12.3828 Q33.5444 -13.125 33.0835 -13.5312 Q32.6226 -13.9375 31.9507 -13.9375 Q31.2788 -13.9375 30.8335 -13.5312 Q30.3882 -13.125 30.1147 -12.3828 Q29.8413 -11.6406 29.7241 -10.6172 Q29.6069 -9.5938 29.6069 -8.3594 Q29.6069 -7.1094 29.7241 -6.0781 Q29.8413 -5.0469 30.1147 -4.2969 Q30.3882 -3.5469 30.8335 -3.1406 Q31.2788 -2.7344 31.9507 -2.7344 Q32.6226 -2.7344 33.0835 -3.1406 Q33.5444 -3.5469 33.8022 -4.2969 Q34.0601 -5.0469 34.1851 -6.0781 Q34.3101 -7.1094 34.3101 -8.3594 ZM43.9502 -1.8906 Q43.9502 -0.8125 43.2627 -0.25 Q42.5752 0.3125 41.7158 0.3125 Q40.8564 0.3125 40.1689 -0.25 Q39.4814 -0.8125 39.4814 -1.8906 Q39.4814 -2.9688 40.1689 -3.5391 Q40.8564 -4.1094 41.7158 -4.1094 Q42.5752 -4.1094 43.2627 -3.5391 Q43.9502 -2.9688 43.9502 -1.8906 ZM57.3822 -4.625 Q57.3822 -3.5469 57.0072 -2.6484 Q56.6322 -1.75 55.89 -1.0781 Q55.1478 -0.4062 54.0306 -0.0312 Q52.9135 0.3438 51.4603 0.3438 Q49.7728 0.3438 48.6556 -0.125 Q47.5385 -0.5938 46.8588 -1.2891 Q46.1791 -1.9844 45.89 -2.8125 Q45.601 -3.6406 45.601 -4.3438 Q45.601 -5.0625 45.7885 -5.6641 Q45.976 -6.2656 46.3119 -6.7578 Q46.6478 -7.25 47.0697 -7.6562 Q47.4916 -8.0625 47.976 -8.4219 Q46.9447 -9.2656 46.4525 -10.0781 Q45.9603 -10.8906 45.9603 -12.1719 Q45.9603 -13.125 46.3588 -14.0156 Q46.7572 -14.9062 47.476 -15.5625 Q48.1947 -16.2188 49.2103 -16.6172 Q50.226 -17.0156 51.476 -17.0156 Q52.9447 -17.0156 53.9916 -16.5938 Q55.0385 -16.1719 55.7103 -15.5234 Q56.3822 -14.875 56.6791 -14.0703 Q56.976 -13.2656 56.976 -12.4844 Q56.976 -11.3281 56.3666 -10.3359 Q55.7572 -9.3438 54.8353 -8.7656 Q56.2103 -7.875 56.7963 -6.8984 Q57.3822 -5.9219 57.3822 -4.625 ZM49.0853 -4.4844 Q49.0853 -4.2031 49.2181 -3.8516 Q49.351 -3.5 49.6322 -3.2109 Q49.9135 -2.9219 50.3744 -2.7344 Q50.8353 -2.5469 51.476 -2.5469 Q52.726 -2.5469 53.3041 -3.1484 Q53.8822 -3.75 53.8822 -4.4844 Q53.8822 -5.0469 53.6322 -5.4766 Q53.3822 -5.9062 52.9447 -6.2266 Q52.5072 -6.5469 51.9213 -6.8047 Q51.3353 -7.0625 50.6635 -7.2656 Q49.9916 -6.7656 49.5385 -6.0938 Q49.0853 -5.4219 49.0853 -4.4844 ZM53.5228 -12.3906 Q53.5228 -12.6406 53.4135 -12.9453 Q53.3041 -13.25 53.0541 -13.5156 Q52.8041 -13.7812 52.4213 -13.9609 Q52.0385 -14.1406 51.476 -14.1406 Q50.9447 -14.1406 50.5619 -13.9688 Q50.1791 -13.7969 49.9291 -13.5234 Q49.6791 -13.25 49.5619 -12.9375 Q49.4447 -12.625 49.4447 -12.3438 Q49.4447 -11.5625 50.0072 -10.8906 Q50.5697 -10.2188 51.9291 -9.75 Q52.7103 -10.2188 53.1166 -10.8438 Q53.5228 -11.4688 53.5228 -12.3906 ZM71.1005 -8.3594 Q71.1005 -4.1562 69.5067 -1.9062 Q67.913 0.3438 65.1005 0.3438 Q62.3036 0.3438 60.702 -1.9062 Q59.1005 -4.1562 59.1005 -8.3594 Q59.1005 -10.4375 59.5223 -12.0469 Q59.9442 -13.6562 60.7333 -14.7578 Q61.5223 -15.8594 62.6317 -16.4375 Q63.7411 -17.0156 65.1005 -17.0156 Q67.913 -17.0156 69.5067 -14.7734 Q71.1005 -12.5312 71.1005 -8.3594 ZM67.4598 -8.3594 Q67.4598 -9.5938 67.3348 -10.6172 Q67.2098 -11.6406 66.952 -12.3828 Q66.6942 -13.125 66.2333 -13.5312 Q65.7723 -13.9375 65.1005 -13.9375 Q64.4286 -13.9375 63.9833 -13.5312 Q63.538 -13.125 63.2645 -12.3828 Q62.9911 -11.6406 62.8739 -10.6172 Q62.7567 -9.5938 62.7567 -8.3594 Q62.7567 -7.1094 62.8739 -6.0781 Q62.9911 -5.0469 63.2645 -4.2969 Q63.538 -3.5469 63.9833 -3.1406 Q64.4286 -2.7344 65.1005 -2.7344 Q65.7723 -2.7344 66.2333 -3.1406 Q66.6942 -3.5469 66.952 -4.2969 Q67.2098 -5.0469 67.3348 -6.0781 Q67.4598 -7.1094 67.4598 -8.3594 Z"
    /></g
    ><g style="stroke-linecap:butt; fill:rgb(38,38,38); text-rendering:geometricPrecision; color-rendering:optimizeQuality; image-rendering:optimizeQuality; stroke-linejoin:round; stroke:rgb(38,38,38); color-interpolation:linearRGB;"
    ><line y2="1719" style="fill:none;" x1="479" x2="3336" y1="1719"
    /></g
    ><g style="fill:rgb(0,114,189); text-rendering:optimizeSpeed; color-rendering:optimizeSpeed; image-rendering:optimizeSpeed; shape-rendering:crispEdges; stroke:rgb(0,114,189); color-interpolation:sRGB;"
    ><path style="stroke:none;" d="M519.9606 1719 L519.9606 669.6777 L479 669.6777 L479 1719 ZM571.1613 1719 L571.1613 958.7432 L530.2007 958.7432 L530.2007 1719 ZM622.362 1719 L622.362 1032.7595 L581.4014 1032.7595 L581.4014 1719 ZM673.5627 1719 L673.5627 918.0357 L632.6022 918.0357 L632.6022 1719 ZM724.7634 1719 L724.7634 1038.2629 L683.8029 1038.2629 L683.8029 1719 ZM775.9642 1719 L775.9642 1129.2216 L735.0036 1129.2216 L735.0036 1719 ZM827.1649 1719 L827.1649 733.9427 L786.2043 733.9427 L786.2043 1719 ZM878.3656 1719 L878.3656 783.2257 L837.405 783.2257 L837.405 1719 ZM929.5663 1719 L929.5663 761.0212 L888.6057 761.0212 L888.6057 1719 ZM980.767 1719 L980.767 431.9338 L939.8065 431.9338 L939.8065 1719 ZM1031.9678 1719 L1031.9678 385.0289 L991.0072 385.0289 L991.0072 1719 ZM1083.1685 1719 L1083.1685 634.3182 L1042.2079 634.3182 L1042.2079 1719 ZM1134.3691 1719 L1134.3691 145 L1093.4086 145 L1093.4086 1719 ZM1185.5698 1719 L1185.5698 1623.1503 L1144.6094 1623.1503 L1144.6094 1719 Z"
    /></g
    ><g style="text-rendering:geometricPrecision; color-rendering:optimizeQuality; color-interpolation:linearRGB; stroke-linecap:butt; image-rendering:optimizeQuality;"
    ><path d="M479 1719 L479 669.6777 L519.9606 669.6777 L519.9606 1719 Z" style="fill:none; fill-rule:evenodd;"
      /><path d="M530.2007 1719 L530.2007 958.7432 L571.1613 958.7432 L571.1613 1719 Z" style="fill:none; fill-rule:evenodd;"
      /><path d="M581.4014 1719 L581.4014 1032.7595 L622.362 1032.7595 L622.362 1719 Z" style="fill:none; fill-rule:evenodd;"
      /><path d="M632.6022 1719 L632.6022 918.0357 L673.5627 918.0357 L673.5627 1719 Z" style="fill:none; fill-rule:evenodd;"
      /><path d="M683.8029 1719 L683.8029 1038.2629 L724.7634 1038.2629 L724.7634 1719 Z" style="fill:none; fill-rule:evenodd;"
      /><path d="M735.0036 1719 L735.0036 1129.2216 L775.9642 1129.2216 L775.9642 1719 Z" style="fill:none; fill-rule:evenodd;"
      /><path d="M786.2043 1719 L786.2043 733.9427 L827.1649 733.9427 L827.1649 1719 Z" style="fill:none; fill-rule:evenodd;"
      /><path d="M837.405 1719 L837.405 783.2257 L878.3656 783.2257 L878.3656 1719 Z" style="fill:none; fill-rule:evenodd;"
      /><path d="M888.6057 1719 L888.6057 761.0212 L929.5663 761.0212 L929.5663 1719 Z" style="fill:none; fill-rule:evenodd;"
      /><path d="M939.8065 1719 L939.8065 431.9338 L980.767 431.9338 L980.767 1719 Z" style="fill:none; fill-rule:evenodd;"
      /><path d="M991.0072 1719 L991.0072 385.0289 L1031.9678 385.0289 L1031.9678 1719 Z" style="fill:none; fill-rule:evenodd;"
      /><path d="M1042.2079 1719 L1042.2079 634.3182 L1083.1685 634.3182 L1083.1685 1719 Z" style="fill:none; fill-rule:evenodd;"
      /><path d="M1093.4086 1719 L1093.4086 145 L1134.3691 145 L1134.3691 1719 Z" style="fill:none; fill-rule:evenodd;"
      /><path d="M1144.6094 1719 L1144.6094 1623.1503 L1185.5698 1623.1503 L1185.5698 1719 Z" style="fill:none; fill-rule:evenodd;"
      /><path d="M1195.8101 1719 L1195.8101 1719 L1236.7706 1719 L1236.7706 1719 Z" style="fill:none; fill-rule:evenodd;"
      /><path d="M1247.0107 1719 L1247.0107 1719 L1287.9713 1719 L1287.9713 1719 Z" style="fill:none; fill-rule:evenodd;"
      /><path d="M1298.2115 1719 L1298.2115 1719 L1339.172 1719 L1339.172 1719 Z" style="fill:none; fill-rule:evenodd;"
      /><path d="M1349.4122 1719 L1349.4122 1719 L1390.3727 1719 L1390.3727 1719 Z" style="fill:none; fill-rule:evenodd;"
      /><path d="M1400.6129 1719 L1400.6129 1719 L1441.5735 1719 L1441.5735 1719 Z" style="fill:none; fill-rule:evenodd;"
      /><path d="M1451.8136 1719 L1451.8136 1719 L1492.7742 1719 L1492.7742 1719 Z" style="fill:none; fill-rule:evenodd;"
      /><path d="M1503.0144 1719 L1503.0144 1719 L1543.9749 1719 L1543.9749 1719 Z" style="fill:none; fill-rule:evenodd;"
      /><path d="M1554.2151 1719 L1554.2151 1719 L1595.1757 1719 L1595.1757 1719 Z" style="fill:none; fill-rule:evenodd;"
      /><path d="M1605.4158 1719 L1605.4158 1719 L1646.3763 1719 L1646.3763 1719 Z" style="fill:none; fill-rule:evenodd;"
      /><path d="M1656.6165 1719 L1656.6165 1719 L1697.577 1719 L1697.577 1719 Z" style="fill:none; fill-rule:evenodd;"
      /><path d="M1707.8173 1719 L1707.8173 1719 L1748.7777 1719 L1748.7777 1719 Z" style="fill:none; fill-rule:evenodd;"
      /><path d="M1759.0179 1719 L1759.0179 1719 L1799.9785 1719 L1799.9785 1719 Z" style="fill:none; fill-rule:evenodd;"
      /><path d="M1810.2186 1719 L1810.2186 1719 L1851.1792 1719 L1851.1792 1719 Z" style="fill:none; fill-rule:evenodd;"
      /><path d="M1861.4194 1719 L1861.4194 1719 L1902.3799 1719 L1902.3799 1719 Z" style="fill:none; fill-rule:evenodd;"
      /><path d="M1912.6201 1719 L1912.6201 1719 L1953.5806 1719 L1953.5806 1719 Z" style="fill:none; fill-rule:evenodd;"
      /><path d="M1963.8208 1719 L1963.8208 1719 L2004.7814 1719 L2004.7814 1719 Z" style="fill:none; fill-rule:evenodd;"
      /><path d="M2015.0215 1719 L2015.0215 1719 L2055.9822 1719 L2055.9822 1719 Z" style="fill:none; fill-rule:evenodd;"
      /><path d="M2066.2222 1719 L2066.2222 1719 L2107.1829 1719 L2107.1829 1719 Z" style="fill:none; fill-rule:evenodd;"
      /><path d="M2117.4229 1719 L2117.4229 1719 L2158.3835 1719 L2158.3835 1719 Z" style="fill:none; fill-rule:evenodd;"
      /><path d="M2168.6235 1719 L2168.6235 1719 L2209.5842 1719 L2209.5842 1719 Z" style="fill:none; fill-rule:evenodd;"
      /><path d="M2219.8242 1719 L2219.8242 1719 L2260.7849 1719 L2260.7849 1719 Z" style="fill:none; fill-rule:evenodd;"
      /><path d="M2271.0249 1719 L2271.0249 1719 L2311.9858 1719 L2311.9858 1719 Z" style="fill:none; fill-rule:evenodd;"
      /><path d="M2322.2258 1719 L2322.2258 1719 L2363.1865 1719 L2363.1865 1719 Z" style="fill:none; fill-rule:evenodd;"
      /><path d="M2373.4265 1719 L2373.4265 1719 L2414.3872 1719 L2414.3872 1719 Z" style="fill:none; fill-rule:evenodd;"
      /><path d="M2424.6272 1719 L2424.6272 1719 L2465.5879 1719 L2465.5879 1719 Z" style="fill:none; fill-rule:evenodd;"
      /><path d="M2475.8279 1719 L2475.8279 1719 L2516.7886 1719 L2516.7886 1719 Z" style="fill:none; fill-rule:evenodd;"
      /><path d="M2527.0286 1719 L2527.0286 1719 L2567.9893 1719 L2567.9893 1719 Z" style="fill:none; fill-rule:evenodd;"
      /><path d="M2578.2292 1719 L2578.2292 1719 L2619.1899 1719 L2619.1899 1719 Z" style="fill:none; fill-rule:evenodd;"
      /><path d="M2629.4299 1719 L2629.4299 1719 L2670.3909 1719 L2670.3909 1719 Z" style="fill:none; fill-rule:evenodd;"
      /><path d="M2680.6309 1719 L2680.6309 1719 L2721.5916 1719 L2721.5916 1719 Z" style="fill:none; fill-rule:evenodd;"
      /><path d="M2731.8315 1719 L2731.8315 1719 L2772.7922 1719 L2772.7922 1719 Z" style="fill:none; fill-rule:evenodd;"
      /><path d="M2783.0322 1719 L2783.0322 1719 L2823.9929 1719 L2823.9929 1719 Z" style="fill:none; fill-rule:evenodd;"
      /><path d="M2834.2329 1719 L2834.2329 1719 L2875.1936 1719 L2875.1936 1719 Z" style="fill:none; fill-rule:evenodd;"
      /><path d="M2885.4336 1719 L2885.4336 1719 L2926.3943 1719 L2926.3943 1719 Z" style="fill:none; fill-rule:evenodd;"
      /><path d="M2936.6343 1719 L2936.6343 1719 L2977.595 1719 L2977.595 1719 Z" style="fill:none; fill-rule:evenodd;"
      /><path d="M2987.835 1719 L2987.835 1719 L3028.7959 1719 L3028.7959 1719 Z" style="fill:none; fill-rule:evenodd;"
      /><path d="M3039.0356 1719 L3039.0356 1719 L3079.9966 1719 L3079.9966 1719 Z" style="fill:none; fill-rule:evenodd;"
      /><path d="M3090.2366 1719 L3090.2366 1719 L3131.1973 1719 L3131.1973 1719 Z" style="fill:none; fill-rule:evenodd;"
      /><path d="M3141.4373 1719 L3141.4373 1719 L3182.3979 1719 L3182.3979 1719 Z" style="fill:none; fill-rule:evenodd;"
      /><path d="M3192.6379 1719 L3192.6379 1719 L3233.5986 1719 L3233.5986 1719 Z" style="fill:none; fill-rule:evenodd;"
      /><path d="M3243.8386 1719 L3243.8386 1719 L3284.7993 1719 L3284.7993 1719 Z" style="fill:none; fill-rule:evenodd;"
      /><path d="M3295.0393 1719 L3295.0393 1719 L3336 1719 L3336 1719 Z" style="fill:none; fill-rule:evenodd;"
    /></g
    ><g style="fill:rgb(38,38,38); text-rendering:geometricPrecision; color-rendering:optimizeQuality; image-rendering:optimizeQuality; stroke-linejoin:round; stroke:rgb(38,38,38); color-interpolation:linearRGB;"
    ><line y2="1719" style="fill:none;" x1="479" x2="3336" y1="1719"
      /><line y2="145" style="fill:none;" x1="479" x2="3336" y1="145"
      /><line y2="1690.4301" style="fill:none;" x1="499.4803" x2="499.4803" y1="1719"
      /><line y2="1690.4301" style="fill:none;" x1="1011.4874" x2="1011.4874" y1="1719"
      /><line y2="1690.4301" style="fill:none;" x1="1523.4946" x2="1523.4946" y1="1719"
      /><line y2="1690.4301" style="fill:none;" x1="2035.5018" x2="2035.5018" y1="1719"
      /><line y2="1690.4301" style="fill:none;" x1="2547.509" x2="2547.509" y1="1719"
      /><line y2="1690.4301" style="fill:none;" x1="3059.5161" x2="3059.5161" y1="1719"
      /><line y2="173.5701" style="fill:none;" x1="499.4803" x2="499.4803" y1="145"
      /><line y2="173.5701" style="fill:none;" x1="1011.4874" x2="1011.4874" y1="145"
      /><line y2="173.5701" style="fill:none;" x1="1523.4946" x2="1523.4946" y1="145"
      /><line y2="173.5701" style="fill:none;" x1="2035.5018" x2="2035.5018" y1="145"
      /><line y2="173.5701" style="fill:none;" x1="2547.509" x2="2547.509" y1="145"
      /><line y2="173.5701" style="fill:none;" x1="3059.5161" x2="3059.5161" y1="145"
    /></g
    ><g transform="translate(499.4803,1727)" style="font-size:20px; fill:rgb(38,38,38); text-rendering:geometricPrecision; image-rendering:optimizeQuality; color-rendering:optimizeQuality; font-family:'SansSerif'; stroke:rgb(38,38,38); color-interpolation:linearRGB;"
    ><path style="stroke:none;" d="M-0.1406 5.7188 Q-1.6719 5.7188 -2.4375 7.2188 Q-3.2031 8.7188 -3.2031 11.7188 Q-3.2031 14.7188 -2.4375 16.2188 Q-1.6719 17.7188 -0.1406 17.7188 Q1.3906 17.7188 2.1562 16.2188 Q2.9219 14.7188 2.9219 11.7188 Q2.9219 8.7188 2.1562 7.2188 Q1.3906 5.7188 -0.1406 5.7188 ZM-0.1406 4.1562 Q2.3125 4.1562 3.6016 6.0938 Q4.8906 8.0312 4.8906 11.7188 Q4.8906 15.4062 3.6016 17.3438 Q2.3125 19.2812 -0.1406 19.2812 Q-2.5938 19.2812 -3.8906 17.3438 Q-5.1875 15.4062 -5.1875 11.7188 Q-5.1875 8.0312 -3.8906 6.0938 Q-2.5938 4.1562 -0.1406 4.1562 Z"
    /></g
    ><g transform="translate(1011.4874,1727)" style="font-size:20px; fill:rgb(38,38,38); text-rendering:geometricPrecision; image-rendering:optimizeQuality; color-rendering:optimizeQuality; font-family:'SansSerif'; stroke:rgb(38,38,38); color-interpolation:linearRGB;"
    ><path style="stroke:none;" d="M-10.5156 17.3438 L-7.2969 17.3438 L-7.2969 6.2188 L-10.7969 6.9219 L-10.7969 5.125 L-7.3125 4.4219 L-5.3438 4.4219 L-5.3438 17.3438 L-2.125 17.3438 L-2.125 19 L-10.5156 19 L-10.5156 17.3438 ZM6.084 5.7188 Q4.5527 5.7188 3.7871 7.2188 Q3.0215 8.7188 3.0215 11.7188 Q3.0215 14.7188 3.7871 16.2188 Q4.5527 17.7188 6.084 17.7188 Q7.6152 17.7188 8.3809 16.2188 Q9.1465 14.7188 9.1465 11.7188 Q9.1465 8.7188 8.3809 7.2188 Q7.6152 5.7188 6.084 5.7188 ZM6.084 4.1562 Q8.5371 4.1562 9.8262 6.0938 Q11.1152 8.0312 11.1152 11.7188 Q11.1152 15.4062 9.8262 17.3438 Q8.5371 19.2812 6.084 19.2812 Q3.6309 19.2812 2.334 17.3438 Q1.0371 15.4062 1.0371 11.7188 Q1.0371 8.0312 2.334 6.0938 Q3.6309 4.1562 6.084 4.1562 Z"
    /></g
    ><g transform="translate(1523.4946,1727)" style="font-size:20px; fill:rgb(38,38,38); text-rendering:geometricPrecision; image-rendering:optimizeQuality; color-rendering:optimizeQuality; font-family:'SansSerif'; stroke:rgb(38,38,38); color-interpolation:linearRGB;"
    ><path style="stroke:none;" d="M-9.1562 17.3438 L-2.2812 17.3438 L-2.2812 19 L-11.5312 19 L-11.5312 17.3438 Q-10.4062 16.1719 -8.4688 14.2188 Q-6.5312 12.2656 -6.0312 11.6875 Q-5.0938 10.625 -4.7188 9.8906 Q-4.3438 9.1562 -4.3438 8.4375 Q-4.3438 7.2812 -5.1562 6.5469 Q-5.9688 5.8125 -7.2812 5.8125 Q-8.2031 5.8125 -9.2344 6.1328 Q-10.2656 6.4531 -11.4375 7.1094 L-11.4375 5.125 Q-10.25 4.6406 -9.2109 4.3984 Q-8.1719 4.1562 -7.3125 4.1562 Q-5.0469 4.1562 -3.7031 5.2891 Q-2.3594 6.4219 -2.3594 8.3125 Q-2.3594 9.2188 -2.6953 10.0234 Q-3.0312 10.8281 -3.9219 11.9219 Q-4.1562 12.2031 -5.4688 13.5547 Q-6.7812 14.9062 -9.1562 17.3438 ZM6.084 5.7188 Q4.5527 5.7188 3.7871 7.2188 Q3.0215 8.7188 3.0215 11.7188 Q3.0215 14.7188 3.7871 16.2188 Q4.5527 17.7188 6.084 17.7188 Q7.6152 17.7188 8.3809 16.2188 Q9.1465 14.7188 9.1465 11.7188 Q9.1465 8.7188 8.3809 7.2188 Q7.6152 5.7188 6.084 5.7188 ZM6.084 4.1562 Q8.5371 4.1562 9.8262 6.0938 Q11.1152 8.0312 11.1152 11.7188 Q11.1152 15.4062 9.8262 17.3438 Q8.5371 19.2812 6.084 19.2812 Q3.6309 19.2812 2.334 17.3438 Q1.0371 15.4062 1.0371 11.7188 Q1.0371 8.0312 2.334 6.0938 Q3.6309 4.1562 6.084 4.1562 Z"
    /></g
    ><g transform="translate(2035.5018,1727)" style="font-size:20px; fill:rgb(38,38,38); text-rendering:geometricPrecision; image-rendering:optimizeQuality; color-rendering:optimizeQuality; font-family:'SansSerif'; stroke:rgb(38,38,38); color-interpolation:linearRGB;"
    ><path style="stroke:none;" d="M-4.8906 11.1406 Q-3.4688 11.4375 -2.6719 12.3984 Q-1.875 13.3594 -1.875 14.7656 Q-1.875 16.9219 -3.3594 18.1016 Q-4.8438 19.2812 -7.5781 19.2812 Q-8.5 19.2812 -9.4688 19.1016 Q-10.4375 18.9219 -11.4688 18.5625 L-11.4688 16.6562 Q-10.6562 17.1406 -9.6797 17.3828 Q-8.7031 17.625 -7.6406 17.625 Q-5.7812 17.625 -4.8125 16.8906 Q-3.8438 16.1562 -3.8438 14.7656 Q-3.8438 13.4688 -4.7422 12.7422 Q-5.6406 12.0156 -7.25 12.0156 L-8.9531 12.0156 L-8.9531 10.3906 L-7.1719 10.3906 Q-5.7188 10.3906 -4.9531 9.8125 Q-4.1875 9.2344 -4.1875 8.1406 Q-4.1875 7.0156 -4.9766 6.4141 Q-5.7656 5.8125 -7.25 5.8125 Q-8.0625 5.8125 -8.9922 5.9922 Q-9.9219 6.1719 -11.0312 6.5312 L-11.0312 4.7812 Q-9.9062 4.4688 -8.9297 4.3125 Q-7.9531 4.1562 -7.0781 4.1562 Q-4.8281 4.1562 -3.5234 5.1797 Q-2.2188 6.2031 -2.2188 7.9375 Q-2.2188 9.1406 -2.9141 9.9766 Q-3.6094 10.8125 -4.8906 11.1406 ZM6.084 5.7188 Q4.5527 5.7188 3.7871 7.2188 Q3.0215 8.7188 3.0215 11.7188 Q3.0215 14.7188 3.7871 16.2188 Q4.5527 17.7188 6.084 17.7188 Q7.6152 17.7188 8.3809 16.2188 Q9.1465 14.7188 9.1465 11.7188 Q9.1465 8.7188 8.3809 7.2188 Q7.6152 5.7188 6.084 5.7188 ZM6.084 4.1562 Q8.5371 4.1562 9.8262 6.0938 Q11.1152 8.0312 11.1152 11.7188 Q11.1152 15.4062 9.8262 17.3438 Q8.5371 19.2812 6.084 19.2812 Q3.6309 19.2812 2.334 17.3438 Q1.0371 15.4062 1.0371 11.7188 Q1.0371 8.0312 2.334 6.0938 Q3.6309 4.1562 6.084 4.1562 Z"
    /></g
    ><g transform="translate(2547.509,1727)" style="font-size:20px; fill:rgb(38,38,38); text-rendering:geometricPrecision; image-rendering:optimizeQuality; color-rendering:optimizeQuality; font-family:'SansSerif'; stroke:rgb(38,38,38); color-interpolation:linearRGB;"
    ><path style="stroke:none;" d="M-5.4375 6.1406 L-10.4219 13.9219 L-5.4375 13.9219 L-5.4375 6.1406 ZM-5.9531 4.4219 L-3.4844 4.4219 L-3.4844 13.9219 L-1.3906 13.9219 L-1.3906 15.5625 L-3.4844 15.5625 L-3.4844 19 L-5.4375 19 L-5.4375 15.5625 L-12.0156 15.5625 L-12.0156 13.6562 L-5.9531 4.4219 ZM6.084 5.7188 Q4.5527 5.7188 3.7871 7.2188 Q3.0215 8.7188 3.0215 11.7188 Q3.0215 14.7188 3.7871 16.2188 Q4.5527 17.7188 6.084 17.7188 Q7.6152 17.7188 8.3809 16.2188 Q9.1465 14.7188 9.1465 11.7188 Q9.1465 8.7188 8.3809 7.2188 Q7.6152 5.7188 6.084 5.7188 ZM6.084 4.1562 Q8.5371 4.1562 9.8262 6.0938 Q11.1152 8.0312 11.1152 11.7188 Q11.1152 15.4062 9.8262 17.3438 Q8.5371 19.2812 6.084 19.2812 Q3.6309 19.2812 2.334 17.3438 Q1.0371 15.4062 1.0371 11.7188 Q1.0371 8.0312 2.334 6.0938 Q3.6309 4.1562 6.084 4.1562 Z"
    /></g
    ><g transform="translate(3059.5161,1727)" style="font-size:20px; fill:rgb(38,38,38); text-rendering:geometricPrecision; image-rendering:optimizeQuality; color-rendering:optimizeQuality; font-family:'SansSerif'; stroke:rgb(38,38,38); color-interpolation:linearRGB;"
    ><path style="stroke:none;" d="M-10.8438 4.4219 L-3.0938 4.4219 L-3.0938 6.0781 L-9.0312 6.0781 L-9.0312 9.6562 Q-8.6094 9.5 -8.1797 9.4297 Q-7.75 9.3594 -7.3125 9.3594 Q-4.875 9.3594 -3.4453 10.6953 Q-2.0156 12.0312 -2.0156 14.3281 Q-2.0156 16.6719 -3.4844 17.9766 Q-4.9531 19.2812 -7.625 19.2812 Q-8.5312 19.2812 -9.4844 19.125 Q-10.4375 18.9688 -11.4531 18.6562 L-11.4531 16.6719 Q-10.5781 17.1562 -9.6406 17.3906 Q-8.7031 17.625 -7.6562 17.625 Q-5.9688 17.625 -4.9844 16.7344 Q-4 15.8438 -4 14.3281 Q-4 12.7969 -4.9844 11.9062 Q-5.9688 11.0156 -7.6562 11.0156 Q-8.4531 11.0156 -9.2344 11.1953 Q-10.0156 11.375 -10.8438 11.75 L-10.8438 4.4219 ZM6.084 5.7188 Q4.5527 5.7188 3.7871 7.2188 Q3.0215 8.7188 3.0215 11.7188 Q3.0215 14.7188 3.7871 16.2188 Q4.5527 17.7188 6.084 17.7188 Q7.6152 17.7188 8.3809 16.2188 Q9.1465 14.7188 9.1465 11.7188 Q9.1465 8.7188 8.3809 7.2188 Q7.6152 5.7188 6.084 5.7188 ZM6.084 4.1562 Q8.5371 4.1562 9.8262 6.0938 Q11.1152 8.0312 11.1152 11.7188 Q11.1152 15.4062 9.8262 17.3438 Q8.5371 19.2812 6.084 19.2812 Q3.6309 19.2812 2.334 17.3438 Q1.0371 15.4062 1.0371 11.7188 Q1.0371 8.0312 2.334 6.0938 Q3.6309 4.1562 6.084 4.1562 Z"
    /></g
    ><g transform="translate(1907.5013,1753)" style="font-size:24px; fill:rgb(38,38,38); text-rendering:geometricPrecision; image-rendering:optimizeQuality; color-rendering:optimizeQuality; font-family:'Ubuntu'; stroke:rgb(38,38,38); color-interpolation:linearRGB;"
    ><path style="stroke:none;" d="M-11.4531 23.1406 Q-11.9531 23.1406 -12.5391 23.1172 Q-13.125 23.0938 -13.7109 23.0469 Q-14.2969 23 -14.875 22.9297 Q-15.4531 22.8594 -15.9375 22.7344 L-15.9375 6.6094 Q-15.4531 6.4844 -14.875 6.4141 Q-14.2969 6.3438 -13.7109 6.2969 Q-13.125 6.25 -12.5469 6.2266 Q-11.9688 6.2031 -11.4688 6.2031 Q-10.0312 6.2031 -8.7734 6.4141 Q-7.5156 6.625 -6.5859 7.1406 Q-5.6562 7.6562 -5.1328 8.5 Q-4.6094 9.3438 -4.6094 10.5625 Q-4.6094 11.9375 -5.2578 12.8125 Q-5.9062 13.6875 -6.9844 14.125 Q-5.5156 14.5469 -4.6562 15.4844 Q-3.7969 16.4219 -3.7969 18.125 Q-3.7969 20.625 -5.6328 21.8828 Q-7.4688 23.1406 -11.4531 23.1406 ZM-13.625 15.25 L-13.625 21.1094 Q-13.375 21.125 -13.0156 21.1562 Q-12.7031 21.1719 -12.2812 21.1875 Q-11.8594 21.2031 -11.2969 21.2031 Q-10.2656 21.2031 -9.3438 21.0703 Q-8.4219 20.9375 -7.7266 20.6016 Q-7.0312 20.2656 -6.6094 19.6641 Q-6.1875 19.0625 -6.1875 18.1562 Q-6.1875 17.3438 -6.5 16.7734 Q-6.8125 16.2031 -7.3984 15.8672 Q-7.9844 15.5312 -8.8047 15.3906 Q-9.625 15.25 -10.625 15.25 L-13.625 15.25 ZM-13.625 13.375 L-11.1875 13.375 Q-10.3125 13.375 -9.5469 13.2578 Q-8.7812 13.1406 -8.2188 12.8281 Q-7.6562 12.5156 -7.3359 12.0078 Q-7.0156 11.5 -7.0156 10.7344 Q-7.0156 10.0156 -7.3516 9.5234 Q-7.6875 9.0312 -8.2734 8.7344 Q-8.8594 8.4375 -9.6484 8.2891 Q-10.4375 8.1406 -11.3281 8.1406 Q-12.2188 8.1406 -12.7188 8.1641 Q-13.2188 8.1875 -13.625 8.2344 L-13.625 13.375 ZM1.5798 23 L-0.6546 23 L-0.6546 10.5156 L1.5798 10.5156 L1.5798 23 ZM0.4548 8.2656 Q-0.1546 8.2656 -0.5765 7.8672 Q-0.9984 7.4688 -0.9984 6.7969 Q-0.9984 6.125 -0.5765 5.7344 Q-0.1546 5.3438 0.4548 5.3438 Q1.0485 5.3438 1.4704 5.7344 Q1.8923 6.125 1.8923 6.7969 Q1.8923 7.4688 1.4704 7.8672 Q1.0485 8.2656 0.4548 8.2656 ZM13.4766 13.1562 Q13.0703 12.8281 12.3047 12.5156 Q11.5391 12.2031 10.6172 12.2031 Q9.6641 12.2031 8.9766 12.5469 Q8.2891 12.8906 7.8594 13.5078 Q7.4297 14.125 7.2344 14.9609 Q7.0391 15.7969 7.0391 16.7656 Q7.0391 18.9375 8.125 20.125 Q9.2109 21.3125 11.0078 21.3125 Q11.9141 21.3125 12.5234 21.2344 Q13.1328 21.1562 13.4766 21.0625 L13.4766 13.1562 ZM13.4766 4.7656 L15.7109 4.375 L15.7109 22.6406 Q14.9453 22.8594 13.7422 23.0703 Q12.5391 23.2812 10.9766 23.2812 Q9.5391 23.2812 8.3906 22.8281 Q7.2422 22.375 6.4219 21.5391 Q5.6016 20.7031 5.1562 19.4844 Q4.7109 18.2656 4.7109 16.7656 Q4.7109 15.3125 5.0859 14.1172 Q5.4609 12.9219 6.1797 12.0547 Q6.8984 11.1875 7.9453 10.7109 Q8.9922 10.2344 10.3359 10.2344 Q11.4141 10.2344 12.2422 10.5234 Q13.0703 10.8125 13.4766 11.0781 L13.4766 4.7656 Z"
    /></g
    ><g style="fill:rgb(38,38,38); text-rendering:geometricPrecision; color-rendering:optimizeQuality; image-rendering:optimizeQuality; stroke-linejoin:round; stroke:rgb(38,38,38); color-interpolation:linearRGB;"
    ><line y2="145" style="fill:none;" x1="479" x2="479" y1="1719"
      /><line y2="145" style="fill:none;" x1="3336" x2="3336" y1="1719"
      /><line y2="1719" style="fill:none;" x1="479" x2="507.57" y1="1719"
      /><line y2="1462.5664" style="fill:none;" x1="479" x2="507.57" y1="1462.5664"
      /><line y2="1206.1328" style="fill:none;" x1="479" x2="507.57" y1="1206.1328"
      /><line y2="949.6993" style="fill:none;" x1="479" x2="507.57" y1="949.6993"
      /><line y2="693.2657" style="fill:none;" x1="479" x2="507.57" y1="693.2657"
      /><line y2="436.8321" style="fill:none;" x1="479" x2="507.57" y1="436.8321"
      /><line y2="180.3986" style="fill:none;" x1="479" x2="507.57" y1="180.3986"
      /><line y2="1719" style="fill:none;" x1="3336" x2="3307.4302" y1="1719"
      /><line y2="1462.5664" style="fill:none;" x1="3336" x2="3307.4302" y1="1462.5664"
      /><line y2="1206.1328" style="fill:none;" x1="3336" x2="3307.4302" y1="1206.1328"
      /><line y2="949.6993" style="fill:none;" x1="3336" x2="3307.4302" y1="949.6993"
      /><line y2="693.2657" style="fill:none;" x1="3336" x2="3307.4302" y1="693.2657"
      /><line y2="436.8321" style="fill:none;" x1="3336" x2="3307.4302" y1="436.8321"
      /><line y2="180.3986" style="fill:none;" x1="3336" x2="3307.4302" y1="180.3986"
    /></g
    ><g transform="translate(471,1719)" style="font-size:20px; fill:rgb(38,38,38); text-rendering:geometricPrecision; image-rendering:optimizeQuality; color-rendering:optimizeQuality; font-family:'SansSerif'; stroke:rgb(38,38,38); color-interpolation:linearRGB;"
    ><path style="stroke:none;" d="M-6.6406 -6.2812 Q-8.1719 -6.2812 -8.9375 -4.7812 Q-9.7031 -3.2812 -9.7031 -0.2812 Q-9.7031 2.7188 -8.9375 4.2188 Q-8.1719 5.7188 -6.6406 5.7188 Q-5.1094 5.7188 -4.3438 4.2188 Q-3.5781 2.7188 -3.5781 -0.2812 Q-3.5781 -3.2812 -4.3438 -4.7812 Q-5.1094 -6.2812 -6.6406 -6.2812 ZM-6.6406 -7.8438 Q-4.1875 -7.8438 -2.8984 -5.9062 Q-1.6094 -3.9688 -1.6094 -0.2812 Q-1.6094 3.4062 -2.8984 5.3438 Q-4.1875 7.2812 -6.6406 7.2812 Q-9.0938 7.2812 -10.3906 5.3438 Q-11.6875 3.4062 -11.6875 -0.2812 Q-11.6875 -3.9688 -10.3906 -5.9062 Q-9.0938 -7.8438 -6.6406 -7.8438 Z"
    /></g
    ><g transform="translate(471,1462.5664)" style="font-size:20px; fill:rgb(38,38,38); text-rendering:geometricPrecision; image-rendering:optimizeQuality; color-rendering:optimizeQuality; font-family:'SansSerif'; stroke:rgb(38,38,38); color-interpolation:linearRGB;"
    ><path style="stroke:none;" d="M-38.6406 -6.2812 Q-40.1719 -6.2812 -40.9375 -4.7812 Q-41.7031 -3.2812 -41.7031 -0.2812 Q-41.7031 2.7188 -40.9375 4.2188 Q-40.1719 5.7188 -38.6406 5.7188 Q-37.1094 5.7188 -36.3438 4.2188 Q-35.5781 2.7188 -35.5781 -0.2812 Q-35.5781 -3.2812 -36.3438 -4.7812 Q-37.1094 -6.2812 -38.6406 -6.2812 ZM-38.6406 -7.8438 Q-36.1875 -7.8438 -34.8984 -5.9062 Q-33.6094 -3.9688 -33.6094 -0.2812 Q-33.6094 3.4062 -34.8984 5.3438 Q-36.1875 7.2812 -38.6406 7.2812 Q-41.0938 7.2812 -42.3906 5.3438 Q-43.6875 3.4062 -43.6875 -0.2812 Q-43.6875 -3.9688 -42.3906 -5.9062 Q-41.0938 -7.8438 -38.6406 -7.8438 ZM-30.1348 4.5156 L-28.0723 4.5156 L-28.0723 7 L-30.1348 7 L-30.1348 4.5156 ZM-19.5586 -6.2812 Q-21.0898 -6.2812 -21.8555 -4.7812 Q-22.6211 -3.2812 -22.6211 -0.2812 Q-22.6211 2.7188 -21.8555 4.2188 Q-21.0898 5.7188 -19.5586 5.7188 Q-18.0273 5.7188 -17.2617 4.2188 Q-16.4961 2.7188 -16.4961 -0.2812 Q-16.4961 -3.2812 -17.2617 -4.7812 Q-18.0273 -6.2812 -19.5586 -6.2812 ZM-19.5586 -7.8438 Q-17.1055 -7.8438 -15.8164 -5.9062 Q-14.5273 -3.9688 -14.5273 -0.2812 Q-14.5273 3.4062 -15.8164 5.3438 Q-17.1055 7.2812 -19.5586 7.2812 Q-22.0117 7.2812 -23.3086 5.3438 Q-24.6055 3.4062 -24.6055 -0.2812 Q-24.6055 -3.9688 -23.3086 -5.9062 Q-22.0117 -7.8438 -19.5586 -7.8438 ZM-9.3496 5.3438 L-2.4746 5.3438 L-2.4746 7 L-11.7246 7 L-11.7246 5.3438 Q-10.5996 4.1719 -8.6621 2.2188 Q-6.7246 0.2656 -6.2246 -0.3125 Q-5.2871 -1.375 -4.9121 -2.1094 Q-4.5371 -2.8438 -4.5371 -3.5625 Q-4.5371 -4.7188 -5.3496 -5.4531 Q-6.1621 -6.1875 -7.4746 -6.1875 Q-8.3965 -6.1875 -9.4277 -5.8672 Q-10.459 -5.5469 -11.6309 -4.8906 L-11.6309 -6.875 Q-10.4434 -7.3594 -9.4043 -7.6016 Q-8.3652 -7.8438 -7.5059 -7.8438 Q-5.2402 -7.8438 -3.8965 -6.7109 Q-2.5527 -5.5781 -2.5527 -3.6875 Q-2.5527 -2.7812 -2.8887 -1.9766 Q-3.2246 -1.1719 -4.1152 -0.0781 Q-4.3496 0.2031 -5.6621 1.5547 Q-6.9746 2.9062 -9.3496 5.3438 Z"
    /></g
    ><g transform="translate(471,1206.1328)" style="font-size:20px; fill:rgb(38,38,38); text-rendering:geometricPrecision; image-rendering:optimizeQuality; color-rendering:optimizeQuality; font-family:'SansSerif'; stroke:rgb(38,38,38); color-interpolation:linearRGB;"
    ><path style="stroke:none;" d="M-38.6406 -6.2812 Q-40.1719 -6.2812 -40.9375 -4.7812 Q-41.7031 -3.2812 -41.7031 -0.2812 Q-41.7031 2.7188 -40.9375 4.2188 Q-40.1719 5.7188 -38.6406 5.7188 Q-37.1094 5.7188 -36.3438 4.2188 Q-35.5781 2.7188 -35.5781 -0.2812 Q-35.5781 -3.2812 -36.3438 -4.7812 Q-37.1094 -6.2812 -38.6406 -6.2812 ZM-38.6406 -7.8438 Q-36.1875 -7.8438 -34.8984 -5.9062 Q-33.6094 -3.9688 -33.6094 -0.2812 Q-33.6094 3.4062 -34.8984 5.3438 Q-36.1875 7.2812 -38.6406 7.2812 Q-41.0938 7.2812 -42.3906 5.3438 Q-43.6875 3.4062 -43.6875 -0.2812 Q-43.6875 -3.9688 -42.3906 -5.9062 Q-41.0938 -7.8438 -38.6406 -7.8438 ZM-30.1348 4.5156 L-28.0723 4.5156 L-28.0723 7 L-30.1348 7 L-30.1348 4.5156 ZM-19.5586 -6.2812 Q-21.0898 -6.2812 -21.8555 -4.7812 Q-22.6211 -3.2812 -22.6211 -0.2812 Q-22.6211 2.7188 -21.8555 4.2188 Q-21.0898 5.7188 -19.5586 5.7188 Q-18.0273 5.7188 -17.2617 4.2188 Q-16.4961 2.7188 -16.4961 -0.2812 Q-16.4961 -3.2812 -17.2617 -4.7812 Q-18.0273 -6.2812 -19.5586 -6.2812 ZM-19.5586 -7.8438 Q-17.1055 -7.8438 -15.8164 -5.9062 Q-14.5273 -3.9688 -14.5273 -0.2812 Q-14.5273 3.4062 -15.8164 5.3438 Q-17.1055 7.2812 -19.5586 7.2812 Q-22.0117 7.2812 -23.3086 5.3438 Q-24.6055 3.4062 -24.6055 -0.2812 Q-24.6055 -3.9688 -23.3086 -5.9062 Q-22.0117 -7.8438 -19.5586 -7.8438 ZM-5.6309 -5.8594 L-10.6152 1.9219 L-5.6309 1.9219 L-5.6309 -5.8594 ZM-6.1465 -7.5781 L-3.6777 -7.5781 L-3.6777 1.9219 L-1.584 1.9219 L-1.584 3.5625 L-3.6777 3.5625 L-3.6777 7 L-5.6309 7 L-5.6309 3.5625 L-12.209 3.5625 L-12.209 1.6562 L-6.1465 -7.5781 Z"
    /></g
    ><g transform="translate(471,949.6993)" style="font-size:20px; fill:rgb(38,38,38); text-rendering:geometricPrecision; image-rendering:optimizeQuality; color-rendering:optimizeQuality; font-family:'SansSerif'; stroke:rgb(38,38,38); color-interpolation:linearRGB;"
    ><path style="stroke:none;" d="M-38.6406 -6.2812 Q-40.1719 -6.2812 -40.9375 -4.7812 Q-41.7031 -3.2812 -41.7031 -0.2812 Q-41.7031 2.7188 -40.9375 4.2188 Q-40.1719 5.7188 -38.6406 5.7188 Q-37.1094 5.7188 -36.3438 4.2188 Q-35.5781 2.7188 -35.5781 -0.2812 Q-35.5781 -3.2812 -36.3438 -4.7812 Q-37.1094 -6.2812 -38.6406 -6.2812 ZM-38.6406 -7.8438 Q-36.1875 -7.8438 -34.8984 -5.9062 Q-33.6094 -3.9688 -33.6094 -0.2812 Q-33.6094 3.4062 -34.8984 5.3438 Q-36.1875 7.2812 -38.6406 7.2812 Q-41.0938 7.2812 -42.3906 5.3438 Q-43.6875 3.4062 -43.6875 -0.2812 Q-43.6875 -3.9688 -42.3906 -5.9062 Q-41.0938 -7.8438 -38.6406 -7.8438 ZM-30.1348 4.5156 L-28.0723 4.5156 L-28.0723 7 L-30.1348 7 L-30.1348 4.5156 ZM-19.5586 -6.2812 Q-21.0898 -6.2812 -21.8555 -4.7812 Q-22.6211 -3.2812 -22.6211 -0.2812 Q-22.6211 2.7188 -21.8555 4.2188 Q-21.0898 5.7188 -19.5586 5.7188 Q-18.0273 5.7188 -17.2617 4.2188 Q-16.4961 2.7188 -16.4961 -0.2812 Q-16.4961 -3.2812 -17.2617 -4.7812 Q-18.0273 -6.2812 -19.5586 -6.2812 ZM-19.5586 -7.8438 Q-17.1055 -7.8438 -15.8164 -5.9062 Q-14.5273 -3.9688 -14.5273 -0.2812 Q-14.5273 3.4062 -15.8164 5.3438 Q-17.1055 7.2812 -19.5586 7.2812 Q-22.0117 7.2812 -23.3086 5.3438 Q-24.6055 3.4062 -24.6055 -0.2812 Q-24.6055 -3.9688 -23.3086 -5.9062 Q-22.0117 -7.8438 -19.5586 -7.8438 ZM-6.584 -1.0781 Q-7.9121 -1.0781 -8.6934 -0.1719 Q-9.4746 0.7344 -9.4746 2.3281 Q-9.4746 3.8906 -8.6934 4.8047 Q-7.9121 5.7188 -6.584 5.7188 Q-5.2559 5.7188 -4.4824 4.8047 Q-3.709 3.8906 -3.709 2.3281 Q-3.709 0.7344 -4.4824 -0.1719 Q-5.2559 -1.0781 -6.584 -1.0781 ZM-2.6777 -7.2656 L-2.6777 -5.4688 Q-3.4121 -5.8125 -4.1699 -6 Q-4.9277 -6.1875 -5.6777 -6.1875 Q-7.6309 -6.1875 -8.6621 -4.8672 Q-9.6934 -3.5469 -9.834 -0.875 Q-9.2559 -1.7344 -8.3887 -2.1875 Q-7.5215 -2.6406 -6.4746 -2.6406 Q-4.2715 -2.6406 -2.998 -1.3047 Q-1.7246 0.0312 -1.7246 2.3281 Q-1.7246 4.5625 -3.0527 5.9219 Q-4.3809 7.2812 -6.584 7.2812 Q-9.1152 7.2812 -10.459 5.3438 Q-11.8027 3.4062 -11.8027 -0.2812 Q-11.8027 -3.7344 -10.1621 -5.7891 Q-8.5215 -7.8438 -5.7559 -7.8438 Q-5.0059 -7.8438 -4.248 -7.6953 Q-3.4902 -7.5469 -2.6777 -7.2656 Z"
    /></g
    ><g transform="translate(471,693.2657)" style="font-size:20px; fill:rgb(38,38,38); text-rendering:geometricPrecision; image-rendering:optimizeQuality; color-rendering:optimizeQuality; font-family:'SansSerif'; stroke:rgb(38,38,38); color-interpolation:linearRGB;"
    ><path style="stroke:none;" d="M-38.6406 -6.2812 Q-40.1719 -6.2812 -40.9375 -4.7812 Q-41.7031 -3.2812 -41.7031 -0.2812 Q-41.7031 2.7188 -40.9375 4.2188 Q-40.1719 5.7188 -38.6406 5.7188 Q-37.1094 5.7188 -36.3438 4.2188 Q-35.5781 2.7188 -35.5781 -0.2812 Q-35.5781 -3.2812 -36.3438 -4.7812 Q-37.1094 -6.2812 -38.6406 -6.2812 ZM-38.6406 -7.8438 Q-36.1875 -7.8438 -34.8984 -5.9062 Q-33.6094 -3.9688 -33.6094 -0.2812 Q-33.6094 3.4062 -34.8984 5.3438 Q-36.1875 7.2812 -38.6406 7.2812 Q-41.0938 7.2812 -42.3906 5.3438 Q-43.6875 3.4062 -43.6875 -0.2812 Q-43.6875 -3.9688 -42.3906 -5.9062 Q-41.0938 -7.8438 -38.6406 -7.8438 ZM-30.1348 4.5156 L-28.0723 4.5156 L-28.0723 7 L-30.1348 7 L-30.1348 4.5156 ZM-19.5586 -6.2812 Q-21.0898 -6.2812 -21.8555 -4.7812 Q-22.6211 -3.2812 -22.6211 -0.2812 Q-22.6211 2.7188 -21.8555 4.2188 Q-21.0898 5.7188 -19.5586 5.7188 Q-18.0273 5.7188 -17.2617 4.2188 Q-16.4961 2.7188 -16.4961 -0.2812 Q-16.4961 -3.2812 -17.2617 -4.7812 Q-18.0273 -6.2812 -19.5586 -6.2812 ZM-19.5586 -7.8438 Q-17.1055 -7.8438 -15.8164 -5.9062 Q-14.5273 -3.9688 -14.5273 -0.2812 Q-14.5273 3.4062 -15.8164 5.3438 Q-17.1055 7.2812 -19.5586 7.2812 Q-22.0117 7.2812 -23.3086 5.3438 Q-24.6055 3.4062 -24.6055 -0.2812 Q-24.6055 -3.9688 -23.3086 -5.9062 Q-22.0117 -7.8438 -19.5586 -7.8438 ZM-6.834 0.0781 Q-8.2402 0.0781 -9.0449 0.8281 Q-9.8496 1.5781 -9.8496 2.8906 Q-9.8496 4.2188 -9.0449 4.9688 Q-8.2402 5.7188 -6.834 5.7188 Q-5.4277 5.7188 -4.6152 4.9609 Q-3.8027 4.2031 -3.8027 2.8906 Q-3.8027 1.5781 -4.6074 0.8281 Q-5.4121 0.0781 -6.834 0.0781 ZM-8.8027 -0.7656 Q-10.084 -1.0781 -10.7871 -1.9453 Q-11.4902 -2.8125 -11.4902 -4.0625 Q-11.4902 -5.8125 -10.248 -6.8281 Q-9.0059 -7.8438 -6.834 -7.8438 Q-4.6621 -7.8438 -3.4199 -6.8281 Q-2.1777 -5.8125 -2.1777 -4.0625 Q-2.1777 -2.8125 -2.8887 -1.9453 Q-3.5996 -1.0781 -4.8496 -0.7656 Q-3.4277 -0.4375 -2.6309 0.5312 Q-1.834 1.5 -1.834 2.8906 Q-1.834 5.0156 -3.1309 6.1484 Q-4.4277 7.2812 -6.834 7.2812 Q-9.2402 7.2812 -10.5371 6.1484 Q-11.834 5.0156 -11.834 2.8906 Q-11.834 1.5 -11.0371 0.5312 Q-10.2402 -0.4375 -8.8027 -0.7656 ZM-9.5371 -3.875 Q-9.5371 -2.75 -8.8262 -2.1172 Q-8.1152 -1.4844 -6.834 -1.4844 Q-5.5684 -1.4844 -4.8496 -2.1172 Q-4.1309 -2.75 -4.1309 -3.875 Q-4.1309 -5.0156 -4.8496 -5.6484 Q-5.5684 -6.2812 -6.834 -6.2812 Q-8.1152 -6.2812 -8.8262 -5.6484 Q-9.5371 -5.0156 -9.5371 -3.875 Z"
    /></g
    ><g transform="translate(471,436.8321)" style="font-size:20px; fill:rgb(38,38,38); text-rendering:geometricPrecision; image-rendering:optimizeQuality; color-rendering:optimizeQuality; font-family:'SansSerif'; stroke:rgb(38,38,38); color-interpolation:linearRGB;"
    ><path style="stroke:none;" d="M-25.6406 -6.2812 Q-27.1719 -6.2812 -27.9375 -4.7812 Q-28.7031 -3.2812 -28.7031 -0.2812 Q-28.7031 2.7188 -27.9375 4.2188 Q-27.1719 5.7188 -25.6406 5.7188 Q-24.1094 5.7188 -23.3438 4.2188 Q-22.5781 2.7188 -22.5781 -0.2812 Q-22.5781 -3.2812 -23.3438 -4.7812 Q-24.1094 -6.2812 -25.6406 -6.2812 ZM-25.6406 -7.8438 Q-23.1875 -7.8438 -21.8984 -5.9062 Q-20.6094 -3.9688 -20.6094 -0.2812 Q-20.6094 3.4062 -21.8984 5.3438 Q-23.1875 7.2812 -25.6406 7.2812 Q-28.0938 7.2812 -29.3906 5.3438 Q-30.6875 3.4062 -30.6875 -0.2812 Q-30.6875 -3.9688 -29.3906 -5.9062 Q-28.0938 -7.8438 -25.6406 -7.8438 ZM-17.1348 4.5156 L-15.0723 4.5156 L-15.0723 7 L-17.1348 7 L-17.1348 4.5156 ZM-10.4336 5.3438 L-7.2148 5.3438 L-7.2148 -5.7812 L-10.7148 -5.0781 L-10.7148 -6.875 L-7.2305 -7.5781 L-5.2617 -7.5781 L-5.2617 5.3438 L-2.043 5.3438 L-2.043 7 L-10.4336 7 L-10.4336 5.3438 Z"
    /></g
    ><g transform="translate(471,180.3986)" style="font-size:20px; fill:rgb(38,38,38); text-rendering:geometricPrecision; image-rendering:optimizeQuality; color-rendering:optimizeQuality; font-family:'SansSerif'; stroke:rgb(38,38,38); color-interpolation:linearRGB;"
    ><path style="stroke:none;" d="M-38.6406 -6.2812 Q-40.1719 -6.2812 -40.9375 -4.7812 Q-41.7031 -3.2812 -41.7031 -0.2812 Q-41.7031 2.7188 -40.9375 4.2188 Q-40.1719 5.7188 -38.6406 5.7188 Q-37.1094 5.7188 -36.3438 4.2188 Q-35.5781 2.7188 -35.5781 -0.2812 Q-35.5781 -3.2812 -36.3438 -4.7812 Q-37.1094 -6.2812 -38.6406 -6.2812 ZM-38.6406 -7.8438 Q-36.1875 -7.8438 -34.8984 -5.9062 Q-33.6094 -3.9688 -33.6094 -0.2812 Q-33.6094 3.4062 -34.8984 5.3438 Q-36.1875 7.2812 -38.6406 7.2812 Q-41.0938 7.2812 -42.3906 5.3438 Q-43.6875 3.4062 -43.6875 -0.2812 Q-43.6875 -3.9688 -42.3906 -5.9062 Q-41.0938 -7.8438 -38.6406 -7.8438 ZM-30.1348 4.5156 L-28.0723 4.5156 L-28.0723 7 L-30.1348 7 L-30.1348 4.5156 ZM-23.4336 5.3438 L-20.2148 5.3438 L-20.2148 -5.7812 L-23.7148 -5.0781 L-23.7148 -6.875 L-20.2305 -7.5781 L-18.2617 -7.5781 L-18.2617 5.3438 L-15.043 5.3438 L-15.043 7 L-23.4336 7 L-23.4336 5.3438 ZM-9.3496 5.3438 L-2.4746 5.3438 L-2.4746 7 L-11.7246 7 L-11.7246 5.3438 Q-10.5996 4.1719 -8.6621 2.2188 Q-6.7246 0.2656 -6.2246 -0.3125 Q-5.2871 -1.375 -4.9121 -2.1094 Q-4.5371 -2.8438 -4.5371 -3.5625 Q-4.5371 -4.7188 -5.3496 -5.4531 Q-6.1621 -6.1875 -7.4746 -6.1875 Q-8.3965 -6.1875 -9.4277 -5.8672 Q-10.459 -5.5469 -11.6309 -4.8906 L-11.6309 -6.875 Q-10.4434 -7.3594 -9.4043 -7.6016 Q-8.3652 -7.8438 -7.5059 -7.8438 Q-5.2402 -7.8438 -3.8965 -6.7109 Q-2.5527 -5.5781 -2.5527 -3.6875 Q-2.5527 -2.7812 -2.8887 -1.9766 Q-3.2246 -1.1719 -4.1152 -0.0781 Q-4.3496 0.2031 -5.6621 1.5547 Q-6.9746 2.9062 -9.3496 5.3438 Z"
    /></g
    ><g transform="translate(420,931.9993) rotate(-90)" style="font-size:24px; fill:rgb(38,38,38); text-rendering:geometricPrecision; image-rendering:optimizeQuality; color-rendering:optimizeQuality; font-family:'Ubuntu'; stroke:rgb(38,38,38); color-interpolation:linearRGB;"
    ><path style="stroke:none;" d="M-53.5156 -21.7969 Q-50.0156 -21.7969 -48.1328 -20.4688 Q-46.25 -19.1406 -46.25 -16.5 Q-46.25 -15.0625 -46.7656 -14.0391 Q-47.2812 -13.0156 -48.25 -12.3828 Q-49.2188 -11.75 -50.6172 -11.4609 Q-52.0156 -11.1719 -53.7656 -11.1719 L-55.6094 -11.1719 L-55.6094 -5 L-57.9375 -5 L-57.9375 -21.3906 Q-56.9531 -21.625 -55.7422 -21.7109 Q-54.5312 -21.7969 -53.5156 -21.7969 ZM-53.3281 -19.7656 Q-54.8125 -19.7656 -55.6094 -19.6875 L-55.6094 -13.1562 L-53.8594 -13.1562 Q-52.6562 -13.1562 -51.6953 -13.3125 Q-50.7344 -13.4688 -50.0781 -13.8438 Q-49.4219 -14.2188 -49.0625 -14.8672 Q-48.7031 -15.5156 -48.7031 -16.5156 Q-48.7031 -17.4844 -49.0703 -18.1094 Q-49.4375 -18.7344 -50.0781 -19.1016 Q-50.7188 -19.4688 -51.5547 -19.6172 Q-52.3906 -19.7656 -53.3281 -19.7656 ZM-38.8848 -17.75 Q-38.6035 -17.75 -38.2285 -17.7109 Q-37.8535 -17.6719 -37.4941 -17.6094 Q-37.1348 -17.5469 -36.8379 -17.4922 Q-36.541 -17.4375 -36.3848 -17.3906 L-36.7754 -15.4375 Q-37.041 -15.5312 -37.6504 -15.6641 Q-38.2598 -15.7969 -39.2285 -15.7969 Q-39.8535 -15.7969 -40.4629 -15.6641 Q-41.0723 -15.5312 -41.2598 -15.4844 L-41.2598 -5 L-43.4941 -5 L-43.4941 -16.9531 Q-42.6973 -17.2344 -41.5254 -17.4922 Q-40.3535 -17.75 -38.8848 -17.75 ZM-23.2196 -11.2344 Q-23.2196 -9.75 -23.6493 -8.5547 Q-24.079 -7.3594 -24.8602 -6.4922 Q-25.6415 -5.625 -26.7196 -5.1562 Q-27.7977 -4.6875 -29.079 -4.6875 Q-30.3446 -4.6875 -31.4305 -5.1562 Q-32.5165 -5.625 -33.2899 -6.4922 Q-34.0634 -7.3594 -34.5009 -8.5547 Q-34.9384 -9.75 -34.9384 -11.2344 Q-34.9384 -12.7031 -34.5009 -13.9141 Q-34.0634 -15.125 -33.2899 -15.9922 Q-32.5165 -16.8594 -31.4305 -17.3281 Q-30.3446 -17.7969 -29.079 -17.7969 Q-27.7977 -17.7969 -26.7196 -17.3281 Q-25.6415 -16.8594 -24.8602 -15.9922 Q-24.079 -15.125 -23.6493 -13.9141 Q-23.2196 -12.7031 -23.2196 -11.2344 ZM-25.5477 -11.2344 Q-25.5477 -13.3594 -26.493 -14.5938 Q-27.4384 -15.8281 -29.079 -15.8281 Q-30.704 -15.8281 -31.6571 -14.5938 Q-32.6102 -13.3594 -32.6102 -11.2344 Q-32.6102 -9.125 -31.6571 -7.8906 Q-30.704 -6.6562 -29.079 -6.6562 Q-27.4384 -6.6562 -26.493 -7.8906 Q-25.5477 -9.125 -25.5477 -11.2344 ZM-17.8486 -16.9219 Q-17.4424 -17.1875 -16.6143 -17.4766 Q-15.7861 -17.7656 -14.708 -17.7656 Q-13.3643 -17.7656 -12.3174 -17.2891 Q-11.2705 -16.8125 -10.5518 -15.9453 Q-9.833 -15.0781 -9.4658 -13.8828 Q-9.0986 -12.6875 -9.0986 -11.2344 Q-9.0986 -9.7344 -9.5361 -8.5156 Q-9.9736 -7.2969 -10.7939 -6.4609 Q-11.6143 -5.625 -12.7627 -5.1719 Q-13.9111 -4.7188 -15.3643 -4.7188 Q-16.9111 -4.7188 -18.1143 -4.9297 Q-19.3174 -5.1406 -20.083 -5.3594 L-20.083 -23.2344 L-17.8486 -23.625 L-17.8486 -16.9219 ZM-17.8486 -6.9375 Q-17.5205 -6.8438 -16.9033 -6.7656 Q-16.2861 -6.6875 -15.3799 -6.6875 Q-13.583 -6.6875 -12.5049 -7.875 Q-11.4268 -9.0625 -11.4268 -11.2344 Q-11.4268 -12.2031 -11.6143 -13.0391 Q-11.8018 -13.875 -12.2314 -14.4922 Q-12.6611 -15.1094 -13.3486 -15.4531 Q-14.0361 -15.7969 -14.9893 -15.7969 Q-15.9111 -15.7969 -16.6768 -15.4844 Q-17.4424 -15.1719 -17.8486 -14.8438 L-17.8486 -6.9375 ZM-1.736 -6.6094 Q-0.9391 -6.6094 -0.3298 -6.6484 Q0.2796 -6.6875 0.6859 -6.7812 L0.6859 -10.5 Q0.4515 -10.6094 -0.0876 -10.6953 Q-0.6266 -10.7812 -1.3923 -10.7812 Q-1.9079 -10.7812 -2.4704 -10.7109 Q-3.0329 -10.6406 -3.5016 -10.4141 Q-3.9704 -10.1875 -4.2829 -9.7891 Q-4.5954 -9.3906 -4.5954 -8.75 Q-4.5954 -7.5469 -3.822 -7.0781 Q-3.0485 -6.6094 -1.736 -6.6094 ZM-1.9235 -17.7969 Q-0.5798 -17.7969 0.3421 -17.4453 Q1.264 -17.0938 1.8265 -16.4609 Q2.389 -15.8281 2.6312 -14.9531 Q2.8734 -14.0781 2.8734 -13.0156 L2.8734 -5.2188 Q2.5921 -5.1719 2.0765 -5.0859 Q1.5609 -5 0.9124 -4.9297 Q0.264 -4.8594 -0.4938 -4.7969 Q-1.2516 -4.7344 -2.0016 -4.7344 Q-3.0485 -4.7344 -3.9391 -4.9531 Q-4.8298 -5.1719 -5.4782 -5.6406 Q-6.1266 -6.1094 -6.486 -6.875 Q-6.8454 -7.6406 -6.8454 -8.7188 Q-6.8454 -9.75 -6.4235 -10.4922 Q-6.0016 -11.2344 -5.2829 -11.6953 Q-4.5641 -12.1562 -3.6032 -12.3672 Q-2.6423 -12.5781 -1.5954 -12.5781 Q-1.2516 -12.5781 -0.8923 -12.5469 Q-0.5329 -12.5156 -0.2126 -12.4531 Q0.1077 -12.3906 0.3499 -12.3438 Q0.5921 -12.2969 0.6859 -12.2656 L0.6859 -12.8906 Q0.6859 -13.4531 0.5687 -13.9922 Q0.4515 -14.5312 0.139 -14.9531 Q-0.1735 -15.375 -0.7126 -15.625 Q-1.2516 -15.875 -2.111 -15.875 Q-3.2204 -15.875 -4.0485 -15.7188 Q-4.8766 -15.5625 -5.2829 -15.3906 L-5.5485 -17.2344 Q-5.111 -17.4375 -4.1032 -17.6172 Q-3.0954 -17.7969 -1.9235 -17.7969 ZM8.8007 -16.9219 Q9.207 -17.1875 10.0351 -17.4766 Q10.8632 -17.7656 11.9413 -17.7656 Q13.2851 -17.7656 14.332 -17.2891 Q15.3788 -16.8125 16.0976 -15.9453 Q16.8163 -15.0781 17.1835 -13.8828 Q17.5507 -12.6875 17.5507 -11.2344 Q17.5507 -9.7344 17.1132 -8.5156 Q16.6757 -7.2969 15.8554 -6.4609 Q15.0351 -5.625 13.8867 -5.1719 Q12.7382 -4.7188 11.2851 -4.7188 Q9.7382 -4.7188 8.5351 -4.9297 Q7.332 -5.1406 6.5663 -5.3594 L6.5663 -23.2344 L8.8007 -23.625 L8.8007 -16.9219 ZM8.8007 -6.9375 Q9.1288 -6.8438 9.746 -6.7656 Q10.3632 -6.6875 11.2695 -6.6875 Q13.0663 -6.6875 14.1445 -7.875 Q15.2226 -9.0625 15.2226 -11.2344 Q15.2226 -12.2031 15.0351 -13.0391 Q14.8476 -13.875 14.4179 -14.4922 Q13.9882 -15.1094 13.3007 -15.4531 Q12.6132 -15.7969 11.6601 -15.7969 Q10.7382 -15.7969 9.9726 -15.4844 Q9.207 -15.1719 8.8007 -14.8438 L8.8007 -6.9375 ZM22.929 -5 L20.6946 -5 L20.6946 -17.4844 L22.929 -17.4844 L22.929 -5 ZM21.804 -19.7344 Q21.1946 -19.7344 20.7727 -20.1328 Q20.3508 -20.5312 20.3508 -21.2031 Q20.3508 -21.875 20.7727 -22.2656 Q21.1946 -22.6562 21.804 -22.6562 Q22.3977 -22.6562 22.8196 -22.2656 Q23.2415 -21.875 23.2415 -21.2031 Q23.2415 -20.5312 22.8196 -20.1328 Q22.3977 -19.7344 21.804 -19.7344 ZM30.4976 -4.7656 Q28.4351 -4.8125 27.5757 -5.6484 Q26.7164 -6.4844 26.7164 -8.2656 L26.7164 -23.2344 L28.9507 -23.625 L28.9507 -8.625 Q28.9507 -8.0781 29.0445 -7.7188 Q29.1382 -7.3594 29.357 -7.1406 Q29.5757 -6.9219 29.9351 -6.8125 Q30.2945 -6.7031 30.8101 -6.625 L30.4976 -4.7656 ZM35.546 -5 L33.3116 -5 L33.3116 -17.4844 L35.546 -17.4844 L35.546 -5 ZM34.421 -19.7344 Q33.8116 -19.7344 33.3898 -20.1328 Q32.9679 -20.5312 32.9679 -21.2031 Q32.9679 -21.875 33.3898 -22.2656 Q33.8116 -22.6562 34.421 -22.6562 Q35.0148 -22.6562 35.4366 -22.2656 Q35.8585 -21.875 35.8585 -21.2031 Q35.8585 -20.5312 35.4366 -20.1328 Q35.0148 -19.7344 34.421 -19.7344 ZM41.4741 -17.4844 L46.1928 -17.4844 L46.1928 -15.6094 L41.4741 -15.6094 L41.4741 -9.8438 Q41.4741 -8.9062 41.6147 -8.2969 Q41.7553 -7.6875 42.0444 -7.3359 Q42.3334 -6.9844 42.7631 -6.8438 Q43.1928 -6.7031 43.7709 -6.7031 Q44.7709 -6.7031 45.3881 -6.9297 Q46.0053 -7.1562 46.2397 -7.25 L46.6772 -5.4062 Q46.3334 -5.2344 45.4975 -4.9844 Q44.6616 -4.7344 43.5834 -4.7344 Q42.3022 -4.7344 41.4741 -5.0625 Q40.6459 -5.3906 40.1459 -6.0391 Q39.6459 -6.6875 39.4428 -7.6328 Q39.2397 -8.5781 39.2397 -9.8281 L39.2397 -20.9531 L41.4741 -21.3438 L41.4741 -17.4844 ZM47.5543 -2.6719 Q47.8199 -2.5469 48.2418 -2.4453 Q48.6636 -2.3438 49.0699 -2.3438 Q50.3824 -2.3438 51.1324 -2.9297 Q51.8824 -3.5156 52.4761 -4.8281 Q50.9605 -7.7188 49.6558 -10.9453 Q48.3511 -14.1719 47.4918 -17.4844 L49.8824 -17.4844 Q50.148 -16.4062 50.523 -15.1562 Q50.898 -13.9062 51.3511 -12.5859 Q51.8043 -11.2656 52.3355 -9.9453 Q52.8668 -8.625 53.4449 -7.4062 Q54.3511 -9.9219 55.023 -12.3906 Q55.6949 -14.8594 56.2886 -17.4844 L58.6011 -17.4844 Q57.7261 -13.9531 56.6714 -10.7031 Q55.6168 -7.4531 54.398 -4.6094 Q53.9136 -3.5312 53.398 -2.75 Q52.8824 -1.9688 52.2574 -1.4688 Q51.6324 -0.9688 50.8511 -0.7266 Q50.0699 -0.4844 49.0855 -0.4844 Q48.8355 -0.4844 48.5464 -0.5234 Q48.2574 -0.5625 47.9761 -0.625 Q47.6949 -0.6875 47.4683 -0.7578 Q47.2418 -0.8281 47.148 -0.875 L47.5543 -2.6719 Z"
    /></g
  ></g
></svg
>
