<?xml version="1.0"?>
<!DOCTYPE svg PUBLIC '-//W3C//DTD SVG 1.0//EN'
          'http://www.w3.org/TR/2001/REC-SVG-20010904/DTD/svg10.dtd'>
<svg xmlns:xlink="http://www.w3.org/1999/xlink" style="fill-opacity:1; color-rendering:auto; color-interpolation:auto; text-rendering:auto; stroke:black; stroke-linecap:square; stroke-miterlimit:10; shape-rendering:auto; stroke-opacity:1; fill:black; stroke-dasharray:none; font-weight:normal; stroke-width:1; font-family:'Dialog'; font-style:normal; stroke-linejoin:miter; font-size:12px; stroke-dashoffset:0; image-rendering:auto;" width="3686" height="1932" xmlns="http://www.w3.org/2000/svg"
><!--Generated by the Batik Graphics2D SVG Generator--><defs id="genericDefs"
  /><g
  ><defs id="defs1"
    ><clipPath clipPathUnits="userSpaceOnUse" id="clipPath1"
      ><path d="M0 0 L3686 0 L3686 1932 L0 1932 L0 0 Z"
      /></clipPath
    ></defs
    ><g style="fill:white; stroke:white;"
    ><rect x="0" y="0" width="3686" style="clip-path:url(#clipPath1); stroke:none;" height="1932"
    /></g
    ><g style="fill:white; text-rendering:optimizeSpeed; color-rendering:optimizeSpeed; image-rendering:optimizeSpeed; shape-rendering:crispEdges; stroke:white; color-interpolation:sRGB;"
    ><rect x="0" width="3686" height="1932" y="0" style="stroke:none;"
      /><path style="stroke:none;" d="M479 1719 L3336 1719 L3336 145 L479 145 Z"
    /></g
    ><g transform="translate(1637,126)" style="font-size:24px; text-rendering:geometricPrecision; image-rendering:optimizeQuality; color-rendering:optimizeQuality; font-family:'Ubuntu'; color-interpolation:linearRGB; font-weight:bold;"
    ><path style="stroke:none;" d="M5.25 -8.0625 Q5.7812 -8.6406 6.3438 -9.2656 Q6.9062 -9.8906 7.4375 -10.5 Q7.9688 -11.1094 8.4375 -11.6641 Q8.9062 -12.2188 9.2344 -12.625 L13.4844 -12.625 Q12.2188 -11.1562 11.0078 -9.8281 Q9.7969 -8.5 8.3594 -7.0781 Q9.0781 -6.4375 9.8438 -5.5312 Q10.6094 -4.625 11.3281 -3.6719 Q12.0469 -2.7188 12.6484 -1.7578 Q13.25 -0.7969 13.6562 0 L9.5469 0 Q9.1719 -0.625 8.6797 -1.3828 Q8.1875 -2.1406 7.6328 -2.8906 Q7.0781 -3.6406 6.4688 -4.3438 Q5.8594 -5.0469 5.25 -5.5156 L5.25 0 L1.6875 0 L1.6875 -18.0469 L5.25 -18.625 L5.25 -8.0625 Z"
    /></g
    ><g transform="translate(1651,138)" style="font-size:19.2px; text-rendering:geometricPrecision; image-rendering:optimizeQuality; color-rendering:optimizeQuality; font-family:'Ubuntu'; color-interpolation:linearRGB; font-weight:bold;"
    ><path style="stroke:none;" d="M7.7344 -5.0781 Q7.7344 -7.8125 5.7188 -7.8125 Q5.2812 -7.8125 4.8516 -7.6953 Q4.4219 -7.5781 4.1562 -7.4062 L4.1562 -2.2656 Q4.375 -2.2188 4.6953 -2.1953 Q5.0156 -2.1719 5.3906 -2.1719 Q6.5625 -2.1719 7.1484 -2.9688 Q7.7344 -3.7656 7.7344 -5.0781 ZM10.625 -5 Q10.625 -3.7969 10.2734 -2.8281 Q9.9219 -1.8594 9.2578 -1.1797 Q8.5938 -0.5 7.625 -0.125 Q6.6562 0.25 5.4219 0.25 Q4.9062 0.25 4.3438 0.2031 Q3.7812 0.1562 3.2422 0.0781 Q2.7031 0 2.2031 -0.1016 Q1.7031 -0.2031 1.3281 -0.3281 L1.3281 -14.2812 L4.1562 -14.75 L4.1562 -9.7656 Q4.6406 -9.9688 5.1484 -10.0859 Q5.6562 -10.2031 6.25 -10.2031 Q7.3125 -10.2031 8.1328 -9.8359 Q8.9531 -9.4688 9.5 -8.7812 Q10.0469 -8.0938 10.3359 -7.1328 Q10.625 -6.1719 10.625 -5 ZM16.7504 -1.9688 Q17.1566 -1.9688 17.5394 -1.9922 Q17.9222 -2.0156 18.1566 -2.0469 L18.1566 -4.2031 Q17.9847 -4.2344 17.641 -4.2734 Q17.2972 -4.3125 17.016 -4.3125 Q16.6097 -4.3125 16.2582 -4.2656 Q15.9066 -4.2188 15.641 -4.0859 Q15.3754 -3.9531 15.2269 -3.7266 Q15.0785 -3.5 15.0785 -3.1562 Q15.0785 -2.4844 15.5238 -2.2266 Q15.9691 -1.9688 16.7504 -1.9688 ZM16.516 -10.2656 Q17.766 -10.2656 18.6019 -9.9766 Q19.4379 -9.6875 19.9457 -9.1562 Q20.4535 -8.625 20.6566 -7.8672 Q20.8597 -7.1094 20.8597 -6.1719 L20.8597 -0.2812 Q20.2504 -0.1562 19.1722 0.0234 Q18.0941 0.2031 16.5472 0.2031 Q15.5785 0.2031 14.7894 0.0312 Q14.0004 -0.1406 13.4301 -0.5234 Q12.8597 -0.9062 12.5629 -1.5391 Q12.266 -2.1719 12.266 -3.0781 Q12.266 -3.9531 12.6176 -4.5625 Q12.9691 -5.1719 13.5551 -5.5312 Q14.141 -5.8906 14.8988 -6.0547 Q15.6566 -6.2188 16.4847 -6.2188 Q17.0316 -6.2188 17.4535 -6.1719 Q17.8754 -6.125 18.1566 -6.0469 L18.1566 -6.3125 Q18.1566 -7.0312 17.7191 -7.4688 Q17.2816 -7.9062 16.1879 -7.9062 Q15.4691 -7.9062 14.766 -7.7969 Q14.0629 -7.6875 13.5472 -7.5 L13.1879 -9.7812 Q13.4379 -9.8594 13.8051 -9.9453 Q14.1722 -10.0312 14.6097 -10.1016 Q15.0472 -10.1719 15.5316 -10.2188 Q16.016 -10.2656 16.516 -10.2656 ZM29.5686 -7.4844 Q29.178 -7.5781 28.6702 -7.6875 Q28.1624 -7.7969 27.5686 -7.7969 Q27.303 -7.7969 26.928 -7.7422 Q26.553 -7.6875 26.3655 -7.6406 L26.3655 0 L23.5374 0 L23.5374 -9.4688 Q24.303 -9.7344 25.3343 -9.9688 Q26.3655 -10.2031 27.6468 -10.2031 Q27.8655 -10.2031 28.1936 -10.1719 Q28.5218 -10.1406 28.8421 -10.0938 Q29.1624 -10.0469 29.4827 -9.9844 Q29.803 -9.9219 30.0374 -9.8281 L29.5686 -7.4844 Z"
    /></g
    ><g transform="translate(1682,126)" style="font-size:24px; text-rendering:geometricPrecision; image-rendering:optimizeQuality; color-rendering:optimizeQuality; font-family:'Ubuntu'; color-interpolation:linearRGB; font-weight:bold;"
    ><path style="stroke:none;" d="M6.9287 -6.0312 L18.21 -6.0312 L18.21 -3.0312 L6.9287 -3.0312 L6.9287 -6.0312 ZM6.9287 -11.2812 L18.21 -11.2812 L18.21 -8.2812 L6.9287 -8.2812 L6.9287 -11.2812 ZM26.8257 -13.1719 Q27.5132 -13.4688 28.271 -13.8359 Q29.0288 -14.2031 29.7476 -14.6484 Q30.4663 -15.0938 31.1226 -15.5859 Q31.7788 -16.0781 32.3101 -16.625 L34.8101 -16.625 L34.8101 0 L31.2319 0 L31.2319 -11.9688 Q30.5132 -11.5 29.6226 -11.1016 Q28.7319 -10.7031 27.9038 -10.4219 L26.8257 -13.1719 ZM51.5752 -8.3594 Q51.5752 -4.1562 49.9814 -1.9062 Q48.3877 0.3438 45.5752 0.3438 Q42.7783 0.3438 41.1768 -1.9062 Q39.5752 -4.1562 39.5752 -8.3594 Q39.5752 -10.4375 39.9971 -12.0469 Q40.4189 -13.6562 41.208 -14.7578 Q41.9971 -15.8594 43.1064 -16.4375 Q44.2158 -17.0156 45.5752 -17.0156 Q48.3877 -17.0156 49.9814 -14.7734 Q51.5752 -12.5312 51.5752 -8.3594 ZM47.9346 -8.3594 Q47.9346 -9.5938 47.8096 -10.6172 Q47.6846 -11.6406 47.4268 -12.3828 Q47.1689 -13.125 46.708 -13.5312 Q46.2471 -13.9375 45.5752 -13.9375 Q44.9033 -13.9375 44.458 -13.5312 Q44.0127 -13.125 43.7393 -12.3828 Q43.4658 -11.6406 43.3486 -10.6172 Q43.2314 -9.5938 43.2314 -8.3594 Q43.2314 -7.1094 43.3486 -6.0781 Q43.4658 -5.0469 43.7393 -4.2969 Q44.0127 -3.5469 44.458 -3.1406 Q44.9033 -2.7344 45.5752 -2.7344 Q46.2471 -2.7344 46.708 -3.1406 Q47.1689 -3.5469 47.4268 -4.2969 Q47.6846 -5.0469 47.8096 -6.0781 Q47.9346 -7.1094 47.9346 -8.3594 ZM64.5972 -2.8594 Q65.394 -2.8594 65.9097 -2.9922 Q66.4253 -3.125 66.7378 -3.3516 Q67.0503 -3.5781 67.1675 -3.8906 Q67.2847 -4.2031 67.2847 -4.5781 Q67.2847 -5.4062 66.519 -5.9453 Q65.7534 -6.4844 63.8784 -7.1094 Q63.0659 -7.3906 62.2456 -7.7656 Q61.4253 -8.1406 60.7769 -8.7031 Q60.1284 -9.2656 59.7222 -10.0703 Q59.3159 -10.875 59.3159 -12.0312 Q59.3159 -13.1719 59.7534 -14.1016 Q60.1909 -15.0312 60.98 -15.6719 Q61.769 -16.3125 62.894 -16.6641 Q64.019 -17.0156 65.4409 -17.0156 Q67.1128 -17.0156 68.3394 -16.6562 Q69.5659 -16.2969 70.3628 -15.8594 L69.2847 -12.9062 Q68.5815 -13.2656 67.73 -13.5469 Q66.8784 -13.8281 65.6753 -13.8281 Q64.3315 -13.8281 63.7456 -13.4531 Q63.1597 -13.0781 63.1597 -12.3125 Q63.1597 -11.8594 63.3784 -11.5469 Q63.5972 -11.2344 63.9878 -10.9844 Q64.3784 -10.7344 64.894 -10.5234 Q65.4097 -10.3125 66.0347 -10.1094 Q67.3315 -9.625 68.2925 -9.1562 Q69.2534 -8.6875 69.894 -8.0625 Q70.5347 -7.4375 70.8472 -6.6016 Q71.1597 -5.7656 71.1597 -4.5625 Q71.1597 -2.2344 69.5269 -0.9453 Q67.894 0.3438 64.5972 0.3438 Q63.5034 0.3438 62.6128 0.2109 Q61.7222 0.0781 61.0347 -0.1172 Q60.3472 -0.3125 59.855 -0.5312 Q59.3628 -0.75 59.0347 -0.9375 L60.0815 -3.9062 Q60.8315 -3.5 61.9253 -3.1797 Q63.019 -2.8594 64.5972 -2.8594 ZM74.0262 0 L74.0262 -16.625 L85.2606 -16.625 L85.2606 -13.4844 L77.7606 -13.4844 L77.7606 -10.2188 L84.4169 -10.2188 L84.4169 -7.1562 L77.7606 -7.1562 L77.7606 -3.1406 L85.8075 -3.1406 L85.8075 0 L74.0262 0 ZM97.1316 -6.4062 Q97.1316 -4.75 97.8738 -3.7422 Q98.616 -2.7344 100.0847 -2.7344 Q100.5535 -2.7344 100.9597 -2.7734 Q101.366 -2.8125 101.6316 -2.8594 L101.6316 -9.3594 Q101.3035 -9.5781 100.7644 -9.7188 Q100.2253 -9.8594 99.6628 -9.8594 Q97.1316 -9.8594 97.1316 -6.4062 ZM105.2097 -0.4062 Q104.741 -0.2656 104.116 -0.1328 Q103.491 0 102.8035 0.0938 Q102.116 0.1875 101.405 0.25 Q100.6941 0.3125 100.0535 0.3125 Q98.491 0.3125 97.2644 -0.1406 Q96.0378 -0.5938 95.2019 -1.4453 Q94.366 -2.2969 93.9207 -3.5156 Q93.4753 -4.7344 93.4753 -6.2344 Q93.4753 -7.7812 93.8582 -9.0156 Q94.241 -10.25 94.9597 -11.1094 Q95.6785 -11.9688 96.7253 -12.4297 Q97.7722 -12.8906 99.116 -12.8906 Q99.866 -12.8906 100.4519 -12.7422 Q101.0378 -12.5938 101.6316 -12.3438 L101.6316 -18.0469 L105.2097 -18.625 L105.2097 -0.4062 ZM112.1353 0 L108.5728 0 L108.5728 -12.625 L112.1353 -12.625 L112.1353 0 ZM112.479 -16.2656 Q112.479 -15.2812 111.8384 -14.7188 Q111.1978 -14.1562 110.3384 -14.1562 Q109.479 -14.1562 108.8384 -14.7188 Q108.1978 -15.2812 108.1978 -16.2656 Q108.1978 -17.25 108.8384 -17.8203 Q109.479 -18.3906 110.3384 -18.3906 Q111.1978 -18.3906 111.8384 -17.8203 Q112.479 -17.25 112.479 -16.2656 ZM119.1143 -2.5625 Q120.0987 -2.5625 120.5128 -2.7578 Q120.9268 -2.9531 120.9268 -3.5 Q120.9268 -3.9375 120.3956 -4.2578 Q119.8643 -4.5781 118.7862 -4.9844 Q117.9424 -5.2969 117.2628 -5.6328 Q116.5831 -5.9688 116.0987 -6.4375 Q115.6143 -6.9062 115.3487 -7.5547 Q115.0831 -8.2031 115.0831 -9.125 Q115.0831 -10.8906 116.4034 -11.9219 Q117.7237 -12.9531 120.0362 -12.9531 Q121.1924 -12.9531 122.2471 -12.75 Q123.3018 -12.5469 123.9268 -12.3125 L123.3018 -9.5312 Q122.6768 -9.75 121.9424 -9.9141 Q121.2081 -10.0781 120.3018 -10.0781 Q118.6143 -10.0781 118.6143 -9.1406 Q118.6143 -8.9219 118.6846 -8.7578 Q118.7549 -8.5938 118.9737 -8.4375 Q119.1924 -8.2812 119.5674 -8.1016 Q119.9424 -7.9219 120.5206 -7.7031 Q121.6924 -7.2656 122.4581 -6.8516 Q123.2237 -6.4375 123.669 -5.9453 Q124.1143 -5.4531 124.294 -4.8516 Q124.4737 -4.25 124.4737 -3.4531 Q124.4737 -1.5781 123.0674 -0.6172 Q121.6612 0.3438 119.0987 0.3438 Q117.4112 0.3438 116.3018 0.0547 Q115.1924 -0.2344 114.7549 -0.4375 L115.3487 -3.3438 Q116.2706 -2.9688 117.2315 -2.7656 Q118.1924 -2.5625 119.1143 -2.5625 ZM127.0135 -15.7656 L130.5917 -16.3438 L130.5917 -12.625 L134.8885 -12.625 L134.8885 -9.6406 L130.5917 -9.6406 L130.5917 -5.2031 Q130.5917 -4.0781 130.9823 -3.4062 Q131.3729 -2.7344 132.576 -2.7344 Q133.1542 -2.7344 133.7635 -2.8438 Q134.3729 -2.9531 134.8885 -3.1406 L135.3885 -0.3594 Q134.7323 -0.0938 133.9432 0.0938 Q133.1542 0.2812 131.9979 0.2812 Q130.5448 0.2812 129.5839 -0.1094 Q128.6229 -0.5 128.0448 -1.2109 Q127.4667 -1.9219 127.2401 -2.9297 Q127.0135 -3.9375 127.0135 -5.1562 L127.0135 -15.7656 ZM145.3824 -9.4531 Q144.9137 -9.5781 144.2653 -9.7109 Q143.6168 -9.8438 142.8668 -9.8438 Q142.5387 -9.8438 142.0699 -9.7812 Q141.6012 -9.7188 141.3512 -9.6406 L141.3512 0 L137.7887 0 L137.7887 -11.9531 Q138.7418 -12.2812 140.0465 -12.5859 Q141.3512 -12.8906 142.9606 -12.8906 Q143.2574 -12.8906 143.6637 -12.8516 Q144.0699 -12.8125 144.4762 -12.7578 Q144.8824 -12.7031 145.2887 -12.6172 Q145.6949 -12.5312 145.9918 -12.4062 L145.3824 -9.4531 ZM151.4736 0 L147.9111 0 L147.9111 -12.625 L151.4736 -12.625 L151.4736 0 ZM151.8174 -16.2656 Q151.8174 -15.2812 151.1768 -14.7188 Q150.5361 -14.1562 149.6768 -14.1562 Q148.8174 -14.1562 148.1768 -14.7188 Q147.5361 -15.2812 147.5361 -16.2656 Q147.5361 -17.25 148.1768 -17.8203 Q148.8174 -18.3906 149.6768 -18.3906 Q150.5361 -18.3906 151.1768 -17.8203 Q151.8174 -17.25 151.8174 -16.2656 ZM162.9214 -6.4062 Q162.9214 -9.8594 160.3746 -9.8594 Q159.8277 -9.8594 159.2886 -9.7188 Q158.7496 -9.5781 158.4058 -9.3594 L158.4058 -2.8594 Q158.6714 -2.8125 159.0855 -2.7734 Q159.4996 -2.7344 159.9683 -2.7344 Q161.4371 -2.7344 162.1793 -3.7422 Q162.9214 -4.75 162.9214 -6.4062 ZM166.5777 -6.3125 Q166.5777 -4.7969 166.1324 -3.5781 Q165.6871 -2.3594 164.8433 -1.4922 Q163.9996 -0.625 162.7808 -0.1562 Q161.5621 0.3125 159.9996 0.3125 Q159.3433 0.3125 158.6402 0.25 Q157.9371 0.1875 157.2496 0.0938 Q156.5621 0 155.9371 -0.1328 Q155.3121 -0.2656 154.8433 -0.4062 L154.8433 -18.0469 L158.4058 -18.625 L158.4058 -12.3438 Q159.0152 -12.5938 159.6636 -12.7422 Q160.3121 -12.8906 161.0464 -12.8906 Q162.3902 -12.8906 163.4214 -12.4219 Q164.4527 -11.9531 165.1558 -11.0859 Q165.8589 -10.2188 166.2183 -9.0078 Q166.5777 -7.7969 166.5777 -6.3125 ZM180.097 -0.4375 Q179.1907 -0.1719 177.7454 0.0547 Q176.3001 0.2812 174.722 0.2812 Q173.1126 0.2812 172.0501 -0.1484 Q170.9876 -0.5781 170.3626 -1.3594 Q169.7376 -2.1406 169.472 -3.2188 Q169.2064 -4.2969 169.2064 -5.5938 L169.2064 -12.625 L172.7845 -12.625 L172.7845 -6.0312 Q172.7845 -4.2969 173.2376 -3.5312 Q173.6907 -2.7656 174.9407 -2.7656 Q175.3314 -2.7656 175.761 -2.7969 Q176.1907 -2.8281 176.5189 -2.875 L176.5189 -12.625 L180.097 -12.625 L180.097 -0.4375 ZM183.3346 -15.7656 L186.9127 -16.3438 L186.9127 -12.625 L191.2096 -12.625 L191.2096 -9.6406 L186.9127 -9.6406 L186.9127 -5.2031 Q186.9127 -4.0781 187.3033 -3.4062 Q187.694 -2.7344 188.8971 -2.7344 Q189.4752 -2.7344 190.0846 -2.8438 Q190.694 -2.9531 191.2096 -3.1406 L191.7096 -0.3594 Q191.0533 -0.0938 190.2643 0.0938 Q189.4752 0.2812 188.319 0.2812 Q186.8658 0.2812 185.9049 -0.1094 Q184.944 -0.5 184.3658 -1.2109 Q183.7877 -1.9219 183.5612 -2.9297 Q183.3346 -3.9375 183.3346 -5.1562 L183.3346 -15.7656 ZM197.6722 0 L194.1097 0 L194.1097 -12.625 L197.6722 -12.625 L197.6722 0 ZM198.016 -16.2656 Q198.016 -15.2812 197.3754 -14.7188 Q196.7347 -14.1562 195.8754 -14.1562 Q195.016 -14.1562 194.3754 -14.7188 Q193.7347 -15.2812 193.7347 -16.2656 Q193.7347 -17.25 194.3754 -17.8203 Q195.016 -18.3906 195.8754 -18.3906 Q196.7347 -18.3906 197.3754 -17.8203 Q198.016 -17.25 198.016 -16.2656 ZM212.8388 -6.3438 Q212.8388 -4.8438 212.4091 -3.6094 Q211.9794 -2.375 211.1591 -1.5 Q210.3388 -0.625 209.206 -0.1406 Q208.0732 0.3438 206.6513 0.3438 Q205.2607 0.3438 204.1201 -0.1406 Q202.9794 -0.625 202.1591 -1.5 Q201.3388 -2.375 200.8857 -3.6094 Q200.4326 -4.8438 200.4326 -6.3438 Q200.4326 -7.8281 200.9013 -9.0469 Q201.3701 -10.2656 202.1982 -11.1328 Q203.0263 -12 204.1669 -12.4766 Q205.3076 -12.9531 206.6513 -12.9531 Q208.0107 -12.9531 209.1513 -12.4766 Q210.2919 -12 211.1122 -11.1328 Q211.9326 -10.2656 212.3857 -9.0469 Q212.8388 -7.8281 212.8388 -6.3438 ZM209.1982 -6.3438 Q209.1982 -7.9844 208.5341 -8.9375 Q207.8701 -9.8906 206.6513 -9.8906 Q205.4326 -9.8906 204.7607 -8.9375 Q204.0888 -7.9844 204.0888 -6.3438 Q204.0888 -4.6875 204.7607 -3.7109 Q205.4326 -2.7344 206.6513 -2.7344 Q207.8701 -2.7344 208.5341 -3.7109 Q209.1982 -4.6875 209.1982 -6.3438 ZM215.6019 -12.1875 Q216.5082 -12.4531 217.9457 -12.6797 Q219.3832 -12.9062 220.9769 -12.9062 Q222.5707 -12.9062 223.641 -12.4922 Q224.7113 -12.0781 225.3363 -11.3047 Q225.9613 -10.5312 226.2269 -9.4766 Q226.4926 -8.4219 226.4926 -7.125 L226.4926 0 L222.9144 0 L222.9144 -6.7031 Q222.9144 -8.4219 222.4613 -9.1406 Q222.0082 -9.8594 220.7582 -9.8594 Q220.3676 -9.8594 219.9379 -9.8281 Q219.5082 -9.7969 219.1644 -9.75 L219.1644 0 L215.6019 0 L215.6019 -12.1875 ZM240.9557 -18.625 Q241.9557 -18.625 242.7995 -18.4219 Q243.6432 -18.2188 244.0964 -18.0312 L243.3932 -15.1719 Q242.9245 -15.3906 242.3542 -15.4922 Q241.7839 -15.5938 241.3151 -15.5938 Q240.6589 -15.5938 240.2136 -15.4141 Q239.7682 -15.2344 239.5182 -14.9219 Q239.2682 -14.6094 239.1589 -14.1797 Q239.0495 -13.75 239.0495 -13.25 L239.0495 -12.625 L243.4714 -12.625 L243.4714 -9.6406 L239.0495 -9.6406 L239.0495 0 L235.487 0 L235.487 -13.2969 Q235.487 -15.75 236.862 -17.1875 Q238.237 -18.625 240.9557 -18.625 ZM257.4063 -6.3438 Q257.4063 -4.8438 256.9766 -3.6094 Q256.5469 -2.375 255.7266 -1.5 Q254.9063 -0.625 253.7735 -0.1406 Q252.6407 0.3438 251.2188 0.3438 Q249.8282 0.3438 248.6876 -0.1406 Q247.5469 -0.625 246.7266 -1.5 Q245.9063 -2.375 245.4532 -3.6094 Q245.0001 -4.8438 245.0001 -6.3438 Q245.0001 -7.8281 245.4688 -9.0469 Q245.9376 -10.2656 246.7657 -11.1328 Q247.5938 -12 248.7344 -12.4766 Q249.8751 -12.9531 251.2188 -12.9531 Q252.5782 -12.9531 253.7188 -12.4766 Q254.8594 -12 255.6797 -11.1328 Q256.5001 -10.2656 256.9532 -9.0469 Q257.4063 -7.8281 257.4063 -6.3438 ZM253.7657 -6.3438 Q253.7657 -7.9844 253.1016 -8.9375 Q252.4376 -9.8906 251.2188 -9.8906 Q250.0001 -9.8906 249.3282 -8.9375 Q248.6563 -7.9844 248.6563 -6.3438 Q248.6563 -4.6875 249.3282 -3.7109 Q250.0001 -2.7344 251.2188 -2.7344 Q252.4376 -2.7344 253.1016 -3.7109 Q253.7657 -4.6875 253.7657 -6.3438 ZM267.7632 -9.4531 Q267.2944 -9.5781 266.646 -9.7109 Q265.9976 -9.8438 265.2476 -9.8438 Q264.9194 -9.8438 264.4507 -9.7812 Q263.9819 -9.7188 263.7319 -9.6406 L263.7319 0 L260.1694 0 L260.1694 -11.9531 Q261.1226 -12.2812 262.4272 -12.5859 Q263.7319 -12.8906 265.3413 -12.8906 Q265.6382 -12.8906 266.0444 -12.8516 Q266.4507 -12.8125 266.8569 -12.7578 Q267.2632 -12.7031 267.6694 -12.6172 Q268.0757 -12.5312 268.3726 -12.4062 L267.7632 -9.4531 Z"
    /></g
    ><g transform="translate(1957,126)" style="font-size:24px; text-rendering:geometricPrecision; image-rendering:optimizeQuality; color-rendering:optimizeQuality; font-family:'mwb_cmmi10'; color-interpolation:linearRGB; font-weight:bold;"
    ><path style="stroke:none;" d="M0.6719 4.5156 Q0.6719 4.375 0.6875 4.3281 L4.2188 -9.8438 Q4.3281 -10.1875 4.6016 -10.3984 Q4.875 -10.6094 5.2344 -10.6094 Q6.5312 -10.6094 6.7422 -10.4297 Q6.9531 -10.25 6.9531 -9.9375 Q6.9531 -9.875 6.9453 -9.8281 Q6.9375 -9.7812 6.9375 -9.7344 L5.5156 -4.125 Q5.2812 -3.125 5.2812 -2.4062 Q5.2812 -1.5156 5.7031 -0.9375 Q6.125 -0.3594 6.125 -0.3594 Q7.7188 -0.3594 9.0469 -2.5469 Q9.0625 -2.5625 9.0703 -2.5781 Q9.0781 -2.5938 9.0781 -2.6094 L10.8125 -9.5781 Q10.8906 -9.8906 11.1797 -10.1172 Q11.4688 -10.3438 11.8125 -10.3438 Q13.0938 -10.3438 13.3125 -10.1562 Q13.5312 -9.9688 13.5312 -9.6719 Q13.5312 -9.5312 13.5 -9.4844 L11.7812 -2.5625 Q11.6094 -1.8906 11.6094 -1.3906 Q11.6094 -0.3594 11.6094 -0.3594 Q12.0625 -0.3594 12.4453 -1.2891 Q12.8281 -2.2188 13.1094 -3.5312 Q13.1562 -3.6719 13.2969 -3.6719 L13.5781 -3.6719 Q14.6719 -3.6719 14.7422 -3.5938 Q14.8125 -3.5156 14.8125 -3.4375 Q14.3906 -1.7656 13.8906 -0.75 Q13.3906 0.2656 11.2656 0.2656 Q10.4688 0.2656 9.8516 -0.1875 Q9.2344 -0.6406 9.2344 -0.6406 Q9.2344 -0.6406 8.5391 -0.1875 Q7.8438 0.2656 5.9531 0.2656 Q4.4531 0.2656 4.3125 0.1406 L3.375 4.4219 Q3.3125 4.7656 3.0312 4.9766 Q2.75 5.1875 1.3906 5.1875 Q1.1094 5.1875 0.8906 5 Q0.6719 4.8125 0.6719 4.5156 Z"
    /></g
    ><g transform="translate(1973,126)" style="font-size:24px; text-rendering:geometricPrecision; image-rendering:optimizeQuality; color-rendering:optimizeQuality; font-family:'Ubuntu'; color-interpolation:linearRGB; font-weight:bold;"
    ><path style="stroke:none;" d="M6.9287 -6.0312 L18.21 -6.0312 L18.21 -3.0312 L6.9287 -3.0312 L6.9287 -6.0312 ZM6.9287 -11.2812 L18.21 -11.2812 L18.21 -8.2812 L6.9287 -8.2812 L6.9287 -11.2812 ZM26.8257 -13.1719 Q27.5132 -13.4688 28.271 -13.8359 Q29.0288 -14.2031 29.7476 -14.6484 Q30.4663 -15.0938 31.1226 -15.5859 Q31.7788 -16.0781 32.3101 -16.625 L34.8101 -16.625 L34.8101 0 L31.2319 0 L31.2319 -11.9688 Q30.5132 -11.5 29.6226 -11.1016 Q28.7319 -10.7031 27.9038 -10.4219 L26.8257 -13.1719 ZM43.8252 -3.6406 Q43.8721 -3.0781 43.8877 -2.8359 Q43.9033 -2.5938 43.9033 -2.4219 Q43.9033 -1.7031 43.7705 -0.8984 Q43.6377 -0.0938 43.3955 0.7188 Q43.1533 1.5312 42.7939 2.3516 Q42.4346 3.1719 41.9814 3.9062 L39.1689 3.2188 Q39.7158 1.625 39.9346 0.2344 Q40.1533 -1.1562 40.1533 -2.0625 Q40.1533 -2.2031 40.1455 -2.4297 Q40.1377 -2.6562 40.1221 -2.8984 Q40.1064 -3.1406 40.0908 -3.3594 Q40.0752 -3.5781 40.0752 -3.6406 L43.8252 -3.6406 Z"
    /></g
    ><g transform="translate(2024,126)" style="font-size:24px; text-rendering:geometricPrecision; image-rendering:optimizeQuality; color-rendering:optimizeQuality; font-family:'mwb_cmmi10'; color-interpolation:linearRGB; font-weight:bold;"
    ><path style="stroke:none;" d="M4.8281 0.2656 Q3.6875 0.2656 2.8047 -0.2734 Q1.9219 -0.8125 1.4453 -1.7266 Q0.9688 -2.6406 0.9688 -3.7969 Q0.9688 -5.4219 1.875 -7.0156 Q2.7812 -8.6094 4.2891 -9.6094 Q5.7969 -10.6094 7.4375 -10.6094 Q9.6562 -10.6094 10.5859 -9.9688 Q11.5156 -9.3281 11.9922 -8.2656 Q12.4688 -7.2031 12.4688 -6 L12.4688 -5.125 Q12.4688 -5.5312 12.9609 -6.7578 Q13.4531 -7.9844 13.7656 -9.2969 Q13.8125 -9.4375 13.9531 -9.4375 L14.2344 -9.4375 Q15.4531 -9.4375 15.4531 -9.2188 Q15.4531 -9.1875 15.4219 -9.1406 Q15.1406 -8.0469 14.7188 -7.0312 Q14.2969 -6.0156 13.7344 -5.0625 Q13.1719 -4.1094 12.5 -3.3438 Q12.5 -0.3594 12.5 -0.3594 Q12.6406 -0.3594 12.9219 -0.625 Q13.2031 -0.8906 13.4219 -1.2812 Q13.6406 -1.6719 13.7031 -1.6719 L14 -1.6719 Q15.1875 -1.6719 15.1875 -1.4375 Q15.1875 -0.8438 14.5 -0.2891 Q13.8125 0.2656 12.1406 0.2656 Q11.2812 0.2656 10.7031 -0.2969 Q10.125 -0.8594 10.0781 -1.0312 Q9.7969 -0.7969 8.4844 -0.2656 Q7.1719 0.2656 4.8281 0.2656 ZM4.875 -0.3594 Q7.4375 -0.3594 9.7969 -2.4688 Q9.7812 -2.6094 9.7578 -2.8203 Q9.7344 -3.0312 9.7344 -3.0469 L9.7344 -5.6406 Q9.7344 -9.9844 7.3906 -9.9844 Q6.9844 -9.9844 5.9297 -8.7812 Q4.875 -7.5781 4.3438 -5.9141 Q3.8125 -4.25 3.8125 -2.8594 Q3.8125 -1.8125 4.3438 -1.0859 Q4.875 -0.3594 4.875 -0.3594 Z"
    /></g
    ><g transform="translate(2041,126)" style="font-size:24px; text-rendering:geometricPrecision; image-rendering:optimizeQuality; color-rendering:optimizeQuality; font-family:'Ubuntu'; color-interpolation:linearRGB; font-weight:bold;"
    ><path style="stroke:none;" d="M6.9287 -6.0312 L18.21 -6.0312 L18.21 -3.0312 L6.9287 -3.0312 L6.9287 -6.0312 ZM6.9287 -11.2812 L18.21 -11.2812 L18.21 -8.2812 L6.9287 -8.2812 L6.9287 -11.2812 ZM37.9507 -8.3594 Q37.9507 -4.1562 36.3569 -1.9062 Q34.7632 0.3438 31.9507 0.3438 Q29.1538 0.3438 27.5522 -1.9062 Q25.9507 -4.1562 25.9507 -8.3594 Q25.9507 -10.4375 26.3726 -12.0469 Q26.7944 -13.6562 27.5835 -14.7578 Q28.3726 -15.8594 29.4819 -16.4375 Q30.5913 -17.0156 31.9507 -17.0156 Q34.7632 -17.0156 36.3569 -14.7734 Q37.9507 -12.5312 37.9507 -8.3594 ZM34.3101 -8.3594 Q34.3101 -9.5938 34.1851 -10.6172 Q34.0601 -11.6406 33.8022 -12.3828 Q33.5444 -13.125 33.0835 -13.5312 Q32.6226 -13.9375 31.9507 -13.9375 Q31.2788 -13.9375 30.8335 -13.5312 Q30.3882 -13.125 30.1147 -12.3828 Q29.8413 -11.6406 29.7241 -10.6172 Q29.6069 -9.5938 29.6069 -8.3594 Q29.6069 -7.1094 29.7241 -6.0781 Q29.8413 -5.0469 30.1147 -4.2969 Q30.3882 -3.5469 30.8335 -3.1406 Q31.2788 -2.7344 31.9507 -2.7344 Q32.6226 -2.7344 33.0835 -3.1406 Q33.5444 -3.5469 33.8022 -4.2969 Q34.0601 -5.0469 34.1851 -6.0781 Q34.3101 -7.1094 34.3101 -8.3594 ZM43.9502 -1.8906 Q43.9502 -0.8125 43.2627 -0.25 Q42.5752 0.3125 41.7158 0.3125 Q40.8564 0.3125 40.1689 -0.25 Q39.4814 -0.8125 39.4814 -1.8906 Q39.4814 -2.9688 40.1689 -3.5391 Q40.8564 -4.1094 41.7158 -4.1094 Q42.5752 -4.1094 43.2627 -3.5391 Q43.9502 -2.9688 43.9502 -1.8906 ZM46.351 -13.1719 Q47.0385 -13.4688 47.7963 -13.8359 Q48.5541 -14.2031 49.2728 -14.6484 Q49.9916 -15.0938 50.6478 -15.5859 Q51.3041 -16.0781 51.8353 -16.625 L54.3353 -16.625 L54.3353 0 L50.7572 0 L50.7572 -11.9688 Q50.0385 -11.5 49.1478 -11.1016 Q48.2572 -10.7031 47.4291 -10.4219 L46.351 -13.1719 ZM66.9286 -4.8906 Q66.9286 -5.5938 66.6161 -6.1328 Q66.3036 -6.6719 65.538 -7.0312 Q64.7723 -7.3906 63.4755 -7.5859 Q62.1786 -7.7812 60.2098 -7.7812 Q60.4755 -10.0156 60.6395 -12.3125 Q60.8036 -14.6094 60.8973 -16.625 L69.8973 -16.625 L69.8973 -13.625 L63.8973 -13.625 Q63.8505 -12.7656 63.7958 -11.9609 Q63.7411 -11.1562 63.663 -10.5625 Q67.163 -10.3125 68.8348 -8.9141 Q70.5067 -7.5156 70.5067 -5.0156 Q70.5067 -3.8594 70.1005 -2.875 Q69.6942 -1.8906 68.8739 -1.1719 Q68.0536 -0.4531 66.8192 -0.0469 Q65.5848 0.3594 63.9286 0.3594 Q63.2723 0.3594 62.5692 0.2734 Q61.8661 0.1875 61.202 0.0547 Q60.538 -0.0781 60.0145 -0.2188 Q59.4911 -0.3594 59.1942 -0.5 L59.8505 -3.4531 Q60.4442 -3.1875 61.4286 -2.9375 Q62.413 -2.6875 63.788 -2.6875 Q65.4442 -2.6875 66.1864 -3.3516 Q66.9286 -4.0156 66.9286 -4.8906 ZM76.975 -3.6406 Q77.0219 -3.0781 77.0375 -2.8359 Q77.0531 -2.5938 77.0531 -2.4219 Q77.0531 -1.7031 76.9203 -0.8984 Q76.7875 -0.0938 76.5453 0.7188 Q76.3031 1.5312 75.9437 2.3516 Q75.5844 3.1719 75.1312 3.9062 L72.3187 3.2188 Q72.8656 1.625 73.0844 0.2344 Q73.3031 -1.1562 73.3031 -2.0625 Q73.3031 -2.2031 73.2953 -2.4297 Q73.2875 -2.6562 73.2719 -2.8984 Q73.2562 -3.1406 73.2406 -3.3594 Q73.225 -3.5781 73.225 -3.6406 L76.975 -3.6406 ZM96.0232 -0.4375 Q95.1169 -0.1719 93.6716 0.0547 Q92.2263 0.2812 90.6482 0.2812 Q89.0388 0.2812 87.9763 -0.1484 Q86.9138 -0.5781 86.2888 -1.3594 Q85.6638 -2.1406 85.3982 -3.2188 Q85.1326 -4.2969 85.1326 -5.5938 L85.1326 -12.625 L88.7107 -12.625 L88.7107 -6.0312 Q88.7107 -4.2969 89.1638 -3.5312 Q89.6169 -2.7656 90.8669 -2.7656 Q91.2576 -2.7656 91.6873 -2.7969 Q92.1169 -2.8281 92.4451 -2.875 L92.4451 -12.625 L96.0232 -12.625 L96.0232 -0.4375 ZM104.627 -6.0312 L115.9083 -6.0312 L115.9083 -3.0312 L104.627 -3.0312 L104.627 -6.0312 ZM104.627 -11.2812 L115.9083 -11.2812 L115.9083 -8.2812 L104.627 -8.2812 L104.627 -11.2812 ZM124.524 -13.1719 Q125.2115 -13.4688 125.9693 -13.8359 Q126.7271 -14.2031 127.4459 -14.6484 Q128.1646 -15.0938 128.8209 -15.5859 Q129.4771 -16.0781 130.0084 -16.625 L132.5084 -16.625 L132.5084 0 L128.9302 0 L128.9302 -11.9688 Q128.2115 -11.5 127.3209 -11.1016 Q126.4302 -10.7031 125.6021 -10.4219 L124.524 -13.1719 Z"
    /></g
    ><g style="stroke-linecap:butt; fill:rgb(38,38,38); text-rendering:geometricPrecision; color-rendering:optimizeQuality; image-rendering:optimizeQuality; stroke-linejoin:round; stroke:rgb(38,38,38); color-interpolation:linearRGB;"
    ><line y2="1719" style="fill:none;" x1="479" x2="3336" y1="1719"
    /></g
    ><g style="fill:rgb(0,114,189); text-rendering:optimizeSpeed; color-rendering:optimizeSpeed; image-rendering:optimizeSpeed; shape-rendering:crispEdges; stroke:rgb(0,114,189); color-interpolation:sRGB;"
    ><path style="stroke:none;" d="M497.9205 1719 L497.9205 145 L479 145 L479 1719 ZM521.5712 1719 L521.5712 1225.6718 L502.6507 1225.6718 L502.6507 1719 ZM545.2219 1719 L545.2219 1377.6387 L526.3013 1377.6387 L526.3013 1719 ZM568.8725 1719 L568.8725 1331.5129 L549.952 1331.5129 L549.952 1719 ZM592.5232 1719 L592.5232 1479.8521 L573.6027 1479.8521 L573.6027 1719 ZM616.1738 1719 L616.1738 1591.5562 L597.2533 1591.5562 L597.2533 1719 ZM639.8245 1719 L639.8245 1584.3682 L620.904 1584.3682 L620.904 1719 ZM663.4752 1719 L663.4752 1584.5541 L644.5546 1584.5541 L644.5546 1719 ZM687.1258 1719 L687.1258 1602.2859 L668.2053 1602.2859 L668.2053 1719 ZM710.7765 1719 L710.7765 1612.6373 L691.856 1612.6373 L691.856 1719 ZM734.4271 1719 L734.4271 1612.533 L715.5067 1612.533 L715.5067 1719 ZM758.0778 1719 L758.0778 1618.068 L739.1573 1618.068 L739.1573 1719 ZM781.7285 1719 L781.7285 1632.6311 L762.808 1632.6311 L762.808 1719 ZM805.3792 1719 L805.3792 1649.426 L786.4586 1649.426 L786.4586 1719 ZM829.0298 1719 L829.0298 1662.4329 L810.1093 1662.4329 L810.1093 1719 ZM852.6805 1719 L852.6805 1665.6914 L833.7599 1665.6914 L833.7599 1719 ZM876.3311 1719 L876.3311 1668.2225 L857.4106 1668.2225 L857.4106 1719 ZM899.9818 1719 L899.9818 1669.8669 L881.0613 1669.8669 L881.0613 1719 ZM923.6324 1719 L923.6324 1672.3447 L904.7119 1672.3447 L904.7119 1719 ZM947.2831 1719 L947.2831 1677.8745 L928.3626 1677.8745 L928.3626 1719 ZM970.9338 1719 L970.9338 1681.5553 L952.0132 1681.5553 L952.0132 1719 ZM994.5844 1719 L994.5844 1682.5712 L975.6639 1682.5712 L975.6639 1719 ZM1018.2351 1719 L1018.2351 1685.1874 L999.3146 1685.1874 L999.3146 1719 ZM1041.8857 1719 L1041.8857 1686.0294 L1022.9653 1686.0294 L1022.9653 1719 ZM1065.5364 1719 L1065.5364 1687.9227 L1046.6158 1687.9227 L1046.6158 1719 ZM1089.1871 1719 L1089.1871 1688.3159 L1070.2666 1688.3159 L1070.2666 1719 ZM1112.8378 1719 L1112.8378 1689.464 L1093.9172 1689.464 L1093.9172 1719 ZM1136.4884 1719 L1136.4884 1689.7854 L1117.5679 1689.7854 L1117.5679 1719 ZM1160.139 1719 L1160.139 1690.6768 L1141.2185 1690.6768 L1141.2185 1719 ZM1183.7897 1719 L1183.7897 1690.9955 L1164.8693 1690.9955 L1164.8693 1719 ZM1207.4404 1719 L1207.4404 1691.5464 L1188.5199 1691.5464 L1188.5199 1719 ZM1231.0911 1719 L1231.0911 1691.8851 L1212.1705 1691.8851 L1212.1705 1719 ZM1254.7417 1719 L1254.7417 1692.0729 L1235.8212 1692.0729 L1235.8212 1719 ZM1278.3925 1719 L1278.3925 1692.9636 L1259.4718 1692.9636 L1259.4718 1719 ZM1302.0431 1719 L1302.0431 1693.3848 L1283.1224 1693.3848 L1283.1224 1719 ZM1325.6937 1719 L1325.6937 1693.3262 L1306.7732 1693.3262 L1306.7732 1719 ZM1349.3444 1719 L1349.3444 1694.5745 L1330.4238 1694.5745 L1330.4238 1719 ZM1372.9951 1719 L1372.9951 1694.7301 L1354.0745 1694.7301 L1354.0745 1719 ZM1396.6458 1719 L1396.6458 1694.8861 L1377.7251 1694.8861 L1377.7251 1719 ZM1420.2964 1719 L1420.2964 1695.6504 L1401.3757 1695.6504 L1401.3757 1719 ZM1443.947 1719 L1443.947 1695.9998 L1425.0265 1695.9998 L1425.0265 1719 ZM1467.5978 1719 L1467.5978 1696.0061 L1448.6771 1696.0061 L1448.6771 1719 ZM1491.2484 1719 L1491.2484 1696.9445 L1472.3278 1696.9445 L1472.3278 1719 ZM1514.899 1719 L1514.899 1697.2196 L1495.9784 1697.2196 L1495.9784 1719 ZM1538.5497 1719 L1538.5497 1698.3417 L1519.6292 1698.3417 L1519.6292 1719 ZM1562.2003 1719 L1562.2003 1699.5527 L1543.2798 1699.5527 L1543.2798 1719 ZM1585.8511 1719 L1585.8511 1702.0431 L1566.9304 1702.0431 L1566.9304 1719 ZM1609.5017 1719 L1609.5017 1702.9841 L1590.5811 1702.9841 L1590.5811 1719 ZM1633.1523 1719 L1633.1523 1704.1855 L1614.2318 1704.1855 L1614.2318 1719 ZM1656.803 1719 L1656.803 1704.8187 L1637.8824 1704.8187 L1637.8824 1719 ZM1680.4537 1719 L1680.4537 1705.5973 L1661.5331 1705.5973 L1661.5331 1719 ZM1704.1044 1719 L1704.1044 1706.4308 L1685.1837 1706.4308 L1685.1837 1719 ZM1727.755 1719 L1727.755 1707.4125 L1708.8344 1707.4125 L1708.8344 1719 ZM1751.4056 1719 L1751.4056 1708.1681 L1732.4851 1708.1681 L1732.4851 1719 ZM1775.0563 1719 L1775.0563 1708.8893 L1756.1357 1708.8893 L1756.1357 1719 ZM1798.707 1719 L1798.707 1709.6467 L1779.7864 1709.6467 L1779.7864 1719 ZM1822.3577 1719 L1822.3577 1709.9944 L1803.437 1709.9944 L1803.437 1719 ZM1846.0083 1719 L1846.0083 1710.5502 L1827.0878 1710.5502 L1827.0878 1719 ZM1869.6589 1719 L1869.6589 1710.8879 L1850.7384 1710.8879 L1850.7384 1719 ZM1893.3097 1719 L1893.3097 1711.8326 L1874.389 1711.8326 L1874.389 1719 ZM1916.9603 1719 L1916.9603 1713.0629 L1898.0397 1713.0629 L1898.0397 1719 ZM1940.611 1719 L1940.611 1713.6212 L1921.6903 1713.6212 L1921.6903 1719 ZM1964.2616 1719 L1964.2616 1714.3013 L1945.3411 1714.3013 L1945.3411 1719 ZM1987.9122 1719 L1987.9122 1714.7678 L1968.9917 1714.7678 L1968.9917 1719 ZM2011.563 1719 L2011.563 1715.0854 L1992.6423 1715.0854 L1992.6423 1719 ZM2035.2136 1719 L2035.2136 1715.3708 L2016.293 1715.3708 L2016.293 1719 ZM2058.8643 1719 L2058.8643 1715.6437 L2039.9437 1715.6437 L2039.9437 1719 ZM2082.5149 1719 L2082.5149 1715.8911 L2063.5942 1715.8911 L2063.5942 1719 ZM2106.1655 1719 L2106.1655 1716.1017 L2087.2451 1716.1017 L2087.2451 1719 ZM2129.8162 1719 L2129.8162 1716.296 L2110.8958 1716.296 L2110.8958 1719 ZM2153.467 1719 L2153.467 1716.4745 L2134.5464 1716.4745 L2134.5464 1719 ZM2177.1177 1719 L2177.1177 1716.6356 L2158.197 1716.6356 L2158.197 1719 ZM2200.7683 1719 L2200.7683 1716.7767 L2181.8477 1716.7767 L2181.8477 1719 ZM2224.4189 1719 L2224.4189 1716.9039 L2205.4983 1716.9039 L2205.4983 1719 ZM2248.0696 1719 L2248.0696 1717.0145 L2229.1489 1717.0145 L2229.1489 1719 ZM2271.7202 1719 L2271.7202 1717.1277 L2252.7996 1717.1277 L2252.7996 1719 ZM2295.3708 1719 L2295.3708 1717.2264 L2276.4502 1717.2264 L2276.4502 1719 ZM2319.0215 1719 L2319.0215 1717.3254 L2300.1011 1717.3254 L2300.1011 1719 ZM2342.6721 1719 L2342.6721 1717.4221 L2323.7517 1717.4221 L2323.7517 1719 ZM2366.323 1719 L2366.323 1717.5094 L2347.4023 1717.5094 L2347.4023 1719 ZM2389.9736 1719 L2389.9736 1717.5911 L2371.053 1717.5911 L2371.053 1719 ZM2413.6243 1719 L2413.6243 1717.6715 L2394.7036 1717.6715 L2394.7036 1719 ZM2437.2749 1719 L2437.2749 1717.748 L2418.3542 1717.748 L2418.3542 1719 ZM2460.9255 1719 L2460.9255 1717.8229 L2442.0049 1717.8229 L2442.0049 1719 ZM2484.5762 1719 L2484.5762 1717.8926 L2465.6555 1717.8926 L2465.6555 1719 ZM2508.2268 1719 L2508.2268 1717.9622 L2489.3062 1717.9622 L2489.3062 1719 ZM2531.8774 1719 L2531.8774 1718.0336 L2512.957 1718.0336 L2512.957 1719 ZM2555.5281 1719 L2555.5281 1718.0985 L2536.6077 1718.0985 L2536.6077 1719 ZM2579.179 1719 L2579.179 1718.1589 L2560.2583 1718.1589 L2560.2583 1719 ZM2602.8296 1719 L2602.8296 1718.2225 L2583.9089 1718.2225 L2583.9089 1719 ZM2626.4802 1719 L2626.4802 1718.2808 L2607.5596 1718.2808 L2607.5596 1719 ZM2650.1309 1719 L2650.1309 1718.3257 L2631.2102 1718.3257 L2631.2102 1719 ZM2673.7815 1719 L2673.7815 1718.3759 L2654.8608 1718.3759 L2654.8608 1719 ZM2697.4321 1719 L2697.4321 1718.4236 L2678.5115 1718.4236 L2678.5115 1719 ZM2721.0828 1719 L2721.0828 1718.4642 L2702.1621 1718.4642 L2702.1621 1719 ZM2744.7334 1719 L2744.7334 1718.5044 L2725.813 1718.5044 L2725.813 1719 ZM2768.384 1719 L2768.384 1718.5427 L2749.4636 1718.5427 L2749.4636 1719 ZM2792.0349 1719 L2792.0349 1718.5815 L2773.1143 1718.5815 L2773.1143 1719 ZM2815.6855 1719 L2815.6855 1718.6172 L2796.7649 1718.6172 L2796.7649 1719 ZM2839.3362 1719 L2839.3362 1718.6511 L2820.4155 1718.6511 L2820.4155 1719 ZM2862.9868 1719 L2862.9868 1718.6818 L2844.0662 1718.6818 L2844.0662 1719 ZM2886.6375 1719 L2886.6375 1718.7113 L2867.7168 1718.7113 L2867.7168 1719 ZM2910.2881 1719 L2910.2881 1718.7399 L2891.3674 1718.7399 L2891.3674 1719 ZM2933.9387 1719 L2933.9387 1718.7638 L2915.0181 1718.7638 L2915.0181 1719 ZM2957.5894 1719 L2957.5894 1718.7865 L2938.6689 1718.7865 L2938.6689 1719 ZM2981.24 1719 L2981.24 1718.8069 L2962.3196 1718.8069 L2962.3196 1719 ZM3004.8909 1719 L3004.8909 1718.8263 L2985.9702 1718.8263 L2985.9702 1719 ZM3028.5415 1719 L3028.5415 1718.8422 L3009.6208 1718.8422 L3009.6208 1719 ZM3052.1921 1719 L3052.1921 1718.8582 L3033.2715 1718.8582 L3033.2715 1719 ZM3075.8428 1719 L3075.8428 1718.8744 L3056.9221 1718.8744 L3056.9221 1719 ZM3099.4934 1719 L3099.4934 1718.8882 L3080.5728 1718.8882 L3080.5728 1719 ZM3123.144 1719 L3123.144 1718.9012 L3104.2234 1718.9012 L3104.2234 1719 ZM3146.7947 1719 L3146.7947 1718.9126 L3127.874 1718.9126 L3127.874 1719 ZM3170.4453 1719 L3170.4453 1718.9227 L3151.5249 1718.9227 L3151.5249 1719 ZM3194.0959 1719 L3194.0959 1718.9312 L3175.1755 1718.9312 L3175.1755 1719 ZM3217.7468 1719 L3217.7468 1718.9387 L3198.8262 1718.9387 L3198.8262 1719 ZM3241.3975 1719 L3241.3975 1718.9464 L3222.4768 1718.9464 L3222.4768 1719 ZM3265.0481 1719 L3265.0481 1718.9536 L3246.1274 1718.9536 L3246.1274 1719 ZM3288.6987 1719 L3288.6987 1718.9597 L3269.7781 1718.9597 L3269.7781 1719 ZM3312.3494 1719 L3312.3494 1718.965 L3293.4287 1718.965 L3293.4287 1719 ZM3336 1719 L3336 1718.7194 L3317.0793 1718.7194 L3317.0793 1719 Z"
    /></g
    ><g style="text-rendering:geometricPrecision; color-rendering:optimizeQuality; color-interpolation:linearRGB; stroke-linecap:butt; image-rendering:optimizeQuality;"
    ><path d="M479 1719 L479 145 L497.9205 145 L497.9205 1719 Z" style="fill:none; fill-rule:evenodd;"
      /><path d="M502.6507 1719 L502.6507 1225.6718 L521.5712 1225.6718 L521.5712 1719 Z" style="fill:none; fill-rule:evenodd;"
      /><path d="M526.3013 1719 L526.3013 1377.6387 L545.2219 1377.6387 L545.2219 1719 Z" style="fill:none; fill-rule:evenodd;"
      /><path d="M549.952 1719 L549.952 1331.5129 L568.8725 1331.5129 L568.8725 1719 Z" style="fill:none; fill-rule:evenodd;"
      /><path d="M573.6027 1719 L573.6027 1479.8521 L592.5232 1479.8521 L592.5232 1719 Z" style="fill:none; fill-rule:evenodd;"
      /><path d="M597.2533 1719 L597.2533 1591.5562 L616.1738 1591.5562 L616.1738 1719 Z" style="fill:none; fill-rule:evenodd;"
      /><path d="M620.904 1719 L620.904 1584.3682 L639.8245 1584.3682 L639.8245 1719 Z" style="fill:none; fill-rule:evenodd;"
      /><path d="M644.5546 1719 L644.5546 1584.5541 L663.4752 1584.5541 L663.4752 1719 Z" style="fill:none; fill-rule:evenodd;"
      /><path d="M668.2053 1719 L668.2053 1602.2859 L687.1258 1602.2859 L687.1258 1719 Z" style="fill:none; fill-rule:evenodd;"
      /><path d="M691.856 1719 L691.856 1612.6373 L710.7765 1612.6373 L710.7765 1719 Z" style="fill:none; fill-rule:evenodd;"
      /><path d="M715.5067 1719 L715.5067 1612.533 L734.4271 1612.533 L734.4271 1719 Z" style="fill:none; fill-rule:evenodd;"
      /><path d="M739.1573 1719 L739.1573 1618.068 L758.0778 1618.068 L758.0778 1719 Z" style="fill:none; fill-rule:evenodd;"
      /><path d="M762.808 1719 L762.808 1632.6311 L781.7285 1632.6311 L781.7285 1719 Z" style="fill:none; fill-rule:evenodd;"
      /><path d="M786.4586 1719 L786.4586 1649.426 L805.3792 1649.426 L805.3792 1719 Z" style="fill:none; fill-rule:evenodd;"
      /><path d="M810.1093 1719 L810.1093 1662.4329 L829.0298 1662.4329 L829.0298 1719 Z" style="fill:none; fill-rule:evenodd;"
      /><path d="M833.7599 1719 L833.7599 1665.6914 L852.6805 1665.6914 L852.6805 1719 Z" style="fill:none; fill-rule:evenodd;"
      /><path d="M857.4106 1719 L857.4106 1668.2225 L876.3311 1668.2225 L876.3311 1719 Z" style="fill:none; fill-rule:evenodd;"
      /><path d="M881.0613 1719 L881.0613 1669.8669 L899.9818 1669.8669 L899.9818 1719 Z" style="fill:none; fill-rule:evenodd;"
      /><path d="M904.7119 1719 L904.7119 1672.3447 L923.6324 1672.3447 L923.6324 1719 Z" style="fill:none; fill-rule:evenodd;"
      /><path d="M928.3626 1719 L928.3626 1677.8745 L947.2831 1677.8745 L947.2831 1719 Z" style="fill:none; fill-rule:evenodd;"
      /><path d="M952.0132 1719 L952.0132 1681.5553 L970.9338 1681.5553 L970.9338 1719 Z" style="fill:none; fill-rule:evenodd;"
      /><path d="M975.6639 1719 L975.6639 1682.5712 L994.5844 1682.5712 L994.5844 1719 Z" style="fill:none; fill-rule:evenodd;"
      /><path d="M999.3146 1719 L999.3146 1685.1874 L1018.2351 1685.1874 L1018.2351 1719 Z" style="fill:none; fill-rule:evenodd;"
      /><path d="M1022.9653 1719 L1022.9653 1686.0294 L1041.8857 1686.0294 L1041.8857 1719 Z" style="fill:none; fill-rule:evenodd;"
      /><path d="M1046.6158 1719 L1046.6158 1687.9227 L1065.5364 1687.9227 L1065.5364 1719 Z" style="fill:none; fill-rule:evenodd;"
      /><path d="M1070.2666 1719 L1070.2666 1688.3159 L1089.1871 1688.3159 L1089.1871 1719 Z" style="fill:none; fill-rule:evenodd;"
      /><path d="M1093.9172 1719 L1093.9172 1689.464 L1112.8378 1689.464 L1112.8378 1719 Z" style="fill:none; fill-rule:evenodd;"
      /><path d="M1117.5679 1719 L1117.5679 1689.7854 L1136.4884 1689.7854 L1136.4884 1719 Z" style="fill:none; fill-rule:evenodd;"
      /><path d="M1141.2185 1719 L1141.2185 1690.6768 L1160.139 1690.6768 L1160.139 1719 Z" style="fill:none; fill-rule:evenodd;"
      /><path d="M1164.8693 1719 L1164.8693 1690.9955 L1183.7897 1690.9955 L1183.7897 1719 Z" style="fill:none; fill-rule:evenodd;"
      /><path d="M1188.5199 1719 L1188.5199 1691.5464 L1207.4404 1691.5464 L1207.4404 1719 Z" style="fill:none; fill-rule:evenodd;"
      /><path d="M1212.1705 1719 L1212.1705 1691.8851 L1231.0911 1691.8851 L1231.0911 1719 Z" style="fill:none; fill-rule:evenodd;"
      /><path d="M1235.8212 1719 L1235.8212 1692.0729 L1254.7417 1692.0729 L1254.7417 1719 Z" style="fill:none; fill-rule:evenodd;"
      /><path d="M1259.4718 1719 L1259.4718 1692.9636 L1278.3925 1692.9636 L1278.3925 1719 Z" style="fill:none; fill-rule:evenodd;"
      /><path d="M1283.1224 1719 L1283.1224 1693.3848 L1302.0431 1693.3848 L1302.0431 1719 Z" style="fill:none; fill-rule:evenodd;"
      /><path d="M1306.7732 1719 L1306.7732 1693.3262 L1325.6937 1693.3262 L1325.6937 1719 Z" style="fill:none; fill-rule:evenodd;"
      /><path d="M1330.4238 1719 L1330.4238 1694.5745 L1349.3444 1694.5745 L1349.3444 1719 Z" style="fill:none; fill-rule:evenodd;"
      /><path d="M1354.0745 1719 L1354.0745 1694.7301 L1372.9951 1694.7301 L1372.9951 1719 Z" style="fill:none; fill-rule:evenodd;"
      /><path d="M1377.7251 1719 L1377.7251 1694.8861 L1396.6458 1694.8861 L1396.6458 1719 Z" style="fill:none; fill-rule:evenodd;"
      /><path d="M1401.3757 1719 L1401.3757 1695.6504 L1420.2964 1695.6504 L1420.2964 1719 Z" style="fill:none; fill-rule:evenodd;"
      /><path d="M1425.0265 1719 L1425.0265 1695.9998 L1443.947 1695.9998 L1443.947 1719 Z" style="fill:none; fill-rule:evenodd;"
      /><path d="M1448.6771 1719 L1448.6771 1696.0061 L1467.5978 1696.0061 L1467.5978 1719 Z" style="fill:none; fill-rule:evenodd;"
      /><path d="M1472.3278 1719 L1472.3278 1696.9445 L1491.2484 1696.9445 L1491.2484 1719 Z" style="fill:none; fill-rule:evenodd;"
      /><path d="M1495.9784 1719 L1495.9784 1697.2196 L1514.899 1697.2196 L1514.899 1719 Z" style="fill:none; fill-rule:evenodd;"
      /><path d="M1519.6292 1719 L1519.6292 1698.3417 L1538.5497 1698.3417 L1538.5497 1719 Z" style="fill:none; fill-rule:evenodd;"
      /><path d="M1543.2798 1719 L1543.2798 1699.5527 L1562.2003 1699.5527 L1562.2003 1719 Z" style="fill:none; fill-rule:evenodd;"
      /><path d="M1566.9304 1719 L1566.9304 1702.0431 L1585.8511 1702.0431 L1585.8511 1719 Z" style="fill:none; fill-rule:evenodd;"
      /><path d="M1590.5811 1719 L1590.5811 1702.9841 L1609.5017 1702.9841 L1609.5017 1719 Z" style="fill:none; fill-rule:evenodd;"
      /><path d="M1614.2318 1719 L1614.2318 1704.1855 L1633.1523 1704.1855 L1633.1523 1719 Z" style="fill:none; fill-rule:evenodd;"
      /><path d="M1637.8824 1719 L1637.8824 1704.8187 L1656.803 1704.8187 L1656.803 1719 Z" style="fill:none; fill-rule:evenodd;"
      /><path d="M1661.5331 1719 L1661.5331 1705.5973 L1680.4537 1705.5973 L1680.4537 1719 Z" style="fill:none; fill-rule:evenodd;"
      /><path d="M1685.1837 1719 L1685.1837 1706.4308 L1704.1044 1706.4308 L1704.1044 1719 Z" style="fill:none; fill-rule:evenodd;"
      /><path d="M1708.8344 1719 L1708.8344 1707.4125 L1727.755 1707.4125 L1727.755 1719 Z" style="fill:none; fill-rule:evenodd;"
      /><path d="M1732.4851 1719 L1732.4851 1708.1681 L1751.4056 1708.1681 L1751.4056 1719 Z" style="fill:none; fill-rule:evenodd;"
      /><path d="M1756.1357 1719 L1756.1357 1708.8893 L1775.0563 1708.8893 L1775.0563 1719 Z" style="fill:none; fill-rule:evenodd;"
      /><path d="M1779.7864 1719 L1779.7864 1709.6467 L1798.707 1709.6467 L1798.707 1719 Z" style="fill:none; fill-rule:evenodd;"
      /><path d="M1803.437 1719 L1803.437 1709.9944 L1822.3577 1709.9944 L1822.3577 1719 Z" style="fill:none; fill-rule:evenodd;"
      /><path d="M1827.0878 1719 L1827.0878 1710.5502 L1846.0083 1710.5502 L1846.0083 1719 Z" style="fill:none; fill-rule:evenodd;"
      /><path d="M1850.7384 1719 L1850.7384 1710.8879 L1869.6589 1710.8879 L1869.6589 1719 Z" style="fill:none; fill-rule:evenodd;"
      /><path d="M1874.389 1719 L1874.389 1711.8326 L1893.3097 1711.8326 L1893.3097 1719 Z" style="fill:none; fill-rule:evenodd;"
      /><path d="M1898.0397 1719 L1898.0397 1713.0629 L1916.9603 1713.0629 L1916.9603 1719 Z" style="fill:none; fill-rule:evenodd;"
      /><path d="M1921.6903 1719 L1921.6903 1713.6212 L1940.611 1713.6212 L1940.611 1719 Z" style="fill:none; fill-rule:evenodd;"
      /><path d="M1945.3411 1719 L1945.3411 1714.3013 L1964.2616 1714.3013 L1964.2616 1719 Z" style="fill:none; fill-rule:evenodd;"
      /><path d="M1968.9917 1719 L1968.9917 1714.7678 L1987.9122 1714.7678 L1987.9122 1719 Z" style="fill:none; fill-rule:evenodd;"
      /><path d="M1992.6423 1719 L1992.6423 1715.0854 L2011.563 1715.0854 L2011.563 1719 Z" style="fill:none; fill-rule:evenodd;"
      /><path d="M2016.293 1719 L2016.293 1715.3708 L2035.2136 1715.3708 L2035.2136 1719 Z" style="fill:none; fill-rule:evenodd;"
      /><path d="M2039.9437 1719 L2039.9437 1715.6437 L2058.8643 1715.6437 L2058.8643 1719 Z" style="fill:none; fill-rule:evenodd;"
      /><path d="M2063.5942 1719 L2063.5942 1715.8911 L2082.5149 1715.8911 L2082.5149 1719 Z" style="fill:none; fill-rule:evenodd;"
      /><path d="M2087.2451 1719 L2087.2451 1716.1017 L2106.1655 1716.1017 L2106.1655 1719 Z" style="fill:none; fill-rule:evenodd;"
      /><path d="M2110.8958 1719 L2110.8958 1716.296 L2129.8162 1716.296 L2129.8162 1719 Z" style="fill:none; fill-rule:evenodd;"
      /><path d="M2134.5464 1719 L2134.5464 1716.4745 L2153.467 1716.4745 L2153.467 1719 Z" style="fill:none; fill-rule:evenodd;"
      /><path d="M2158.197 1719 L2158.197 1716.6356 L2177.1177 1716.6356 L2177.1177 1719 Z" style="fill:none; fill-rule:evenodd;"
      /><path d="M2181.8477 1719 L2181.8477 1716.7767 L2200.7683 1716.7767 L2200.7683 1719 Z" style="fill:none; fill-rule:evenodd;"
      /><path d="M2205.4983 1719 L2205.4983 1716.9039 L2224.4189 1716.9039 L2224.4189 1719 Z" style="fill:none; fill-rule:evenodd;"
      /><path d="M2229.1489 1719 L2229.1489 1717.0145 L2248.0696 1717.0145 L2248.0696 1719 Z" style="fill:none; fill-rule:evenodd;"
      /><path d="M2252.7996 1719 L2252.7996 1717.1277 L2271.7202 1717.1277 L2271.7202 1719 Z" style="fill:none; fill-rule:evenodd;"
      /><path d="M2276.4502 1719 L2276.4502 1717.2264 L2295.3708 1717.2264 L2295.3708 1719 Z" style="fill:none; fill-rule:evenodd;"
      /><path d="M2300.1011 1719 L2300.1011 1717.3254 L2319.0215 1717.3254 L2319.0215 1719 Z" style="fill:none; fill-rule:evenodd;"
      /><path d="M2323.7517 1719 L2323.7517 1717.4221 L2342.6721 1717.4221 L2342.6721 1719 Z" style="fill:none; fill-rule:evenodd;"
      /><path d="M2347.4023 1719 L2347.4023 1717.5094 L2366.323 1717.5094 L2366.323 1719 Z" style="fill:none; fill-rule:evenodd;"
      /><path d="M2371.053 1719 L2371.053 1717.5911 L2389.9736 1717.5911 L2389.9736 1719 Z" style="fill:none; fill-rule:evenodd;"
      /><path d="M2394.7036 1719 L2394.7036 1717.6715 L2413.6243 1717.6715 L2413.6243 1719 Z" style="fill:none; fill-rule:evenodd;"
      /><path d="M2418.3542 1719 L2418.3542 1717.748 L2437.2749 1717.748 L2437.2749 1719 Z" style="fill:none; fill-rule:evenodd;"
      /><path d="M2442.0049 1719 L2442.0049 1717.8229 L2460.9255 1717.8229 L2460.9255 1719 Z" style="fill:none; fill-rule:evenodd;"
      /><path d="M2465.6555 1719 L2465.6555 1717.8926 L2484.5762 1717.8926 L2484.5762 1719 Z" style="fill:none; fill-rule:evenodd;"
      /><path d="M2489.3062 1719 L2489.3062 1717.9622 L2508.2268 1717.9622 L2508.2268 1719 Z" style="fill:none; fill-rule:evenodd;"
      /><path d="M2512.957 1719 L2512.957 1718.0336 L2531.8774 1718.0336 L2531.8774 1719 Z" style="fill:none; fill-rule:evenodd;"
      /><path d="M2536.6077 1719 L2536.6077 1718.0985 L2555.5281 1718.0985 L2555.5281 1719 Z" style="fill:none; fill-rule:evenodd;"
      /><path d="M2560.2583 1719 L2560.2583 1718.1589 L2579.179 1718.1589 L2579.179 1719 Z" style="fill:none; fill-rule:evenodd;"
      /><path d="M2583.9089 1719 L2583.9089 1718.2225 L2602.8296 1718.2225 L2602.8296 1719 Z" style="fill:none; fill-rule:evenodd;"
      /><path d="M2607.5596 1719 L2607.5596 1718.2808 L2626.4802 1718.2808 L2626.4802 1719 Z" style="fill:none; fill-rule:evenodd;"
      /><path d="M2631.2102 1719 L2631.2102 1718.3257 L2650.1309 1718.3257 L2650.1309 1719 Z" style="fill:none; fill-rule:evenodd;"
      /><path d="M2654.8608 1719 L2654.8608 1718.3759 L2673.7815 1718.3759 L2673.7815 1719 Z" style="fill:none; fill-rule:evenodd;"
      /><path d="M2678.5115 1719 L2678.5115 1718.4236 L2697.4321 1718.4236 L2697.4321 1719 Z" style="fill:none; fill-rule:evenodd;"
      /><path d="M2702.1621 1719 L2702.1621 1718.4642 L2721.0828 1718.4642 L2721.0828 1719 Z" style="fill:none; fill-rule:evenodd;"
      /><path d="M2725.813 1719 L2725.813 1718.5044 L2744.7334 1718.5044 L2744.7334 1719 Z" style="fill:none; fill-rule:evenodd;"
      /><path d="M2749.4636 1719 L2749.4636 1718.5427 L2768.384 1718.5427 L2768.384 1719 Z" style="fill:none; fill-rule:evenodd;"
      /><path d="M2773.1143 1719 L2773.1143 1718.5815 L2792.0349 1718.5815 L2792.0349 1719 Z" style="fill:none; fill-rule:evenodd;"
      /><path d="M2796.7649 1719 L2796.7649 1718.6172 L2815.6855 1718.6172 L2815.6855 1719 Z" style="fill:none; fill-rule:evenodd;"
      /><path d="M2820.4155 1719 L2820.4155 1718.6511 L2839.3362 1718.6511 L2839.3362 1719 Z" style="fill:none; fill-rule:evenodd;"
      /><path d="M2844.0662 1719 L2844.0662 1718.6818 L2862.9868 1718.6818 L2862.9868 1719 Z" style="fill:none; fill-rule:evenodd;"
      /><path d="M2867.7168 1719 L2867.7168 1718.7113 L2886.6375 1718.7113 L2886.6375 1719 Z" style="fill:none; fill-rule:evenodd;"
      /><path d="M2891.3674 1719 L2891.3674 1718.7399 L2910.2881 1718.7399 L2910.2881 1719 Z" style="fill:none; fill-rule:evenodd;"
      /><path d="M2915.0181 1719 L2915.0181 1718.7638 L2933.9387 1718.7638 L2933.9387 1719 Z" style="fill:none; fill-rule:evenodd;"
      /><path d="M2938.6689 1719 L2938.6689 1718.7865 L2957.5894 1718.7865 L2957.5894 1719 Z" style="fill:none; fill-rule:evenodd;"
      /><path d="M2962.3196 1719 L2962.3196 1718.8069 L2981.24 1718.8069 L2981.24 1719 Z" style="fill:none; fill-rule:evenodd;"
      /><path d="M2985.9702 1719 L2985.9702 1718.8263 L3004.8909 1718.8263 L3004.8909 1719 Z" style="fill:none; fill-rule:evenodd;"
      /><path d="M3009.6208 1719 L3009.6208 1718.8422 L3028.5415 1718.8422 L3028.5415 1719 Z" style="fill:none; fill-rule:evenodd;"
      /><path d="M3033.2715 1719 L3033.2715 1718.8582 L3052.1921 1718.8582 L3052.1921 1719 Z" style="fill:none; fill-rule:evenodd;"
      /><path d="M3056.9221 1719 L3056.9221 1718.8744 L3075.8428 1718.8744 L3075.8428 1719 Z" style="fill:none; fill-rule:evenodd;"
      /><path d="M3080.5728 1719 L3080.5728 1718.8882 L3099.4934 1718.8882 L3099.4934 1719 Z" style="fill:none; fill-rule:evenodd;"
      /><path d="M3104.2234 1719 L3104.2234 1718.9012 L3123.144 1718.9012 L3123.144 1719 Z" style="fill:none; fill-rule:evenodd;"
      /><path d="M3127.874 1719 L3127.874 1718.9126 L3146.7947 1718.9126 L3146.7947 1719 Z" style="fill:none; fill-rule:evenodd;"
      /><path d="M3151.5249 1719 L3151.5249 1718.9227 L3170.4453 1718.9227 L3170.4453 1719 Z" style="fill:none; fill-rule:evenodd;"
      /><path d="M3175.1755 1719 L3175.1755 1718.9312 L3194.0959 1718.9312 L3194.0959 1719 Z" style="fill:none; fill-rule:evenodd;"
      /><path d="M3198.8262 1719 L3198.8262 1718.9387 L3217.7468 1718.9387 L3217.7468 1719 Z" style="fill:none; fill-rule:evenodd;"
      /><path d="M3222.4768 1719 L3222.4768 1718.9464 L3241.3975 1718.9464 L3241.3975 1719 Z" style="fill:none; fill-rule:evenodd;"
      /><path d="M3246.1274 1719 L3246.1274 1718.9536 L3265.0481 1718.9536 L3265.0481 1719 Z" style="fill:none; fill-rule:evenodd;"
      /><path d="M3269.7781 1719 L3269.7781 1718.9597 L3288.6987 1718.9597 L3288.6987 1719 Z" style="fill:none; fill-rule:evenodd;"
      /><path d="M3293.4287 1719 L3293.4287 1718.965 L3312.3494 1718.965 L3312.3494 1719 Z" style="fill:none; fill-rule:evenodd;"
      /><path d="M3317.0793 1719 L3317.0793 1718.7194 L3336 1718.7194 L3336 1719 Z" style="fill:none; fill-rule:evenodd;"
    /></g
    ><g style="fill:rgb(38,38,38); text-rendering:geometricPrecision; color-rendering:optimizeQuality; image-rendering:optimizeQuality; stroke-linejoin:round; stroke:rgb(38,38,38); color-interpolation:linearRGB;"
    ><line y2="1719" style="fill:none;" x1="479" x2="3336" y1="1719"
      /><line y2="145" style="fill:none;" x1="479" x2="3336" y1="145"
      /><line y2="1690.4301" style="fill:none;" x1="488.4603" x2="488.4603" y1="1719"
      /><line y2="1690.4301" style="fill:none;" x1="961.4735" x2="961.4735" y1="1719"
      /><line y2="1690.4301" style="fill:none;" x1="1434.4867" x2="1434.4867" y1="1719"
      /><line y2="1690.4301" style="fill:none;" x1="1907.5" x2="1907.5" y1="1719"
      /><line y2="1690.4301" style="fill:none;" x1="2380.5132" x2="2380.5132" y1="1719"
      /><line y2="1690.4301" style="fill:none;" x1="2853.5266" x2="2853.5266" y1="1719"
      /><line y2="1690.4301" style="fill:none;" x1="3326.5398" x2="3326.5398" y1="1719"
      /><line y2="173.5701" style="fill:none;" x1="488.4603" x2="488.4603" y1="145"
      /><line y2="173.5701" style="fill:none;" x1="961.4735" x2="961.4735" y1="145"
      /><line y2="173.5701" style="fill:none;" x1="1434.4867" x2="1434.4867" y1="145"
      /><line y2="173.5701" style="fill:none;" x1="1907.5" x2="1907.5" y1="145"
      /><line y2="173.5701" style="fill:none;" x1="2380.5132" x2="2380.5132" y1="145"
      /><line y2="173.5701" style="fill:none;" x1="2853.5266" x2="2853.5266" y1="145"
      /><line y2="173.5701" style="fill:none;" x1="3326.5398" x2="3326.5398" y1="145"
    /></g
    ><g transform="translate(488.4603,1727)" style="font-size:20px; fill:rgb(38,38,38); text-rendering:geometricPrecision; image-rendering:optimizeQuality; color-rendering:optimizeQuality; font-family:'SansSerif'; stroke:rgb(38,38,38); color-interpolation:linearRGB;"
    ><path style="stroke:none;" d="M-0.1406 5.7188 Q-1.6719 5.7188 -2.4375 7.2188 Q-3.2031 8.7188 -3.2031 11.7188 Q-3.2031 14.7188 -2.4375 16.2188 Q-1.6719 17.7188 -0.1406 17.7188 Q1.3906 17.7188 2.1562 16.2188 Q2.9219 14.7188 2.9219 11.7188 Q2.9219 8.7188 2.1562 7.2188 Q1.3906 5.7188 -0.1406 5.7188 ZM-0.1406 4.1562 Q2.3125 4.1562 3.6016 6.0938 Q4.8906 8.0312 4.8906 11.7188 Q4.8906 15.4062 3.6016 17.3438 Q2.3125 19.2812 -0.1406 19.2812 Q-2.5938 19.2812 -3.8906 17.3438 Q-5.1875 15.4062 -5.1875 11.7188 Q-5.1875 8.0312 -3.8906 6.0938 Q-2.5938 4.1562 -0.1406 4.1562 Z"
    /></g
    ><g transform="translate(961.4735,1727)" style="font-size:20px; fill:rgb(38,38,38); text-rendering:geometricPrecision; image-rendering:optimizeQuality; color-rendering:optimizeQuality; font-family:'SansSerif'; stroke:rgb(38,38,38); color-interpolation:linearRGB;"
    ><path style="stroke:none;" d="M-9.1562 17.3438 L-2.2812 17.3438 L-2.2812 19 L-11.5312 19 L-11.5312 17.3438 Q-10.4062 16.1719 -8.4688 14.2188 Q-6.5312 12.2656 -6.0312 11.6875 Q-5.0938 10.625 -4.7188 9.8906 Q-4.3438 9.1562 -4.3438 8.4375 Q-4.3438 7.2812 -5.1562 6.5469 Q-5.9688 5.8125 -7.2812 5.8125 Q-8.2031 5.8125 -9.2344 6.1328 Q-10.2656 6.4531 -11.4375 7.1094 L-11.4375 5.125 Q-10.25 4.6406 -9.2109 4.3984 Q-8.1719 4.1562 -7.3125 4.1562 Q-5.0469 4.1562 -3.7031 5.2891 Q-2.3594 6.4219 -2.3594 8.3125 Q-2.3594 9.2188 -2.6953 10.0234 Q-3.0312 10.8281 -3.9219 11.9219 Q-4.1562 12.2031 -5.4688 13.5547 Q-6.7812 14.9062 -9.1562 17.3438 ZM6.084 5.7188 Q4.5527 5.7188 3.7871 7.2188 Q3.0215 8.7188 3.0215 11.7188 Q3.0215 14.7188 3.7871 16.2188 Q4.5527 17.7188 6.084 17.7188 Q7.6152 17.7188 8.3809 16.2188 Q9.1465 14.7188 9.1465 11.7188 Q9.1465 8.7188 8.3809 7.2188 Q7.6152 5.7188 6.084 5.7188 ZM6.084 4.1562 Q8.5371 4.1562 9.8262 6.0938 Q11.1152 8.0312 11.1152 11.7188 Q11.1152 15.4062 9.8262 17.3438 Q8.5371 19.2812 6.084 19.2812 Q3.6309 19.2812 2.334 17.3438 Q1.0371 15.4062 1.0371 11.7188 Q1.0371 8.0312 2.334 6.0938 Q3.6309 4.1562 6.084 4.1562 Z"
    /></g
    ><g transform="translate(1434.4867,1727)" style="font-size:20px; fill:rgb(38,38,38); text-rendering:geometricPrecision; image-rendering:optimizeQuality; color-rendering:optimizeQuality; font-family:'SansSerif'; stroke:rgb(38,38,38); color-interpolation:linearRGB;"
    ><path style="stroke:none;" d="M-5.4375 6.1406 L-10.4219 13.9219 L-5.4375 13.9219 L-5.4375 6.1406 ZM-5.9531 4.4219 L-3.4844 4.4219 L-3.4844 13.9219 L-1.3906 13.9219 L-1.3906 15.5625 L-3.4844 15.5625 L-3.4844 19 L-5.4375 19 L-5.4375 15.5625 L-12.0156 15.5625 L-12.0156 13.6562 L-5.9531 4.4219 ZM6.084 5.7188 Q4.5527 5.7188 3.7871 7.2188 Q3.0215 8.7188 3.0215 11.7188 Q3.0215 14.7188 3.7871 16.2188 Q4.5527 17.7188 6.084 17.7188 Q7.6152 17.7188 8.3809 16.2188 Q9.1465 14.7188 9.1465 11.7188 Q9.1465 8.7188 8.3809 7.2188 Q7.6152 5.7188 6.084 5.7188 ZM6.084 4.1562 Q8.5371 4.1562 9.8262 6.0938 Q11.1152 8.0312 11.1152 11.7188 Q11.1152 15.4062 9.8262 17.3438 Q8.5371 19.2812 6.084 19.2812 Q3.6309 19.2812 2.334 17.3438 Q1.0371 15.4062 1.0371 11.7188 Q1.0371 8.0312 2.334 6.0938 Q3.6309 4.1562 6.084 4.1562 Z"
    /></g
    ><g transform="translate(1907.5,1727)" style="font-size:20px; fill:rgb(38,38,38); text-rendering:geometricPrecision; image-rendering:optimizeQuality; color-rendering:optimizeQuality; font-family:'SansSerif'; stroke:rgb(38,38,38); color-interpolation:linearRGB;"
    ><path style="stroke:none;" d="M-6.3906 10.9219 Q-7.7188 10.9219 -8.5 11.8281 Q-9.2812 12.7344 -9.2812 14.3281 Q-9.2812 15.8906 -8.5 16.8047 Q-7.7188 17.7188 -6.3906 17.7188 Q-5.0625 17.7188 -4.2891 16.8047 Q-3.5156 15.8906 -3.5156 14.3281 Q-3.5156 12.7344 -4.2891 11.8281 Q-5.0625 10.9219 -6.3906 10.9219 ZM-2.4844 4.7344 L-2.4844 6.5312 Q-3.2188 6.1875 -3.9766 6 Q-4.7344 5.8125 -5.4844 5.8125 Q-7.4375 5.8125 -8.4688 7.1328 Q-9.5 8.4531 -9.6406 11.125 Q-9.0625 10.2656 -8.1953 9.8125 Q-7.3281 9.3594 -6.2812 9.3594 Q-4.0781 9.3594 -2.8047 10.6953 Q-1.5312 12.0312 -1.5312 14.3281 Q-1.5312 16.5625 -2.8594 17.9219 Q-4.1875 19.2812 -6.3906 19.2812 Q-8.9219 19.2812 -10.2656 17.3438 Q-11.6094 15.4062 -11.6094 11.7188 Q-11.6094 8.2656 -9.9688 6.2109 Q-8.3281 4.1562 -5.5625 4.1562 Q-4.8125 4.1562 -4.0547 4.3047 Q-3.2969 4.4531 -2.4844 4.7344 ZM6.084 5.7188 Q4.5527 5.7188 3.7871 7.2188 Q3.0215 8.7188 3.0215 11.7188 Q3.0215 14.7188 3.7871 16.2188 Q4.5527 17.7188 6.084 17.7188 Q7.6152 17.7188 8.3809 16.2188 Q9.1465 14.7188 9.1465 11.7188 Q9.1465 8.7188 8.3809 7.2188 Q7.6152 5.7188 6.084 5.7188 ZM6.084 4.1562 Q8.5371 4.1562 9.8262 6.0938 Q11.1152 8.0312 11.1152 11.7188 Q11.1152 15.4062 9.8262 17.3438 Q8.5371 19.2812 6.084 19.2812 Q3.6309 19.2812 2.334 17.3438 Q1.0371 15.4062 1.0371 11.7188 Q1.0371 8.0312 2.334 6.0938 Q3.6309 4.1562 6.084 4.1562 Z"
    /></g
    ><g transform="translate(2380.5132,1727)" style="font-size:20px; fill:rgb(38,38,38); text-rendering:geometricPrecision; image-rendering:optimizeQuality; color-rendering:optimizeQuality; font-family:'SansSerif'; stroke:rgb(38,38,38); color-interpolation:linearRGB;"
    ><path style="stroke:none;" d="M-6.6406 12.0781 Q-8.0469 12.0781 -8.8516 12.8281 Q-9.6562 13.5781 -9.6562 14.8906 Q-9.6562 16.2188 -8.8516 16.9688 Q-8.0469 17.7188 -6.6406 17.7188 Q-5.2344 17.7188 -4.4219 16.9609 Q-3.6094 16.2031 -3.6094 14.8906 Q-3.6094 13.5781 -4.4141 12.8281 Q-5.2188 12.0781 -6.6406 12.0781 ZM-8.6094 11.2344 Q-9.8906 10.9219 -10.5938 10.0547 Q-11.2969 9.1875 -11.2969 7.9375 Q-11.2969 6.1875 -10.0547 5.1719 Q-8.8125 4.1562 -6.6406 4.1562 Q-4.4688 4.1562 -3.2266 5.1719 Q-1.9844 6.1875 -1.9844 7.9375 Q-1.9844 9.1875 -2.6953 10.0547 Q-3.4062 10.9219 -4.6562 11.2344 Q-3.2344 11.5625 -2.4375 12.5312 Q-1.6406 13.5 -1.6406 14.8906 Q-1.6406 17.0156 -2.9375 18.1484 Q-4.2344 19.2812 -6.6406 19.2812 Q-9.0469 19.2812 -10.3438 18.1484 Q-11.6406 17.0156 -11.6406 14.8906 Q-11.6406 13.5 -10.8438 12.5312 Q-10.0469 11.5625 -8.6094 11.2344 ZM-9.3438 8.125 Q-9.3438 9.25 -8.6328 9.8828 Q-7.9219 10.5156 -6.6406 10.5156 Q-5.375 10.5156 -4.6562 9.8828 Q-3.9375 9.25 -3.9375 8.125 Q-3.9375 6.9844 -4.6562 6.3516 Q-5.375 5.7188 -6.6406 5.7188 Q-7.9219 5.7188 -8.6328 6.3516 Q-9.3438 6.9844 -9.3438 8.125 ZM6.084 5.7188 Q4.5527 5.7188 3.7871 7.2188 Q3.0215 8.7188 3.0215 11.7188 Q3.0215 14.7188 3.7871 16.2188 Q4.5527 17.7188 6.084 17.7188 Q7.6152 17.7188 8.3809 16.2188 Q9.1465 14.7188 9.1465 11.7188 Q9.1465 8.7188 8.3809 7.2188 Q7.6152 5.7188 6.084 5.7188 ZM6.084 4.1562 Q8.5371 4.1562 9.8262 6.0938 Q11.1152 8.0312 11.1152 11.7188 Q11.1152 15.4062 9.8262 17.3438 Q8.5371 19.2812 6.084 19.2812 Q3.6309 19.2812 2.334 17.3438 Q1.0371 15.4062 1.0371 11.7188 Q1.0371 8.0312 2.334 6.0938 Q3.6309 4.1562 6.084 4.1562 Z"
    /></g
    ><g transform="translate(2853.5266,1727)" style="font-size:20px; fill:rgb(38,38,38); text-rendering:geometricPrecision; image-rendering:optimizeQuality; color-rendering:optimizeQuality; font-family:'SansSerif'; stroke:rgb(38,38,38); color-interpolation:linearRGB;"
    ><path style="stroke:none;" d="M-17.0156 17.3438 L-13.7969 17.3438 L-13.7969 6.2188 L-17.2969 6.9219 L-17.2969 5.125 L-13.8125 4.4219 L-11.8438 4.4219 L-11.8438 17.3438 L-8.625 17.3438 L-8.625 19 L-17.0156 19 L-17.0156 17.3438 ZM-0.416 5.7188 Q-1.9473 5.7188 -2.7129 7.2188 Q-3.4785 8.7188 -3.4785 11.7188 Q-3.4785 14.7188 -2.7129 16.2188 Q-1.9473 17.7188 -0.416 17.7188 Q1.1152 17.7188 1.8809 16.2188 Q2.6465 14.7188 2.6465 11.7188 Q2.6465 8.7188 1.8809 7.2188 Q1.1152 5.7188 -0.416 5.7188 ZM-0.416 4.1562 Q2.0371 4.1562 3.3262 6.0938 Q4.6152 8.0312 4.6152 11.7188 Q4.6152 15.4062 3.3262 17.3438 Q2.0371 19.2812 -0.416 19.2812 Q-2.8691 19.2812 -4.166 17.3438 Q-5.4629 15.4062 -5.4629 11.7188 Q-5.4629 8.0312 -4.166 6.0938 Q-2.8691 4.1562 -0.416 4.1562 ZM12.3086 5.7188 Q10.7773 5.7188 10.0117 7.2188 Q9.2461 8.7188 9.2461 11.7188 Q9.2461 14.7188 10.0117 16.2188 Q10.7773 17.7188 12.3086 17.7188 Q13.8398 17.7188 14.6055 16.2188 Q15.3711 14.7188 15.3711 11.7188 Q15.3711 8.7188 14.6055 7.2188 Q13.8398 5.7188 12.3086 5.7188 ZM12.3086 4.1562 Q14.7617 4.1562 16.0508 6.0938 Q17.3398 8.0312 17.3398 11.7188 Q17.3398 15.4062 16.0508 17.3438 Q14.7617 19.2812 12.3086 19.2812 Q9.8555 19.2812 8.5586 17.3438 Q7.2617 15.4062 7.2617 11.7188 Q7.2617 8.0312 8.5586 6.0938 Q9.8555 4.1562 12.3086 4.1562 Z"
    /></g
    ><g transform="translate(3326.5398,1727)" style="font-size:20px; fill:rgb(38,38,38); text-rendering:geometricPrecision; image-rendering:optimizeQuality; color-rendering:optimizeQuality; font-family:'SansSerif'; stroke:rgb(38,38,38); color-interpolation:linearRGB;"
    ><path style="stroke:none;" d="M-17.0156 17.3438 L-13.7969 17.3438 L-13.7969 6.2188 L-17.2969 6.9219 L-17.2969 5.125 L-13.8125 4.4219 L-11.8438 4.4219 L-11.8438 17.3438 L-8.625 17.3438 L-8.625 19 L-17.0156 19 L-17.0156 17.3438 ZM-2.9316 17.3438 L3.9434 17.3438 L3.9434 19 L-5.3066 19 L-5.3066 17.3438 Q-4.1816 16.1719 -2.2441 14.2188 Q-0.3066 12.2656 0.1934 11.6875 Q1.1309 10.625 1.5059 9.8906 Q1.8809 9.1562 1.8809 8.4375 Q1.8809 7.2812 1.0684 6.5469 Q0.2559 5.8125 -1.0566 5.8125 Q-1.9785 5.8125 -3.0098 6.1328 Q-4.041 6.4531 -5.2129 7.1094 L-5.2129 5.125 Q-4.0254 4.6406 -2.9863 4.3984 Q-1.9473 4.1562 -1.0879 4.1562 Q1.1777 4.1562 2.5215 5.2891 Q3.8652 6.4219 3.8652 8.3125 Q3.8652 9.2188 3.5293 10.0234 Q3.1934 10.8281 2.3027 11.9219 Q2.0684 12.2031 0.7559 13.5547 Q-0.5566 14.9062 -2.9316 17.3438 ZM12.3086 5.7188 Q10.7773 5.7188 10.0117 7.2188 Q9.2461 8.7188 9.2461 11.7188 Q9.2461 14.7188 10.0117 16.2188 Q10.7773 17.7188 12.3086 17.7188 Q13.8398 17.7188 14.6055 16.2188 Q15.3711 14.7188 15.3711 11.7188 Q15.3711 8.7188 14.6055 7.2188 Q13.8398 5.7188 12.3086 5.7188 ZM12.3086 4.1562 Q14.7617 4.1562 16.0508 6.0938 Q17.3398 8.0312 17.3398 11.7188 Q17.3398 15.4062 16.0508 17.3438 Q14.7617 19.2812 12.3086 19.2812 Q9.8555 19.2812 8.5586 17.3438 Q7.2617 15.4062 7.2617 11.7188 Q7.2617 8.0312 8.5586 6.0938 Q9.8555 4.1562 12.3086 4.1562 Z"
    /></g
    ><g transform="translate(1907.5013,1753)" style="font-size:24px; fill:rgb(38,38,38); text-rendering:geometricPrecision; image-rendering:optimizeQuality; color-rendering:optimizeQuality; font-family:'Ubuntu'; stroke:rgb(38,38,38); color-interpolation:linearRGB;"
    ><path style="stroke:none;" d="M-21.125 6.375 Q-21.875 7.1875 -22.8047 8.1797 Q-23.7344 9.1719 -24.7578 10.2188 Q-25.7812 11.2656 -26.7891 12.2734 Q-27.7969 13.2812 -28.6875 14.1406 Q-27.6562 14.8594 -26.5 15.9141 Q-25.3438 16.9688 -24.2422 18.1719 Q-23.1406 19.375 -22.1719 20.625 Q-21.2031 21.875 -20.5469 23 L-23.2812 23 Q-24 21.875 -24.9375 20.7344 Q-25.875 19.5938 -26.9219 18.5469 Q-27.9688 17.5 -29.0312 16.6172 Q-30.0938 15.7344 -31.1094 15.1094 L-31.1094 23 L-33.4375 23 L-33.4375 6.375 L-31.1094 6.375 L-31.1094 13.7188 Q-30.2656 12.9219 -29.2578 11.9219 Q-28.25 10.9219 -27.2656 9.9141 Q-26.2812 8.9062 -25.4062 7.9844 Q-24.5312 7.0625 -23.9375 6.375 L-21.125 6.375 ZM-14.2717 21.3906 Q-13.4748 21.3906 -12.8654 21.3516 Q-12.256 21.3125 -11.8498 21.2188 L-11.8498 17.5 Q-12.0842 17.3906 -12.6232 17.3047 Q-13.1623 17.2188 -13.9279 17.2188 Q-14.4435 17.2188 -15.006 17.2891 Q-15.5685 17.3594 -16.0373 17.5859 Q-16.506 17.8125 -16.8185 18.2109 Q-17.131 18.6094 -17.131 19.25 Q-17.131 20.4531 -16.3576 20.9219 Q-15.5842 21.3906 -14.2717 21.3906 ZM-14.4592 10.2031 Q-13.1154 10.2031 -12.1935 10.5547 Q-11.2717 10.9062 -10.7092 11.5391 Q-10.1467 12.1719 -9.9045 13.0469 Q-9.6623 13.9219 -9.6623 14.9844 L-9.6623 22.7812 Q-9.9435 22.8281 -10.4592 22.9141 Q-10.9748 23 -11.6232 23.0703 Q-12.2717 23.1406 -13.0295 23.2031 Q-13.7873 23.2656 -14.5373 23.2656 Q-15.5842 23.2656 -16.4748 23.0469 Q-17.3654 22.8281 -18.0139 22.3594 Q-18.6623 21.8906 -19.0217 21.125 Q-19.381 20.3594 -19.381 19.2812 Q-19.381 18.25 -18.9592 17.5078 Q-18.5373 16.7656 -17.8185 16.3047 Q-17.0998 15.8438 -16.1389 15.6328 Q-15.1779 15.4219 -14.131 15.4219 Q-13.7873 15.4219 -13.4279 15.4531 Q-13.0685 15.4844 -12.7482 15.5469 Q-12.4279 15.6094 -12.1857 15.6562 Q-11.9435 15.7031 -11.8498 15.7344 L-11.8498 15.1094 Q-11.8498 14.5469 -11.967 14.0078 Q-12.0842 13.4688 -12.3967 13.0469 Q-12.7092 12.625 -13.2482 12.375 Q-13.7873 12.125 -14.6467 12.125 Q-15.756 12.125 -16.5842 12.2812 Q-17.4123 12.4375 -17.8185 12.6094 L-18.0842 10.7656 Q-17.6467 10.5625 -16.6389 10.3828 Q-15.631 10.2031 -14.4592 10.2031 ZM-1.3599 10.25 Q-1.0787 10.25 -0.7037 10.2891 Q-0.3287 10.3281 0.0307 10.3906 Q0.3901 10.4531 0.687 10.5078 Q0.9838 10.5625 1.1401 10.6094 L0.7495 12.5625 Q0.4838 12.4688 -0.1255 12.3359 Q-0.7349 12.2031 -1.7037 12.2031 Q-2.3287 12.2031 -2.938 12.3359 Q-3.5474 12.4688 -3.7349 12.5156 L-3.7349 23 L-5.9693 23 L-5.9693 11.0469 Q-5.1724 10.7656 -4.0005 10.5078 Q-2.8287 10.25 -1.3599 10.25 ZM3.2896 10.875 Q4.0552 10.6875 5.313 10.4688 Q6.5709 10.25 8.2271 10.25 Q9.4302 10.25 10.2505 10.5781 Q11.0709 10.9062 11.6177 11.5312 Q11.7896 11.4062 12.149 11.1875 Q12.5084 10.9688 13.0318 10.7656 Q13.5552 10.5625 14.2037 10.4062 Q14.8521 10.25 15.6021 10.25 Q17.0396 10.25 17.9537 10.6719 Q18.8677 11.0938 19.3834 11.8594 Q19.899 12.625 20.0787 13.6875 Q20.2584 14.75 20.2584 15.9844 L20.2584 23 L18.024 23 L18.024 16.4688 Q18.024 15.375 17.9146 14.5781 Q17.8052 13.7812 17.5084 13.2578 Q17.2115 12.7344 16.6959 12.4766 Q16.1802 12.2188 15.3521 12.2188 Q14.2271 12.2188 13.5005 12.5234 Q12.774 12.8281 12.5084 13.0625 Q12.6959 13.6875 12.7896 14.4297 Q12.8834 15.1719 12.8834 15.9844 L12.8834 23 L10.649 23 L10.649 16.4688 Q10.649 15.375 10.5318 14.5781 Q10.4146 13.7812 10.1177 13.2578 Q9.8209 12.7344 9.3052 12.4766 Q8.7896 12.2188 7.9927 12.2188 Q7.649 12.2188 7.2662 12.2422 Q6.8834 12.2656 6.5396 12.3047 Q6.1959 12.3438 5.9068 12.3906 Q5.6177 12.4375 5.524 12.4688 L5.524 23 L3.2896 23 L3.2896 10.875 ZM28.161 21.3906 Q28.9579 21.3906 29.5673 21.3516 Q30.1766 21.3125 30.5829 21.2188 L30.5829 17.5 Q30.3485 17.3906 29.8094 17.3047 Q29.2704 17.2188 28.5048 17.2188 Q27.9891 17.2188 27.4266 17.2891 Q26.8641 17.3594 26.3954 17.5859 Q25.9266 17.8125 25.6141 18.2109 Q25.3016 18.6094 25.3016 19.25 Q25.3016 20.4531 26.0751 20.9219 Q26.8485 21.3906 28.161 21.3906 ZM27.9735 10.2031 Q29.3173 10.2031 30.2391 10.5547 Q31.161 10.9062 31.7235 11.5391 Q32.286 12.1719 32.5282 13.0469 Q32.7704 13.9219 32.7704 14.9844 L32.7704 22.7812 Q32.4891 22.8281 31.9735 22.9141 Q31.4579 23 30.8094 23.0703 Q30.161 23.1406 29.4032 23.2031 Q28.6454 23.2656 27.8954 23.2656 Q26.8485 23.2656 25.9579 23.0469 Q25.0673 22.8281 24.4188 22.3594 Q23.7704 21.8906 23.411 21.125 Q23.0516 20.3594 23.0516 19.2812 Q23.0516 18.25 23.4735 17.5078 Q23.8954 16.7656 24.6141 16.3047 Q25.3329 15.8438 26.2938 15.6328 Q27.2548 15.4219 28.3016 15.4219 Q28.6454 15.4219 29.0048 15.4531 Q29.3641 15.4844 29.6844 15.5469 Q30.0048 15.6094 30.2469 15.6562 Q30.4891 15.7031 30.5829 15.7344 L30.5829 15.1094 Q30.5829 14.5469 30.4657 14.0078 Q30.3485 13.4688 30.036 13.0469 Q29.7235 12.625 29.1844 12.375 Q28.6454 12.125 27.786 12.125 Q26.6766 12.125 25.8485 12.2812 Q25.0204 12.4375 24.6141 12.6094 L24.3485 10.7656 Q24.786 10.5625 25.7938 10.3828 Q26.8016 10.2031 27.9735 10.2031 Z"
    /></g
    ><g style="fill:rgb(38,38,38); text-rendering:geometricPrecision; color-rendering:optimizeQuality; image-rendering:optimizeQuality; stroke-linejoin:round; stroke:rgb(38,38,38); color-interpolation:linearRGB;"
    ><line y2="145" style="fill:none;" x1="479" x2="479" y1="1719"
      /><line y2="145" style="fill:none;" x1="3336" x2="3336" y1="1719"
      /><line y2="1719" style="fill:none;" x1="479" x2="507.57" y1="1719"
      /><line y2="1456.0327" style="fill:none;" x1="479" x2="507.57" y1="1456.0327"
      /><line y2="1193.0654" style="fill:none;" x1="479" x2="507.57" y1="1193.0654"
      /><line y2="930.0981" style="fill:none;" x1="479" x2="507.57" y1="930.0981"
      /><line y2="667.1308" style="fill:none;" x1="479" x2="507.57" y1="667.1308"
      /><line y2="404.1635" style="fill:none;" x1="479" x2="507.57" y1="404.1635"
      /><line y2="1719" style="fill:none;" x1="3336" x2="3307.4299" y1="1719"
      /><line y2="1456.0327" style="fill:none;" x1="3336" x2="3307.4299" y1="1456.0327"
      /><line y2="1193.0654" style="fill:none;" x1="3336" x2="3307.4299" y1="1193.0654"
      /><line y2="930.0981" style="fill:none;" x1="3336" x2="3307.4299" y1="930.0981"
      /><line y2="667.1308" style="fill:none;" x1="3336" x2="3307.4299" y1="667.1308"
      /><line y2="404.1635" style="fill:none;" x1="3336" x2="3307.4299" y1="404.1635"
    /></g
    ><g transform="translate(471,1719)" style="font-size:20px; fill:rgb(38,38,38); text-rendering:geometricPrecision; image-rendering:optimizeQuality; color-rendering:optimizeQuality; font-family:'SansSerif'; stroke:rgb(38,38,38); color-interpolation:linearRGB;"
    ><path style="stroke:none;" d="M-6.6406 -6.2812 Q-8.1719 -6.2812 -8.9375 -4.7812 Q-9.7031 -3.2812 -9.7031 -0.2812 Q-9.7031 2.7188 -8.9375 4.2188 Q-8.1719 5.7188 -6.6406 5.7188 Q-5.1094 5.7188 -4.3438 4.2188 Q-3.5781 2.7188 -3.5781 -0.2812 Q-3.5781 -3.2812 -4.3438 -4.7812 Q-5.1094 -6.2812 -6.6406 -6.2812 ZM-6.6406 -7.8438 Q-4.1875 -7.8438 -2.8984 -5.9062 Q-1.6094 -3.9688 -1.6094 -0.2812 Q-1.6094 3.4062 -2.8984 5.3438 Q-4.1875 7.2812 -6.6406 7.2812 Q-9.0938 7.2812 -10.3906 5.3438 Q-11.6875 3.4062 -11.6875 -0.2812 Q-11.6875 -3.9688 -10.3906 -5.9062 Q-9.0938 -7.8438 -6.6406 -7.8438 Z"
    /></g
    ><g transform="translate(471,1456.0327)" style="font-size:20px; fill:rgb(38,38,38); text-rendering:geometricPrecision; image-rendering:optimizeQuality; color-rendering:optimizeQuality; font-family:'SansSerif'; stroke:rgb(38,38,38); color-interpolation:linearRGB;"
    ><path style="stroke:none;" d="M-38.6406 -6.2812 Q-40.1719 -6.2812 -40.9375 -4.7812 Q-41.7031 -3.2812 -41.7031 -0.2812 Q-41.7031 2.7188 -40.9375 4.2188 Q-40.1719 5.7188 -38.6406 5.7188 Q-37.1094 5.7188 -36.3438 4.2188 Q-35.5781 2.7188 -35.5781 -0.2812 Q-35.5781 -3.2812 -36.3438 -4.7812 Q-37.1094 -6.2812 -38.6406 -6.2812 ZM-38.6406 -7.8438 Q-36.1875 -7.8438 -34.8984 -5.9062 Q-33.6094 -3.9688 -33.6094 -0.2812 Q-33.6094 3.4062 -34.8984 5.3438 Q-36.1875 7.2812 -38.6406 7.2812 Q-41.0938 7.2812 -42.3906 5.3438 Q-43.6875 3.4062 -43.6875 -0.2812 Q-43.6875 -3.9688 -42.3906 -5.9062 Q-41.0938 -7.8438 -38.6406 -7.8438 ZM-30.1348 4.5156 L-28.0723 4.5156 L-28.0723 7 L-30.1348 7 L-30.1348 4.5156 ZM-19.5586 -6.2812 Q-21.0898 -6.2812 -21.8555 -4.7812 Q-22.6211 -3.2812 -22.6211 -0.2812 Q-22.6211 2.7188 -21.8555 4.2188 Q-21.0898 5.7188 -19.5586 5.7188 Q-18.0273 5.7188 -17.2617 4.2188 Q-16.4961 2.7188 -16.4961 -0.2812 Q-16.4961 -3.2812 -17.2617 -4.7812 Q-18.0273 -6.2812 -19.5586 -6.2812 ZM-19.5586 -7.8438 Q-17.1055 -7.8438 -15.8164 -5.9062 Q-14.5273 -3.9688 -14.5273 -0.2812 Q-14.5273 3.4062 -15.8164 5.3438 Q-17.1055 7.2812 -19.5586 7.2812 Q-22.0117 7.2812 -23.3086 5.3438 Q-24.6055 3.4062 -24.6055 -0.2812 Q-24.6055 -3.9688 -23.3086 -5.9062 Q-22.0117 -7.8438 -19.5586 -7.8438 ZM-11.0371 -7.5781 L-3.2871 -7.5781 L-3.2871 -5.9219 L-9.2246 -5.9219 L-9.2246 -2.3438 Q-8.8027 -2.5 -8.373 -2.5703 Q-7.9434 -2.6406 -7.5059 -2.6406 Q-5.0684 -2.6406 -3.6387 -1.3047 Q-2.209 0.0312 -2.209 2.3281 Q-2.209 4.6719 -3.6777 5.9766 Q-5.1465 7.2812 -7.8184 7.2812 Q-8.7246 7.2812 -9.6777 7.125 Q-10.6309 6.9688 -11.6465 6.6562 L-11.6465 4.6719 Q-10.7715 5.1562 -9.834 5.3906 Q-8.8965 5.625 -7.8496 5.625 Q-6.1621 5.625 -5.1777 4.7344 Q-4.1934 3.8438 -4.1934 2.3281 Q-4.1934 0.7969 -5.1777 -0.0938 Q-6.1621 -0.9844 -7.8496 -0.9844 Q-8.6465 -0.9844 -9.4277 -0.8047 Q-10.209 -0.625 -11.0371 -0.25 L-11.0371 -7.5781 Z"
    /></g
    ><g transform="translate(471,1193.0654)" style="font-size:20px; fill:rgb(38,38,38); text-rendering:geometricPrecision; image-rendering:optimizeQuality; color-rendering:optimizeQuality; font-family:'SansSerif'; stroke:rgb(38,38,38); color-interpolation:linearRGB;"
    ><path style="stroke:none;" d="M-25.6406 -6.2812 Q-27.1719 -6.2812 -27.9375 -4.7812 Q-28.7031 -3.2812 -28.7031 -0.2812 Q-28.7031 2.7188 -27.9375 4.2188 Q-27.1719 5.7188 -25.6406 5.7188 Q-24.1094 5.7188 -23.3438 4.2188 Q-22.5781 2.7188 -22.5781 -0.2812 Q-22.5781 -3.2812 -23.3438 -4.7812 Q-24.1094 -6.2812 -25.6406 -6.2812 ZM-25.6406 -7.8438 Q-23.1875 -7.8438 -21.8984 -5.9062 Q-20.6094 -3.9688 -20.6094 -0.2812 Q-20.6094 3.4062 -21.8984 5.3438 Q-23.1875 7.2812 -25.6406 7.2812 Q-28.0938 7.2812 -29.3906 5.3438 Q-30.6875 3.4062 -30.6875 -0.2812 Q-30.6875 -3.9688 -29.3906 -5.9062 Q-28.0938 -7.8438 -25.6406 -7.8438 ZM-17.1348 4.5156 L-15.0723 4.5156 L-15.0723 7 L-17.1348 7 L-17.1348 4.5156 ZM-10.4336 5.3438 L-7.2148 5.3438 L-7.2148 -5.7812 L-10.7148 -5.0781 L-10.7148 -6.875 L-7.2305 -7.5781 L-5.2617 -7.5781 L-5.2617 5.3438 L-2.043 5.3438 L-2.043 7 L-10.4336 7 L-10.4336 5.3438 Z"
    /></g
    ><g transform="translate(471,930.0981)" style="font-size:20px; fill:rgb(38,38,38); text-rendering:geometricPrecision; image-rendering:optimizeQuality; color-rendering:optimizeQuality; font-family:'SansSerif'; stroke:rgb(38,38,38); color-interpolation:linearRGB;"
    ><path style="stroke:none;" d="M-38.6406 -6.2812 Q-40.1719 -6.2812 -40.9375 -4.7812 Q-41.7031 -3.2812 -41.7031 -0.2812 Q-41.7031 2.7188 -40.9375 4.2188 Q-40.1719 5.7188 -38.6406 5.7188 Q-37.1094 5.7188 -36.3438 4.2188 Q-35.5781 2.7188 -35.5781 -0.2812 Q-35.5781 -3.2812 -36.3438 -4.7812 Q-37.1094 -6.2812 -38.6406 -6.2812 ZM-38.6406 -7.8438 Q-36.1875 -7.8438 -34.8984 -5.9062 Q-33.6094 -3.9688 -33.6094 -0.2812 Q-33.6094 3.4062 -34.8984 5.3438 Q-36.1875 7.2812 -38.6406 7.2812 Q-41.0938 7.2812 -42.3906 5.3438 Q-43.6875 3.4062 -43.6875 -0.2812 Q-43.6875 -3.9688 -42.3906 -5.9062 Q-41.0938 -7.8438 -38.6406 -7.8438 ZM-30.1348 4.5156 L-28.0723 4.5156 L-28.0723 7 L-30.1348 7 L-30.1348 4.5156 ZM-23.4336 5.3438 L-20.2148 5.3438 L-20.2148 -5.7812 L-23.7148 -5.0781 L-23.7148 -6.875 L-20.2305 -7.5781 L-18.2617 -7.5781 L-18.2617 5.3438 L-15.043 5.3438 L-15.043 7 L-23.4336 7 L-23.4336 5.3438 ZM-11.0371 -7.5781 L-3.2871 -7.5781 L-3.2871 -5.9219 L-9.2246 -5.9219 L-9.2246 -2.3438 Q-8.8027 -2.5 -8.373 -2.5703 Q-7.9434 -2.6406 -7.5059 -2.6406 Q-5.0684 -2.6406 -3.6387 -1.3047 Q-2.209 0.0312 -2.209 2.3281 Q-2.209 4.6719 -3.6777 5.9766 Q-5.1465 7.2812 -7.8184 7.2812 Q-8.7246 7.2812 -9.6777 7.125 Q-10.6309 6.9688 -11.6465 6.6562 L-11.6465 4.6719 Q-10.7715 5.1562 -9.834 5.3906 Q-8.8965 5.625 -7.8496 5.625 Q-6.1621 5.625 -5.1777 4.7344 Q-4.1934 3.8438 -4.1934 2.3281 Q-4.1934 0.7969 -5.1777 -0.0938 Q-6.1621 -0.9844 -7.8496 -0.9844 Q-8.6465 -0.9844 -9.4277 -0.8047 Q-10.209 -0.625 -11.0371 -0.25 L-11.0371 -7.5781 Z"
    /></g
    ><g transform="translate(471,667.1308)" style="font-size:20px; fill:rgb(38,38,38); text-rendering:geometricPrecision; image-rendering:optimizeQuality; color-rendering:optimizeQuality; font-family:'SansSerif'; stroke:rgb(38,38,38); color-interpolation:linearRGB;"
    ><path style="stroke:none;" d="M-25.6406 -6.2812 Q-27.1719 -6.2812 -27.9375 -4.7812 Q-28.7031 -3.2812 -28.7031 -0.2812 Q-28.7031 2.7188 -27.9375 4.2188 Q-27.1719 5.7188 -25.6406 5.7188 Q-24.1094 5.7188 -23.3438 4.2188 Q-22.5781 2.7188 -22.5781 -0.2812 Q-22.5781 -3.2812 -23.3438 -4.7812 Q-24.1094 -6.2812 -25.6406 -6.2812 ZM-25.6406 -7.8438 Q-23.1875 -7.8438 -21.8984 -5.9062 Q-20.6094 -3.9688 -20.6094 -0.2812 Q-20.6094 3.4062 -21.8984 5.3438 Q-23.1875 7.2812 -25.6406 7.2812 Q-28.0938 7.2812 -29.3906 5.3438 Q-30.6875 3.4062 -30.6875 -0.2812 Q-30.6875 -3.9688 -29.3906 -5.9062 Q-28.0938 -7.8438 -25.6406 -7.8438 ZM-17.1348 4.5156 L-15.0723 4.5156 L-15.0723 7 L-17.1348 7 L-17.1348 4.5156 ZM-9.0742 5.3438 L-2.1992 5.3438 L-2.1992 7 L-11.4492 7 L-11.4492 5.3438 Q-10.3242 4.1719 -8.3867 2.2188 Q-6.4492 0.2656 -5.9492 -0.3125 Q-5.0117 -1.375 -4.6367 -2.1094 Q-4.2617 -2.8438 -4.2617 -3.5625 Q-4.2617 -4.7188 -5.0742 -5.4531 Q-5.8867 -6.1875 -7.1992 -6.1875 Q-8.1211 -6.1875 -9.1523 -5.8672 Q-10.1836 -5.5469 -11.3555 -4.8906 L-11.3555 -6.875 Q-10.168 -7.3594 -9.1289 -7.6016 Q-8.0898 -7.8438 -7.2305 -7.8438 Q-4.9648 -7.8438 -3.6211 -6.7109 Q-2.2773 -5.5781 -2.2773 -3.6875 Q-2.2773 -2.7812 -2.6133 -1.9766 Q-2.9492 -1.1719 -3.8398 -0.0781 Q-4.0742 0.2031 -5.3867 1.5547 Q-6.6992 2.9062 -9.0742 5.3438 Z"
    /></g
    ><g transform="translate(471,404.1635)" style="font-size:20px; fill:rgb(38,38,38); text-rendering:geometricPrecision; image-rendering:optimizeQuality; color-rendering:optimizeQuality; font-family:'SansSerif'; stroke:rgb(38,38,38); color-interpolation:linearRGB;"
    ><path style="stroke:none;" d="M-38.6406 -6.2812 Q-40.1719 -6.2812 -40.9375 -4.7812 Q-41.7031 -3.2812 -41.7031 -0.2812 Q-41.7031 2.7188 -40.9375 4.2188 Q-40.1719 5.7188 -38.6406 5.7188 Q-37.1094 5.7188 -36.3438 4.2188 Q-35.5781 2.7188 -35.5781 -0.2812 Q-35.5781 -3.2812 -36.3438 -4.7812 Q-37.1094 -6.2812 -38.6406 -6.2812 ZM-38.6406 -7.8438 Q-36.1875 -7.8438 -34.8984 -5.9062 Q-33.6094 -3.9688 -33.6094 -0.2812 Q-33.6094 3.4062 -34.8984 5.3438 Q-36.1875 7.2812 -38.6406 7.2812 Q-41.0938 7.2812 -42.3906 5.3438 Q-43.6875 3.4062 -43.6875 -0.2812 Q-43.6875 -3.9688 -42.3906 -5.9062 Q-41.0938 -7.8438 -38.6406 -7.8438 ZM-30.1348 4.5156 L-28.0723 4.5156 L-28.0723 7 L-30.1348 7 L-30.1348 4.5156 ZM-22.0742 5.3438 L-15.1992 5.3438 L-15.1992 7 L-24.4492 7 L-24.4492 5.3438 Q-23.3242 4.1719 -21.3867 2.2188 Q-19.4492 0.2656 -18.9492 -0.3125 Q-18.0117 -1.375 -17.6367 -2.1094 Q-17.2617 -2.8438 -17.2617 -3.5625 Q-17.2617 -4.7188 -18.0742 -5.4531 Q-18.8867 -6.1875 -20.1992 -6.1875 Q-21.1211 -6.1875 -22.1523 -5.8672 Q-23.1836 -5.5469 -24.3555 -4.8906 L-24.3555 -6.875 Q-23.168 -7.3594 -22.1289 -7.6016 Q-21.0898 -7.8438 -20.2305 -7.8438 Q-17.9648 -7.8438 -16.6211 -6.7109 Q-15.2773 -5.5781 -15.2773 -3.6875 Q-15.2773 -2.7812 -15.6133 -1.9766 Q-15.9492 -1.1719 -16.8398 -0.0781 Q-17.0742 0.2031 -18.3867 1.5547 Q-19.6992 2.9062 -22.0742 5.3438 ZM-11.0371 -7.5781 L-3.2871 -7.5781 L-3.2871 -5.9219 L-9.2246 -5.9219 L-9.2246 -2.3438 Q-8.8027 -2.5 -8.373 -2.5703 Q-7.9434 -2.6406 -7.5059 -2.6406 Q-5.0684 -2.6406 -3.6387 -1.3047 Q-2.209 0.0312 -2.209 2.3281 Q-2.209 4.6719 -3.6777 5.9766 Q-5.1465 7.2812 -7.8184 7.2812 Q-8.7246 7.2812 -9.6777 7.125 Q-10.6309 6.9688 -11.6465 6.6562 L-11.6465 4.6719 Q-10.7715 5.1562 -9.834 5.3906 Q-8.8965 5.625 -7.8496 5.625 Q-6.1621 5.625 -5.1777 4.7344 Q-4.1934 3.8438 -4.1934 2.3281 Q-4.1934 0.7969 -5.1777 -0.0938 Q-6.1621 -0.9844 -7.8496 -0.9844 Q-8.6465 -0.9844 -9.4277 -0.8047 Q-10.209 -0.625 -11.0371 -0.25 L-11.0371 -7.5781 Z"
    /></g
    ><g transform="translate(420,931.9992) rotate(-90)" style="font-size:24px; fill:rgb(38,38,38); text-rendering:geometricPrecision; image-rendering:optimizeQuality; color-rendering:optimizeQuality; font-family:'Ubuntu'; stroke:rgb(38,38,38); color-interpolation:linearRGB;"
    ><path style="stroke:none;" d="M-53.5156 -21.7969 Q-50.0156 -21.7969 -48.1328 -20.4688 Q-46.25 -19.1406 -46.25 -16.5 Q-46.25 -15.0625 -46.7656 -14.0391 Q-47.2812 -13.0156 -48.25 -12.3828 Q-49.2188 -11.75 -50.6172 -11.4609 Q-52.0156 -11.1719 -53.7656 -11.1719 L-55.6094 -11.1719 L-55.6094 -5 L-57.9375 -5 L-57.9375 -21.3906 Q-56.9531 -21.625 -55.7422 -21.7109 Q-54.5312 -21.7969 -53.5156 -21.7969 ZM-53.3281 -19.7656 Q-54.8125 -19.7656 -55.6094 -19.6875 L-55.6094 -13.1562 L-53.8594 -13.1562 Q-52.6562 -13.1562 -51.6953 -13.3125 Q-50.7344 -13.4688 -50.0781 -13.8438 Q-49.4219 -14.2188 -49.0625 -14.8672 Q-48.7031 -15.5156 -48.7031 -16.5156 Q-48.7031 -17.4844 -49.0703 -18.1094 Q-49.4375 -18.7344 -50.0781 -19.1016 Q-50.7188 -19.4688 -51.5547 -19.6172 Q-52.3906 -19.7656 -53.3281 -19.7656 ZM-38.8848 -17.75 Q-38.6035 -17.75 -38.2285 -17.7109 Q-37.8535 -17.6719 -37.4941 -17.6094 Q-37.1348 -17.5469 -36.8379 -17.4922 Q-36.541 -17.4375 -36.3848 -17.3906 L-36.7754 -15.4375 Q-37.041 -15.5312 -37.6504 -15.6641 Q-38.2598 -15.7969 -39.2285 -15.7969 Q-39.8535 -15.7969 -40.4629 -15.6641 Q-41.0723 -15.5312 -41.2598 -15.4844 L-41.2598 -5 L-43.4941 -5 L-43.4941 -16.9531 Q-42.6973 -17.2344 -41.5254 -17.4922 Q-40.3535 -17.75 -38.8848 -17.75 ZM-23.2196 -11.2344 Q-23.2196 -9.75 -23.6493 -8.5547 Q-24.079 -7.3594 -24.8602 -6.4922 Q-25.6415 -5.625 -26.7196 -5.1562 Q-27.7977 -4.6875 -29.079 -4.6875 Q-30.3446 -4.6875 -31.4305 -5.1562 Q-32.5165 -5.625 -33.2899 -6.4922 Q-34.0634 -7.3594 -34.5009 -8.5547 Q-34.9384 -9.75 -34.9384 -11.2344 Q-34.9384 -12.7031 -34.5009 -13.9141 Q-34.0634 -15.125 -33.2899 -15.9922 Q-32.5165 -16.8594 -31.4305 -17.3281 Q-30.3446 -17.7969 -29.079 -17.7969 Q-27.7977 -17.7969 -26.7196 -17.3281 Q-25.6415 -16.8594 -24.8602 -15.9922 Q-24.079 -15.125 -23.6493 -13.9141 Q-23.2196 -12.7031 -23.2196 -11.2344 ZM-25.5477 -11.2344 Q-25.5477 -13.3594 -26.493 -14.5938 Q-27.4384 -15.8281 -29.079 -15.8281 Q-30.704 -15.8281 -31.6571 -14.5938 Q-32.6102 -13.3594 -32.6102 -11.2344 Q-32.6102 -9.125 -31.6571 -7.8906 Q-30.704 -6.6562 -29.079 -6.6562 Q-27.4384 -6.6562 -26.493 -7.8906 Q-25.5477 -9.125 -25.5477 -11.2344 ZM-17.8486 -16.9219 Q-17.4424 -17.1875 -16.6143 -17.4766 Q-15.7861 -17.7656 -14.708 -17.7656 Q-13.3643 -17.7656 -12.3174 -17.2891 Q-11.2705 -16.8125 -10.5518 -15.9453 Q-9.833 -15.0781 -9.4658 -13.8828 Q-9.0986 -12.6875 -9.0986 -11.2344 Q-9.0986 -9.7344 -9.5361 -8.5156 Q-9.9736 -7.2969 -10.7939 -6.4609 Q-11.6143 -5.625 -12.7627 -5.1719 Q-13.9111 -4.7188 -15.3643 -4.7188 Q-16.9111 -4.7188 -18.1143 -4.9297 Q-19.3174 -5.1406 -20.083 -5.3594 L-20.083 -23.2344 L-17.8486 -23.625 L-17.8486 -16.9219 ZM-17.8486 -6.9375 Q-17.5205 -6.8438 -16.9033 -6.7656 Q-16.2861 -6.6875 -15.3799 -6.6875 Q-13.583 -6.6875 -12.5049 -7.875 Q-11.4268 -9.0625 -11.4268 -11.2344 Q-11.4268 -12.2031 -11.6143 -13.0391 Q-11.8018 -13.875 -12.2314 -14.4922 Q-12.6611 -15.1094 -13.3486 -15.4531 Q-14.0361 -15.7969 -14.9893 -15.7969 Q-15.9111 -15.7969 -16.6768 -15.4844 Q-17.4424 -15.1719 -17.8486 -14.8438 L-17.8486 -6.9375 ZM-1.736 -6.6094 Q-0.9391 -6.6094 -0.3298 -6.6484 Q0.2796 -6.6875 0.6859 -6.7812 L0.6859 -10.5 Q0.4515 -10.6094 -0.0876 -10.6953 Q-0.6266 -10.7812 -1.3923 -10.7812 Q-1.9079 -10.7812 -2.4704 -10.7109 Q-3.0329 -10.6406 -3.5016 -10.4141 Q-3.9704 -10.1875 -4.2829 -9.7891 Q-4.5954 -9.3906 -4.5954 -8.75 Q-4.5954 -7.5469 -3.822 -7.0781 Q-3.0485 -6.6094 -1.736 -6.6094 ZM-1.9235 -17.7969 Q-0.5798 -17.7969 0.3421 -17.4453 Q1.264 -17.0938 1.8265 -16.4609 Q2.389 -15.8281 2.6312 -14.9531 Q2.8734 -14.0781 2.8734 -13.0156 L2.8734 -5.2188 Q2.5921 -5.1719 2.0765 -5.0859 Q1.5609 -5 0.9124 -4.9297 Q0.264 -4.8594 -0.4938 -4.7969 Q-1.2516 -4.7344 -2.0016 -4.7344 Q-3.0485 -4.7344 -3.9391 -4.9531 Q-4.8298 -5.1719 -5.4782 -5.6406 Q-6.1266 -6.1094 -6.486 -6.875 Q-6.8454 -7.6406 -6.8454 -8.7188 Q-6.8454 -9.75 -6.4235 -10.4922 Q-6.0016 -11.2344 -5.2829 -11.6953 Q-4.5641 -12.1562 -3.6032 -12.3672 Q-2.6423 -12.5781 -1.5954 -12.5781 Q-1.2516 -12.5781 -0.8923 -12.5469 Q-0.5329 -12.5156 -0.2126 -12.4531 Q0.1077 -12.3906 0.3499 -12.3438 Q0.5921 -12.2969 0.6859 -12.2656 L0.6859 -12.8906 Q0.6859 -13.4531 0.5687 -13.9922 Q0.4515 -14.5312 0.139 -14.9531 Q-0.1735 -15.375 -0.7126 -15.625 Q-1.2516 -15.875 -2.111 -15.875 Q-3.2204 -15.875 -4.0485 -15.7188 Q-4.8766 -15.5625 -5.2829 -15.3906 L-5.5485 -17.2344 Q-5.111 -17.4375 -4.1032 -17.6172 Q-3.0954 -17.7969 -1.9235 -17.7969 ZM8.8007 -16.9219 Q9.207 -17.1875 10.0351 -17.4766 Q10.8632 -17.7656 11.9413 -17.7656 Q13.2851 -17.7656 14.332 -17.2891 Q15.3788 -16.8125 16.0976 -15.9453 Q16.8163 -15.0781 17.1835 -13.8828 Q17.5507 -12.6875 17.5507 -11.2344 Q17.5507 -9.7344 17.1132 -8.5156 Q16.6757 -7.2969 15.8554 -6.4609 Q15.0351 -5.625 13.8867 -5.1719 Q12.7382 -4.7188 11.2851 -4.7188 Q9.7382 -4.7188 8.5351 -4.9297 Q7.332 -5.1406 6.5663 -5.3594 L6.5663 -23.2344 L8.8007 -23.625 L8.8007 -16.9219 ZM8.8007 -6.9375 Q9.1288 -6.8438 9.746 -6.7656 Q10.3632 -6.6875 11.2695 -6.6875 Q13.0663 -6.6875 14.1445 -7.875 Q15.2226 -9.0625 15.2226 -11.2344 Q15.2226 -12.2031 15.0351 -13.0391 Q14.8476 -13.875 14.4179 -14.4922 Q13.9882 -15.1094 13.3007 -15.4531 Q12.6132 -15.7969 11.6601 -15.7969 Q10.7382 -15.7969 9.9726 -15.4844 Q9.207 -15.1719 8.8007 -14.8438 L8.8007 -6.9375 ZM22.929 -5 L20.6946 -5 L20.6946 -17.4844 L22.929 -17.4844 L22.929 -5 ZM21.804 -19.7344 Q21.1946 -19.7344 20.7727 -20.1328 Q20.3508 -20.5312 20.3508 -21.2031 Q20.3508 -21.875 20.7727 -22.2656 Q21.1946 -22.6562 21.804 -22.6562 Q22.3977 -22.6562 22.8196 -22.2656 Q23.2415 -21.875 23.2415 -21.2031 Q23.2415 -20.5312 22.8196 -20.1328 Q22.3977 -19.7344 21.804 -19.7344 ZM30.4976 -4.7656 Q28.4351 -4.8125 27.5757 -5.6484 Q26.7164 -6.4844 26.7164 -8.2656 L26.7164 -23.2344 L28.9507 -23.625 L28.9507 -8.625 Q28.9507 -8.0781 29.0445 -7.7188 Q29.1382 -7.3594 29.357 -7.1406 Q29.5757 -6.9219 29.9351 -6.8125 Q30.2945 -6.7031 30.8101 -6.625 L30.4976 -4.7656 ZM35.546 -5 L33.3116 -5 L33.3116 -17.4844 L35.546 -17.4844 L35.546 -5 ZM34.421 -19.7344 Q33.8116 -19.7344 33.3898 -20.1328 Q32.9679 -20.5312 32.9679 -21.2031 Q32.9679 -21.875 33.3898 -22.2656 Q33.8116 -22.6562 34.421 -22.6562 Q35.0148 -22.6562 35.4366 -22.2656 Q35.8585 -21.875 35.8585 -21.2031 Q35.8585 -20.5312 35.4366 -20.1328 Q35.0148 -19.7344 34.421 -19.7344 ZM41.4741 -17.4844 L46.1928 -17.4844 L46.1928 -15.6094 L41.4741 -15.6094 L41.4741 -9.8438 Q41.4741 -8.9062 41.6147 -8.2969 Q41.7553 -7.6875 42.0444 -7.3359 Q42.3334 -6.9844 42.7631 -6.8438 Q43.1928 -6.7031 43.7709 -6.7031 Q44.7709 -6.7031 45.3881 -6.9297 Q46.0053 -7.1562 46.2397 -7.25 L46.6772 -5.4062 Q46.3334 -5.2344 45.4975 -4.9844 Q44.6616 -4.7344 43.5834 -4.7344 Q42.3022 -4.7344 41.4741 -5.0625 Q40.6459 -5.3906 40.1459 -6.0391 Q39.6459 -6.6875 39.4428 -7.6328 Q39.2397 -8.5781 39.2397 -9.8281 L39.2397 -20.9531 L41.4741 -21.3438 L41.4741 -17.4844 ZM47.5543 -2.6719 Q47.8199 -2.5469 48.2418 -2.4453 Q48.6636 -2.3438 49.0699 -2.3438 Q50.3824 -2.3438 51.1324 -2.9297 Q51.8824 -3.5156 52.4761 -4.8281 Q50.9605 -7.7188 49.6558 -10.9453 Q48.3511 -14.1719 47.4918 -17.4844 L49.8824 -17.4844 Q50.148 -16.4062 50.523 -15.1562 Q50.898 -13.9062 51.3511 -12.5859 Q51.8043 -11.2656 52.3355 -9.9453 Q52.8668 -8.625 53.4449 -7.4062 Q54.3511 -9.9219 55.023 -12.3906 Q55.6949 -14.8594 56.2886 -17.4844 L58.6011 -17.4844 Q57.7261 -13.9531 56.6714 -10.7031 Q55.6168 -7.4531 54.398 -4.6094 Q53.9136 -3.5312 53.398 -2.75 Q52.8824 -1.9688 52.2574 -1.4688 Q51.6324 -0.9688 50.8511 -0.7266 Q50.0699 -0.4844 49.0855 -0.4844 Q48.8355 -0.4844 48.5464 -0.5234 Q48.2574 -0.5625 47.9761 -0.625 Q47.6949 -0.6875 47.4683 -0.7578 Q47.2418 -0.8281 47.148 -0.875 L47.5543 -2.6719 Z"
    /></g
  ></g
></svg
>
