<?xml version="1.0"?>
<!DOCTYPE svg PUBLIC '-//W3C//DTD SVG 1.0//EN'
          'http://www.w3.org/TR/2001/REC-SVG-20010904/DTD/svg10.dtd'>
<svg xmlns:xlink="http://www.w3.org/1999/xlink" style="fill-opacity:1; color-rendering:auto; color-interpolation:auto; text-rendering:auto; stroke:black; stroke-linecap:square; stroke-miterlimit:10; shape-rendering:auto; stroke-opacity:1; fill:black; stroke-dasharray:none; font-weight:normal; stroke-width:1; font-family:'Dialog'; font-style:normal; stroke-linejoin:miter; font-size:12px; stroke-dashoffset:0; image-rendering:auto;" width="3686" height="1932" xmlns="http://www.w3.org/2000/svg"
><!--Generated by the Batik Graphics2D SVG Generator--><defs id="genericDefs"
  /><g
  ><defs id="defs1"
    ><clipPath clipPathUnits="userSpaceOnUse" id="clipPath1"
      ><path d="M0 0 L3686 0 L3686 1932 L0 1932 L0 0 Z"
      /></clipPath
    ></defs
    ><g style="fill:white; stroke:white;"
    ><rect x="0" y="0" width="3686" style="clip-path:url(#clipPath1); stroke:none;" height="1932"
    /></g
    ><g style="fill:white; text-rendering:optimizeSpeed; color-rendering:optimizeSpeed; image-rendering:optimizeSpeed; shape-rendering:crispEdges; stroke:white; color-interpolation:sRGB;"
    ><rect x="0" width="3686" height="1932" y="0" style="stroke:none;"
      /><path style="stroke:none;" d="M479 1719 L3336 1719 L3336 145 L479 145 Z"
    /></g
    ><g transform="translate(1684,127)" style="font-size:23.8333px; text-rendering:geometricPrecision; image-rendering:optimizeQuality; color-rendering:optimizeQuality; font-family:'Ubuntu'; color-interpolation:linearRGB; font-weight:bold;"
    ><path style="stroke:none;" d="M5.25 -8.0625 Q5.7812 -8.6406 6.3438 -9.2656 Q6.9062 -9.8906 7.4375 -10.5 Q7.9688 -11.1094 8.4375 -11.6641 Q8.9062 -12.2188 9.2344 -12.625 L13.4844 -12.625 Q12.2188 -11.1562 11.0078 -9.8281 Q9.7969 -8.5 8.3594 -7.0781 Q9.0781 -6.4375 9.8438 -5.5312 Q10.6094 -4.625 11.3281 -3.6719 Q12.0469 -2.7188 12.6484 -1.7578 Q13.25 -0.7969 13.6562 0 L9.5469 0 Q9.1719 -0.625 8.6797 -1.3828 Q8.1875 -2.1406 7.6328 -2.8906 Q7.0781 -3.6406 6.4688 -4.3438 Q5.8594 -5.0469 5.25 -5.5156 L5.25 0 L1.6875 0 L1.6875 -18.0469 L5.25 -18.625 L5.25 -8.0625 Z"
    /></g
    ><g transform="translate(1698,138)" style="font-size:19.0667px; text-rendering:geometricPrecision; image-rendering:optimizeQuality; color-rendering:optimizeQuality; font-family:'Ubuntu'; color-interpolation:linearRGB; font-weight:bold;"
    ><path style="stroke:none;" d="M7.7344 -5.0781 Q7.7344 -7.8125 5.7188 -7.8125 Q5.2812 -7.8125 4.8516 -7.6953 Q4.4219 -7.5781 4.1562 -7.4062 L4.1562 -2.2656 Q4.375 -2.2188 4.6953 -2.1953 Q5.0156 -2.1719 5.3906 -2.1719 Q6.5625 -2.1719 7.1484 -2.9688 Q7.7344 -3.7656 7.7344 -5.0781 ZM10.625 -5 Q10.625 -3.7969 10.2734 -2.8281 Q9.9219 -1.8594 9.2578 -1.1797 Q8.5938 -0.5 7.625 -0.125 Q6.6562 0.25 5.4219 0.25 Q4.9062 0.25 4.3438 0.2031 Q3.7812 0.1562 3.2422 0.0781 Q2.7031 0 2.2031 -0.1016 Q1.7031 -0.2031 1.3281 -0.3281 L1.3281 -14.2812 L4.1562 -14.75 L4.1562 -9.7656 Q4.6406 -9.9688 5.1484 -10.0859 Q5.6562 -10.2031 6.25 -10.2031 Q7.3125 -10.2031 8.1328 -9.8359 Q8.9531 -9.4688 9.5 -8.7812 Q10.0469 -8.0938 10.3359 -7.1328 Q10.625 -6.1719 10.625 -5 ZM16.6674 -1.9688 Q17.0737 -1.9688 17.4565 -1.9922 Q17.8393 -2.0156 18.0737 -2.0469 L18.0737 -4.2031 Q17.9018 -4.2344 17.558 -4.2734 Q17.2143 -4.3125 16.933 -4.3125 Q16.5268 -4.3125 16.1752 -4.2656 Q15.8237 -4.2188 15.558 -4.0859 Q15.2924 -3.9531 15.144 -3.7266 Q14.9955 -3.5 14.9955 -3.1562 Q14.9955 -2.4844 15.4409 -2.2266 Q15.8862 -1.9688 16.6674 -1.9688 ZM16.433 -10.2656 Q17.683 -10.2656 18.519 -9.9766 Q19.3549 -9.6875 19.8627 -9.1562 Q20.3705 -8.625 20.5737 -7.8672 Q20.7768 -7.1094 20.7768 -6.1719 L20.7768 -0.2812 Q20.1674 -0.1562 19.0893 0.0234 Q18.0112 0.2031 16.4643 0.2031 Q15.4955 0.2031 14.7065 0.0312 Q13.9174 -0.1406 13.3471 -0.5234 Q12.7768 -0.9062 12.4799 -1.5391 Q12.183 -2.1719 12.183 -3.0781 Q12.183 -3.9531 12.5346 -4.5625 Q12.8862 -5.1719 13.4721 -5.5312 Q14.058 -5.8906 14.8159 -6.0547 Q15.5737 -6.2188 16.4018 -6.2188 Q16.9487 -6.2188 17.3705 -6.1719 Q17.7924 -6.125 18.0737 -6.0469 L18.0737 -6.3125 Q18.0737 -7.0312 17.6362 -7.4688 Q17.1987 -7.9062 16.1049 -7.9062 Q15.3862 -7.9062 14.683 -7.7969 Q13.9799 -7.6875 13.4643 -7.5 L13.1049 -9.7812 Q13.3549 -9.8594 13.7221 -9.9453 Q14.0893 -10.0312 14.5268 -10.1016 Q14.9643 -10.1719 15.4487 -10.2188 Q15.933 -10.2656 16.433 -10.2656 ZM29.4097 -7.4844 Q29.0191 -7.5781 28.5113 -7.6875 Q28.0035 -7.7969 27.4097 -7.7969 Q27.1441 -7.7969 26.7691 -7.7422 Q26.3941 -7.6875 26.2066 -7.6406 L26.2066 0 L23.3785 0 L23.3785 -9.4688 Q24.1441 -9.7344 25.1754 -9.9688 Q26.2066 -10.2031 27.4879 -10.2031 Q27.7066 -10.2031 28.0347 -10.1719 Q28.3629 -10.1406 28.6832 -10.0938 Q29.0035 -10.0469 29.3238 -9.9844 Q29.6441 -9.9219 29.8785 -9.8281 L29.4097 -7.4844 Z"
    /></g
    ><g transform="translate(1729,127)" style="font-size:23.8333px; text-rendering:geometricPrecision; image-rendering:optimizeQuality; color-rendering:optimizeQuality; font-family:'Ubuntu'; color-interpolation:linearRGB; font-weight:bold;"
    ><path style="stroke:none;" d="M6.8884 -6.0312 L18.1697 -6.0312 L18.1697 -3.0312 L6.8884 -3.0312 L6.8884 -6.0312 ZM6.8884 -11.2812 L18.1697 -11.2812 L18.1697 -8.2812 L6.8884 -8.2812 L6.8884 -11.2812 ZM26.6498 -13.1719 Q27.3373 -13.4688 28.0951 -13.8359 Q28.8529 -14.2031 29.5717 -14.6484 Q30.2904 -15.0938 30.9467 -15.5859 Q31.6029 -16.0781 32.1342 -16.625 L34.6342 -16.625 L34.6342 0 L31.056 0 L31.056 -11.9688 Q30.3373 -11.5 29.4467 -11.1016 Q28.556 -10.7031 27.7279 -10.4219 L26.6498 -13.1719 ZM51.304 -8.3594 Q51.304 -4.1562 49.7102 -1.9062 Q48.1165 0.3438 45.304 0.3438 Q42.5071 0.3438 40.9055 -1.9062 Q39.304 -4.1562 39.304 -8.3594 Q39.304 -10.4375 39.7258 -12.0469 Q40.1477 -13.6562 40.9368 -14.7578 Q41.7258 -15.8594 42.8352 -16.4375 Q43.9446 -17.0156 45.304 -17.0156 Q48.1165 -17.0156 49.7102 -14.7734 Q51.304 -12.5312 51.304 -8.3594 ZM47.6633 -8.3594 Q47.6633 -9.5938 47.5383 -10.6172 Q47.4133 -11.6406 47.1555 -12.3828 Q46.8977 -13.125 46.4368 -13.5312 Q45.9758 -13.9375 45.304 -13.9375 Q44.6321 -13.9375 44.1868 -13.5312 Q43.7415 -13.125 43.468 -12.3828 Q43.1946 -11.6406 43.0774 -10.6172 Q42.9602 -9.5938 42.9602 -8.3594 Q42.9602 -7.1094 43.0774 -6.0781 Q43.1946 -5.0469 43.468 -4.2969 Q43.7415 -3.5469 44.1868 -3.1406 Q44.6321 -2.7344 45.304 -2.7344 Q45.9758 -2.7344 46.4368 -3.1406 Q46.8977 -3.5469 47.1555 -4.2969 Q47.4133 -5.0469 47.5383 -6.0781 Q47.6633 -7.1094 47.6633 -8.3594 ZM64.1903 -2.8594 Q64.9872 -2.8594 65.5028 -2.9922 Q66.0184 -3.125 66.3309 -3.3516 Q66.6434 -3.5781 66.7606 -3.8906 Q66.8778 -4.2031 66.8778 -4.5781 Q66.8778 -5.4062 66.1122 -5.9453 Q65.3466 -6.4844 63.4716 -7.1094 Q62.6591 -7.3906 61.8387 -7.7656 Q61.0184 -8.1406 60.37 -8.7031 Q59.7216 -9.2656 59.3153 -10.0703 Q58.9091 -10.875 58.9091 -12.0312 Q58.9091 -13.1719 59.3466 -14.1016 Q59.7841 -15.0312 60.5731 -15.6719 Q61.3622 -16.3125 62.4872 -16.6641 Q63.6122 -17.0156 65.0341 -17.0156 Q66.7059 -17.0156 67.9325 -16.6562 Q69.1591 -16.2969 69.9559 -15.8594 L68.8778 -12.9062 Q68.1747 -13.2656 67.3231 -13.5469 Q66.4716 -13.8281 65.2684 -13.8281 Q63.9247 -13.8281 63.3387 -13.4531 Q62.7528 -13.0781 62.7528 -12.3125 Q62.7528 -11.8594 62.9716 -11.5469 Q63.1903 -11.2344 63.5809 -10.9844 Q63.9716 -10.7344 64.4872 -10.5234 Q65.0028 -10.3125 65.6278 -10.1094 Q66.9247 -9.625 67.8856 -9.1562 Q68.8466 -8.6875 69.4872 -8.0625 Q70.1278 -7.4375 70.4403 -6.6016 Q70.7528 -5.7656 70.7528 -4.5625 Q70.7528 -2.2344 69.12 -0.9453 Q67.4872 0.3438 64.1903 0.3438 Q63.0966 0.3438 62.2059 0.2109 Q61.3153 0.0781 60.6278 -0.1172 Q59.9403 -0.3125 59.4481 -0.5312 Q58.9559 -0.75 58.6278 -0.9375 L59.6747 -3.9062 Q60.4247 -3.5 61.5184 -3.1797 Q62.6122 -2.8594 64.1903 -2.8594 ZM73.5217 0 L73.5217 -16.625 L84.7561 -16.625 L84.7561 -13.4844 L77.2561 -13.4844 L77.2561 -10.2188 L83.9123 -10.2188 L83.9123 -7.1562 L77.2561 -7.1562 L77.2561 -3.1406 L85.3029 -3.1406 L85.3029 0 L73.5217 0 ZM101.5163 -6.4062 Q101.5163 -9.8594 98.9694 -9.8594 Q98.4225 -9.8594 97.8835 -9.7188 Q97.3444 -9.5781 97.0007 -9.3594 L97.0007 -2.8594 Q97.2663 -2.8125 97.6804 -2.7734 Q98.0944 -2.7344 98.5632 -2.7344 Q100.0319 -2.7344 100.7741 -3.7422 Q101.5163 -4.75 101.5163 -6.4062 ZM105.1725 -6.3125 Q105.1725 -4.7969 104.7272 -3.5781 Q104.2819 -2.3594 103.4382 -1.4922 Q102.5944 -0.625 101.3757 -0.1562 Q100.1569 0.3125 98.5944 0.3125 Q97.9382 0.3125 97.235 0.25 Q96.5319 0.1875 95.8444 0.0938 Q95.1569 0 94.5319 -0.1328 Q93.9069 -0.2656 93.4382 -0.4062 L93.4382 -18.0469 L97.0007 -18.625 L97.0007 -12.3438 Q97.61 -12.5938 98.2585 -12.7422 Q98.9069 -12.8906 99.6413 -12.8906 Q100.985 -12.8906 102.0163 -12.4219 Q103.0475 -11.9531 103.7507 -11.0859 Q104.4538 -10.2188 104.8132 -9.0078 Q105.1725 -7.7969 105.1725 -6.3125 ZM111.3873 0 L107.8248 0 L107.8248 -12.625 L111.3873 -12.625 L111.3873 0 ZM111.7311 -16.2656 Q111.7311 -15.2812 111.0905 -14.7188 Q110.4498 -14.1562 109.5905 -14.1562 Q108.7311 -14.1562 108.0905 -14.7188 Q107.4498 -15.2812 107.4498 -16.2656 Q107.4498 -17.25 108.0905 -17.8203 Q108.7311 -18.3906 109.5905 -18.3906 Q110.4498 -18.3906 111.0905 -17.8203 Q111.7311 -17.25 111.7311 -16.2656 ZM117.7554 -6.4062 Q117.7554 -4.75 118.4976 -3.7422 Q119.2398 -2.7344 120.7085 -2.7344 Q121.1773 -2.7344 121.5835 -2.7734 Q121.9898 -2.8125 122.2554 -2.8594 L122.2554 -9.3594 Q121.9273 -9.5781 121.3882 -9.7188 Q120.8491 -9.8594 120.2866 -9.8594 Q117.7554 -9.8594 117.7554 -6.4062 ZM125.8335 -0.4062 Q125.3648 -0.2656 124.7398 -0.1328 Q124.1148 0 123.4273 0.0938 Q122.7398 0.1875 122.0288 0.25 Q121.3179 0.3125 120.6773 0.3125 Q119.1148 0.3125 117.8882 -0.1406 Q116.6616 -0.5938 115.8257 -1.4453 Q114.9898 -2.2969 114.5444 -3.5156 Q114.0991 -4.7344 114.0991 -6.2344 Q114.0991 -7.7812 114.4819 -9.0156 Q114.8648 -10.25 115.5835 -11.1094 Q116.3023 -11.9688 117.3491 -12.4297 Q118.396 -12.8906 119.7398 -12.8906 Q120.4898 -12.8906 121.0757 -12.7422 Q121.6616 -12.5938 122.2554 -12.3438 L122.2554 -18.0469 L125.8335 -18.625 L125.8335 -0.4062 ZM137.8586 -6.4062 Q137.8586 -4.75 138.6008 -3.7422 Q139.343 -2.7344 140.8117 -2.7344 Q141.2805 -2.7344 141.6867 -2.7734 Q142.093 -2.8125 142.3586 -2.8594 L142.3586 -9.3594 Q142.0305 -9.5781 141.4914 -9.7188 Q140.9523 -9.8594 140.3898 -9.8594 Q137.8586 -9.8594 137.8586 -6.4062 ZM145.9367 -0.4062 Q145.468 -0.2656 144.843 -0.1328 Q144.218 0 143.5305 0.0938 Q142.843 0.1875 142.132 0.25 Q141.4211 0.3125 140.7805 0.3125 Q139.218 0.3125 137.9914 -0.1406 Q136.7648 -0.5938 135.9289 -1.4453 Q135.093 -2.2969 134.6477 -3.5156 Q134.2023 -4.7344 134.2023 -6.2344 Q134.2023 -7.7812 134.5852 -9.0156 Q134.968 -10.25 135.6867 -11.1094 Q136.4055 -11.9688 137.4523 -12.4297 Q138.4992 -12.8906 139.843 -12.8906 Q140.593 -12.8906 141.1789 -12.7422 Q141.7648 -12.5938 142.3586 -12.3438 L142.3586 -18.0469 L145.9367 -18.625 L145.9367 -0.4062 ZM152.7609 0 L149.1984 0 L149.1984 -12.625 L152.7609 -12.625 L152.7609 0 ZM153.1046 -16.2656 Q153.1046 -15.2812 152.464 -14.7188 Q151.8234 -14.1562 150.964 -14.1562 Q150.1046 -14.1562 149.464 -14.7188 Q148.8234 -15.2812 148.8234 -16.2656 Q148.8234 -17.25 149.464 -17.8203 Q150.1046 -18.3906 150.964 -18.3906 Q151.8234 -18.3906 152.464 -17.8203 Q153.1046 -17.25 153.1046 -16.2656 ZM159.6914 -2.5625 Q160.6758 -2.5625 161.0899 -2.7578 Q161.5039 -2.9531 161.5039 -3.5 Q161.5039 -3.9375 160.9727 -4.2578 Q160.4414 -4.5781 159.3633 -4.9844 Q158.5196 -5.2969 157.8399 -5.6328 Q157.1602 -5.9688 156.6758 -6.4375 Q156.1914 -6.9062 155.9258 -7.5547 Q155.6602 -8.2031 155.6602 -9.125 Q155.6602 -10.8906 156.9805 -11.9219 Q158.3008 -12.9531 160.6133 -12.9531 Q161.7696 -12.9531 162.8242 -12.75 Q163.8789 -12.5469 164.5039 -12.3125 L163.8789 -9.5312 Q163.2539 -9.75 162.5196 -9.9141 Q161.7852 -10.0781 160.8789 -10.0781 Q159.1914 -10.0781 159.1914 -9.1406 Q159.1914 -8.9219 159.2617 -8.7578 Q159.3321 -8.5938 159.5508 -8.4375 Q159.7696 -8.2812 160.1446 -8.1016 Q160.5196 -7.9219 161.0977 -7.7031 Q162.2696 -7.2656 163.0352 -6.8516 Q163.8008 -6.4375 164.2461 -5.9453 Q164.6914 -5.4531 164.8711 -4.8516 Q165.0508 -4.25 165.0508 -3.4531 Q165.0508 -1.5781 163.6446 -0.6172 Q162.2383 0.3438 159.6758 0.3438 Q157.9883 0.3438 156.8789 0.0547 Q155.7696 -0.2344 155.3321 -0.4375 L155.9258 -3.3438 Q156.8477 -2.9688 157.8086 -2.7656 Q158.7696 -2.5625 159.6914 -2.5625 ZM167.5093 -15.7656 L171.0874 -16.3438 L171.0874 -12.625 L175.3843 -12.625 L175.3843 -9.6406 L171.0874 -9.6406 L171.0874 -5.2031 Q171.0874 -4.0781 171.478 -3.4062 Q171.8686 -2.7344 173.0718 -2.7344 Q173.6499 -2.7344 174.2593 -2.8438 Q174.8686 -2.9531 175.3843 -3.1406 L175.8843 -0.3594 Q175.228 -0.0938 174.4389 0.0938 Q173.6499 0.2812 172.4936 0.2812 Q171.0405 0.2812 170.0796 -0.1094 Q169.1186 -0.5 168.5405 -1.2109 Q167.9624 -1.9219 167.7358 -2.9297 Q167.5093 -3.9375 167.5093 -5.1562 L167.5093 -15.7656 ZM185.8036 -9.4531 Q185.3349 -9.5781 184.6864 -9.7109 Q184.038 -9.8438 183.288 -9.8438 Q182.9599 -9.8438 182.4911 -9.7812 Q182.0224 -9.7188 181.7724 -9.6406 L181.7724 0 L178.2099 0 L178.2099 -11.9531 Q179.163 -12.2812 180.4677 -12.5859 Q181.7724 -12.8906 183.3818 -12.8906 Q183.6786 -12.8906 184.0849 -12.8516 Q184.4911 -12.8125 184.8974 -12.7578 Q185.3036 -12.7031 185.7099 -12.6172 Q186.1161 -12.5312 186.413 -12.4062 L185.8036 -9.4531 ZM191.824 0 L188.2615 0 L188.2615 -12.625 L191.824 -12.625 L191.824 0 ZM192.1677 -16.2656 Q192.1677 -15.2812 191.5271 -14.7188 Q190.8865 -14.1562 190.0271 -14.1562 Q189.1677 -14.1562 188.5271 -14.7188 Q187.8865 -15.2812 187.8865 -16.2656 Q187.8865 -17.25 188.5271 -17.8203 Q189.1677 -18.3906 190.0271 -18.3906 Q190.8865 -18.3906 191.5271 -17.8203 Q192.1677 -17.25 192.1677 -16.2656 ZM203.2233 -6.4062 Q203.2233 -9.8594 200.6764 -9.8594 Q200.1295 -9.8594 199.5905 -9.7188 Q199.0514 -9.5781 198.7077 -9.3594 L198.7077 -2.8594 Q198.9733 -2.8125 199.3874 -2.7734 Q199.8014 -2.7344 200.2702 -2.7344 Q201.7389 -2.7344 202.4811 -3.7422 Q203.2233 -4.75 203.2233 -6.4062 ZM206.8795 -6.3125 Q206.8795 -4.7969 206.4342 -3.5781 Q205.9889 -2.3594 205.1452 -1.4922 Q204.3014 -0.625 203.0827 -0.1562 Q201.8639 0.3125 200.3014 0.3125 Q199.6452 0.3125 198.942 0.25 Q198.2389 0.1875 197.5514 0.0938 Q196.8639 0 196.2389 -0.1328 Q195.6139 -0.2656 195.1452 -0.4062 L195.1452 -18.0469 L198.7077 -18.625 L198.7077 -12.3438 Q199.317 -12.5938 199.9655 -12.7422 Q200.6139 -12.8906 201.3483 -12.8906 Q202.692 -12.8906 203.7233 -12.4219 Q204.7545 -11.9531 205.4577 -11.0859 Q206.1608 -10.2188 206.5202 -9.0078 Q206.8795 -7.7969 206.8795 -6.3125 ZM220.2975 -0.4375 Q219.3912 -0.1719 217.9459 0.0547 Q216.5006 0.2812 214.9225 0.2812 Q213.3131 0.2812 212.2506 -0.1484 Q211.1881 -0.5781 210.5631 -1.3594 Q209.9381 -2.1406 209.6725 -3.2188 Q209.4068 -4.2969 209.4068 -5.5938 L209.4068 -12.625 L212.985 -12.625 L212.985 -6.0312 Q212.985 -4.2969 213.4381 -3.5312 Q213.8912 -2.7656 215.1412 -2.7656 Q215.5318 -2.7656 215.9615 -2.7969 Q216.3912 -2.8281 216.7193 -2.875 L216.7193 -12.625 L220.2975 -12.625 L220.2975 -0.4375 ZM223.4362 -15.7656 L227.0143 -16.3438 L227.0143 -12.625 L231.3112 -12.625 L231.3112 -9.6406 L227.0143 -9.6406 L227.0143 -5.2031 Q227.0143 -4.0781 227.405 -3.4062 Q227.7956 -2.7344 228.9987 -2.7344 Q229.5768 -2.7344 230.1862 -2.8438 Q230.7956 -2.9531 231.3112 -3.1406 L231.8112 -0.3594 Q231.155 -0.0938 230.3659 0.0938 Q229.5768 0.2812 228.4206 0.2812 Q226.9675 0.2812 226.0065 -0.1094 Q225.0456 -0.5 224.4675 -1.2109 Q223.8893 -1.9219 223.6628 -2.9297 Q223.4362 -3.9375 223.4362 -5.1562 L223.4362 -15.7656 ZM237.6993 0 L234.1368 0 L234.1368 -12.625 L237.6993 -12.625 L237.6993 0 ZM238.0431 -16.2656 Q238.0431 -15.2812 237.4025 -14.7188 Q236.7618 -14.1562 235.9025 -14.1562 Q235.0431 -14.1562 234.4025 -14.7188 Q233.7618 -15.2812 233.7618 -16.2656 Q233.7618 -17.25 234.4025 -17.8203 Q235.0431 -18.3906 235.9025 -18.3906 Q236.7618 -18.3906 237.4025 -17.8203 Q238.0431 -17.25 238.0431 -16.2656 ZM252.8174 -6.3438 Q252.8174 -4.8438 252.3877 -3.6094 Q251.958 -2.375 251.1377 -1.5 Q250.3174 -0.625 249.1846 -0.1406 Q248.0518 0.3438 246.6299 0.3438 Q245.2393 0.3438 244.0986 -0.1406 Q242.958 -0.625 242.1377 -1.5 Q241.3174 -2.375 240.8643 -3.6094 Q240.4111 -4.8438 240.4111 -6.3438 Q240.4111 -7.8281 240.8799 -9.0469 Q241.3486 -10.2656 242.1768 -11.1328 Q243.0049 -12 244.1455 -12.4766 Q245.2861 -12.9531 246.6299 -12.9531 Q247.9893 -12.9531 249.1299 -12.4766 Q250.2705 -12 251.0908 -11.1328 Q251.9111 -10.2656 252.3643 -9.0469 Q252.8174 -7.8281 252.8174 -6.3438 ZM249.1768 -6.3438 Q249.1768 -7.9844 248.5127 -8.9375 Q247.8486 -9.8906 246.6299 -9.8906 Q245.4111 -9.8906 244.7393 -8.9375 Q244.0674 -7.9844 244.0674 -6.3438 Q244.0674 -4.6875 244.7393 -3.7109 Q245.4111 -2.7344 246.6299 -2.7344 Q247.8486 -2.7344 248.5127 -3.7109 Q249.1768 -4.6875 249.1768 -6.3438 ZM255.4786 -12.1875 Q256.3849 -12.4531 257.8224 -12.6797 Q259.2599 -12.9062 260.8536 -12.9062 Q262.4474 -12.9062 263.5177 -12.4922 Q264.588 -12.0781 265.213 -11.3047 Q265.838 -10.5312 266.1036 -9.4766 Q266.3693 -8.4219 266.3693 -7.125 L266.3693 0 L262.7911 0 L262.7911 -6.7031 Q262.7911 -8.4219 262.338 -9.1406 Q261.8849 -9.8594 260.6349 -9.8594 Q260.2443 -9.8594 259.8146 -9.8281 Q259.3849 -9.7969 259.0411 -9.75 L259.0411 0 L255.4786 0 L255.4786 -12.1875 ZM280.6933 -18.625 Q281.6933 -18.625 282.537 -18.4219 Q283.3808 -18.2188 283.8339 -18.0312 L283.1308 -15.1719 Q282.662 -15.3906 282.0917 -15.4922 Q281.5214 -15.5938 281.0527 -15.5938 Q280.3964 -15.5938 279.9511 -15.4141 Q279.5058 -15.2344 279.2558 -14.9219 Q279.0058 -14.6094 278.8964 -14.1797 Q278.787 -13.75 278.787 -13.25 L278.787 -12.625 L283.2089 -12.625 L283.2089 -9.6406 L278.787 -9.6406 L278.787 0 L275.2245 0 L275.2245 -13.2969 Q275.2245 -15.75 276.5995 -17.1875 Q277.9745 -18.625 280.6933 -18.625 ZM297.073 -6.3438 Q297.073 -4.8438 296.6433 -3.6094 Q296.2137 -2.375 295.3933 -1.5 Q294.573 -0.625 293.4402 -0.1406 Q292.3074 0.3438 290.8855 0.3438 Q289.4949 0.3438 288.3543 -0.1406 Q287.2137 -0.625 286.3933 -1.5 Q285.573 -2.375 285.1199 -3.6094 Q284.6668 -4.8438 284.6668 -6.3438 Q284.6668 -7.8281 285.1355 -9.0469 Q285.6043 -10.2656 286.4324 -11.1328 Q287.2605 -12 288.4012 -12.4766 Q289.5418 -12.9531 290.8855 -12.9531 Q292.2449 -12.9531 293.3855 -12.4766 Q294.5262 -12 295.3465 -11.1328 Q296.1668 -10.2656 296.6199 -9.0469 Q297.073 -7.8281 297.073 -6.3438 ZM293.4324 -6.3438 Q293.4324 -7.9844 292.7683 -8.9375 Q292.1043 -9.8906 290.8855 -9.8906 Q289.6668 -9.8906 288.9949 -8.9375 Q288.323 -7.9844 288.323 -6.3438 Q288.323 -4.6875 288.9949 -3.7109 Q289.6668 -2.7344 290.8855 -2.7344 Q292.1043 -2.7344 292.7683 -3.7109 Q293.4324 -4.6875 293.4324 -6.3438 ZM307.328 -9.4531 Q306.8593 -9.5781 306.2108 -9.7109 Q305.5624 -9.8438 304.8124 -9.8438 Q304.4843 -9.8438 304.0155 -9.7812 Q303.5468 -9.7188 303.2968 -9.6406 L303.2968 0 L299.7343 0 L299.7343 -11.9531 Q300.6874 -12.2812 301.9921 -12.5859 Q303.2968 -12.8906 304.9061 -12.8906 Q305.203 -12.8906 305.6093 -12.8516 Q306.0155 -12.8125 306.4218 -12.7578 Q306.828 -12.7031 307.2343 -12.6172 Q307.6405 -12.5312 307.9374 -12.4062 L307.328 -9.4531 Z"
    /></g
    ><g transform="translate(2043,127)" style="font-size:23.8333px; text-rendering:geometricPrecision; image-rendering:optimizeQuality; color-rendering:optimizeQuality; font-family:'mwb_cmmi10'; color-interpolation:linearRGB; font-weight:bold;"
    ><path style="stroke:none;" d="M4.8281 0.2656 Q3.6875 0.2656 2.8047 -0.2734 Q1.9219 -0.8125 1.4453 -1.7266 Q0.9688 -2.6406 0.9688 -3.7969 Q0.9688 -5.4219 1.875 -7.0156 Q2.7812 -8.6094 4.2891 -9.6094 Q5.7969 -10.6094 7.4375 -10.6094 Q9.6562 -10.6094 10.5859 -9.9688 Q11.5156 -9.3281 11.9922 -8.2656 Q12.4688 -7.2031 12.4688 -6 L12.4688 -5.125 Q12.4688 -5.5312 12.9609 -6.7578 Q13.4531 -7.9844 13.7656 -9.2969 Q13.8125 -9.4375 13.9531 -9.4375 L14.2344 -9.4375 Q15.4531 -9.4375 15.4531 -9.2188 Q15.4531 -9.1875 15.4219 -9.1406 Q15.1406 -8.0469 14.7188 -7.0312 Q14.2969 -6.0156 13.7344 -5.0625 Q13.1719 -4.1094 12.5 -3.3438 Q12.5 -0.3594 12.5 -0.3594 Q12.6406 -0.3594 12.9219 -0.625 Q13.2031 -0.8906 13.4219 -1.2812 Q13.6406 -1.6719 13.7031 -1.6719 L14 -1.6719 Q15.1875 -1.6719 15.1875 -1.4375 Q15.1875 -0.8438 14.5 -0.2891 Q13.8125 0.2656 12.1406 0.2656 Q11.2812 0.2656 10.7031 -0.2969 Q10.125 -0.8594 10.0781 -1.0312 Q9.7969 -0.7969 8.4844 -0.2656 Q7.1719 0.2656 4.8281 0.2656 ZM4.875 -0.3594 Q7.4375 -0.3594 9.7969 -2.4688 Q9.7812 -2.6094 9.7578 -2.8203 Q9.7344 -3.0312 9.7344 -3.0469 L9.7344 -5.6406 Q9.7344 -9.9844 7.3906 -9.9844 Q6.9844 -9.9844 5.9297 -8.7812 Q4.875 -7.5781 4.3438 -5.9141 Q3.8125 -4.25 3.8125 -2.8594 Q3.8125 -1.8125 4.3438 -1.0859 Q4.875 -0.3594 4.875 -0.3594 Z"
    /></g
    ><g transform="translate(2060,127)" style="font-size:23.8333px; text-rendering:geometricPrecision; image-rendering:optimizeQuality; color-rendering:optimizeQuality; font-family:'Ubuntu'; color-interpolation:linearRGB; font-weight:bold;"
    ><path style="stroke:none;" d="M6.8884 -6.0312 L18.1697 -6.0312 L18.1697 -3.0312 L6.8884 -3.0312 L6.8884 -6.0312 ZM6.8884 -11.2812 L18.1697 -11.2812 L18.1697 -8.2812 L6.8884 -8.2812 L6.8884 -11.2812 ZM37.7748 -8.3594 Q37.7748 -4.1562 36.181 -1.9062 Q34.5873 0.3438 31.7748 0.3438 Q28.9779 0.3438 27.3763 -1.9062 Q25.7748 -4.1562 25.7748 -8.3594 Q25.7748 -10.4375 26.1967 -12.0469 Q26.6185 -13.6562 27.4076 -14.7578 Q28.1967 -15.8594 29.306 -16.4375 Q30.4154 -17.0156 31.7748 -17.0156 Q34.5873 -17.0156 36.181 -14.7734 Q37.7748 -12.5312 37.7748 -8.3594 ZM34.1342 -8.3594 Q34.1342 -9.5938 34.0092 -10.6172 Q33.8842 -11.6406 33.6263 -12.3828 Q33.3685 -13.125 32.9076 -13.5312 Q32.4467 -13.9375 31.7748 -13.9375 Q31.1029 -13.9375 30.6576 -13.5312 Q30.2123 -13.125 29.9388 -12.3828 Q29.6654 -11.6406 29.5482 -10.6172 Q29.431 -9.5938 29.431 -8.3594 Q29.431 -7.1094 29.5482 -6.0781 Q29.6654 -5.0469 29.9388 -4.2969 Q30.2123 -3.5469 30.6576 -3.1406 Q31.1029 -2.7344 31.7748 -2.7344 Q32.4467 -2.7344 32.9076 -3.1406 Q33.3685 -3.5469 33.6263 -4.2969 Q33.8842 -5.0469 34.0092 -6.0781 Q34.1342 -7.1094 34.1342 -8.3594 ZM43.679 -1.8906 Q43.679 -0.8125 42.9915 -0.25 Q42.304 0.3125 41.4446 0.3125 Q40.5852 0.3125 39.8977 -0.25 Q39.2102 -0.8125 39.2102 -1.8906 Q39.2102 -2.9688 39.8977 -3.5391 Q40.5852 -4.1094 41.4446 -4.1094 Q42.304 -4.1094 42.9915 -3.5391 Q43.679 -2.9688 43.679 -1.8906 ZM52.0072 -12.2656 Q51.0697 -11.0469 50.015 -9.6016 Q48.9603 -8.1562 48.2415 -6.6406 L52.0072 -6.6406 L52.0072 -12.2656 ZM55.5072 -16.625 L55.5072 -6.6406 L57.2884 -6.6406 L57.2884 -3.7188 L55.5072 -3.7188 L55.5072 0 L52.0072 0 L52.0072 -3.7188 L44.8353 -3.7188 L44.8353 -6.3438 Q45.3665 -7.3906 46.1556 -8.7266 Q46.9447 -10.0625 47.9134 -11.4609 Q48.8822 -12.8594 49.9681 -14.2031 Q51.054 -15.5469 52.1322 -16.625 L55.5072 -16.625 ZM66.5207 -4.8906 Q66.5207 -5.5938 66.2082 -6.1328 Q65.8957 -6.6719 65.1301 -7.0312 Q64.3645 -7.3906 63.0676 -7.5859 Q61.7707 -7.7812 59.802 -7.7812 Q60.0676 -10.0156 60.2317 -12.3125 Q60.3957 -14.6094 60.4895 -16.625 L69.4895 -16.625 L69.4895 -13.625 L63.4895 -13.625 Q63.4426 -12.7656 63.3879 -11.9609 Q63.3332 -11.1562 63.2551 -10.5625 Q66.7551 -10.3125 68.427 -8.9141 Q70.0988 -7.5156 70.0988 -5.0156 Q70.0988 -3.8594 69.6926 -2.875 Q69.2863 -1.8906 68.466 -1.1719 Q67.6457 -0.4531 66.4113 -0.0469 Q65.177 0.3594 63.5207 0.3594 Q62.8645 0.3594 62.1613 0.2734 Q61.4582 0.1875 60.7942 0.0547 Q60.1301 -0.0781 59.6067 -0.2188 Q59.0832 -0.3594 58.7863 -0.5 L59.4426 -3.4531 Q60.0363 -3.1875 61.0207 -2.9375 Q62.0051 -2.6875 63.3801 -2.6875 Q65.0363 -2.6875 65.7785 -3.3516 Q66.5207 -4.0156 66.5207 -4.8906 Z"
    /></g
    ><g style="stroke-linecap:butt; fill:rgb(38,38,38); text-rendering:geometricPrecision; image-rendering:optimizeQuality; color-rendering:optimizeQuality; stroke-linejoin:round; stroke:rgb(38,38,38); color-interpolation:linearRGB; stroke-width:0.9931;"
    ><line y2="1719" style="fill:none;" x1="479" x2="3336" y1="1719"
    /></g
    ><g style="fill:rgb(0,114,189); text-rendering:optimizeSpeed; color-rendering:optimizeSpeed; image-rendering:optimizeSpeed; shape-rendering:crispEdges; stroke:rgb(0,114,189); color-interpolation:sRGB;"
    ><path style="stroke:none;" d="M861.4331 1719 L861.4331 1718.9983 L816.4409 1718.9983 L816.4409 1719 ZM917.6732 1719 L917.6732 1715.3458 L872.6811 1715.3458 L872.6811 1719 ZM973.9134 1719 L973.9134 1556.0087 L928.9213 1556.0087 L928.9213 1719 ZM1030.1536 1719 L1030.1536 772.6611 L985.1614 772.6611 L985.1614 1719 ZM1086.3937 1719 L1086.3937 145 L1041.4016 145 L1041.4016 1719 ZM1142.6338 1719 L1142.6338 772.6611 L1097.6417 772.6611 L1097.6417 1719 ZM1198.874 1719 L1198.874 1556.0087 L1153.882 1556.0087 L1153.882 1719 ZM1255.1141 1719 L1255.1141 1715.3458 L1210.1221 1715.3458 L1210.1221 1719 ZM1311.3544 1719 L1311.3544 1718.9983 L1266.3622 1718.9983 L1266.3622 1719 Z"
    /></g
    ><g style="text-rendering:geometricPrecision; stroke-width:0.9931; color-interpolation:linearRGB; color-rendering:optimizeQuality; stroke-linecap:butt; image-rendering:optimizeQuality;"
    ><path d="M479 1719 L479 1719 L523.9921 1719 L523.9921 1719 Z" style="fill:none; fill-rule:evenodd;"
      /><path d="M535.2402 1719 L535.2402 1719 L580.2323 1719 L580.2323 1719 Z" style="fill:none; fill-rule:evenodd;"
      /><path d="M591.4803 1719 L591.4803 1719 L636.4725 1719 L636.4725 1719 Z" style="fill:none; fill-rule:evenodd;"
      /><path d="M647.7205 1719 L647.7205 1719 L692.7126 1719 L692.7126 1719 Z" style="fill:none; fill-rule:evenodd;"
      /><path d="M703.9606 1719 L703.9606 1719 L748.9528 1719 L748.9528 1719 Z" style="fill:none; fill-rule:evenodd;"
      /><path d="M760.2008 1719 L760.2008 1719 L805.1929 1719 L805.1929 1719 Z" style="fill:none; fill-rule:evenodd;"
      /><path d="M816.4409 1719 L816.4409 1718.9983 L861.4331 1718.9983 L861.4331 1719 Z" style="fill:none; fill-rule:evenodd;"
      /><path d="M872.6811 1719 L872.6811 1715.3458 L917.6732 1715.3458 L917.6732 1719 Z" style="fill:none; fill-rule:evenodd;"
      /><path d="M928.9213 1719 L928.9213 1556.0087 L973.9134 1556.0087 L973.9134 1719 Z" style="fill:none; fill-rule:evenodd;"
      /><path d="M985.1614 1719 L985.1614 772.6611 L1030.1536 772.6611 L1030.1536 1719 Z" style="fill:none; fill-rule:evenodd;"
      /><path d="M1041.4016 1719 L1041.4016 145 L1086.3937 145 L1086.3937 1719 Z" style="fill:none; fill-rule:evenodd;"
      /><path d="M1097.6417 1719 L1097.6417 772.6611 L1142.6338 772.6611 L1142.6338 1719 Z" style="fill:none; fill-rule:evenodd;"
      /><path d="M1153.882 1719 L1153.882 1556.0087 L1198.874 1556.0087 L1198.874 1719 Z" style="fill:none; fill-rule:evenodd;"
      /><path d="M1210.1221 1719 L1210.1221 1715.3458 L1255.1141 1715.3458 L1255.1141 1719 Z" style="fill:none; fill-rule:evenodd;"
      /><path d="M1266.3622 1719 L1266.3622 1718.9983 L1311.3544 1718.9983 L1311.3544 1719 Z" style="fill:none; fill-rule:evenodd;"
      /><path d="M1322.6024 1719 L1322.6024 1719 L1367.5945 1719 L1367.5945 1719 Z" style="fill:none; fill-rule:evenodd;"
      /><path d="M1378.8425 1719 L1378.8425 1719 L1423.8346 1719 L1423.8346 1719 Z" style="fill:none; fill-rule:evenodd;"
      /><path d="M1435.0826 1719 L1435.0826 1719 L1480.0748 1719 L1480.0748 1719 Z" style="fill:none; fill-rule:evenodd;"
      /><path d="M1491.3229 1719 L1491.3229 1719 L1536.3149 1719 L1536.3149 1719 Z" style="fill:none; fill-rule:evenodd;"
      /><path d="M1547.563 1719 L1547.563 1719 L1592.5551 1719 L1592.5551 1719 Z" style="fill:none; fill-rule:evenodd;"
      /><path d="M1603.8032 1719 L1603.8032 1719 L1648.7953 1719 L1648.7953 1719 Z" style="fill:none; fill-rule:evenodd;"
      /><path d="M1660.0433 1719 L1660.0433 1719 L1705.0354 1719 L1705.0354 1719 Z" style="fill:none; fill-rule:evenodd;"
      /><path d="M1716.2834 1719 L1716.2834 1719 L1761.2755 1719 L1761.2755 1719 Z" style="fill:none; fill-rule:evenodd;"
      /><path d="M1772.5237 1719 L1772.5237 1719 L1817.5157 1719 L1817.5157 1719 Z" style="fill:none; fill-rule:evenodd;"
      /><path d="M1828.7638 1719 L1828.7638 1719 L1873.7559 1719 L1873.7559 1719 Z" style="fill:none; fill-rule:evenodd;"
      /><path d="M1885.0039 1719 L1885.0039 1719 L1929.9961 1719 L1929.9961 1719 Z" style="fill:none; fill-rule:evenodd;"
      /><path d="M1941.2441 1719 L1941.2441 1719 L1986.2362 1719 L1986.2362 1719 Z" style="fill:none; fill-rule:evenodd;"
      /><path d="M1997.4843 1719 L1997.4843 1719 L2042.4763 1719 L2042.4763 1719 Z" style="fill:none; fill-rule:evenodd;"
      /><path d="M2053.7244 1719 L2053.7244 1719 L2098.7166 1719 L2098.7166 1719 Z" style="fill:none; fill-rule:evenodd;"
      /><path d="M2109.9646 1719 L2109.9646 1719 L2154.9568 1719 L2154.9568 1719 Z" style="fill:none; fill-rule:evenodd;"
      /><path d="M2166.2048 1719 L2166.2048 1719 L2211.1968 1719 L2211.1968 1719 Z" style="fill:none; fill-rule:evenodd;"
      /><path d="M2222.4448 1719 L2222.4448 1719 L2267.437 1719 L2267.437 1719 Z" style="fill:none; fill-rule:evenodd;"
      /><path d="M2278.6851 1719 L2278.6851 1719 L2323.6772 1719 L2323.6772 1719 Z" style="fill:none; fill-rule:evenodd;"
      /><path d="M2334.925 1719 L2334.925 1719 L2379.9175 1719 L2379.9175 1719 Z" style="fill:none; fill-rule:evenodd;"
      /><path d="M2391.1653 1719 L2391.1653 1719 L2436.1575 1719 L2436.1575 1719 Z" style="fill:none; fill-rule:evenodd;"
      /><path d="M2447.4055 1719 L2447.4055 1719 L2492.3977 1719 L2492.3977 1719 Z" style="fill:none; fill-rule:evenodd;"
      /><path d="M2503.6455 1719 L2503.6455 1719 L2548.6379 1719 L2548.6379 1719 Z" style="fill:none; fill-rule:evenodd;"
      /><path d="M2559.8857 1719 L2559.8857 1719 L2604.8779 1719 L2604.8779 1719 Z" style="fill:none; fill-rule:evenodd;"
      /><path d="M2616.126 1719 L2616.126 1719 L2661.1182 1719 L2661.1182 1719 Z" style="fill:none; fill-rule:evenodd;"
      /><path d="M2672.366 1719 L2672.366 1719 L2717.3584 1719 L2717.3584 1719 Z" style="fill:none; fill-rule:evenodd;"
      /><path d="M2728.6062 1719 L2728.6062 1719 L2773.5986 1719 L2773.5986 1719 Z" style="fill:none; fill-rule:evenodd;"
      /><path d="M2784.8464 1719 L2784.8464 1719 L2829.8386 1719 L2829.8386 1719 Z" style="fill:none; fill-rule:evenodd;"
      /><path d="M2841.0864 1719 L2841.0864 1719 L2886.0789 1719 L2886.0789 1719 Z" style="fill:none; fill-rule:evenodd;"
      /><path d="M2897.3267 1719 L2897.3267 1719 L2942.3191 1719 L2942.3191 1719 Z" style="fill:none; fill-rule:evenodd;"
      /><path d="M2953.5669 1719 L2953.5669 1719 L2998.5591 1719 L2998.5591 1719 Z" style="fill:none; fill-rule:evenodd;"
      /><path d="M3009.8069 1719 L3009.8069 1719 L3054.7993 1719 L3054.7993 1719 Z" style="fill:none; fill-rule:evenodd;"
      /><path d="M3066.0471 1719 L3066.0471 1719 L3111.0396 1719 L3111.0396 1719 Z" style="fill:none; fill-rule:evenodd;"
      /><path d="M3122.2874 1719 L3122.2874 1719 L3167.2795 1719 L3167.2795 1719 Z" style="fill:none; fill-rule:evenodd;"
      /><path d="M3178.5276 1719 L3178.5276 1719 L3223.5198 1719 L3223.5198 1719 Z" style="fill:none; fill-rule:evenodd;"
      /><path d="M3234.7676 1719 L3234.7676 1719 L3279.76 1719 L3279.76 1719 Z" style="fill:none; fill-rule:evenodd;"
      /><path d="M3291.0078 1719 L3291.0078 1719 L3336 1719 L3336 1719 Z" style="fill:none; fill-rule:evenodd;"
    /></g
    ><g style="fill:rgb(38,38,38); text-rendering:geometricPrecision; image-rendering:optimizeQuality; color-rendering:optimizeQuality; stroke-linejoin:round; stroke:rgb(38,38,38); color-interpolation:linearRGB; stroke-width:0.9931;"
    ><line y2="1719" style="fill:none;" x1="479" x2="3336" y1="1719"
      /><line y2="145" style="fill:none;" x1="479" x2="3336" y1="145"
      /><line y2="1690.4301" style="fill:none;" x1="501.4961" x2="501.4961" y1="1719"
      /><line y2="1690.4301" style="fill:none;" x1="782.6968" x2="782.6968" y1="1719"
      /><line y2="1690.4301" style="fill:none;" x1="1063.8976" x2="1063.8976" y1="1719"
      /><line y2="1690.4301" style="fill:none;" x1="1345.0984" x2="1345.0984" y1="1719"
      /><line y2="1690.4301" style="fill:none;" x1="1626.2992" x2="1626.2992" y1="1719"
      /><line y2="1690.4301" style="fill:none;" x1="1907.5" x2="1907.5" y1="1719"
      /><line y2="1690.4301" style="fill:none;" x1="2188.7007" x2="2188.7007" y1="1719"
      /><line y2="1690.4301" style="fill:none;" x1="2469.9016" x2="2469.9016" y1="1719"
      /><line y2="1690.4301" style="fill:none;" x1="2751.1023" x2="2751.1023" y1="1719"
      /><line y2="1690.4301" style="fill:none;" x1="3032.3032" x2="3032.3032" y1="1719"
      /><line y2="1690.4301" style="fill:none;" x1="3313.5039" x2="3313.5039" y1="1719"
      /><line y2="173.57" style="fill:none;" x1="501.4961" x2="501.4961" y1="145"
      /><line y2="173.57" style="fill:none;" x1="782.6968" x2="782.6968" y1="145"
      /><line y2="173.57" style="fill:none;" x1="1063.8976" x2="1063.8976" y1="145"
      /><line y2="173.57" style="fill:none;" x1="1345.0984" x2="1345.0984" y1="145"
      /><line y2="173.57" style="fill:none;" x1="1626.2992" x2="1626.2992" y1="145"
      /><line y2="173.57" style="fill:none;" x1="1907.5" x2="1907.5" y1="145"
      /><line y2="173.57" style="fill:none;" x1="2188.7007" x2="2188.7007" y1="145"
      /><line y2="173.57" style="fill:none;" x1="2469.9016" x2="2469.9016" y1="145"
      /><line y2="173.57" style="fill:none;" x1="2751.1023" x2="2751.1023" y1="145"
      /><line y2="173.57" style="fill:none;" x1="3032.3032" x2="3032.3032" y1="145"
      /><line y2="173.57" style="fill:none;" x1="3313.5039" x2="3313.5039" y1="145"
    /></g
    ><g transform="translate(501.4961,1726.9445)" style="font-size:19.8611px; fill:rgb(38,38,38); text-rendering:geometricPrecision; image-rendering:optimizeQuality; color-rendering:optimizeQuality; font-family:'SansSerif'; stroke:rgb(38,38,38); color-interpolation:linearRGB;"
    ><path style="stroke:none;" d="M-0.1406 5.7188 Q-1.6719 5.7188 -2.4375 7.2188 Q-3.2031 8.7188 -3.2031 11.7188 Q-3.2031 14.7188 -2.4375 16.2188 Q-1.6719 17.7188 -0.1406 17.7188 Q1.3906 17.7188 2.1562 16.2188 Q2.9219 14.7188 2.9219 11.7188 Q2.9219 8.7188 2.1562 7.2188 Q1.3906 5.7188 -0.1406 5.7188 ZM-0.1406 4.1562 Q2.3125 4.1562 3.6016 6.0938 Q4.8906 8.0312 4.8906 11.7188 Q4.8906 15.4062 3.6016 17.3438 Q2.3125 19.2812 -0.1406 19.2812 Q-2.5938 19.2812 -3.8906 17.3438 Q-5.1875 15.4062 -5.1875 11.7188 Q-5.1875 8.0312 -3.8906 6.0938 Q-2.5938 4.1562 -0.1406 4.1562 Z"
    /></g
    ><g transform="translate(782.6968,1726.9445)" style="font-size:19.8611px; fill:rgb(38,38,38); text-rendering:geometricPrecision; image-rendering:optimizeQuality; color-rendering:optimizeQuality; font-family:'SansSerif'; stroke:rgb(38,38,38); color-interpolation:linearRGB;"
    ><path style="stroke:none;" d="M-4.3438 4.4219 L3.4062 4.4219 L3.4062 6.0781 L-2.5312 6.0781 L-2.5312 9.6562 Q-2.1094 9.5 -1.6797 9.4297 Q-1.25 9.3594 -0.8125 9.3594 Q1.625 9.3594 3.0547 10.6953 Q4.4844 12.0312 4.4844 14.3281 Q4.4844 16.6719 3.0156 17.9766 Q1.5469 19.2812 -1.125 19.2812 Q-2.0312 19.2812 -2.9844 19.125 Q-3.9375 18.9688 -4.9531 18.6562 L-4.9531 16.6719 Q-4.0781 17.1562 -3.1406 17.3906 Q-2.2031 17.625 -1.1562 17.625 Q0.5312 17.625 1.5156 16.7344 Q2.5 15.8438 2.5 14.3281 Q2.5 12.7969 1.5156 11.9062 Q0.5312 11.0156 -1.1562 11.0156 Q-1.9531 11.0156 -2.7344 11.1953 Q-3.5156 11.375 -4.3438 11.75 L-4.3438 4.4219 Z"
    /></g
    ><g transform="translate(1063.8976,1726.9445)" style="font-size:19.8611px; fill:rgb(38,38,38); text-rendering:geometricPrecision; image-rendering:optimizeQuality; color-rendering:optimizeQuality; font-family:'SansSerif'; stroke:rgb(38,38,38); color-interpolation:linearRGB;"
    ><path style="stroke:none;" d="M-10.5156 17.3438 L-7.2969 17.3438 L-7.2969 6.2188 L-10.7969 6.9219 L-10.7969 5.125 L-7.3125 4.4219 L-5.3438 4.4219 L-5.3438 17.3438 L-2.125 17.3438 L-2.125 19 L-10.5156 19 L-10.5156 17.3438 ZM5.9846 5.7188 Q4.4533 5.7188 3.6877 7.2188 Q2.9221 8.7188 2.9221 11.7188 Q2.9221 14.7188 3.6877 16.2188 Q4.4533 17.7188 5.9846 17.7188 Q7.5158 17.7188 8.2814 16.2188 Q9.0471 14.7188 9.0471 11.7188 Q9.0471 8.7188 8.2814 7.2188 Q7.5158 5.7188 5.9846 5.7188 ZM5.9846 4.1562 Q8.4377 4.1562 9.7268 6.0938 Q11.0158 8.0312 11.0158 11.7188 Q11.0158 15.4062 9.7268 17.3438 Q8.4377 19.2812 5.9846 19.2812 Q3.5314 19.2812 2.2346 17.3438 Q0.9377 15.4062 0.9377 11.7188 Q0.9377 8.0312 2.2346 6.0938 Q3.5314 4.1562 5.9846 4.1562 Z"
    /></g
    ><g transform="translate(1345.0984,1726.9445)" style="font-size:19.8611px; fill:rgb(38,38,38); text-rendering:geometricPrecision; image-rendering:optimizeQuality; color-rendering:optimizeQuality; font-family:'SansSerif'; stroke:rgb(38,38,38); color-interpolation:linearRGB;"
    ><path style="stroke:none;" d="M-10.5156 17.3438 L-7.2969 17.3438 L-7.2969 6.2188 L-10.7969 6.9219 L-10.7969 5.125 L-7.3125 4.4219 L-5.3438 4.4219 L-5.3438 17.3438 L-2.125 17.3438 L-2.125 19 L-10.5156 19 L-10.5156 17.3438 ZM1.7814 4.4219 L9.5314 4.4219 L9.5314 6.0781 L3.5939 6.0781 L3.5939 9.6562 Q4.0158 9.5 4.4455 9.4297 Q4.8752 9.3594 5.3127 9.3594 Q7.7502 9.3594 9.1799 10.6953 Q10.6096 12.0312 10.6096 14.3281 Q10.6096 16.6719 9.1408 17.9766 Q7.6721 19.2812 5.0002 19.2812 Q4.0939 19.2812 3.1408 19.125 Q2.1877 18.9688 1.1721 18.6562 L1.1721 16.6719 Q2.0471 17.1562 2.9846 17.3906 Q3.9221 17.625 4.9689 17.625 Q6.6564 17.625 7.6408 16.7344 Q8.6252 15.8438 8.6252 14.3281 Q8.6252 12.7969 7.6408 11.9062 Q6.6564 11.0156 4.9689 11.0156 Q4.1721 11.0156 3.3908 11.1953 Q2.6096 11.375 1.7814 11.75 L1.7814 4.4219 Z"
    /></g
    ><g transform="translate(1626.2992,1726.9445)" style="font-size:19.8611px; fill:rgb(38,38,38); text-rendering:geometricPrecision; image-rendering:optimizeQuality; color-rendering:optimizeQuality; font-family:'SansSerif'; stroke:rgb(38,38,38); color-interpolation:linearRGB;"
    ><path style="stroke:none;" d="M-9.1562 17.3438 L-2.2812 17.3438 L-2.2812 19 L-11.5312 19 L-11.5312 17.3438 Q-10.4062 16.1719 -8.4688 14.2188 Q-6.5312 12.2656 -6.0312 11.6875 Q-5.0938 10.625 -4.7188 9.8906 Q-4.3438 9.1562 -4.3438 8.4375 Q-4.3438 7.2812 -5.1562 6.5469 Q-5.9688 5.8125 -7.2812 5.8125 Q-8.2031 5.8125 -9.2344 6.1328 Q-10.2656 6.4531 -11.4375 7.1094 L-11.4375 5.125 Q-10.25 4.6406 -9.2109 4.3984 Q-8.1719 4.1562 -7.3125 4.1562 Q-5.0469 4.1562 -3.7031 5.2891 Q-2.3594 6.4219 -2.3594 8.3125 Q-2.3594 9.2188 -2.6953 10.0234 Q-3.0312 10.8281 -3.9219 11.9219 Q-4.1562 12.2031 -5.4688 13.5547 Q-6.7812 14.9062 -9.1562 17.3438 ZM5.9846 5.7188 Q4.4533 5.7188 3.6877 7.2188 Q2.9221 8.7188 2.9221 11.7188 Q2.9221 14.7188 3.6877 16.2188 Q4.4533 17.7188 5.9846 17.7188 Q7.5158 17.7188 8.2814 16.2188 Q9.0471 14.7188 9.0471 11.7188 Q9.0471 8.7188 8.2814 7.2188 Q7.5158 5.7188 5.9846 5.7188 ZM5.9846 4.1562 Q8.4377 4.1562 9.7268 6.0938 Q11.0158 8.0312 11.0158 11.7188 Q11.0158 15.4062 9.7268 17.3438 Q8.4377 19.2812 5.9846 19.2812 Q3.5314 19.2812 2.2346 17.3438 Q0.9377 15.4062 0.9377 11.7188 Q0.9377 8.0312 2.2346 6.0938 Q3.5314 4.1562 5.9846 4.1562 Z"
    /></g
    ><g transform="translate(1907.5,1726.9445)" style="font-size:19.8611px; fill:rgb(38,38,38); text-rendering:geometricPrecision; image-rendering:optimizeQuality; color-rendering:optimizeQuality; font-family:'SansSerif'; stroke:rgb(38,38,38); color-interpolation:linearRGB;"
    ><path style="stroke:none;" d="M-9.1562 17.3438 L-2.2812 17.3438 L-2.2812 19 L-11.5312 19 L-11.5312 17.3438 Q-10.4062 16.1719 -8.4688 14.2188 Q-6.5312 12.2656 -6.0312 11.6875 Q-5.0938 10.625 -4.7188 9.8906 Q-4.3438 9.1562 -4.3438 8.4375 Q-4.3438 7.2812 -5.1562 6.5469 Q-5.9688 5.8125 -7.2812 5.8125 Q-8.2031 5.8125 -9.2344 6.1328 Q-10.2656 6.4531 -11.4375 7.1094 L-11.4375 5.125 Q-10.25 4.6406 -9.2109 4.3984 Q-8.1719 4.1562 -7.3125 4.1562 Q-5.0469 4.1562 -3.7031 5.2891 Q-2.3594 6.4219 -2.3594 8.3125 Q-2.3594 9.2188 -2.6953 10.0234 Q-3.0312 10.8281 -3.9219 11.9219 Q-4.1562 12.2031 -5.4688 13.5547 Q-6.7812 14.9062 -9.1562 17.3438 ZM1.7814 4.4219 L9.5314 4.4219 L9.5314 6.0781 L3.5939 6.0781 L3.5939 9.6562 Q4.0158 9.5 4.4455 9.4297 Q4.8752 9.3594 5.3127 9.3594 Q7.7502 9.3594 9.1799 10.6953 Q10.6096 12.0312 10.6096 14.3281 Q10.6096 16.6719 9.1408 17.9766 Q7.6721 19.2812 5.0002 19.2812 Q4.0939 19.2812 3.1408 19.125 Q2.1877 18.9688 1.1721 18.6562 L1.1721 16.6719 Q2.0471 17.1562 2.9846 17.3906 Q3.9221 17.625 4.9689 17.625 Q6.6564 17.625 7.6408 16.7344 Q8.6252 15.8438 8.6252 14.3281 Q8.6252 12.7969 7.6408 11.9062 Q6.6564 11.0156 4.9689 11.0156 Q4.1721 11.0156 3.3908 11.1953 Q2.6096 11.375 1.7814 11.75 L1.7814 4.4219 Z"
    /></g
    ><g transform="translate(2188.7007,1726.9445)" style="font-size:19.8611px; fill:rgb(38,38,38); text-rendering:geometricPrecision; image-rendering:optimizeQuality; color-rendering:optimizeQuality; font-family:'SansSerif'; stroke:rgb(38,38,38); color-interpolation:linearRGB;"
    ><path style="stroke:none;" d="M-4.8906 11.1406 Q-3.4688 11.4375 -2.6719 12.3984 Q-1.875 13.3594 -1.875 14.7656 Q-1.875 16.9219 -3.3594 18.1016 Q-4.8438 19.2812 -7.5781 19.2812 Q-8.5 19.2812 -9.4688 19.1016 Q-10.4375 18.9219 -11.4688 18.5625 L-11.4688 16.6562 Q-10.6562 17.1406 -9.6797 17.3828 Q-8.7031 17.625 -7.6406 17.625 Q-5.7812 17.625 -4.8125 16.8906 Q-3.8438 16.1562 -3.8438 14.7656 Q-3.8438 13.4688 -4.7422 12.7422 Q-5.6406 12.0156 -7.25 12.0156 L-8.9531 12.0156 L-8.9531 10.3906 L-7.1719 10.3906 Q-5.7188 10.3906 -4.9531 9.8125 Q-4.1875 9.2344 -4.1875 8.1406 Q-4.1875 7.0156 -4.9766 6.4141 Q-5.7656 5.8125 -7.25 5.8125 Q-8.0625 5.8125 -8.9922 5.9922 Q-9.9219 6.1719 -11.0312 6.5312 L-11.0312 4.7812 Q-9.9062 4.4688 -8.9297 4.3125 Q-7.9531 4.1562 -7.0781 4.1562 Q-4.8281 4.1562 -3.5234 5.1797 Q-2.2188 6.2031 -2.2188 7.9375 Q-2.2188 9.1406 -2.9141 9.9766 Q-3.6094 10.8125 -4.8906 11.1406 ZM5.9846 5.7188 Q4.4533 5.7188 3.6877 7.2188 Q2.9221 8.7188 2.9221 11.7188 Q2.9221 14.7188 3.6877 16.2188 Q4.4533 17.7188 5.9846 17.7188 Q7.5158 17.7188 8.2814 16.2188 Q9.0471 14.7188 9.0471 11.7188 Q9.0471 8.7188 8.2814 7.2188 Q7.5158 5.7188 5.9846 5.7188 ZM5.9846 4.1562 Q8.4377 4.1562 9.7268 6.0938 Q11.0158 8.0312 11.0158 11.7188 Q11.0158 15.4062 9.7268 17.3438 Q8.4377 19.2812 5.9846 19.2812 Q3.5314 19.2812 2.2346 17.3438 Q0.9377 15.4062 0.9377 11.7188 Q0.9377 8.0312 2.2346 6.0938 Q3.5314 4.1562 5.9846 4.1562 Z"
    /></g
    ><g transform="translate(2469.9016,1726.9445)" style="font-size:19.8611px; fill:rgb(38,38,38); text-rendering:geometricPrecision; image-rendering:optimizeQuality; color-rendering:optimizeQuality; font-family:'SansSerif'; stroke:rgb(38,38,38); color-interpolation:linearRGB;"
    ><path style="stroke:none;" d="M-4.8906 11.1406 Q-3.4688 11.4375 -2.6719 12.3984 Q-1.875 13.3594 -1.875 14.7656 Q-1.875 16.9219 -3.3594 18.1016 Q-4.8438 19.2812 -7.5781 19.2812 Q-8.5 19.2812 -9.4688 19.1016 Q-10.4375 18.9219 -11.4688 18.5625 L-11.4688 16.6562 Q-10.6562 17.1406 -9.6797 17.3828 Q-8.7031 17.625 -7.6406 17.625 Q-5.7812 17.625 -4.8125 16.8906 Q-3.8438 16.1562 -3.8438 14.7656 Q-3.8438 13.4688 -4.7422 12.7422 Q-5.6406 12.0156 -7.25 12.0156 L-8.9531 12.0156 L-8.9531 10.3906 L-7.1719 10.3906 Q-5.7188 10.3906 -4.9531 9.8125 Q-4.1875 9.2344 -4.1875 8.1406 Q-4.1875 7.0156 -4.9766 6.4141 Q-5.7656 5.8125 -7.25 5.8125 Q-8.0625 5.8125 -8.9922 5.9922 Q-9.9219 6.1719 -11.0312 6.5312 L-11.0312 4.7812 Q-9.9062 4.4688 -8.9297 4.3125 Q-7.9531 4.1562 -7.0781 4.1562 Q-4.8281 4.1562 -3.5234 5.1797 Q-2.2188 6.2031 -2.2188 7.9375 Q-2.2188 9.1406 -2.9141 9.9766 Q-3.6094 10.8125 -4.8906 11.1406 ZM1.7814 4.4219 L9.5314 4.4219 L9.5314 6.0781 L3.5939 6.0781 L3.5939 9.6562 Q4.0158 9.5 4.4455 9.4297 Q4.8752 9.3594 5.3127 9.3594 Q7.7502 9.3594 9.1799 10.6953 Q10.6096 12.0312 10.6096 14.3281 Q10.6096 16.6719 9.1408 17.9766 Q7.6721 19.2812 5.0002 19.2812 Q4.0939 19.2812 3.1408 19.125 Q2.1877 18.9688 1.1721 18.6562 L1.1721 16.6719 Q2.0471 17.1562 2.9846 17.3906 Q3.9221 17.625 4.9689 17.625 Q6.6564 17.625 7.6408 16.7344 Q8.6252 15.8438 8.6252 14.3281 Q8.6252 12.7969 7.6408 11.9062 Q6.6564 11.0156 4.9689 11.0156 Q4.1721 11.0156 3.3908 11.1953 Q2.6096 11.375 1.7814 11.75 L1.7814 4.4219 Z"
    /></g
    ><g transform="translate(2751.1023,1726.9445)" style="font-size:19.8611px; fill:rgb(38,38,38); text-rendering:geometricPrecision; image-rendering:optimizeQuality; color-rendering:optimizeQuality; font-family:'SansSerif'; stroke:rgb(38,38,38); color-interpolation:linearRGB;"
    ><path style="stroke:none;" d="M-5.4375 6.1406 L-10.4219 13.9219 L-5.4375 13.9219 L-5.4375 6.1406 ZM-5.9531 4.4219 L-3.4844 4.4219 L-3.4844 13.9219 L-1.3906 13.9219 L-1.3906 15.5625 L-3.4844 15.5625 L-3.4844 19 L-5.4375 19 L-5.4375 15.5625 L-12.0156 15.5625 L-12.0156 13.6562 L-5.9531 4.4219 ZM5.9846 5.7188 Q4.4533 5.7188 3.6877 7.2188 Q2.9221 8.7188 2.9221 11.7188 Q2.9221 14.7188 3.6877 16.2188 Q4.4533 17.7188 5.9846 17.7188 Q7.5158 17.7188 8.2814 16.2188 Q9.0471 14.7188 9.0471 11.7188 Q9.0471 8.7188 8.2814 7.2188 Q7.5158 5.7188 5.9846 5.7188 ZM5.9846 4.1562 Q8.4377 4.1562 9.7268 6.0938 Q11.0158 8.0312 11.0158 11.7188 Q11.0158 15.4062 9.7268 17.3438 Q8.4377 19.2812 5.9846 19.2812 Q3.5314 19.2812 2.2346 17.3438 Q0.9377 15.4062 0.9377 11.7188 Q0.9377 8.0312 2.2346 6.0938 Q3.5314 4.1562 5.9846 4.1562 Z"
    /></g
    ><g transform="translate(3032.3032,1726.9445)" style="font-size:19.8611px; fill:rgb(38,38,38); text-rendering:geometricPrecision; image-rendering:optimizeQuality; color-rendering:optimizeQuality; font-family:'SansSerif'; stroke:rgb(38,38,38); color-interpolation:linearRGB;"
    ><path style="stroke:none;" d="M-5.4375 6.1406 L-10.4219 13.9219 L-5.4375 13.9219 L-5.4375 6.1406 ZM-5.9531 4.4219 L-3.4844 4.4219 L-3.4844 13.9219 L-1.3906 13.9219 L-1.3906 15.5625 L-3.4844 15.5625 L-3.4844 19 L-5.4375 19 L-5.4375 15.5625 L-12.0156 15.5625 L-12.0156 13.6562 L-5.9531 4.4219 ZM1.7814 4.4219 L9.5314 4.4219 L9.5314 6.0781 L3.5939 6.0781 L3.5939 9.6562 Q4.0158 9.5 4.4455 9.4297 Q4.8752 9.3594 5.3127 9.3594 Q7.7502 9.3594 9.1799 10.6953 Q10.6096 12.0312 10.6096 14.3281 Q10.6096 16.6719 9.1408 17.9766 Q7.6721 19.2812 5.0002 19.2812 Q4.0939 19.2812 3.1408 19.125 Q2.1877 18.9688 1.1721 18.6562 L1.1721 16.6719 Q2.0471 17.1562 2.9846 17.3906 Q3.9221 17.625 4.9689 17.625 Q6.6564 17.625 7.6408 16.7344 Q8.6252 15.8438 8.6252 14.3281 Q8.6252 12.7969 7.6408 11.9062 Q6.6564 11.0156 4.9689 11.0156 Q4.1721 11.0156 3.3908 11.1953 Q2.6096 11.375 1.7814 11.75 L1.7814 4.4219 Z"
    /></g
    ><g transform="translate(3313.5039,1726.9445)" style="font-size:19.8611px; fill:rgb(38,38,38); text-rendering:geometricPrecision; image-rendering:optimizeQuality; color-rendering:optimizeQuality; font-family:'SansSerif'; stroke:rgb(38,38,38); color-interpolation:linearRGB;"
    ><path style="stroke:none;" d="M-10.8438 4.4219 L-3.0938 4.4219 L-3.0938 6.0781 L-9.0312 6.0781 L-9.0312 9.6562 Q-8.6094 9.5 -8.1797 9.4297 Q-7.75 9.3594 -7.3125 9.3594 Q-4.875 9.3594 -3.4453 10.6953 Q-2.0156 12.0312 -2.0156 14.3281 Q-2.0156 16.6719 -3.4844 17.9766 Q-4.9531 19.2812 -7.625 19.2812 Q-8.5312 19.2812 -9.4844 19.125 Q-10.4375 18.9688 -11.4531 18.6562 L-11.4531 16.6719 Q-10.5781 17.1562 -9.6406 17.3906 Q-8.7031 17.625 -7.6562 17.625 Q-5.9688 17.625 -4.9844 16.7344 Q-4 15.8438 -4 14.3281 Q-4 12.7969 -4.9844 11.9062 Q-5.9688 11.0156 -7.6562 11.0156 Q-8.4531 11.0156 -9.2344 11.1953 Q-10.0156 11.375 -10.8438 11.75 L-10.8438 4.4219 ZM5.9846 5.7188 Q4.4533 5.7188 3.6877 7.2188 Q2.9221 8.7188 2.9221 11.7188 Q2.9221 14.7188 3.6877 16.2188 Q4.4533 17.7188 5.9846 17.7188 Q7.5158 17.7188 8.2814 16.2188 Q9.0471 14.7188 9.0471 11.7188 Q9.0471 8.7188 8.2814 7.2188 Q7.5158 5.7188 5.9846 5.7188 ZM5.9846 4.1562 Q8.4377 4.1562 9.7268 6.0938 Q11.0158 8.0312 11.0158 11.7188 Q11.0158 15.4062 9.7268 17.3438 Q8.4377 19.2812 5.9846 19.2812 Q3.5314 19.2812 2.2346 17.3438 Q0.9377 15.4062 0.9377 11.7188 Q0.9377 8.0312 2.2346 6.0938 Q3.5314 4.1562 5.9846 4.1562 Z"
    /></g
    ><g transform="translate(1907.5013,1752.9305)" style="font-size:23.8333px; fill:rgb(38,38,38); text-rendering:geometricPrecision; image-rendering:optimizeQuality; color-rendering:optimizeQuality; font-family:'Ubuntu'; stroke:rgb(38,38,38); color-interpolation:linearRGB;"
    ><path style="stroke:none;" d="M-11.4531 23.1406 Q-11.9531 23.1406 -12.5391 23.1172 Q-13.125 23.0938 -13.7109 23.0469 Q-14.2969 23 -14.875 22.9297 Q-15.4531 22.8594 -15.9375 22.7344 L-15.9375 6.6094 Q-15.4531 6.4844 -14.875 6.4141 Q-14.2969 6.3438 -13.7109 6.2969 Q-13.125 6.25 -12.5469 6.2266 Q-11.9688 6.2031 -11.4688 6.2031 Q-10.0312 6.2031 -8.7734 6.4141 Q-7.5156 6.625 -6.5859 7.1406 Q-5.6562 7.6562 -5.1328 8.5 Q-4.6094 9.3438 -4.6094 10.5625 Q-4.6094 11.9375 -5.2578 12.8125 Q-5.9062 13.6875 -6.9844 14.125 Q-5.5156 14.5469 -4.6562 15.4844 Q-3.7969 16.4219 -3.7969 18.125 Q-3.7969 20.625 -5.6328 21.8828 Q-7.4688 23.1406 -11.4531 23.1406 ZM-13.625 15.25 L-13.625 21.1094 Q-13.375 21.125 -13.0156 21.1562 Q-12.7031 21.1719 -12.2812 21.1875 Q-11.8594 21.2031 -11.2969 21.2031 Q-10.2656 21.2031 -9.3438 21.0703 Q-8.4219 20.9375 -7.7266 20.6016 Q-7.0312 20.2656 -6.6094 19.6641 Q-6.1875 19.0625 -6.1875 18.1562 Q-6.1875 17.3438 -6.5 16.7734 Q-6.8125 16.2031 -7.3984 15.8672 Q-7.9844 15.5312 -8.8047 15.3906 Q-9.625 15.25 -10.625 15.25 L-13.625 15.25 ZM-13.625 13.375 L-11.1875 13.375 Q-10.3125 13.375 -9.5469 13.2578 Q-8.7812 13.1406 -8.2188 12.8281 Q-7.6562 12.5156 -7.3359 12.0078 Q-7.0156 11.5 -7.0156 10.7344 Q-7.0156 10.0156 -7.3516 9.5234 Q-7.6875 9.0312 -8.2734 8.7344 Q-8.8594 8.4375 -9.6484 8.2891 Q-10.4375 8.1406 -11.3281 8.1406 Q-12.2188 8.1406 -12.7188 8.1641 Q-13.2188 8.1875 -13.625 8.2344 L-13.625 13.375 ZM1.4718 23 L-0.7625 23 L-0.7625 10.5156 L1.4718 10.5156 L1.4718 23 ZM0.3468 8.2656 Q-0.2625 8.2656 -0.6844 7.8672 Q-1.1063 7.4688 -1.1063 6.7969 Q-1.1063 6.125 -0.6844 5.7344 Q-0.2625 5.3438 0.3468 5.3438 Q0.9406 5.3438 1.3625 5.7344 Q1.7843 6.125 1.7843 6.7969 Q1.7843 7.4688 1.3625 7.8672 Q0.9406 8.2656 0.3468 8.2656 ZM13.3262 13.1562 Q12.9199 12.8281 12.1543 12.5156 Q11.3887 12.2031 10.4668 12.2031 Q9.5137 12.2031 8.8262 12.5469 Q8.1387 12.8906 7.709 13.5078 Q7.2793 14.125 7.084 14.9609 Q6.8887 15.7969 6.8887 16.7656 Q6.8887 18.9375 7.9746 20.125 Q9.0605 21.3125 10.8574 21.3125 Q11.7637 21.3125 12.373 21.2344 Q12.9824 21.1562 13.3262 21.0625 L13.3262 13.1562 ZM13.3262 4.7656 L15.5605 4.375 L15.5605 22.6406 Q14.7949 22.8594 13.5918 23.0703 Q12.3887 23.2812 10.8262 23.2812 Q9.3887 23.2812 8.2402 22.8281 Q7.0918 22.375 6.2715 21.5391 Q5.4512 20.7031 5.0059 19.4844 Q4.5605 18.2656 4.5605 16.7656 Q4.5605 15.3125 4.9355 14.1172 Q5.3105 12.9219 6.0293 12.0547 Q6.748 11.1875 7.7949 10.7109 Q8.8418 10.2344 10.1855 10.2344 Q11.2637 10.2344 12.0918 10.5234 Q12.9199 10.8125 13.3262 11.0781 L13.3262 4.7656 Z"
    /></g
    ><g style="fill:rgb(38,38,38); text-rendering:geometricPrecision; image-rendering:optimizeQuality; color-rendering:optimizeQuality; stroke-linejoin:round; stroke:rgb(38,38,38); color-interpolation:linearRGB; stroke-width:0.9931;"
    ><line y2="145" style="fill:none;" x1="479" x2="479" y1="1719"
      /><line y2="145" style="fill:none;" x1="3336" x2="3336" y1="1719"
      /><line y2="1719" style="fill:none;" x1="479" x2="507.57" y1="1719"
      /><line y2="1529.0013" style="fill:none;" x1="479" x2="507.57" y1="1529.0013"
      /><line y2="1339.0028" style="fill:none;" x1="479" x2="507.57" y1="1339.0028"
      /><line y2="1149.0042" style="fill:none;" x1="479" x2="507.57" y1="1149.0042"
      /><line y2="959.0056" style="fill:none;" x1="479" x2="507.57" y1="959.0056"
      /><line y2="769.007" style="fill:none;" x1="479" x2="507.57" y1="769.007"
      /><line y2="579.0083" style="fill:none;" x1="479" x2="507.57" y1="579.0083"
      /><line y2="389.0098" style="fill:none;" x1="479" x2="507.57" y1="389.0098"
      /><line y2="199.0111" style="fill:none;" x1="479" x2="507.57" y1="199.0111"
      /><line y2="1719" style="fill:none;" x1="3336" x2="3307.4302" y1="1719"
      /><line y2="1529.0013" style="fill:none;" x1="3336" x2="3307.4302" y1="1529.0013"
      /><line y2="1339.0028" style="fill:none;" x1="3336" x2="3307.4302" y1="1339.0028"
      /><line y2="1149.0042" style="fill:none;" x1="3336" x2="3307.4302" y1="1149.0042"
      /><line y2="959.0056" style="fill:none;" x1="3336" x2="3307.4302" y1="959.0056"
      /><line y2="769.007" style="fill:none;" x1="3336" x2="3307.4302" y1="769.007"
      /><line y2="579.0083" style="fill:none;" x1="3336" x2="3307.4302" y1="579.0083"
      /><line y2="389.0098" style="fill:none;" x1="3336" x2="3307.4302" y1="389.0098"
      /><line y2="199.0111" style="fill:none;" x1="3336" x2="3307.4302" y1="199.0111"
    /></g
    ><g transform="translate(471.0555,1719)" style="font-size:19.8611px; fill:rgb(38,38,38); text-rendering:geometricPrecision; image-rendering:optimizeQuality; color-rendering:optimizeQuality; font-family:'SansSerif'; stroke:rgb(38,38,38); color-interpolation:linearRGB;"
    ><path style="stroke:none;" d="M-6.6406 -6.2812 Q-8.1719 -6.2812 -8.9375 -4.7812 Q-9.7031 -3.2812 -9.7031 -0.2812 Q-9.7031 2.7188 -8.9375 4.2188 Q-8.1719 5.7188 -6.6406 5.7188 Q-5.1094 5.7188 -4.3438 4.2188 Q-3.5781 2.7188 -3.5781 -0.2812 Q-3.5781 -3.2812 -4.3438 -4.7812 Q-5.1094 -6.2812 -6.6406 -6.2812 ZM-6.6406 -7.8438 Q-4.1875 -7.8438 -2.8984 -5.9062 Q-1.6094 -3.9688 -1.6094 -0.2812 Q-1.6094 3.4062 -2.8984 5.3438 Q-4.1875 7.2812 -6.6406 7.2812 Q-9.0938 7.2812 -10.3906 5.3438 Q-11.6875 3.4062 -11.6875 -0.2812 Q-11.6875 -3.9688 -10.3906 -5.9062 Q-9.0938 -7.8438 -6.6406 -7.8438 Z"
    /></g
    ><g transform="translate(471.0555,1529.0013)" style="font-size:19.8611px; fill:rgb(38,38,38); text-rendering:geometricPrecision; image-rendering:optimizeQuality; color-rendering:optimizeQuality; font-family:'SansSerif'; stroke:rgb(38,38,38); color-interpolation:linearRGB;"
    ><path style="stroke:none;" d="M-38.6406 -6.2812 Q-40.1719 -6.2812 -40.9375 -4.7812 Q-41.7031 -3.2812 -41.7031 -0.2812 Q-41.7031 2.7188 -40.9375 4.2188 Q-40.1719 5.7188 -38.6406 5.7188 Q-37.1094 5.7188 -36.3438 4.2188 Q-35.5781 2.7188 -35.5781 -0.2812 Q-35.5781 -3.2812 -36.3438 -4.7812 Q-37.1094 -6.2812 -38.6406 -6.2812 ZM-38.6406 -7.8438 Q-36.1875 -7.8438 -34.8984 -5.9062 Q-33.6094 -3.9688 -33.6094 -0.2812 Q-33.6094 3.4062 -34.8984 5.3438 Q-36.1875 7.2812 -38.6406 7.2812 Q-41.0938 7.2812 -42.3906 5.3438 Q-43.6875 3.4062 -43.6875 -0.2812 Q-43.6875 -3.9688 -42.3906 -5.9062 Q-41.0938 -7.8438 -38.6406 -7.8438 ZM-30.2342 4.5156 L-28.1717 4.5156 L-28.1717 7 L-30.2342 7 L-30.2342 4.5156 ZM-19.7077 -6.2812 Q-21.2389 -6.2812 -22.0045 -4.7812 Q-22.7702 -3.2812 -22.7702 -0.2812 Q-22.7702 2.7188 -22.0045 4.2188 Q-21.2389 5.7188 -19.7077 5.7188 Q-18.1764 5.7188 -17.4108 4.2188 Q-16.6452 2.7188 -16.6452 -0.2812 Q-16.6452 -3.2812 -17.4108 -4.7812 Q-18.1764 -6.2812 -19.7077 -6.2812 ZM-19.7077 -7.8438 Q-17.2545 -7.8438 -15.9655 -5.9062 Q-14.6764 -3.9688 -14.6764 -0.2812 Q-14.6764 3.4062 -15.9655 5.3438 Q-17.2545 7.2812 -19.7077 7.2812 Q-22.1608 7.2812 -23.4577 5.3438 Q-24.7545 3.4062 -24.7545 -0.2812 Q-24.7545 -3.9688 -23.4577 -5.9062 Q-22.1608 -7.8438 -19.7077 -7.8438 ZM-11.2856 -7.5781 L-3.5356 -7.5781 L-3.5356 -5.9219 L-9.4731 -5.9219 L-9.4731 -2.3438 Q-9.0512 -2.5 -8.6215 -2.5703 Q-8.1918 -2.6406 -7.7543 -2.6406 Q-5.3168 -2.6406 -3.8872 -1.3047 Q-2.4575 0.0312 -2.4575 2.3281 Q-2.4575 4.6719 -3.9262 5.9766 Q-5.395 7.2812 -8.0668 7.2812 Q-8.9731 7.2812 -9.9262 7.125 Q-10.8793 6.9688 -11.895 6.6562 L-11.895 4.6719 Q-11.02 5.1562 -10.0825 5.3906 Q-9.145 5.625 -8.0981 5.625 Q-6.4106 5.625 -5.4262 4.7344 Q-4.4418 3.8438 -4.4418 2.3281 Q-4.4418 0.7969 -5.4262 -0.0938 Q-6.4106 -0.9844 -8.0981 -0.9844 Q-8.895 -0.9844 -9.6762 -0.8047 Q-10.4575 -0.625 -11.2856 -0.25 L-11.2856 -7.5781 Z"
    /></g
    ><g transform="translate(471.0555,1339.0028)" style="font-size:19.8611px; fill:rgb(38,38,38); text-rendering:geometricPrecision; image-rendering:optimizeQuality; color-rendering:optimizeQuality; font-family:'SansSerif'; stroke:rgb(38,38,38); color-interpolation:linearRGB;"
    ><path style="stroke:none;" d="M-25.6406 -6.2812 Q-27.1719 -6.2812 -27.9375 -4.7812 Q-28.7031 -3.2812 -28.7031 -0.2812 Q-28.7031 2.7188 -27.9375 4.2188 Q-27.1719 5.7188 -25.6406 5.7188 Q-24.1094 5.7188 -23.3438 4.2188 Q-22.5781 2.7188 -22.5781 -0.2812 Q-22.5781 -3.2812 -23.3438 -4.7812 Q-24.1094 -6.2812 -25.6406 -6.2812 ZM-25.6406 -7.8438 Q-23.1875 -7.8438 -21.8984 -5.9062 Q-20.6094 -3.9688 -20.6094 -0.2812 Q-20.6094 3.4062 -21.8984 5.3438 Q-23.1875 7.2812 -25.6406 7.2812 Q-28.0938 7.2812 -29.3906 5.3438 Q-30.6875 3.4062 -30.6875 -0.2812 Q-30.6875 -3.9688 -29.3906 -5.9062 Q-28.0938 -7.8438 -25.6406 -7.8438 ZM-17.2342 4.5156 L-15.1717 4.5156 L-15.1717 7 L-17.2342 7 L-17.2342 4.5156 ZM-10.5827 5.3438 L-7.3639 5.3438 L-7.3639 -5.7812 L-10.8639 -5.0781 L-10.8639 -6.875 L-7.3795 -7.5781 L-5.4108 -7.5781 L-5.4108 5.3438 L-2.192 5.3438 L-2.192 7 L-10.5827 7 L-10.5827 5.3438 Z"
    /></g
    ><g transform="translate(471.0555,1149.0042)" style="font-size:19.8611px; fill:rgb(38,38,38); text-rendering:geometricPrecision; image-rendering:optimizeQuality; color-rendering:optimizeQuality; font-family:'SansSerif'; stroke:rgb(38,38,38); color-interpolation:linearRGB;"
    ><path style="stroke:none;" d="M-38.6406 -6.2812 Q-40.1719 -6.2812 -40.9375 -4.7812 Q-41.7031 -3.2812 -41.7031 -0.2812 Q-41.7031 2.7188 -40.9375 4.2188 Q-40.1719 5.7188 -38.6406 5.7188 Q-37.1094 5.7188 -36.3438 4.2188 Q-35.5781 2.7188 -35.5781 -0.2812 Q-35.5781 -3.2812 -36.3438 -4.7812 Q-37.1094 -6.2812 -38.6406 -6.2812 ZM-38.6406 -7.8438 Q-36.1875 -7.8438 -34.8984 -5.9062 Q-33.6094 -3.9688 -33.6094 -0.2812 Q-33.6094 3.4062 -34.8984 5.3438 Q-36.1875 7.2812 -38.6406 7.2812 Q-41.0938 7.2812 -42.3906 5.3438 Q-43.6875 3.4062 -43.6875 -0.2812 Q-43.6875 -3.9688 -42.3906 -5.9062 Q-41.0938 -7.8438 -38.6406 -7.8438 ZM-30.2342 4.5156 L-28.1717 4.5156 L-28.1717 7 L-30.2342 7 L-30.2342 4.5156 ZM-23.5827 5.3438 L-20.3639 5.3438 L-20.3639 -5.7812 L-23.8639 -5.0781 L-23.8639 -6.875 L-20.3795 -7.5781 L-18.4108 -7.5781 L-18.4108 5.3438 L-15.192 5.3438 L-15.192 7 L-23.5827 7 L-23.5827 5.3438 ZM-11.2856 -7.5781 L-3.5356 -7.5781 L-3.5356 -5.9219 L-9.4731 -5.9219 L-9.4731 -2.3438 Q-9.0512 -2.5 -8.6215 -2.5703 Q-8.1918 -2.6406 -7.7543 -2.6406 Q-5.3168 -2.6406 -3.8872 -1.3047 Q-2.4575 0.0312 -2.4575 2.3281 Q-2.4575 4.6719 -3.9262 5.9766 Q-5.395 7.2812 -8.0668 7.2812 Q-8.9731 7.2812 -9.9262 7.125 Q-10.8793 6.9688 -11.895 6.6562 L-11.895 4.6719 Q-11.02 5.1562 -10.0825 5.3906 Q-9.145 5.625 -8.0981 5.625 Q-6.4106 5.625 -5.4262 4.7344 Q-4.4418 3.8438 -4.4418 2.3281 Q-4.4418 0.7969 -5.4262 -0.0938 Q-6.4106 -0.9844 -8.0981 -0.9844 Q-8.895 -0.9844 -9.6762 -0.8047 Q-10.4575 -0.625 -11.2856 -0.25 L-11.2856 -7.5781 Z"
    /></g
    ><g transform="translate(471.0555,959.0056)" style="font-size:19.8611px; fill:rgb(38,38,38); text-rendering:geometricPrecision; image-rendering:optimizeQuality; color-rendering:optimizeQuality; font-family:'SansSerif'; stroke:rgb(38,38,38); color-interpolation:linearRGB;"
    ><path style="stroke:none;" d="M-25.6406 -6.2812 Q-27.1719 -6.2812 -27.9375 -4.7812 Q-28.7031 -3.2812 -28.7031 -0.2812 Q-28.7031 2.7188 -27.9375 4.2188 Q-27.1719 5.7188 -25.6406 5.7188 Q-24.1094 5.7188 -23.3438 4.2188 Q-22.5781 2.7188 -22.5781 -0.2812 Q-22.5781 -3.2812 -23.3438 -4.7812 Q-24.1094 -6.2812 -25.6406 -6.2812 ZM-25.6406 -7.8438 Q-23.1875 -7.8438 -21.8984 -5.9062 Q-20.6094 -3.9688 -20.6094 -0.2812 Q-20.6094 3.4062 -21.8984 5.3438 Q-23.1875 7.2812 -25.6406 7.2812 Q-28.0938 7.2812 -29.3906 5.3438 Q-30.6875 3.4062 -30.6875 -0.2812 Q-30.6875 -3.9688 -29.3906 -5.9062 Q-28.0938 -7.8438 -25.6406 -7.8438 ZM-17.2342 4.5156 L-15.1717 4.5156 L-15.1717 7 L-17.2342 7 L-17.2342 4.5156 ZM-9.2233 5.3438 L-2.3483 5.3438 L-2.3483 7 L-11.5983 7 L-11.5983 5.3438 Q-10.4733 4.1719 -8.5358 2.2188 Q-6.5983 0.2656 -6.0983 -0.3125 Q-5.1608 -1.375 -4.7858 -2.1094 Q-4.4108 -2.8438 -4.4108 -3.5625 Q-4.4108 -4.7188 -5.2233 -5.4531 Q-6.0358 -6.1875 -7.3483 -6.1875 Q-8.2702 -6.1875 -9.3014 -5.8672 Q-10.3327 -5.5469 -11.5045 -4.8906 L-11.5045 -6.875 Q-10.317 -7.3594 -9.278 -7.6016 Q-8.2389 -7.8438 -7.3795 -7.8438 Q-5.1139 -7.8438 -3.7702 -6.7109 Q-2.4264 -5.5781 -2.4264 -3.6875 Q-2.4264 -2.7812 -2.7624 -1.9766 Q-3.0983 -1.1719 -3.9889 -0.0781 Q-4.2233 0.2031 -5.5358 1.5547 Q-6.8483 2.9062 -9.2233 5.3438 Z"
    /></g
    ><g transform="translate(471.0555,769.007)" style="font-size:19.8611px; fill:rgb(38,38,38); text-rendering:geometricPrecision; image-rendering:optimizeQuality; color-rendering:optimizeQuality; font-family:'SansSerif'; stroke:rgb(38,38,38); color-interpolation:linearRGB;"
    ><path style="stroke:none;" d="M-38.6406 -6.2812 Q-40.1719 -6.2812 -40.9375 -4.7812 Q-41.7031 -3.2812 -41.7031 -0.2812 Q-41.7031 2.7188 -40.9375 4.2188 Q-40.1719 5.7188 -38.6406 5.7188 Q-37.1094 5.7188 -36.3438 4.2188 Q-35.5781 2.7188 -35.5781 -0.2812 Q-35.5781 -3.2812 -36.3438 -4.7812 Q-37.1094 -6.2812 -38.6406 -6.2812 ZM-38.6406 -7.8438 Q-36.1875 -7.8438 -34.8984 -5.9062 Q-33.6094 -3.9688 -33.6094 -0.2812 Q-33.6094 3.4062 -34.8984 5.3438 Q-36.1875 7.2812 -38.6406 7.2812 Q-41.0938 7.2812 -42.3906 5.3438 Q-43.6875 3.4062 -43.6875 -0.2812 Q-43.6875 -3.9688 -42.3906 -5.9062 Q-41.0938 -7.8438 -38.6406 -7.8438 ZM-30.2342 4.5156 L-28.1717 4.5156 L-28.1717 7 L-30.2342 7 L-30.2342 4.5156 ZM-22.2233 5.3438 L-15.3483 5.3438 L-15.3483 7 L-24.5983 7 L-24.5983 5.3438 Q-23.4733 4.1719 -21.5358 2.2188 Q-19.5983 0.2656 -19.0983 -0.3125 Q-18.1608 -1.375 -17.7858 -2.1094 Q-17.4108 -2.8438 -17.4108 -3.5625 Q-17.4108 -4.7188 -18.2233 -5.4531 Q-19.0358 -6.1875 -20.3483 -6.1875 Q-21.2702 -6.1875 -22.3014 -5.8672 Q-23.3327 -5.5469 -24.5045 -4.8906 L-24.5045 -6.875 Q-23.317 -7.3594 -22.278 -7.6016 Q-21.2389 -7.8438 -20.3795 -7.8438 Q-18.1139 -7.8438 -16.7702 -6.7109 Q-15.4264 -5.5781 -15.4264 -3.6875 Q-15.4264 -2.7812 -15.7624 -1.9766 Q-16.0983 -1.1719 -16.9889 -0.0781 Q-17.2233 0.2031 -18.5358 1.5547 Q-19.8483 2.9062 -22.2233 5.3438 ZM-11.2856 -7.5781 L-3.5356 -7.5781 L-3.5356 -5.9219 L-9.4731 -5.9219 L-9.4731 -2.3438 Q-9.0512 -2.5 -8.6215 -2.5703 Q-8.1918 -2.6406 -7.7543 -2.6406 Q-5.3168 -2.6406 -3.8872 -1.3047 Q-2.4575 0.0312 -2.4575 2.3281 Q-2.4575 4.6719 -3.9262 5.9766 Q-5.395 7.2812 -8.0668 7.2812 Q-8.9731 7.2812 -9.9262 7.125 Q-10.8793 6.9688 -11.895 6.6562 L-11.895 4.6719 Q-11.02 5.1562 -10.0825 5.3906 Q-9.145 5.625 -8.0981 5.625 Q-6.4106 5.625 -5.4262 4.7344 Q-4.4418 3.8438 -4.4418 2.3281 Q-4.4418 0.7969 -5.4262 -0.0938 Q-6.4106 -0.9844 -8.0981 -0.9844 Q-8.895 -0.9844 -9.6762 -0.8047 Q-10.4575 -0.625 -11.2856 -0.25 L-11.2856 -7.5781 Z"
    /></g
    ><g transform="translate(471.0555,579.0083)" style="font-size:19.8611px; fill:rgb(38,38,38); text-rendering:geometricPrecision; image-rendering:optimizeQuality; color-rendering:optimizeQuality; font-family:'SansSerif'; stroke:rgb(38,38,38); color-interpolation:linearRGB;"
    ><path style="stroke:none;" d="M-25.6406 -6.2812 Q-27.1719 -6.2812 -27.9375 -4.7812 Q-28.7031 -3.2812 -28.7031 -0.2812 Q-28.7031 2.7188 -27.9375 4.2188 Q-27.1719 5.7188 -25.6406 5.7188 Q-24.1094 5.7188 -23.3438 4.2188 Q-22.5781 2.7188 -22.5781 -0.2812 Q-22.5781 -3.2812 -23.3438 -4.7812 Q-24.1094 -6.2812 -25.6406 -6.2812 ZM-25.6406 -7.8438 Q-23.1875 -7.8438 -21.8984 -5.9062 Q-20.6094 -3.9688 -20.6094 -0.2812 Q-20.6094 3.4062 -21.8984 5.3438 Q-23.1875 7.2812 -25.6406 7.2812 Q-28.0938 7.2812 -29.3906 5.3438 Q-30.6875 3.4062 -30.6875 -0.2812 Q-30.6875 -3.9688 -29.3906 -5.9062 Q-28.0938 -7.8438 -25.6406 -7.8438 ZM-17.2342 4.5156 L-15.1717 4.5156 L-15.1717 7 L-17.2342 7 L-17.2342 4.5156 ZM-4.9577 -0.8594 Q-3.5358 -0.5625 -2.7389 0.3984 Q-1.942 1.3594 -1.942 2.7656 Q-1.942 4.9219 -3.4264 6.1016 Q-4.9108 7.2812 -7.6452 7.2812 Q-8.567 7.2812 -9.5358 7.1016 Q-10.5045 6.9219 -11.5358 6.5625 L-11.5358 4.6562 Q-10.7233 5.1406 -9.7467 5.3828 Q-8.7702 5.625 -7.7077 5.625 Q-5.8483 5.625 -4.8795 4.8906 Q-3.9108 4.1562 -3.9108 2.7656 Q-3.9108 1.4688 -4.8092 0.7422 Q-5.7077 0.0156 -7.317 0.0156 L-9.0202 0.0156 L-9.0202 -1.6094 L-7.2389 -1.6094 Q-5.7858 -1.6094 -5.0202 -2.1875 Q-4.2545 -2.7656 -4.2545 -3.8594 Q-4.2545 -4.9844 -5.0436 -5.5859 Q-5.8327 -6.1875 -7.317 -6.1875 Q-8.1295 -6.1875 -9.0592 -6.0078 Q-9.9889 -5.8281 -11.0983 -5.4688 L-11.0983 -7.2188 Q-9.9733 -7.5312 -8.9967 -7.6875 Q-8.0202 -7.8438 -7.1452 -7.8438 Q-4.8952 -7.8438 -3.5905 -6.8203 Q-2.2858 -5.7969 -2.2858 -4.0625 Q-2.2858 -2.8594 -2.9811 -2.0234 Q-3.6764 -1.1875 -4.9577 -0.8594 Z"
    /></g
    ><g transform="translate(471.0555,389.0098)" style="font-size:19.8611px; fill:rgb(38,38,38); text-rendering:geometricPrecision; image-rendering:optimizeQuality; color-rendering:optimizeQuality; font-family:'SansSerif'; stroke:rgb(38,38,38); color-interpolation:linearRGB;"
    ><path style="stroke:none;" d="M-38.6406 -6.2812 Q-40.1719 -6.2812 -40.9375 -4.7812 Q-41.7031 -3.2812 -41.7031 -0.2812 Q-41.7031 2.7188 -40.9375 4.2188 Q-40.1719 5.7188 -38.6406 5.7188 Q-37.1094 5.7188 -36.3438 4.2188 Q-35.5781 2.7188 -35.5781 -0.2812 Q-35.5781 -3.2812 -36.3438 -4.7812 Q-37.1094 -6.2812 -38.6406 -6.2812 ZM-38.6406 -7.8438 Q-36.1875 -7.8438 -34.8984 -5.9062 Q-33.6094 -3.9688 -33.6094 -0.2812 Q-33.6094 3.4062 -34.8984 5.3438 Q-36.1875 7.2812 -38.6406 7.2812 Q-41.0938 7.2812 -42.3906 5.3438 Q-43.6875 3.4062 -43.6875 -0.2812 Q-43.6875 -3.9688 -42.3906 -5.9062 Q-41.0938 -7.8438 -38.6406 -7.8438 ZM-30.2342 4.5156 L-28.1717 4.5156 L-28.1717 7 L-30.2342 7 L-30.2342 4.5156 ZM-17.9577 -0.8594 Q-16.5358 -0.5625 -15.7389 0.3984 Q-14.942 1.3594 -14.942 2.7656 Q-14.942 4.9219 -16.4264 6.1016 Q-17.9108 7.2812 -20.6452 7.2812 Q-21.567 7.2812 -22.5358 7.1016 Q-23.5045 6.9219 -24.5358 6.5625 L-24.5358 4.6562 Q-23.7233 5.1406 -22.7467 5.3828 Q-21.7702 5.625 -20.7077 5.625 Q-18.8483 5.625 -17.8795 4.8906 Q-16.9108 4.1562 -16.9108 2.7656 Q-16.9108 1.4688 -17.8092 0.7422 Q-18.7077 0.0156 -20.317 0.0156 L-22.0202 0.0156 L-22.0202 -1.6094 L-20.2389 -1.6094 Q-18.7858 -1.6094 -18.0202 -2.1875 Q-17.2545 -2.7656 -17.2545 -3.8594 Q-17.2545 -4.9844 -18.0436 -5.5859 Q-18.8327 -6.1875 -20.317 -6.1875 Q-21.1295 -6.1875 -22.0592 -6.0078 Q-22.9889 -5.8281 -24.0983 -5.4688 L-24.0983 -7.2188 Q-22.9733 -7.5312 -21.9967 -7.6875 Q-21.0202 -7.8438 -20.1452 -7.8438 Q-17.8952 -7.8438 -16.5905 -6.8203 Q-15.2858 -5.7969 -15.2858 -4.0625 Q-15.2858 -2.8594 -15.9811 -2.0234 Q-16.6764 -1.1875 -17.9577 -0.8594 ZM-11.2856 -7.5781 L-3.5356 -7.5781 L-3.5356 -5.9219 L-9.4731 -5.9219 L-9.4731 -2.3438 Q-9.0512 -2.5 -8.6215 -2.5703 Q-8.1918 -2.6406 -7.7543 -2.6406 Q-5.3168 -2.6406 -3.8872 -1.3047 Q-2.4575 0.0312 -2.4575 2.3281 Q-2.4575 4.6719 -3.9262 5.9766 Q-5.395 7.2812 -8.0668 7.2812 Q-8.9731 7.2812 -9.9262 7.125 Q-10.8793 6.9688 -11.895 6.6562 L-11.895 4.6719 Q-11.02 5.1562 -10.0825 5.3906 Q-9.145 5.625 -8.0981 5.625 Q-6.4106 5.625 -5.4262 4.7344 Q-4.4418 3.8438 -4.4418 2.3281 Q-4.4418 0.7969 -5.4262 -0.0938 Q-6.4106 -0.9844 -8.0981 -0.9844 Q-8.895 -0.9844 -9.6762 -0.8047 Q-10.4575 -0.625 -11.2856 -0.25 L-11.2856 -7.5781 Z"
    /></g
    ><g transform="translate(471.0555,199.0111)" style="font-size:19.8611px; fill:rgb(38,38,38); text-rendering:geometricPrecision; image-rendering:optimizeQuality; color-rendering:optimizeQuality; font-family:'SansSerif'; stroke:rgb(38,38,38); color-interpolation:linearRGB;"
    ><path style="stroke:none;" d="M-25.6406 -6.2812 Q-27.1719 -6.2812 -27.9375 -4.7812 Q-28.7031 -3.2812 -28.7031 -0.2812 Q-28.7031 2.7188 -27.9375 4.2188 Q-27.1719 5.7188 -25.6406 5.7188 Q-24.1094 5.7188 -23.3438 4.2188 Q-22.5781 2.7188 -22.5781 -0.2812 Q-22.5781 -3.2812 -23.3438 -4.7812 Q-24.1094 -6.2812 -25.6406 -6.2812 ZM-25.6406 -7.8438 Q-23.1875 -7.8438 -21.8984 -5.9062 Q-20.6094 -3.9688 -20.6094 -0.2812 Q-20.6094 3.4062 -21.8984 5.3438 Q-23.1875 7.2812 -25.6406 7.2812 Q-28.0938 7.2812 -29.3906 5.3438 Q-30.6875 3.4062 -30.6875 -0.2812 Q-30.6875 -3.9688 -29.3906 -5.9062 Q-28.0938 -7.8438 -25.6406 -7.8438 ZM-17.2342 4.5156 L-15.1717 4.5156 L-15.1717 7 L-17.2342 7 L-17.2342 4.5156 ZM-5.5045 -5.8594 L-10.4889 1.9219 L-5.5045 1.9219 L-5.5045 -5.8594 ZM-6.0202 -7.5781 L-3.5514 -7.5781 L-3.5514 1.9219 L-1.4577 1.9219 L-1.4577 3.5625 L-3.5514 3.5625 L-3.5514 7 L-5.5045 7 L-5.5045 3.5625 L-12.0827 3.5625 L-12.0827 1.6562 L-6.0202 -7.5781 Z"
    /></g
    ><g transform="translate(420.0972,931.9993) rotate(-90)" style="font-size:23.8333px; fill:rgb(38,38,38); text-rendering:geometricPrecision; image-rendering:optimizeQuality; color-rendering:optimizeQuality; font-family:'Ubuntu'; stroke:rgb(38,38,38); color-interpolation:linearRGB;"
    ><path style="stroke:none;" d="M-53.0156 -21.7969 Q-49.5156 -21.7969 -47.6328 -20.4688 Q-45.75 -19.1406 -45.75 -16.5 Q-45.75 -15.0625 -46.2656 -14.0391 Q-46.7812 -13.0156 -47.75 -12.3828 Q-48.7188 -11.75 -50.1172 -11.4609 Q-51.5156 -11.1719 -53.2656 -11.1719 L-55.1094 -11.1719 L-55.1094 -5 L-57.4375 -5 L-57.4375 -21.3906 Q-56.4531 -21.625 -55.2422 -21.7109 Q-54.0312 -21.7969 -53.0156 -21.7969 ZM-52.8281 -19.7656 Q-54.3125 -19.7656 -55.1094 -19.6875 L-55.1094 -13.1562 L-53.3594 -13.1562 Q-52.1562 -13.1562 -51.1953 -13.3125 Q-50.2344 -13.4688 -49.5781 -13.8438 Q-48.9219 -14.2188 -48.5625 -14.8672 Q-48.2031 -15.5156 -48.2031 -16.5156 Q-48.2031 -17.4844 -48.5703 -18.1094 Q-48.9375 -18.7344 -49.5781 -19.1016 Q-50.2188 -19.4688 -51.0547 -19.6172 Q-51.8906 -19.7656 -52.8281 -19.7656 ZM-38.4868 -17.75 Q-38.2056 -17.75 -37.8306 -17.7109 Q-37.4556 -17.6719 -37.0962 -17.6094 Q-36.7368 -17.5469 -36.4399 -17.4922 Q-36.1431 -17.4375 -35.9868 -17.3906 L-36.3774 -15.4375 Q-36.6431 -15.5312 -37.2524 -15.6641 Q-37.8618 -15.7969 -38.8306 -15.7969 Q-39.4556 -15.7969 -40.0649 -15.6641 Q-40.6743 -15.5312 -40.8618 -15.4844 L-40.8618 -5 L-43.0962 -5 L-43.0962 -16.9531 Q-42.2993 -17.2344 -41.1274 -17.4922 Q-39.9556 -17.75 -38.4868 -17.75 ZM-22.8864 -11.2344 Q-22.8864 -9.75 -23.3161 -8.5547 Q-23.7458 -7.3594 -24.5271 -6.4922 Q-25.3083 -5.625 -26.3864 -5.1562 Q-27.4646 -4.6875 -28.7458 -4.6875 Q-30.0114 -4.6875 -31.0974 -5.1562 Q-32.1833 -5.625 -32.9568 -6.4922 Q-33.7302 -7.3594 -34.1677 -8.5547 Q-34.6052 -9.75 -34.6052 -11.2344 Q-34.6052 -12.7031 -34.1677 -13.9141 Q-33.7302 -15.125 -32.9568 -15.9922 Q-32.1833 -16.8594 -31.0974 -17.3281 Q-30.0114 -17.7969 -28.7458 -17.7969 Q-27.4646 -17.7969 -26.3864 -17.3281 Q-25.3083 -16.8594 -24.5271 -15.9922 Q-23.7458 -15.125 -23.3161 -13.9141 Q-22.8864 -12.7031 -22.8864 -11.2344 ZM-25.2146 -11.2344 Q-25.2146 -13.3594 -26.1599 -14.5938 Q-27.1052 -15.8281 -28.7458 -15.8281 Q-30.3708 -15.8281 -31.3239 -14.5938 Q-32.2771 -13.3594 -32.2771 -11.2344 Q-32.2771 -9.125 -31.3239 -7.8906 Q-30.3708 -6.6562 -28.7458 -6.6562 Q-27.1052 -6.6562 -26.1599 -7.8906 Q-25.2146 -9.125 -25.2146 -11.2344 ZM-17.6145 -16.9219 Q-17.2083 -17.1875 -16.3801 -17.4766 Q-15.552 -17.7656 -14.4739 -17.7656 Q-13.1301 -17.7656 -12.0833 -17.2891 Q-11.0364 -16.8125 -10.3176 -15.9453 Q-9.5989 -15.0781 -9.2317 -13.8828 Q-8.8645 -12.6875 -8.8645 -11.2344 Q-8.8645 -9.7344 -9.302 -8.5156 Q-9.7395 -7.2969 -10.5598 -6.4609 Q-11.3801 -5.625 -12.5286 -5.1719 Q-13.677 -4.7188 -15.1301 -4.7188 Q-16.677 -4.7188 -17.8801 -4.9297 Q-19.0833 -5.1406 -19.8489 -5.3594 L-19.8489 -23.2344 L-17.6145 -23.625 L-17.6145 -16.9219 ZM-17.6145 -6.9375 Q-17.2864 -6.8438 -16.6692 -6.7656 Q-16.052 -6.6875 -15.1458 -6.6875 Q-13.3489 -6.6875 -12.2708 -7.875 Q-11.1926 -9.0625 -11.1926 -11.2344 Q-11.1926 -12.2031 -11.3801 -13.0391 Q-11.5676 -13.875 -11.9973 -14.4922 Q-12.427 -15.1094 -13.1145 -15.4531 Q-13.802 -15.7969 -14.7551 -15.7969 Q-15.677 -15.7969 -16.4426 -15.4844 Q-17.2083 -15.1719 -17.6145 -14.8438 L-17.6145 -6.9375 ZM-1.6008 -6.6094 Q-0.8039 -6.6094 -0.1945 -6.6484 Q0.4149 -6.6875 0.8211 -6.7812 L0.8211 -10.5 Q0.5867 -10.6094 0.0477 -10.6953 Q-0.4914 -10.7812 -1.257 -10.7812 Q-1.7726 -10.7812 -2.3351 -10.7109 Q-2.8976 -10.6406 -3.3664 -10.4141 Q-3.8351 -10.1875 -4.1476 -9.7891 Q-4.4601 -9.3906 -4.4601 -8.75 Q-4.4601 -7.5469 -3.6867 -7.0781 Q-2.9133 -6.6094 -1.6008 -6.6094 ZM-1.7883 -17.7969 Q-0.4445 -17.7969 0.4774 -17.4453 Q1.3992 -17.0938 1.9617 -16.4609 Q2.5242 -15.8281 2.7664 -14.9531 Q3.0086 -14.0781 3.0086 -13.0156 L3.0086 -5.2188 Q2.7274 -5.1719 2.2117 -5.0859 Q1.6961 -5 1.0477 -4.9297 Q0.3992 -4.8594 -0.3586 -4.7969 Q-1.1164 -4.7344 -1.8664 -4.7344 Q-2.9133 -4.7344 -3.8039 -4.9531 Q-4.6945 -5.1719 -5.3429 -5.6406 Q-5.9914 -6.1094 -6.3508 -6.875 Q-6.7101 -7.6406 -6.7101 -8.7188 Q-6.7101 -9.75 -6.2883 -10.4922 Q-5.8664 -11.2344 -5.1476 -11.6953 Q-4.4289 -12.1562 -3.4679 -12.3672 Q-2.507 -12.5781 -1.4601 -12.5781 Q-1.1164 -12.5781 -0.757 -12.5469 Q-0.3976 -12.5156 -0.0773 -12.4531 Q0.243 -12.3906 0.4852 -12.3438 Q0.7274 -12.2969 0.8211 -12.2656 L0.8211 -12.8906 Q0.8211 -13.4531 0.7039 -13.9922 Q0.5867 -14.5312 0.2742 -14.9531 Q-0.0383 -15.375 -0.5773 -15.625 Q-1.1164 -15.875 -1.9758 -15.875 Q-3.0851 -15.875 -3.9133 -15.7188 Q-4.7414 -15.5625 -5.1476 -15.3906 L-5.4133 -17.2344 Q-4.9758 -17.4375 -3.9679 -17.6172 Q-2.9601 -17.7969 -1.7883 -17.7969 ZM8.8484 -16.9219 Q9.2546 -17.1875 10.0827 -17.4766 Q10.9109 -17.7656 11.989 -17.7656 Q13.3327 -17.7656 14.3796 -17.2891 Q15.4265 -16.8125 16.1452 -15.9453 Q16.864 -15.0781 17.2312 -13.8828 Q17.5984 -12.6875 17.5984 -11.2344 Q17.5984 -9.7344 17.1609 -8.5156 Q16.7234 -7.2969 15.9031 -6.4609 Q15.0827 -5.625 13.9343 -5.1719 Q12.7859 -4.7188 11.3327 -4.7188 Q9.7859 -4.7188 8.5827 -4.9297 Q7.3796 -5.1406 6.614 -5.3594 L6.614 -23.2344 L8.8484 -23.625 L8.8484 -16.9219 ZM8.8484 -6.9375 Q9.1765 -6.8438 9.7937 -6.7656 Q10.4109 -6.6875 11.3171 -6.6875 Q13.114 -6.6875 14.1921 -7.875 Q15.2702 -9.0625 15.2702 -11.2344 Q15.2702 -12.2031 15.0827 -13.0391 Q14.8952 -13.875 14.4656 -14.4922 Q14.0359 -15.1094 13.3484 -15.4531 Q12.6609 -15.7969 11.7077 -15.7969 Q10.7859 -15.7969 10.0202 -15.4844 Q9.2546 -15.1719 8.8484 -14.8438 L8.8484 -6.9375 ZM22.8777 -5 L20.6434 -5 L20.6434 -17.4844 L22.8777 -17.4844 L22.8777 -5 ZM21.7527 -19.7344 Q21.1434 -19.7344 20.7215 -20.1328 Q20.2996 -20.5312 20.2996 -21.2031 Q20.2996 -21.875 20.7215 -22.2656 Q21.1434 -22.6562 21.7527 -22.6562 Q22.3465 -22.6562 22.7684 -22.2656 Q23.1902 -21.875 23.1902 -21.2031 Q23.1902 -20.5312 22.7684 -20.1328 Q22.3465 -19.7344 21.7527 -19.7344 ZM30.4039 -4.7656 Q28.3414 -4.8125 27.4821 -5.6484 Q26.6227 -6.4844 26.6227 -8.2656 L26.6227 -23.2344 L28.8571 -23.625 L28.8571 -8.625 Q28.8571 -8.0781 28.9508 -7.7188 Q29.0446 -7.3594 29.2633 -7.1406 Q29.4821 -6.9219 29.8414 -6.8125 Q30.2008 -6.7031 30.7164 -6.625 L30.4039 -4.7656 ZM35.4065 -5 L33.1721 -5 L33.1721 -17.4844 L35.4065 -17.4844 L35.4065 -5 ZM34.2815 -19.7344 Q33.6721 -19.7344 33.2503 -20.1328 Q32.8284 -20.5312 32.8284 -21.2031 Q32.8284 -21.875 33.2503 -22.2656 Q33.6721 -22.6562 34.2815 -22.6562 Q34.8753 -22.6562 35.2971 -22.2656 Q35.719 -21.875 35.719 -21.2031 Q35.719 -20.5312 35.2971 -20.1328 Q34.8753 -19.7344 34.2815 -19.7344 ZM41.2921 -17.4844 L46.0108 -17.4844 L46.0108 -15.6094 L41.2921 -15.6094 L41.2921 -9.8438 Q41.2921 -8.9062 41.4327 -8.2969 Q41.5733 -7.6875 41.8624 -7.3359 Q42.1515 -6.9844 42.5812 -6.8438 Q43.0108 -6.7031 43.589 -6.7031 Q44.589 -6.7031 45.2062 -6.9297 Q45.8233 -7.1562 46.0577 -7.25 L46.4952 -5.4062 Q46.1515 -5.2344 45.3155 -4.9844 Q44.4796 -4.7344 43.4015 -4.7344 Q42.1202 -4.7344 41.2921 -5.0625 Q40.464 -5.3906 39.964 -6.0391 Q39.464 -6.6875 39.2608 -7.6328 Q39.0577 -8.5781 39.0577 -9.8281 L39.0577 -20.9531 L41.2921 -21.3438 L41.2921 -17.4844 ZM47.3048 -2.6719 Q47.5704 -2.5469 47.9923 -2.4453 Q48.4142 -2.3438 48.8204 -2.3438 Q50.1329 -2.3438 50.8829 -2.9297 Q51.6329 -3.5156 52.2267 -4.8281 Q50.7111 -7.7188 49.4064 -10.9453 Q48.1017 -14.1719 47.2423 -17.4844 L49.6329 -17.4844 Q49.8986 -16.4062 50.2736 -15.1562 Q50.6486 -13.9062 51.1017 -12.5859 Q51.5548 -11.2656 52.0861 -9.9453 Q52.6173 -8.625 53.1954 -7.4062 Q54.1017 -9.9219 54.7736 -12.3906 Q55.4454 -14.8594 56.0392 -17.4844 L58.3517 -17.4844 Q57.4767 -13.9531 56.422 -10.7031 Q55.3673 -7.4531 54.1486 -4.6094 Q53.6642 -3.5312 53.1486 -2.75 Q52.6329 -1.9688 52.0079 -1.4688 Q51.3829 -0.9688 50.6017 -0.7266 Q49.8204 -0.4844 48.8361 -0.4844 Q48.5861 -0.4844 48.297 -0.5234 Q48.0079 -0.5625 47.7267 -0.625 Q47.4454 -0.6875 47.2189 -0.7578 Q46.9923 -0.8281 46.8986 -0.875 L47.3048 -2.6719 Z"
    /></g
  ></g
></svg
>
