mu,alpha,k,k2,P(k)
1,0.97,0,-0.5,0.025633
1,0.97,1,0.5,0.028626
1,0.97,2,1.5,0.035304
1,0.97,3,2.5,0.044114
1,0.97,4,3.5,0.055154
1,0.97,5,4.5,0.062119
1,0.97,6,5.5,0.06134
1,0.97,7,6.5,0.062546
1,0.97,8,7.5,0.066762
1,0.97,9,8.5,0.075885
1,0.97,10,9.5,0.064716
1,0.97,11,10.5,0.056557
1,0.97,12,11.5,0.050558
1,0.97,13,12.5,0.048161
1,0.97,14,13.5,0.04712
1,0.97,15,14.5,0.036359
1,0.97,16,15.5,0.031703
1,0.97,17,16.5,0.028131
1,0.97,18,17.5,0.025228
1,0.97,19,18.5,0.02132
1,0.97,20,19.5,0.07266
1,0.97,21,20.5,0.013153
