mu,alpha,u,k,k2,b,b2,P(b)
1,0.97,1,0,-0.5,0,-0.5,1
1,0.97,1,0,-0.5,1,0.5,2
1,0.97,1,0,-0.5,2,1.5,2
1,0.97,1,0,-0.5,3,2.5,2
1,0.97,1,0,-0.5,4,3.5,2
1,0.97,1,0,-0.5,5,4.5,2
1,0.97,1,0,-0.5,6,5.5,2
1,0.97,1,0,-0.5,7,6.5,2
1,0.97,1,0,-0.5,8,7.5,2
1,0.97,1,0,-0.5,9,8.5,2
1,0.97,1,0,-0.5,10,9.5,2
1,0.97,1,0,-0.5,11,10.5,2
1,0.97,1,0,-0.5,12,11.5,2
1,0.97,1,0,-0.5,13,12.5,2
1,0.97,1,0,-0.5,14,13.5,2
1,0.97,1,0,-0.5,15,14.5,2
1,0.97,1,0,-0.5,16,15.5,2
1,0.97,1,0,-0.5,17,16.5,2
1,0.97,1,0,-0.5,18,17.5,2
1,0.97,1,0,-0.5,19,18.5,2
1,0.97,1,0,-0.5,20,19.5,2
1,0.97,1,0,-0.5,21,20.5,2
1,0.97,1,1,0.5,0,-0.5,2.5817e-28
1,0.97,1,1,0.5,1,0.5,1
1,0.97,1,1,0.5,2,1.5,2
1,0.97,1,1,0.5,3,2.5,2
1,0.97,1,1,0.5,4,3.5,2
1,0.97,1,1,0.5,5,4.5,2
1,0.97,1,1,0.5,6,5.5,2
1,0.97,1,1,0.5,7,6.5,2
1,0.97,1,1,0.5,8,7.5,2
1,0.97,1,1,0.5,9,8.5,2
1,0.97,1,1,0.5,10,9.5,2
1,0.97,1,1,0.5,11,10.5,2
1,0.97,1,1,0.5,12,11.5,2
1,0.97,1,1,0.5,13,12.5,2
1,0.97,1,1,0.5,14,13.5,2
1,0.97,1,1,0.5,15,14.5,2
1,0.97,1,1,0.5,16,15.5,2
1,0.97,1,1,0.5,17,16.5,2
1,0.97,1,1,0.5,18,17.5,2
1,0.97,1,1,0.5,19,18.5,2
1,0.97,1,1,0.5,20,19.5,2
1,0.97,1,1,0.5,21,20.5,2
1,0.97,1,2,1.5,0,-0.5,9.5779e-29
1,0.97,1,2,1.5,1,0.5,2.752e-27
1,0.97,1,2,1.5,2,1.5,1
1,0.97,1,2,1.5,3,2.5,2
1,0.97,1,2,1.5,4,3.5,2
1,0.97,1,2,1.5,5,4.5,2
1,0.97,1,2,1.5,6,5.5,2
1,0.97,1,2,1.5,7,6.5,2
1,0.97,1,2,1.5,8,7.5,2
1,0.97,1,2,1.5,9,8.5,2
1,0.97,1,2,1.5,10,9.5,2
1,0.97,1,2,1.5,11,10.5,2
1,0.97,1,2,1.5,12,11.5,2
1,0.97,1,2,1.5,13,12.5,2
1,0.97,1,2,1.5,14,13.5,2
1,0.97,1,2,1.5,15,14.5,2
1,0.97,1,2,1.5,16,15.5,2
1,0.97,1,2,1.5,17,16.5,2
1,0.97,1,2,1.5,18,17.5,2
1,0.97,1,2,1.5,19,18.5,2
1,0.97,1,2,1.5,20,19.5,2
1,0.97,1,2,1.5,21,20.5,2
1,0.97,1,3,2.5,0,-0.5,3.495e-29
1,0.97,1,3,2.5,1,0.5,3.495e-29
1,0.97,1,3,2.5,2,1.5,2.6912e-27
1,0.97,1,3,2.5,3,2.5,1
1,0.97,1,3,2.5,4,3.5,2
1,0.97,1,3,2.5,5,4.5,2
1,0.97,1,3,2.5,6,5.5,2
1,0.97,1,3,2.5,7,6.5,2
1,0.97,1,3,2.5,8,7.5,2
1,0.97,1,3,2.5,9,8.5,2
1,0.97,1,3,2.5,10,9.5,2
1,0.97,1,3,2.5,11,10.5,2
1,0.97,1,3,2.5,12,11.5,2
1,0.97,1,3,2.5,13,12.5,2
1,0.97,1,3,2.5,14,13.5,2
1,0.97,1,3,2.5,15,14.5,2
1,0.97,1,3,2.5,16,15.5,2
1,0.97,1,3,2.5,17,16.5,2
1,0.97,1,3,2.5,18,17.5,2
1,0.97,1,3,2.5,19,18.5,2
1,0.97,1,3,2.5,20,19.5,2
1,0.97,1,3,2.5,21,20.5,2
1,0.97,1,4,3.5,0,-0.5,2.796e-29
1,0.97,1,4,3.5,1,0.5,2.796e-29
1,0.97,1,4,3.5,2,1.5,2.6842e-27
1,0.97,1,4,3.5,3,2.5,2.2973e-15
1,0.97,1,4,3.5,4,3.5,1
1,0.97,1,4,3.5,5,4.5,2
1,0.97,1,4,3.5,6,5.5,2
1,0.97,1,4,3.5,7,6.5,2
1,0.97,1,4,3.5,8,7.5,2
1,0.97,1,4,3.5,9,8.5,2
1,0.97,1,4,3.5,10,9.5,2
1,0.97,1,4,3.5,11,10.5,2
1,0.97,1,4,3.5,12,11.5,2
1,0.97,1,4,3.5,13,12.5,2
1,0.97,1,4,3.5,14,13.5,2
1,0.97,1,4,3.5,15,14.5,2
1,0.97,1,4,3.5,16,15.5,2
1,0.97,1,4,3.5,17,16.5,2
1,0.97,1,4,3.5,18,17.5,2
1,0.97,1,4,3.5,19,18.5,2
1,0.97,1,4,3.5,20,19.5,2
1,0.97,1,4,3.5,21,20.5,2
1,0.97,1,5,4.5,0,-0.5,1.2904e-317
1,0.97,1,5,4.5,1,0.5,5.9489e-197
1,0.97,1,5,4.5,2,1.5,3.2292e-128
1,0.97,1,5,4.5,3,2.5,2.6562e-27
1,0.97,1,5,4.5,4,3.5,3.2993e-20
1,0.97,1,5,4.5,5,4.5,1
1,0.97,1,5,4.5,6,5.5,2
1,0.97,1,5,4.5,7,6.5,2
1,0.97,1,5,4.5,8,7.5,2
1,0.97,1,5,4.5,9,8.5,2
1,0.97,1,5,4.5,10,9.5,2
1,0.97,1,5,4.5,11,10.5,2
1,0.97,1,5,4.5,12,11.5,2
1,0.97,1,5,4.5,13,12.5,2
1,0.97,1,5,4.5,14,13.5,2
1,0.97,1,5,4.5,15,14.5,2
1,0.97,1,5,4.5,16,15.5,2
1,0.97,1,5,4.5,17,16.5,2
1,0.97,1,5,4.5,18,17.5,2
1,0.97,1,5,4.5,19,18.5,2
1,0.97,1,5,4.5,20,19.5,2
1,0.97,1,5,4.5,21,20.5,2
1,0.97,1,6,5.5,0,-0.5,4.4466e-323
1,0.97,1,6,5.5,1,0.5,5.9607e-235
1,0.97,1,6,5.5,2,1.5,1.074e-166
1,0.97,1,6,5.5,3,2.5,2.6562e-27
1,0.97,1,6,5.5,4,3.5,3.1905e-37
1,0.97,1,6,5.5,5,4.5,1
1,0.97,1,6,5.5,6,5.5,3.9536e-27
1,0.97,1,6,5.5,7,6.5,2
1,0.97,1,6,5.5,8,7.5,2
1,0.97,1,6,5.5,9,8.5,2
1,0.97,1,6,5.5,10,9.5,2
1,0.97,1,6,5.5,11,10.5,2
1,0.97,1,6,5.5,12,11.5,2
1,0.97,1,6,5.5,13,12.5,2
1,0.97,1,6,5.5,14,13.5,2
1,0.97,1,6,5.5,15,14.5,2
1,0.97,1,6,5.5,16,15.5,2
1,0.97,1,6,5.5,17,16.5,2
1,0.97,1,6,5.5,18,17.5,2
1,0.97,1,6,5.5,19,18.5,2
1,0.97,1,6,5.5,20,19.5,2
1,0.97,1,6,5.5,21,20.5,2
1,0.97,1,7,6.5,0,-0.5,1.7012e-316
1,0.97,1,7,6.5,1,0.5,3.0038e-245
1,0.97,1,7,6.5,2,1.5,7.895e-180
1,0.97,1,7,6.5,3,2.5,6.0655e-95
1,0.97,1,7,6.5,4,3.5,2.6562e-27
1,0.97,1,7,6.5,5,4.5,1
1,0.97,1,7,6.5,6,5.5,2.7422e-25
1,0.97,1,7,6.5,7,6.5,4.0403e-265
1,0.97,1,7,6.5,8,7.5,2
1,0.97,1,7,6.5,9,8.5,2
1,0.97,1,7,6.5,10,9.5,2
1,0.97,1,7,6.5,11,10.5,2
1,0.97,1,7,6.5,12,11.5,2
1,0.97,1,7,6.5,13,12.5,2
1,0.97,1,7,6.5,14,13.5,2
1,0.97,1,7,6.5,15,14.5,2
1,0.97,1,7,6.5,16,15.5,2
1,0.97,1,7,6.5,17,16.5,2
1,0.97,1,7,6.5,18,17.5,2
1,0.97,1,7,6.5,19,18.5,2
1,0.97,1,7,6.5,20,19.5,2
1,0.97,1,7,6.5,21,20.5,2
1,0.97,1,8,7.5,0,-0.5,0
1,0.97,1,8,7.5,1,0.5,1.5592e-244
1,0.97,1,8,7.5,2,1.5,1.6374e-182
1,0.97,1,8,7.5,3,2.5,2.9276e-113
1,0.97,1,8,7.5,4,3.5,2.6562e-27
1,0.97,1,8,7.5,5,4.5,1
1,0.97,1,8,7.5,6,5.5,1.1727e-24
1,0.97,1,8,7.5,7,6.5,9.5937e-203
1,0.97,1,8,7.5,8,7.5,0
1,0.97,1,8,7.5,9,8.5,2
1,0.97,1,8,7.5,10,9.5,2
1,0.97,1,8,7.5,11,10.5,2
1,0.97,1,8,7.5,12,11.5,2
1,0.97,1,8,7.5,13,12.5,2
1,0.97,1,8,7.5,14,13.5,2
1,0.97,1,8,7.5,15,14.5,2
1,0.97,1,8,7.5,16,15.5,2
1,0.97,1,8,7.5,17,16.5,2
1,0.97,1,8,7.5,18,17.5,2
1,0.97,1,8,7.5,19,18.5,2
1,0.97,1,8,7.5,20,19.5,2
1,0.97,1,8,7.5,21,20.5,2
1,0.97,1,9,8.5,0,-0.5,0
1,0.97,1,9,8.5,1,0.5,1.4742e-253
1,0.97,1,9,8.5,2,1.5,1.7181e-189
1,0.97,1,9,8.5,3,2.5,4.7769e-134
1,0.97,1,9,8.5,4,3.5,2.9227e-95
1,0.97,1,9,8.5,5,4.5,4.7238e-18
1,0.97,1,9,8.5,6,5.5,1
1,0.97,1,9,8.5,7,6.5,4.8747e-179
1,0.97,1,9,8.5,8,7.5,0
1,0.97,1,9,8.5,9,8.5,0
1,0.97,1,9,8.5,10,9.5,2
1,0.97,1,9,8.5,11,10.5,2
1,0.97,1,9,8.5,12,11.5,2
1,0.97,1,9,8.5,13,12.5,2
1,0.97,1,9,8.5,14,13.5,2
1,0.97,1,9,8.5,15,14.5,2
1,0.97,1,9,8.5,16,15.5,2
1,0.97,1,9,8.5,17,16.5,2
1,0.97,1,9,8.5,18,17.5,2
1,0.97,1,9,8.5,19,18.5,2
1,0.97,1,9,8.5,20,19.5,2
1,0.97,1,9,8.5,21,20.5,2
1,0.97,1,10,9.5,0,-0.5,0
1,0.97,1,10,9.5,1,0.5,6.8623e-294
1,0.97,1,10,9.5,2,1.5,5.9416e-231
1,0.97,1,10,9.5,3,2.5,3.4986e-160
1,0.97,1,10,9.5,4,3.5,3.2731e-113
1,0.97,1,10,9.5,5,4.5,1.4654e-21
1,0.97,1,10,9.5,6,5.5,1
1,0.97,1,10,9.5,7,6.5,1.9986e-173
1,0.97,1,10,9.5,8,7.5,0
1,0.97,1,10,9.5,9,8.5,0
1,0.97,1,10,9.5,10,9.5,0
1,0.97,1,10,9.5,11,10.5,2
1,0.97,1,10,9.5,12,11.5,2
1,0.97,1,10,9.5,13,12.5,2
1,0.97,1,10,9.5,14,13.5,2
1,0.97,1,10,9.5,15,14.5,2
1,0.97,1,10,9.5,16,15.5,2
1,0.97,1,10,9.5,17,16.5,2
1,0.97,1,10,9.5,18,17.5,2
1,0.97,1,10,9.5,19,18.5,2
1,0.97,1,10,9.5,20,19.5,2
1,0.97,1,10,9.5,21,20.5,2
1,0.97,1,11,10.5,0,-0.5,0
1,0.97,1,11,10.5,1,0.5,0
1,0.97,1,11,10.5,2,1.5,3.0259e-289
1,0.97,1,11,10.5,3,2.5,2.2764e-197
1,0.97,1,11,10.5,4,3.5,1.6792e-148
1,0.97,1,11,10.5,5,4.5,1.626e-38
1,0.97,1,11,10.5,6,5.5,1
1,0.97,1,11,10.5,7,6.5,6.99e-29
1,0.97,1,11,10.5,8,7.5,0
1,0.97,1,11,10.5,9,8.5,0
1,0.97,1,11,10.5,10,9.5,0
1,0.97,1,11,10.5,11,10.5,0
1,0.97,1,11,10.5,12,11.5,2
1,0.97,1,11,10.5,13,12.5,2
1,0.97,1,11,10.5,14,13.5,2
1,0.97,1,11,10.5,15,14.5,2
1,0.97,1,11,10.5,16,15.5,2
1,0.97,1,11,10.5,17,16.5,2
1,0.97,1,11,10.5,18,17.5,2
1,0.97,1,11,10.5,19,18.5,2
1,0.97,1,11,10.5,20,19.5,2
1,0.97,1,11,10.5,21,20.5,2
1,0.97,1,12,11.5,0,-0.5,0
1,0.97,1,12,11.5,1,0.5,0
1,0.97,1,12,11.5,2,1.5,4.4466e-323
1,0.97,1,12,11.5,3,2.5,2.4358e-232
1,0.97,1,12,11.5,4,3.5,8.3371e-183
1,0.97,1,12,11.5,5,4.5,1.1986e-77
1,0.97,1,12,11.5,6,5.5,1
1,0.97,1,12,11.5,7,6.5,8.7938e-63
1,0.97,1,12,11.5,8,7.5,0
1,0.97,1,12,11.5,9,8.5,0
1,0.97,1,12,11.5,10,9.5,0
1,0.97,1,12,11.5,11,10.5,0
1,0.97,1,12,11.5,12,11.5,0
1,0.97,1,12,11.5,13,12.5,2
1,0.97,1,12,11.5,14,13.5,2
1,0.97,1,12,11.5,15,14.5,2
1,0.97,1,12,11.5,16,15.5,2
1,0.97,1,12,11.5,17,16.5,2
1,0.97,1,12,11.5,18,17.5,2
1,0.97,1,12,11.5,19,18.5,2
1,0.97,1,12,11.5,20,19.5,2
1,0.97,1,12,11.5,21,20.5,2
1,0.97,1,13,12.5,0,-0.5,0
1,0.97,1,13,12.5,1,0.5,0
1,0.97,1,13,12.5,2,1.5,4.4466e-323
1,0.97,1,13,12.5,3,2.5,4.823e-245
1,0.97,1,13,12.5,4,3.5,9.995e-194
1,0.97,1,13,12.5,5,4.5,7.1885e-90
1,0.97,1,13,12.5,6,5.5,1
1,0.97,1,13,12.5,7,6.5,2.6562e-27
1,0.97,1,13,12.5,8,7.5,4.4466e-323
1,0.97,1,13,12.5,9,8.5,0
1,0.97,1,13,12.5,10,9.5,0
1,0.97,1,13,12.5,11,10.5,0
1,0.97,1,13,12.5,12,11.5,0
1,0.97,1,13,12.5,13,12.5,0
1,0.97,1,13,12.5,14,13.5,2
1,0.97,1,13,12.5,15,14.5,2
1,0.97,1,13,12.5,16,15.5,2
1,0.97,1,13,12.5,17,16.5,2
1,0.97,1,13,12.5,18,17.5,2
1,0.97,1,13,12.5,19,18.5,2
1,0.97,1,13,12.5,20,19.5,2
1,0.97,1,13,12.5,21,20.5,2
1,0.97,1,14,13.5,0,-0.5,0
1,0.97,1,14,13.5,1,0.5,0
1,0.97,1,14,13.5,2,1.5,4.4466e-323
1,0.97,1,14,13.5,3,2.5,5.7179e-262
1,0.97,1,14,13.5,4,3.5,1.2031e-213
1,0.97,1,14,13.5,5,4.5,4.7479e-100
1,0.97,1,14,13.5,6,5.5,1
1,0.97,1,14,13.5,7,6.5,1.7709e-26
1,0.97,1,14,13.5,8,7.5,3.9709e-306
1,0.97,1,14,13.5,9,8.5,0
1,0.97,1,14,13.5,10,9.5,0
1,0.97,1,14,13.5,11,10.5,0
1,0.97,1,14,13.5,12,11.5,0
1,0.97,1,14,13.5,13,12.5,0
1,0.97,1,14,13.5,14,13.5,0
1,0.97,1,14,13.5,15,14.5,2
1,0.97,1,14,13.5,16,15.5,2
1,0.97,1,14,13.5,17,16.5,2
1,0.97,1,14,13.5,18,17.5,2
1,0.97,1,14,13.5,19,18.5,2
1,0.97,1,14,13.5,20,19.5,2
1,0.97,1,14,13.5,21,20.5,2
1,0.97,1,15,14.5,0,-0.5,0
1,0.97,1,15,14.5,1,0.5,0
1,0.97,1,15,14.5,2,1.5,4.4466e-323
1,0.97,1,15,14.5,3,2.5,2.6654e-281
1,0.97,1,15,14.5,4,3.5,1.9251e-232
1,0.97,1,15,14.5,5,4.5,6.4805e-101
1,0.97,1,15,14.5,6,5.5,1
1,0.97,1,15,14.5,7,6.5,3.308e-26
1,0.97,1,15,14.5,8,7.5,2.6562e-27
1,0.97,1,15,14.5,9,8.5,0
1,0.97,1,15,14.5,10,9.5,0
1,0.97,1,15,14.5,11,10.5,0
1,0.97,1,15,14.5,12,11.5,0
1,0.97,1,15,14.5,13,12.5,0
1,0.97,1,15,14.5,14,13.5,0
1,0.97,1,15,14.5,15,14.5,0
1,0.97,1,15,14.5,16,15.5,2
1,0.97,1,15,14.5,17,16.5,2
1,0.97,1,15,14.5,18,17.5,2
1,0.97,1,15,14.5,19,18.5,2
1,0.97,1,15,14.5,20,19.5,2
1,0.97,1,15,14.5,21,20.5,2
1,0.97,1,16,15.5,0,-0.5,0
1,0.97,1,16,15.5,1,0.5,0
1,0.97,1,16,15.5,2,1.5,0
1,0.97,1,16,15.5,3,2.5,1.1864e-299
1,0.97,1,16,15.5,4,3.5,3.1632e-249
1,0.97,1,16,15.5,5,4.5,9.4067e-106
1,0.97,1,16,15.5,6,5.5,1
1,0.97,1,16,15.5,7,6.5,4.8577e-26
1,0.97,1,16,15.5,8,7.5,2.6562e-27
1,0.97,1,16,15.5,9,8.5,0
1,0.97,1,16,15.5,10,9.5,0
1,0.97,1,16,15.5,11,10.5,0
1,0.97,1,16,15.5,12,11.5,0
1,0.97,1,16,15.5,13,12.5,0
1,0.97,1,16,15.5,14,13.5,0
1,0.97,1,16,15.5,15,14.5,0
1,0.97,1,16,15.5,16,15.5,0
1,0.97,1,16,15.5,17,16.5,2
1,0.97,1,16,15.5,18,17.5,2
1,0.97,1,16,15.5,19,18.5,2
1,0.97,1,16,15.5,20,19.5,2
1,0.97,1,16,15.5,21,20.5,2
1,0.97,1,17,16.5,0,-0.5,0
1,0.97,1,17,16.5,1,0.5,0
1,0.97,1,17,16.5,2,1.5,0
1,0.97,1,17,16.5,3,2.5,0
1,0.97,1,17,16.5,4,3.5,2.7409e-282
1,0.97,1,17,16.5,5,4.5,1.2279e-129
1,0.97,1,17,16.5,6,5.5,1
1,0.97,1,17,16.5,7,6.5,1.7425e-25
1,0.97,1,17,16.5,8,7.5,6.9266e-279
1,0.97,1,17,16.5,9,8.5,2.6562e-27
1,0.97,1,17,16.5,10,9.5,0
1,0.97,1,17,16.5,11,10.5,0
1,0.97,1,17,16.5,12,11.5,0
1,0.97,1,17,16.5,13,12.5,0
1,0.97,1,17,16.5,14,13.5,0
1,0.97,1,17,16.5,15,14.5,0
1,0.97,1,17,16.5,16,15.5,0
1,0.97,1,17,16.5,17,16.5,0
1,0.97,1,17,16.5,18,17.5,2
1,0.97,1,17,16.5,19,18.5,2
1,0.97,1,17,16.5,20,19.5,2
1,0.97,1,17,16.5,21,20.5,2
1,0.97,1,18,17.5,0,-0.5,0
1,0.97,1,18,17.5,1,0.5,0
1,0.97,1,18,17.5,2,1.5,0
1,0.97,1,18,17.5,3,2.5,0
1,0.97,1,18,17.5,4,3.5,3.2231e-290
1,0.97,1,18,17.5,5,4.5,4.5154e-170
1,0.97,1,18,17.5,6,5.5,1
1,0.97,1,18,17.5,7,6.5,2.5476e-25
1,0.97,1,18,17.5,8,7.5,2.7404e-290
1,0.97,1,18,17.5,9,8.5,2.6562e-27
1,0.97,1,18,17.5,10,9.5,0
1,0.97,1,18,17.5,11,10.5,0
1,0.97,1,18,17.5,12,11.5,0
1,0.97,1,18,17.5,13,12.5,0
1,0.97,1,18,17.5,14,13.5,0
1,0.97,1,18,17.5,15,14.5,0
1,0.97,1,18,17.5,16,15.5,0
1,0.97,1,18,17.5,17,16.5,0
1,0.97,1,18,17.5,18,17.5,0
1,0.97,1,18,17.5,19,18.5,2
1,0.97,1,18,17.5,20,19.5,2
1,0.97,1,18,17.5,21,20.5,2
1,0.97,1,19,18.5,0,-0.5,0
1,0.97,1,19,18.5,1,0.5,0
1,0.97,1,19,18.5,2,1.5,0
1,0.97,1,19,18.5,3,2.5,0
1,0.97,1,19,18.5,4,3.5,2.2217e-291
1,0.97,1,19,18.5,5,4.5,9.498e-187
1,0.97,1,19,18.5,6,5.5,1
1,0.97,1,19,18.5,7,6.5,4.2226e-25
1,0.97,1,19,18.5,8,7.5,1.8418e-225
1,0.97,1,19,18.5,9,8.5,0
1,0.97,1,19,18.5,10,9.5,2.6562e-27
1,0.97,1,19,18.5,11,10.5,0
1,0.97,1,19,18.5,12,11.5,0
1,0.97,1,19,18.5,13,12.5,0
1,0.97,1,19,18.5,14,13.5,0
1,0.97,1,19,18.5,15,14.5,0
1,0.97,1,19,18.5,16,15.5,0
1,0.97,1,19,18.5,17,16.5,0
1,0.97,1,19,18.5,18,17.5,0
1,0.97,1,19,18.5,19,18.5,0
1,0.97,1,19,18.5,20,19.5,2
1,0.97,1,19,18.5,21,20.5,2
1,0.97,1,20,19.5,0,-0.5,0
1,0.97,1,20,19.5,1,0.5,0
1,0.97,1,20,19.5,2,1.5,0
1,0.97,1,20,19.5,3,2.5,0
1,0.97,1,20,19.5,4,3.5,1.5809e-306
1,0.97,1,20,19.5,5,4.5,1.3917e-198
1,0.97,1,20,19.5,6,5.5,1
1,0.97,1,20,19.5,7,6.5,3.1184e-25
1,0.97,1,20,19.5,8,7.5,6.0892e-122
1,0.97,1,20,19.5,9,8.5,0
1,0.97,1,20,19.5,10,9.5,2.6562e-27
1,0.97,1,20,19.5,11,10.5,0
1,0.97,1,20,19.5,12,11.5,0
1,0.97,1,20,19.5,13,12.5,0
1,0.97,1,20,19.5,14,13.5,0
1,0.97,1,20,19.5,15,14.5,0
1,0.97,1,20,19.5,16,15.5,0
1,0.97,1,20,19.5,17,16.5,0
1,0.97,1,20,19.5,18,17.5,0
1,0.97,1,20,19.5,19,18.5,0
1,0.97,1,20,19.5,20,19.5,0
1,0.97,1,20,19.5,21,20.5,2
1,0.97,1,21,20.5,0,-0.5,2
1,0.97,1,21,20.5,1,0.5,2
1,0.97,1,21,20.5,2,1.5,2
1,0.97,1,21,20.5,3,2.5,2
1,0.97,1,21,20.5,4,3.5,2
1,0.97,1,21,20.5,5,4.5,2
1,0.97,1,21,20.5,6,5.5,2
1,0.97,1,21,20.5,7,6.5,2
1,0.97,1,21,20.5,8,7.5,2
1,0.97,1,21,20.5,9,8.5,2
1,0.97,1,21,20.5,10,9.5,2
1,0.97,1,21,20.5,11,10.5,2
1,0.97,1,21,20.5,12,11.5,2
1,0.97,1,21,20.5,13,12.5,2
1,0.97,1,21,20.5,14,13.5,2
1,0.97,1,21,20.5,15,14.5,2
1,0.97,1,21,20.5,16,15.5,2
1,0.97,1,21,20.5,17,16.5,2
1,0.97,1,21,20.5,18,17.5,2
1,0.97,1,21,20.5,19,18.5,2
1,0.97,1,21,20.5,20,19.5,2
1,0.97,1,21,20.5,21,20.5,2
