mu,alpha,u,k,k2,b,b2,P(b)
1,0.7,1,0,-0.5,0,-0.5,1
1,0.7,1,0,-0.5,1,0.5,2
1,0.7,1,0,-0.5,2,1.5,2
1,0.7,1,0,-0.5,3,2.5,2
1,0.7,1,0,-0.5,4,3.5,2
1,0.7,1,0,-0.5,5,4.5,2
1,0.7,1,0,-0.5,6,5.5,2
1,0.7,1,0,-0.5,7,6.5,2
1,0.7,1,0,-0.5,8,7.5,2
1,0.7,1,0,-0.5,9,8.5,2
1,0.7,1,0,-0.5,10,9.5,2
1,0.7,1,0,-0.5,11,10.5,2
1,0.7,1,0,-0.5,12,11.5,2
1,0.7,1,0,-0.5,13,12.5,2
1,0.7,1,0,-0.5,14,13.5,2
1,0.7,1,0,-0.5,15,14.5,2
1,0.7,1,0,-0.5,16,15.5,2
1,0.7,1,0,-0.5,17,16.5,2
1,0.7,1,0,-0.5,18,17.5,2
1,0.7,1,0,-0.5,19,18.5,2
1,0.7,1,0,-0.5,20,19.5,2
1,0.7,1,0,-0.5,21,20.5,2
1,0.7,1,1,0.5,0,-0.5,0.47735
1,0.7,1,1,0.5,1,0.5,0.52265
1,0.7,1,1,0.5,2,1.5,2
1,0.7,1,1,0.5,3,2.5,2
1,0.7,1,1,0.5,4,3.5,2
1,0.7,1,1,0.5,5,4.5,2
1,0.7,1,1,0.5,6,5.5,2
1,0.7,1,1,0.5,7,6.5,2
1,0.7,1,1,0.5,8,7.5,2
1,0.7,1,1,0.5,9,8.5,2
1,0.7,1,1,0.5,10,9.5,2
1,0.7,1,1,0.5,11,10.5,2
1,0.7,1,1,0.5,12,11.5,2
1,0.7,1,1,0.5,13,12.5,2
1,0.7,1,1,0.5,14,13.5,2
1,0.7,1,1,0.5,15,14.5,2
1,0.7,1,1,0.5,16,15.5,2
1,0.7,1,1,0.5,17,16.5,2
1,0.7,1,1,0.5,18,17.5,2
1,0.7,1,1,0.5,19,18.5,2
1,0.7,1,1,0.5,20,19.5,2
1,0.7,1,1,0.5,21,20.5,2
1,0.7,1,2,1.5,0,-0.5,0.3034
1,0.7,1,2,1.5,1,0.5,0.33174
1,0.7,1,2,1.5,2,1.5,0.36486
1,0.7,1,2,1.5,3,2.5,2
1,0.7,1,2,1.5,4,3.5,2
1,0.7,1,2,1.5,5,4.5,2
1,0.7,1,2,1.5,6,5.5,2
1,0.7,1,2,1.5,7,6.5,2
1,0.7,1,2,1.5,8,7.5,2
1,0.7,1,2,1.5,9,8.5,2
1,0.7,1,2,1.5,10,9.5,2
1,0.7,1,2,1.5,11,10.5,2
1,0.7,1,2,1.5,12,11.5,2
1,0.7,1,2,1.5,13,12.5,2
1,0.7,1,2,1.5,14,13.5,2
1,0.7,1,2,1.5,15,14.5,2
1,0.7,1,2,1.5,16,15.5,2
1,0.7,1,2,1.5,17,16.5,2
1,0.7,1,2,1.5,18,17.5,2
1,0.7,1,2,1.5,19,18.5,2
1,0.7,1,2,1.5,20,19.5,2
1,0.7,1,2,1.5,21,20.5,2
1,0.7,1,3,2.5,0,-0.5,0.21683
1,0.7,1,3,2.5,1,0.5,0.23663
1,0.7,1,3,2.5,2,1.5,0.25965
1,0.7,1,3,2.5,3,2.5,0.28689
1,0.7,1,3,2.5,4,3.5,2
1,0.7,1,3,2.5,5,4.5,2
1,0.7,1,3,2.5,6,5.5,2
1,0.7,1,3,2.5,7,6.5,2
1,0.7,1,3,2.5,8,7.5,2
1,0.7,1,3,2.5,9,8.5,2
1,0.7,1,3,2.5,10,9.5,2
1,0.7,1,3,2.5,11,10.5,2
1,0.7,1,3,2.5,12,11.5,2
1,0.7,1,3,2.5,13,12.5,2
1,0.7,1,3,2.5,14,13.5,2
1,0.7,1,3,2.5,15,14.5,2
1,0.7,1,3,2.5,16,15.5,2
1,0.7,1,3,2.5,17,16.5,2
1,0.7,1,3,2.5,18,17.5,2
1,0.7,1,3,2.5,19,18.5,2
1,0.7,1,3,2.5,20,19.5,2
1,0.7,1,3,2.5,21,20.5,2
1,0.7,1,4,3.5,0,-0.5,0.16547
1,0.7,1,4,3.5,1,0.5,0.18008
1,0.7,1,4,3.5,2,1.5,0.19696
1,0.7,1,4,3.5,3,2.5,0.21686
1,0.7,1,4,3.5,4,3.5,0.24062
1,0.7,1,4,3.5,5,4.5,2
1,0.7,1,4,3.5,6,5.5,2
1,0.7,1,4,3.5,7,6.5,2
1,0.7,1,4,3.5,8,7.5,2
1,0.7,1,4,3.5,9,8.5,2
1,0.7,1,4,3.5,10,9.5,2
1,0.7,1,4,3.5,11,10.5,2
1,0.7,1,4,3.5,12,11.5,2
1,0.7,1,4,3.5,13,12.5,2
1,0.7,1,4,3.5,14,13.5,2
1,0.7,1,4,3.5,15,14.5,2
1,0.7,1,4,3.5,16,15.5,2
1,0.7,1,4,3.5,17,16.5,2
1,0.7,1,4,3.5,18,17.5,2
1,0.7,1,4,3.5,19,18.5,2
1,0.7,1,4,3.5,20,19.5,2
1,0.7,1,4,3.5,21,20.5,2
1,0.7,1,5,4.5,0,-0.5,0.13207
1,0.7,1,5,4.5,1,0.5,0.14316
1,0.7,1,5,4.5,2,1.5,0.15585
1,0.7,1,5,4.5,3,2.5,0.17074
1,0.7,1,5,4.5,4,3.5,0.18843
1,0.7,1,5,4.5,5,4.5,0.20975
1,0.7,1,5,4.5,6,5.5,2
1,0.7,1,5,4.5,7,6.5,2
1,0.7,1,5,4.5,8,7.5,2
1,0.7,1,5,4.5,9,8.5,2
1,0.7,1,5,4.5,10,9.5,2
1,0.7,1,5,4.5,11,10.5,2
1,0.7,1,5,4.5,12,11.5,2
1,0.7,1,5,4.5,13,12.5,2
1,0.7,1,5,4.5,14,13.5,2
1,0.7,1,5,4.5,15,14.5,2
1,0.7,1,5,4.5,16,15.5,2
1,0.7,1,5,4.5,17,16.5,2
1,0.7,1,5,4.5,18,17.5,2
1,0.7,1,5,4.5,19,18.5,2
1,0.7,1,5,4.5,20,19.5,2
1,0.7,1,5,4.5,21,20.5,2
1,0.7,1,6,5.5,0,-0.5,0.1094
1,0.7,1,6,5.5,1,0.5,0.11791
1,0.7,1,6,5.5,2,1.5,0.12752
1,0.7,1,6,5.5,3,2.5,0.13871
1,0.7,1,6,5.5,4,3.5,0.15191
1,0.7,1,6,5.5,5,4.5,0.16769
1,0.7,1,6,5.5,6,5.5,0.18686
1,0.7,1,6,5.5,7,6.5,2
1,0.7,1,6,5.5,8,7.5,2
1,0.7,1,6,5.5,9,8.5,2
1,0.7,1,6,5.5,10,9.5,2
1,0.7,1,6,5.5,11,10.5,2
1,0.7,1,6,5.5,12,11.5,2
1,0.7,1,6,5.5,13,12.5,2
1,0.7,1,6,5.5,14,13.5,2
1,0.7,1,6,5.5,15,14.5,2
1,0.7,1,6,5.5,16,15.5,2
1,0.7,1,6,5.5,17,16.5,2
1,0.7,1,6,5.5,18,17.5,2
1,0.7,1,6,5.5,19,18.5,2
1,0.7,1,6,5.5,20,19.5,2
1,0.7,1,6,5.5,21,20.5,2
1,0.7,1,7,6.5,0,-0.5,0.094133
1,0.7,1,7,6.5,1,0.5,0.10064
1,0.7,1,7,6.5,2,1.5,0.10782
1,0.7,1,7,6.5,3,2.5,0.11609
1,0.7,1,7,6.5,4,3.5,0.12575
1,0.7,1,7,6.5,5,4.5,0.13715
1,0.7,1,7,6.5,6,5.5,0.15084
1,0.7,1,7,6.5,7,6.5,0.16757
1,0.7,1,7,6.5,8,7.5,2
1,0.7,1,7,6.5,9,8.5,2
1,0.7,1,7,6.5,10,9.5,2
1,0.7,1,7,6.5,11,10.5,2
1,0.7,1,7,6.5,12,11.5,2
1,0.7,1,7,6.5,13,12.5,2
1,0.7,1,7,6.5,14,13.5,2
1,0.7,1,7,6.5,15,14.5,2
1,0.7,1,7,6.5,16,15.5,2
1,0.7,1,7,6.5,17,16.5,2
1,0.7,1,7,6.5,18,17.5,2
1,0.7,1,7,6.5,19,18.5,2
1,0.7,1,7,6.5,20,19.5,2
1,0.7,1,7,6.5,21,20.5,2
1,0.7,1,8,7.5,0,-0.5,3.405e-06
1,0.7,1,8,7.5,1,0.5,3.6006e-06
1,0.7,1,8,7.5,2,1.5,3.8101e-06
1,0.7,1,8,7.5,3,2.5,4.0486e-06
1,0.7,1,8,7.5,4,3.5,4.3238e-06
1,0.7,1,8,7.5,5,4.5,4.6427e-06
1,0.7,1,8,7.5,6,5.5,5.02e-06
1,0.7,1,8,7.5,7,6.5,5.4728e-06
1,0.7,1,8,7.5,8,7.5,0.99997
1,0.7,1,8,7.5,9,8.5,2
1,0.7,1,8,7.5,10,9.5,2
1,0.7,1,8,7.5,11,10.5,2
1,0.7,1,8,7.5,12,11.5,2
1,0.7,1,8,7.5,13,12.5,2
1,0.7,1,8,7.5,14,13.5,2
1,0.7,1,8,7.5,15,14.5,2
1,0.7,1,8,7.5,16,15.5,2
1,0.7,1,8,7.5,17,16.5,2
1,0.7,1,8,7.5,18,17.5,2
1,0.7,1,8,7.5,19,18.5,2
1,0.7,1,8,7.5,20,19.5,2
1,0.7,1,8,7.5,21,20.5,2
1,0.7,1,9,8.5,0,-0.5,1.0607e-33
1,0.7,1,9,8.5,1,0.5,1.1088e-33
1,0.7,1,9,8.5,2,1.5,1.1602e-33
1,0.7,1,9,8.5,3,2.5,1.218e-33
1,0.7,1,9,8.5,4,3.5,1.2838e-33
1,0.7,1,9,8.5,5,4.5,6.6393e-10
1,0.7,1,9,8.5,6,5.5,8.736e-12
1,0.7,1,9,8.5,7,6.5,8.7392e-12
1,0.7,1,9,8.5,8,7.5,9.187e-12
1,0.7,1,9,8.5,9,8.5,1
1,0.7,1,9,8.5,10,9.5,2
1,0.7,1,9,8.5,11,10.5,2
1,0.7,1,9,8.5,12,11.5,2
1,0.7,1,9,8.5,13,12.5,2
1,0.7,1,9,8.5,14,13.5,2
1,0.7,1,9,8.5,15,14.5,2
1,0.7,1,9,8.5,16,15.5,2
1,0.7,1,9,8.5,17,16.5,2
1,0.7,1,9,8.5,18,17.5,2
1,0.7,1,9,8.5,19,18.5,2
1,0.7,1,9,8.5,20,19.5,2
1,0.7,1,9,8.5,21,20.5,2
1,0.7,1,10,9.5,0,-0.5,5.9721e-89
1,0.7,1,10,9.5,1,0.5,6.2043e-89
1,0.7,1,10,9.5,2,1.5,6.4628e-89
1,0.7,1,10,9.5,3,2.5,6.7525e-89
1,0.7,1,10,9.5,4,3.5,7.08e-89
1,0.7,1,10,9.5,5,4.5,6.6393e-10
1,0.7,1,10,9.5,6,5.5,6.9888e-12
1,0.7,1,10,9.5,7,6.5,6.9888e-12
1,0.7,1,10,9.5,8,7.5,6.9911e-12
1,0.7,1,10,9.5,9,8.5,7.2884e-12
1,0.7,1,10,9.5,10,9.5,1
1,0.7,1,10,9.5,11,10.5,2
1,0.7,1,10,9.5,12,11.5,2
1,0.7,1,10,9.5,13,12.5,2
1,0.7,1,10,9.5,14,13.5,2
1,0.7,1,10,9.5,15,14.5,2
1,0.7,1,10,9.5,16,15.5,2
1,0.7,1,10,9.5,17,16.5,2
1,0.7,1,10,9.5,18,17.5,2
1,0.7,1,10,9.5,19,18.5,2
1,0.7,1,10,9.5,20,19.5,2
1,0.7,1,10,9.5,21,20.5,2
1,0.7,1,11,10.5,0,-0.5,1.2803e-163
1,0.7,1,11,10.5,1,0.5,1.333e-163
1,0.7,1,11,10.5,2,1.5,1.3947e-163
1,0.7,1,11,10.5,3,2.5,1.4643e-163
1,0.7,1,11,10.5,4,3.5,1.5434e-163
1,0.7,1,11,10.5,5,4.5,3.4948e-112
1,0.7,1,11,10.5,6,5.5,6.6976e-10
1,0.7,1,11,10.5,7,6.5,5.824e-12
1,0.7,1,11,10.5,8,7.5,5.8242e-12
1,0.7,1,11,10.5,9,8.5,5.8472e-12
1,0.7,1,11,10.5,10,9.5,8.7827e-12
1,0.7,1,11,10.5,11,10.5,1
1,0.7,1,11,10.5,12,11.5,2
1,0.7,1,11,10.5,13,12.5,2
1,0.7,1,11,10.5,14,13.5,2
1,0.7,1,11,10.5,15,14.5,2
1,0.7,1,11,10.5,16,15.5,2
1,0.7,1,11,10.5,17,16.5,2
1,0.7,1,11,10.5,18,17.5,2
1,0.7,1,11,10.5,19,18.5,2
1,0.7,1,11,10.5,20,19.5,2
1,0.7,1,11,10.5,21,20.5,2
1,0.7,1,12,11.5,0,-0.5,1.1736e-239
1,0.7,1,12,11.5,1,0.5,1.2335e-239
1,0.7,1,12,11.5,2,1.5,1.3053e-239
1,0.7,1,12,11.5,3,2.5,1.387e-239
1,0.7,1,12,11.5,4,3.5,1.481e-239
1,0.7,1,12,11.5,5,4.5,2.5052e-147
1,0.7,1,12,11.5,6,5.5,6.6893e-10
1,0.7,1,12,11.5,7,6.5,4.992e-12
1,0.7,1,12,11.5,8,7.5,4.992e-12
1,0.7,1,12,11.5,9,8.5,4.9933e-12
1,0.7,1,12,11.5,10,9.5,5.712e-12
1,0.7,1,12,11.5,11,10.5,3.7654e-11
1,0.7,1,12,11.5,12,11.5,1
1,0.7,1,12,11.5,13,12.5,2
1,0.7,1,12,11.5,14,13.5,2
1,0.7,1,12,11.5,15,14.5,2
1,0.7,1,12,11.5,16,15.5,2
1,0.7,1,12,11.5,17,16.5,2
1,0.7,1,12,11.5,18,17.5,2
1,0.7,1,12,11.5,19,18.5,2
1,0.7,1,12,11.5,20,19.5,2
1,0.7,1,12,11.5,21,20.5,2
1,0.7,1,13,12.5,0,-0.5,3.6559e-298
1,0.7,1,13,12.5,1,0.5,3.889e-298
1,0.7,1,13,12.5,2,1.5,4.1662e-298
1,0.7,1,13,12.5,3,2.5,4.486e-298
1,0.7,1,13,12.5,4,3.5,4.8589e-298
1,0.7,1,13,12.5,5,4.5,6.1165e-172
1,0.7,1,13,12.5,6,5.5,4.368e-12
1,0.7,1,13,12.5,7,6.5,6.683e-10
1,0.7,1,13,12.5,8,7.5,4.368e-12
1,0.7,1,13,12.5,9,8.5,4.3682e-12
1,0.7,1,13,12.5,10,9.5,4.6557e-12
1,0.7,1,13,12.5,11,10.5,2.3381e-11
1,0.7,1,13,12.5,12,11.5,2.9816e-07
1,0.7,1,13,12.5,13,12.5,1
1,0.7,1,13,12.5,14,13.5,2
1,0.7,1,13,12.5,15,14.5,2
1,0.7,1,13,12.5,16,15.5,2
1,0.7,1,13,12.5,17,16.5,2
1,0.7,1,13,12.5,18,17.5,2
1,0.7,1,13,12.5,19,18.5,2
1,0.7,1,13,12.5,20,19.5,2
1,0.7,1,13,12.5,21,20.5,2
1,0.7,1,14,13.5,0,-0.5,0
1,0.7,1,14,13.5,1,0.5,0
1,0.7,1,14,13.5,2,1.5,0
1,0.7,1,14,13.5,3,2.5,0
1,0.7,1,14,13.5,4,3.5,0
1,0.7,1,14,13.5,5,4.5,3.5263e-189
1,0.7,1,14,13.5,6,5.5,3.8827e-12
1,0.7,1,14,13.5,7,6.5,6.6782e-10
1,0.7,1,14,13.5,8,7.5,3.8827e-12
1,0.7,1,14,13.5,9,8.5,3.8827e-12
1,0.7,1,14,13.5,10,9.5,4.0312e-12
1,0.7,1,14,13.5,11,10.5,1.7121e-11
1,0.7,1,14,13.5,12,11.5,1.5483e-08
1,0.7,1,14,13.5,13,12.5,0.40731
1,0.7,1,14,13.5,14,13.5,0.59269
1,0.7,1,14,13.5,15,14.5,2
1,0.7,1,14,13.5,16,15.5,2
1,0.7,1,14,13.5,17,16.5,2
1,0.7,1,14,13.5,18,17.5,2
1,0.7,1,14,13.5,19,18.5,2
1,0.7,1,14,13.5,20,19.5,2
1,0.7,1,14,13.5,21,20.5,2
1,0.7,1,15,14.5,0,-0.5,0
1,0.7,1,15,14.5,1,0.5,0
1,0.7,1,15,14.5,2,1.5,0
1,0.7,1,15,14.5,3,2.5,0
1,0.7,1,15,14.5,4,3.5,0
1,0.7,1,15,14.5,5,4.5,2.9507e-201
1,0.7,1,15,14.5,6,5.5,3.4944e-12
1,0.7,1,15,14.5,7,6.5,3.4944e-12
1,0.7,1,15,14.5,8,7.5,6.6743e-10
1,0.7,1,15,14.5,9,8.5,3.4944e-12
1,0.7,1,15,14.5,10,9.5,3.5863e-12
1,0.7,1,15,14.5,11,10.5,1.363e-11
1,0.7,1,15,14.5,12,11.5,2.3018e-09
1,0.7,1,15,14.5,13,12.5,0.24972
1,0.7,1,15,14.5,14,13.5,0.37512
1,0.7,1,15,14.5,15,14.5,0.37516
1,0.7,1,15,14.5,16,15.5,2
1,0.7,1,15,14.5,17,16.5,2
1,0.7,1,15,14.5,18,17.5,2
1,0.7,1,15,14.5,19,18.5,2
1,0.7,1,15,14.5,20,19.5,2
1,0.7,1,15,14.5,21,20.5,2
1,0.7,1,16,15.5,0,-0.5,0
1,0.7,1,16,15.5,1,0.5,0
1,0.7,1,16,15.5,2,1.5,0
1,0.7,1,16,15.5,3,2.5,0
1,0.7,1,16,15.5,4,3.5,0
1,0.7,1,16,15.5,5,4.5,1.0148e-209
1,0.7,1,16,15.5,6,5.5,3.1767e-12
1,0.7,1,16,15.5,7,6.5,3.1767e-12
1,0.7,1,16,15.5,8,7.5,6.6711e-10
1,0.7,1,16,15.5,9,8.5,3.1767e-12
1,0.7,1,16,15.5,10,9.5,3.241e-12
1,0.7,1,16,15.5,11,10.5,1.1397e-11
1,0.7,1,16,15.5,12,11.5,6.4476e-10
1,0.7,1,16,15.5,13,12.5,0.1783
1,0.7,1,16,15.5,14,13.5,0.27388
1,0.7,1,16,15.5,15,14.5,0.27391
1,0.7,1,16,15.5,16,15.5,0.27391
1,0.7,1,16,15.5,17,16.5,2
1,0.7,1,16,15.5,18,17.5,2
1,0.7,1,16,15.5,19,18.5,2
1,0.7,1,16,15.5,20,19.5,2
1,0.7,1,16,15.5,21,20.5,2
1,0.7,1,17,16.5,0,-0.5,0
1,0.7,1,17,16.5,1,0.5,0
1,0.7,1,17,16.5,2,1.5,0
1,0.7,1,17,16.5,3,2.5,0
1,0.7,1,17,16.5,4,3.5,0
1,0.7,1,17,16.5,5,4.5,1.1833e-215
1,0.7,1,17,16.5,6,5.5,2.912e-12
1,0.7,1,17,16.5,7,6.5,2.912e-12
1,0.7,1,17,16.5,8,7.5,2.912e-12
1,0.7,1,17,16.5,9,8.5,6.6685e-10
1,0.7,1,17,16.5,10,9.5,2.9609e-12
1,0.7,1,17,16.5,11,10.5,9.834e-12
1,0.7,1,17,16.5,12,11.5,2.7835e-10
1,0.7,1,17,16.5,13,12.5,0.1381
1,0.7,1,17,16.5,14,13.5,0.21545
1,0.7,1,17,16.5,15,14.5,0.21548
1,0.7,1,17,16.5,16,15.5,0.21548
1,0.7,1,17,16.5,17,16.5,0.21548
1,0.7,1,17,16.5,18,17.5,2
1,0.7,1,17,16.5,19,18.5,2
1,0.7,1,17,16.5,20,19.5,2
1,0.7,1,17,16.5,21,20.5,2
1,0.7,1,18,17.5,0,-0.5,0
1,0.7,1,18,17.5,1,0.5,0
1,0.7,1,18,17.5,2,1.5,0
1,0.7,1,18,17.5,3,2.5,0
1,0.7,1,18,17.5,4,3.5,0
1,0.7,1,18,17.5,5,4.5,8.1564e-220
1,0.7,1,18,17.5,6,5.5,2.688e-12
1,0.7,1,18,17.5,7,6.5,2.688e-12
1,0.7,1,18,17.5,8,7.5,2.688e-12
1,0.7,1,18,17.5,9,8.5,6.6662e-10
1,0.7,1,18,17.5,10,9.5,2.7274e-12
1,0.7,1,18,17.5,11,10.5,8.7179e-12
1,0.7,1,18,17.5,12,11.5,1.6085e-10
1,0.7,1,18,17.5,13,12.5,0.11252
1,0.7,1,18,17.5,14,13.5,0.17748
1,0.7,1,18,17.5,15,14.5,0.1775
1,0.7,1,18,17.5,16,15.5,0.1775
1,0.7,1,18,17.5,17,16.5,0.1775
1,0.7,1,18,17.5,18,17.5,0.1775
1,0.7,1,18,17.5,19,18.5,2
1,0.7,1,18,17.5,20,19.5,2
1,0.7,1,18,17.5,21,20.5,2
1,0.7,1,19,18.5,0,-0.5,0
1,0.7,1,19,18.5,1,0.5,0
1,0.7,1,19,18.5,2,1.5,0
1,0.7,1,19,18.5,3,2.5,0
1,0.7,1,19,18.5,4,3.5,0
1,0.7,1,19,18.5,5,4.5,9.7841e-223
1,0.7,1,19,18.5,6,5.5,2.496e-12
1,0.7,1,19,18.5,7,6.5,2.496e-12
1,0.7,1,19,18.5,8,7.5,2.496e-12
1,0.7,1,19,18.5,9,8.5,2.496e-12
1,0.7,1,19,18.5,10,9.5,6.6646e-10
1,0.7,1,19,18.5,11,10.5,7.8365e-12
1,0.7,1,19,18.5,12,11.5,1.1114e-10
1,0.7,1,19,18.5,13,12.5,0.0949
1,0.7,1,19,18.5,14,13.5,0.15083
1,0.7,1,19,18.5,15,14.5,0.15085
1,0.7,1,19,18.5,16,15.5,0.15085
1,0.7,1,19,18.5,17,16.5,0.15085
1,0.7,1,19,18.5,18,17.5,0.15085
1,0.7,1,19,18.5,19,18.5,0.15085
1,0.7,1,19,18.5,20,19.5,2
1,0.7,1,19,18.5,21,20.5,2
1,0.7,1,20,19.5,0,-0.5,0
1,0.7,1,20,19.5,1,0.5,0
1,0.7,1,20,19.5,2,1.5,0
1,0.7,1,20,19.5,3,2.5,0
1,0.7,1,20,19.5,4,3.5,0
1,0.7,1,20,19.5,5,4.5,8.6777e-225
1,0.7,1,20,19.5,6,5.5,2.3296e-12
1,0.7,1,20,19.5,7,6.5,2.3296e-12
1,0.7,1,20,19.5,8,7.5,2.3296e-12
1,0.7,1,20,19.5,9,8.5,2.3296e-12
1,0.7,1,20,19.5,10,9.5,6.6629e-10
1,0.7,1,20,19.5,11,10.5,7.1145e-12
1,0.7,1,20,19.5,12,11.5,8.5505e-11
1,0.7,1,20,19.5,13,12.5,0.082056
1,0.7,1,20,19.5,14,13.5,0.13112
1,0.7,1,20,19.5,15,14.5,0.13114
1,0.7,1,20,19.5,16,15.5,0.13114
1,0.7,1,20,19.5,17,16.5,0.13114
1,0.7,1,20,19.5,18,17.5,0.13114
1,0.7,1,20,19.5,19,18.5,0.13114
1,0.7,1,20,19.5,20,19.5,0.13114
1,0.7,1,20,19.5,21,20.5,2
1,0.7,1,21,20.5,0,-0.5,2
1,0.7,1,21,20.5,1,0.5,2
1,0.7,1,21,20.5,2,1.5,2
1,0.7,1,21,20.5,3,2.5,2
1,0.7,1,21,20.5,4,3.5,2
1,0.7,1,21,20.5,5,4.5,2
1,0.7,1,21,20.5,6,5.5,2
1,0.7,1,21,20.5,7,6.5,2
1,0.7,1,21,20.5,8,7.5,2
1,0.7,1,21,20.5,9,8.5,2
1,0.7,1,21,20.5,10,9.5,2
1,0.7,1,21,20.5,11,10.5,2
1,0.7,1,21,20.5,12,11.5,2
1,0.7,1,21,20.5,13,12.5,2
1,0.7,1,21,20.5,14,13.5,2
1,0.7,1,21,20.5,15,14.5,2
1,0.7,1,21,20.5,16,15.5,2
1,0.7,1,21,20.5,17,16.5,2
1,0.7,1,21,20.5,18,17.5,2
1,0.7,1,21,20.5,19,18.5,2
1,0.7,1,21,20.5,20,19.5,2
1,0.7,1,21,20.5,21,20.5,2
