mu,alpha,k,k2,P(k)
1,0.99,0,-0.5,1.1897e-15
1,0.99,1,0.5,2.522e-13
1,0.99,2,1.5,2.8537e-11
1,0.99,3,2.5,2.1174e-09
1,0.99,4,3.5,1.1175e-07
1,0.99,5,4.5,4.3653e-06
1,0.99,6,5.5,0.00012831
1,0.99,7,6.5,0.0028147
1,0.99,8,7.5,0.043227
1,0.99,9,8.5,0.24569
1,0.99,10,9.5,0.41297
1,0.99,11,10.5,0.25037
1,0.99,12,11.5,0.043665
1,0.99,13,12.5,0.0011273
1,0.99,14,13.5,8.6637e-06
1,0.99,15,14.5,3.2406e-08
1,0.99,16,15.5,7.3609e-11
1,0.99,17,16.5,2.3941e-13
1,0.99,18,17.5,5.5156e-15
1,0.99,19,18.5,1.7097e-16
1,0.99,20,19.5,3.8542e-18
1,0.99,21,20.5,6.458e-20
