mu,alpha,u,k,b
1,0.95,1,0,0
1,0.95,1,1,0.59111
1,0.95,1,2,1.2353
1,0.95,1,3,1.927
1,0.95,1,4,2.6584
1,0.95,1,5,3.4205
1,0.95,1,6,4.2039
1,0.95,1,7,5.005
1,0.95,1,8,6.9122
1,0.95,1,9,9
1,0.95,1,10,10
1,0.95,1,11,11
1,0.95,1,12,12
1,0.95,1,13,12.973
1,0.95,1,14,13.516
1,0.95,1,15,14.034
1,0.95,1,16,14.547
1,0.95,1,17,15.056
1,0.95,1,18,15.565
1,0.95,1,19,16.072
1,0.95,1,20,16.579
