alpha,e,cost-f,access-f,e-rand,cost-f-rand,access-f-rand,e-u,cost-f-u,access-f-u,e-cf,cost-f-cf,access-f-cf,e-af,cost-f-af,access-f-af
1,-0.5,-0.005215,-0.005215,-0.5,-0.015539,-0.015539,-0.5,-0.015539,-0.015539,-0.5,-0.0005491,-0.0005491,-0.5,-0.0005491,-0.0005491
0.99,-0.5,-0.0014768,-0.0014768,-0.5,-0.015539,-0.015539,-0.5,-0.015539,-0.015539,-0.5,-0.0005491,-0.0005491,-0.5,-0.0005491,-0.0005491
0.98,-0.5,-0.0016594,-0.0016594,-0.5,-0.015539,-0.015539,-0.5,-0.015539,-0.015539,-0.5,-0.0005491,-0.0005491,-0.5,-0.0005491,-0.0005491
0.97,-0.5,-0.0018431,-0.0018431,-0.5,-0.015539,-0.015539,-0.5,-0.015539,-0.015539,-0.5,-0.0005491,-0.0005491,-0.5,-0.0005491,-0.0005491
0.96,-0.5,-0.0020225,-0.0020225,-0.5,-0.015539,-0.015539,-0.5,-0.015539,-0.015539,-0.5,-0.0005491,-0.0005491,-0.5,-0.0005491,-0.0005491
0.95,-0.5,-0.0020545,-0.0020545,-0.5,-0.015539,-0.015539,-0.5,-0.015539,-0.015539,-0.5,-0.0005491,-0.0005491,-0.5,-0.0005491,-0.0005491
0.9,-0.5,-0.0026788,-0.0026788,-0.5,-0.015539,-0.015539,-0.5,-0.015539,-0.015539,-0.5,-0.0005491,-0.0005491,-0.5,-0.0005491,-0.0005491
0.85,-0.5,-0.0033128,-0.0033128,-0.5,-0.015539,-0.015539,-0.5,-0.015539,-0.015539,-0.5,-0.0005491,-0.0005491,-0.5,-0.0005491,-0.0005491
0.8,-0.5,-0.0035472,-0.0035472,-0.5,-0.015539,-0.015539,-0.5,-0.015539,-0.015539,-0.5,-0.0005491,-0.0005491,-0.5,-0.0005491,-0.0005491
0.75,-0.5,-0.0040475,-0.0040475,-0.5,-0.015539,-0.015539,-0.5,-0.015539,-0.015539,-0.5,-0.0005491,-0.0005491,-0.5,-0.0005491,-0.0005491
0.7,-0.5,-0.00456,-0.00456,-0.5,-0.015539,-0.015539,-0.5,-0.015539,-0.015539,-0.5,-0.0005491,-0.0005491,-0.5,-0.0005491,-0.0005491
0.65,-0.5,-0.0047394,-0.0047394,-0.5,-0.015539,-0.015539,-0.5,-0.015539,-0.015539,-0.5,-0.0005491,-0.0005491,-0.5,-0.0005491,-0.0005491
0.6,-0.5,-0.0052188,-0.0052188,-0.5,-0.015539,-0.015539,-0.5,-0.015539,-0.015539,-0.5,-0.0005491,-0.0005491,-0.5,-0.0005491,-0.0005491
0.55,-0.5,-0.0050783,-0.0050783,-0.5,-0.015539,-0.015539,-0.5,-0.015539,-0.015539,-0.5,-0.0005491,-0.0005491,-0.5,-0.0005491,-0.0005491
0.5,-0.5,-0.0051937,-0.0051937,-0.5,-0.015539,-0.015539,-0.5,-0.015539,-0.015539,-0.5,-0.0005491,-0.0005491,-0.5,-0.0005491,-0.0005491
0.45,-0.5,-0.0056337,-0.0056337,-0.5,-0.015539,-0.015539,-0.5,-0.015539,-0.015539,-0.5,-0.0005491,-0.0005491,-0.5,-0.0005491,-0.0005491
0.4,-0.5,-0.0062895,-0.0062895,-0.5,-0.015539,-0.015539,-0.5,-0.015539,-0.015539,-0.5,-0.0005491,-0.0005491,-0.5,-0.0005491,-0.0005491
0.35,-0.5,-0.0058241,-0.0058241,-0.5,-0.015539,-0.015539,-0.5,-0.015539,-0.015539,-0.5,-0.0005491,-0.0005491,-0.5,-0.0005491,-0.0005491
0.3,-0.5,-0.0063507,-0.0063507,-0.5,-0.015539,-0.015539,-0.5,-0.015539,-0.015539,-0.5,-0.0005491,-0.0005491,-0.5,-0.0005491,-0.0005491
0.25,-0.5,-0.0070068,-0.0070068,-0.5,-0.015539,-0.015539,-0.5,-0.015539,-0.015539,-0.5,-0.0005491,-0.0005491,-0.5,-0.0005491,-0.0005491
0.2,-0.5,-0.0067093,-0.0067093,-0.5,-0.015539,-0.015539,-0.5,-0.015539,-0.015539,-0.5,-0.0005491,-0.0005491,-0.5,-0.0005491,-0.0005491
0.15,-0.5,-0.0076065,-0.0076065,-0.5,-0.015539,-0.015539,-0.5,-0.015539,-0.015539,-0.5,-0.0005491,-0.0005491,-0.5,-0.0005491,-0.0005491
0,-0.5,-0.015508,-0.015508,-0.5,-0.015539,-0.015539,-0.5,-0.015539,-0.015539,-0.5,-0.0005491,-0.0005491,-0.5,-0.0005491,-0.0005491
