alpha,e,cost-f,access-f,e-rand,cost-f-rand,access-f-rand,e-u,cost-f-u,access-f-u,e-cf,cost-f-cf,access-f-cf,e-af,cost-f-af,access-f-af
1,-0.5,-0.0045589,-0.0045589,-0.5,-0.01588,-0.01588,-0.5,-0.01588,-0.01588,-0.5,-0.00053987,-0.00053987,-0.5,-0.00053987,-0.00053987
0.99,-0.5,-0.0013562,-0.0013562,-0.5,-0.01588,-0.01588,-0.5,-0.01588,-0.01588,-0.5,-0.00053987,-0.00053987,-0.5,-0.00053987,-0.00053987
0.98,-0.5,-0.0015171,-0.0015171,-0.5,-0.01588,-0.01588,-0.5,-0.01588,-0.01588,-0.5,-0.00053987,-0.00053987,-0.5,-0.00053987,-0.00053987
0.97,-0.5,-0.0020472,-0.0020472,-0.5,-0.01588,-0.01588,-0.5,-0.01588,-0.01588,-0.5,-0.00053987,-0.00053987,-0.5,-0.00053987,-0.00053987
0.96,-0.5,-0.00201,-0.00201,-0.5,-0.01588,-0.01588,-0.5,-0.01588,-0.01588,-0.5,-0.00053987,-0.00053987,-0.5,-0.00053987,-0.00053987
0.95,-0.5,-0.0021618,-0.0021618,-0.5,-0.01588,-0.01588,-0.5,-0.01588,-0.01588,-0.5,-0.00053987,-0.00053987,-0.5,-0.00053987,-0.00053987
0.9,-0.5,-0.0024123,-0.0024123,-0.5,-0.01588,-0.01588,-0.5,-0.01588,-0.01588,-0.5,-0.00053987,-0.00053987,-0.5,-0.00053987,-0.00053987
0.85,-0.5,-0.0032408,-0.0032408,-0.5,-0.01588,-0.01588,-0.5,-0.01588,-0.01588,-0.5,-0.00053987,-0.00053987,-0.5,-0.00053987,-0.00053987
0.8,-0.5,-0.0038174,-0.0038174,-0.5,-0.01588,-0.01588,-0.5,-0.01588,-0.01588,-0.5,-0.00053987,-0.00053987,-0.5,-0.00053987,-0.00053987
0.75,-0.5,-0.0041335,-0.0041335,-0.5,-0.01588,-0.01588,-0.5,-0.01588,-0.01588,-0.5,-0.00053987,-0.00053987,-0.5,-0.00053987,-0.00053987
0.7,-0.5,-0.0044326,-0.0044326,-0.5,-0.01588,-0.01588,-0.5,-0.01588,-0.01588,-0.5,-0.00053987,-0.00053987,-0.5,-0.00053987,-0.00053987
0.65,-0.5,-0.0046409,-0.0046409,-0.5,-0.01588,-0.01588,-0.5,-0.01588,-0.01588,-0.5,-0.00053987,-0.00053987,-0.5,-0.00053987,-0.00053987
0.6,-0.5,-0.0051148,-0.0051148,-0.5,-0.01588,-0.01588,-0.5,-0.01588,-0.01588,-0.5,-0.00053987,-0.00053987,-0.5,-0.00053987,-0.00053987
0.55,-0.5,-0.0050862,-0.0050862,-0.5,-0.01588,-0.01588,-0.5,-0.01588,-0.01588,-0.5,-0.00053987,-0.00053987,-0.5,-0.00053987,-0.00053987
0.5,-0.5,-0.0054901,-0.0054901,-0.5,-0.01588,-0.01588,-0.5,-0.01588,-0.01588,-0.5,-0.00053987,-0.00053987,-0.5,-0.00053987,-0.00053987
0.45,-0.5,-0.0052972,-0.0052972,-0.5,-0.01588,-0.01588,-0.5,-0.01588,-0.01588,-0.5,-0.00053987,-0.00053987,-0.5,-0.00053987,-0.00053987
0.4,-0.5,-0.0057231,-0.0057231,-0.5,-0.01588,-0.01588,-0.5,-0.01588,-0.01588,-0.5,-0.00053987,-0.00053987,-0.5,-0.00053987,-0.00053987
0.35,-0.5,-0.0062034,-0.0062034,-0.5,-0.01588,-0.01588,-0.5,-0.01588,-0.01588,-0.5,-0.00053987,-0.00053987,-0.5,-0.00053987,-0.00053987
0.3,-0.5,-0.0061153,-0.0061153,-0.5,-0.01588,-0.01588,-0.5,-0.01588,-0.01588,-0.5,-0.00053987,-0.00053987,-0.5,-0.00053987,-0.00053987
0.25,-0.5,-0.0068266,-0.0068266,-0.5,-0.01588,-0.01588,-0.5,-0.01588,-0.01588,-0.5,-0.00053987,-0.00053987,-0.5,-0.00053987,-0.00053987
0.2,-0.5,-0.0074308,-0.0074308,-0.5,-0.01588,-0.01588,-0.5,-0.01588,-0.01588,-0.5,-0.00053987,-0.00053987,-0.5,-0.00053987,-0.00053987
0.15,-0.5,-0.0077557,-0.0077557,-0.5,-0.01588,-0.01588,-0.5,-0.01588,-0.01588,-0.5,-0.00053987,-0.00053987,-0.5,-0.00053987,-0.00053987
0,-0.5,-0.015492,-0.015492,-0.5,-0.01588,-0.01588,-0.5,-0.01588,-0.01588,-0.5,-0.00053987,-0.00053987,-0.5,-0.00053987,-0.00053987
