alpha,e,cost-f,access-f,e-rand,cost-f-rand,access-f-rand,e-u,cost-f-u,access-f-u,e-cf,cost-f-cf,access-f-cf,e-af,cost-f-af,access-f-af
1,-0.5,-0.0043733,-0.0043733,-0.5,-0.014765,-0.014765,-0.5,-0.014765,-0.014765,-0.5,-0.00047022,-0.00047022,-0.5,-0.00047022,-0.00047022
0.99,-0.5,-0.0012155,-0.0012155,-0.5,-0.014765,-0.014765,-0.5,-0.014765,-0.014765,-0.5,-0.00047022,-0.00047022,-0.5,-0.00047022,-0.00047022
0.98,-0.5,-0.0014354,-0.0014354,-0.5,-0.014765,-0.014765,-0.5,-0.014765,-0.014765,-0.5,-0.00047022,-0.00047022,-0.5,-0.00047022,-0.00047022
0.97,-0.5,-0.0016594,-0.0016594,-0.5,-0.014765,-0.014765,-0.5,-0.014765,-0.014765,-0.5,-0.00047022,-0.00047022,-0.5,-0.00047022,-0.00047022
0.96,-0.5,-0.0018376,-0.0018376,-0.5,-0.014765,-0.014765,-0.5,-0.014765,-0.014765,-0.5,-0.00047022,-0.00047022,-0.5,-0.00047022,-0.00047022
0.95,-0.5,-0.0019619,-0.0019619,-0.5,-0.014765,-0.014765,-0.5,-0.014765,-0.014765,-0.5,-0.00047022,-0.00047022,-0.5,-0.00047022,-0.00047022
0.9,-0.5,-0.0024123,-0.0024123,-0.5,-0.014765,-0.014765,-0.5,-0.014765,-0.014765,-0.5,-0.00047022,-0.00047022,-0.5,-0.00047022,-0.00047022
0.85,-0.5,-0.0032299,-0.0032299,-0.5,-0.014765,-0.014765,-0.5,-0.014765,-0.014765,-0.5,-0.00047022,-0.00047022,-0.5,-0.00047022,-0.00047022
0.8,-0.5,-0.0035472,-0.0035472,-0.5,-0.014765,-0.014765,-0.5,-0.014765,-0.014765,-0.5,-0.00047022,-0.00047022,-0.5,-0.00047022,-0.00047022
0.75,-0.5,-0.0037764,-0.0037764,-0.5,-0.014765,-0.014765,-0.5,-0.014765,-0.014765,-0.5,-0.00047022,-0.00047022,-0.5,-0.00047022,-0.00047022
0.7,-0.5,-0.0040845,-0.0040845,-0.5,-0.014765,-0.014765,-0.5,-0.014765,-0.014765,-0.5,-0.00047022,-0.00047022,-0.5,-0.00047022,-0.00047022
0.65,-0.5,-0.0042745,-0.0042745,-0.5,-0.014765,-0.014765,-0.5,-0.014765,-0.014765,-0.5,-0.00047022,-0.00047022,-0.5,-0.00047022,-0.00047022
0.6,-0.5,-0.0047617,-0.0047617,-0.5,-0.014765,-0.014765,-0.5,-0.014765,-0.014765,-0.5,-0.00047022,-0.00047022,-0.5,-0.00047022,-0.00047022
0.55,-0.5,-0.0049113,-0.0049113,-0.5,-0.014765,-0.014765,-0.5,-0.014765,-0.014765,-0.5,-0.00047022,-0.00047022,-0.5,-0.00047022,-0.00047022
0.5,-0.5,-0.0051937,-0.0051937,-0.5,-0.014765,-0.014765,-0.5,-0.014765,-0.014765,-0.5,-0.00047022,-0.00047022,-0.5,-0.00047022,-0.00047022
0.45,-0.5,-0.005101,-0.005101,-0.5,-0.014765,-0.014765,-0.5,-0.014765,-0.014765,-0.5,-0.00047022,-0.00047022,-0.5,-0.00047022,-0.00047022
0.4,-0.5,-0.0052896,-0.0052896,-0.5,-0.014765,-0.014765,-0.5,-0.014765,-0.014765,-0.5,-0.00047022,-0.00047022,-0.5,-0.00047022,-0.00047022
0.35,-0.5,-0.0057946,-0.0057946,-0.5,-0.014765,-0.014765,-0.5,-0.014765,-0.014765,-0.5,-0.00047022,-0.00047022,-0.5,-0.00047022,-0.00047022
0.3,-0.5,-0.0058223,-0.0058223,-0.5,-0.014765,-0.014765,-0.5,-0.014765,-0.014765,-0.5,-0.00047022,-0.00047022,-0.5,-0.00047022,-0.00047022
0.25,-0.5,-0.0061945,-0.0061945,-0.5,-0.014765,-0.014765,-0.5,-0.014765,-0.014765,-0.5,-0.00047022,-0.00047022,-0.5,-0.00047022,-0.00047022
0.2,-0.5,-0.0066605,-0.0066605,-0.5,-0.014765,-0.014765,-0.5,-0.014765,-0.014765,-0.5,-0.00047022,-0.00047022,-0.5,-0.00047022,-0.00047022
0.15,-0.5,-0.0065853,-0.0065853,-0.5,-0.014765,-0.014765,-0.5,-0.014765,-0.014765,-0.5,-0.00047022,-0.00047022,-0.5,-0.00047022,-0.00047022
0,-0.5,-0.014777,-0.014777,-0.5,-0.014765,-0.014765,-0.5,-0.014765,-0.014765,-0.5,-0.00047022,-0.00047022,-0.5,-0.00047022,-0.00047022
