alpha,e,cost-f,access-f,e-rand,cost-f-rand,access-f-rand,e-u,cost-f-u,access-f-u
1,-0.5,-0.0087707,-0.0087707,-0.5,-0.016988,-0.016988,-0.5,-0.016988,-0.016988
0.99,-0.5,-0.0018156,-0.0018156,-0.5,-0.016988,-0.016988,-0.5,-0.016988,-0.016988
0.98,-0.5,-0.0024861,-0.0024861,-0.5,-0.016988,-0.016988,-0.5,-0.016988,-0.016988
0.97,-0.5,-0.0018862,-0.0018862,-0.5,-0.016988,-0.016988,-0.5,-0.016988,-0.016988
0.96,-0.5,-0.0027363,-0.0027363,-0.5,-0.016988,-0.016988,-0.5,-0.016988,-0.016988
0.95,-0.5,-0.0023596,-0.0023596,-0.5,-0.016988,-0.016988,-0.5,-0.016988,-0.016988
0.9,-0.5,-0.0029908,-0.0029908,-0.5,-0.016988,-0.016988,-0.5,-0.016988,-0.016988
0.85,-0.5,-0.0031367,-0.0031367,-0.5,-0.016988,-0.016988,-0.5,-0.016988,-0.016988
0.8,-0.5,-0.0034335,-0.0034335,-0.5,-0.016988,-0.016988,-0.5,-0.016988,-0.016988
0.75,-0.5,-0.0035726,-0.0035726,-0.5,-0.016988,-0.016988,-0.5,-0.016988,-0.016988
0.7,-0.5,-0.0044676,-0.0044676,-0.5,-0.016988,-0.016988,-0.5,-0.016988,-0.016988
0.65,-0.5,-0.0044878,-0.0044878,-0.5,-0.016988,-0.016988,-0.5,-0.016988,-0.016988
0.6,-0.5,-0.0048277,-0.0048277,-0.5,-0.016988,-0.016988,-0.5,-0.016988,-0.016988
0.55,-0.5,-0.0051,-0.0051,-0.5,-0.016988,-0.016988,-0.5,-0.016988,-0.016988
0.5,-0.5,-0.0054441,-0.0054441,-0.5,-0.016988,-0.016988,-0.5,-0.016988,-0.016988
0.45,-0.5,-0.0054955,-0.0054955,-0.5,-0.016988,-0.016988,-0.5,-0.016988,-0.016988
0.4,-0.5,-0.0061742,-0.0061742,-0.5,-0.016988,-0.016988,-0.5,-0.016988,-0.016988
0.35,-0.5,-0.0060359,-0.0060359,-0.5,-0.016988,-0.016988,-0.5,-0.016988,-0.016988
0.3,-0.5,-0.0065317,-0.0065317,-0.5,-0.016988,-0.016988,-0.5,-0.016988,-0.016988
0.25,-0.5,-0.0068193,-0.0068193,-0.5,-0.016988,-0.016988,-0.5,-0.016988,-0.016988
0.2,-0.5,-0.0071439,-0.0071439,-0.5,-0.016988,-0.016988,-0.5,-0.016988,-0.016988
0.15,-0.5,-0.0067288,-0.0067288,-0.5,-0.016988,-0.016988,-0.5,-0.016988,-0.016988
0.1,-0.5,-0.0069644,-0.0069644,-0.5,-0.016988,-0.016988,-0.5,-0.016988,-0.016988
0.05,-0.5,-0.0074233,-0.0074233,-0.5,-0.016988,-0.016988,-0.5,-0.016988,-0.016988
0,-0.5,-0.0075913,-0.0075913,-0.5,-0.016988,-0.016988,-0.5,-0.016988,-0.016988
