alpha,e,cost-f,access-f,e-rand,cost-f-rand,access-f-rand,e-u,cost-f-u,access-f-u
1,-0.5,-0.0085318,-0.0085318,-0.5,-0.015938,-0.015938,-0.5,-0.015938,-0.015938
0.99,-0.5,-0.0017116,-0.0017116,-0.5,-0.015938,-0.015938,-0.5,-0.015938,-0.015938
0.98,-0.5,-0.0023887,-0.0023887,-0.5,-0.015938,-0.015938,-0.5,-0.015938,-0.015938
0.97,-0.5,-0.0019053,-0.0019053,-0.5,-0.015938,-0.015938,-0.5,-0.015938,-0.015938
0.96,-0.5,-0.0026096,-0.0026096,-0.5,-0.015938,-0.015938,-0.5,-0.015938,-0.015938
0.95,-0.5,-0.0024374,-0.0024374,-0.5,-0.015938,-0.015938,-0.5,-0.015938,-0.015938
0.9,-0.5,-0.0029679,-0.0029679,-0.5,-0.015938,-0.015938,-0.5,-0.015938,-0.015938
0.85,-0.5,-0.0032445,-0.0032445,-0.5,-0.015938,-0.015938,-0.5,-0.015938,-0.015938
0.8,-0.5,-0.0034825,-0.0034825,-0.5,-0.015938,-0.015938,-0.5,-0.015938,-0.015938
0.75,-0.5,-0.0038217,-0.0038217,-0.5,-0.015938,-0.015938,-0.5,-0.015938,-0.015938
0.7,-0.5,-0.004126,-0.004126,-0.5,-0.015938,-0.015938,-0.5,-0.015938,-0.015938
0.65,-0.5,-0.0045986,-0.0045986,-0.5,-0.015938,-0.015938,-0.5,-0.015938,-0.015938
0.6,-0.5,-0.0047859,-0.0047859,-0.5,-0.015938,-0.015938,-0.5,-0.015938,-0.015938
0.55,-0.5,-0.0051364,-0.0051364,-0.5,-0.015938,-0.015938,-0.5,-0.015938,-0.015938
0.5,-0.5,-0.0055005,-0.0055005,-0.5,-0.015938,-0.015938,-0.5,-0.015938,-0.015938
0.45,-0.5,-0.0055753,-0.0055753,-0.5,-0.015938,-0.015938,-0.5,-0.015938,-0.015938
0.4,-0.5,-0.0057167,-0.0057167,-0.5,-0.015938,-0.015938,-0.5,-0.015938,-0.015938
0.35,-0.5,-0.0059154,-0.0059154,-0.5,-0.015938,-0.015938,-0.5,-0.015938,-0.015938
0.3,-0.5,-0.0062054,-0.0062054,-0.5,-0.015938,-0.015938,-0.5,-0.015938,-0.015938
0.25,-0.5,-0.006391,-0.006391,-0.5,-0.015938,-0.015938,-0.5,-0.015938,-0.015938
0.2,-0.5,-0.0069473,-0.0069473,-0.5,-0.015938,-0.015938,-0.5,-0.015938,-0.015938
0.15,-0.5,-0.0071206,-0.0071206,-0.5,-0.015938,-0.015938,-0.5,-0.015938,-0.015938
0.1,-0.5,-0.0071939,-0.0071939,-0.5,-0.015938,-0.015938,-0.5,-0.015938,-0.015938
0.05,-0.5,-0.0073307,-0.0073307,-0.5,-0.015938,-0.015938,-0.5,-0.015938,-0.015938
0,-0.5,-0.0078746,-0.0078746,-0.5,-0.015938,-0.015938,-0.5,-0.015938,-0.015938
