mu,alpha,k,k2,P(k)
1,0.99,0,-0.5,0
1,0.99,1,0.5,0
1,0.99,2,1.5,0.00089658
1,0.99,3,2.5,0.017465
1,0.99,4,3.5,0.020377
1,0.99,5,4.5,0.094119
1,0.99,6,5.5,0.092131
1,0.99,7,6.5,0.092174
1,0.99,8,7.5,0.11682
1,0.99,9,8.5,0.11374
1,0.99,10,9.5,0.10788
1,0.99,11,10.5,0.060142
1,0.99,12,11.5,0.058012
1,0.99,13,12.5,0.052656
1,0.99,14,13.5,0.030906
1,0.99,15,14.5,0.029457
1,0.99,16,15.5,0.025799
1,0.99,17,16.5,0.015851
1,0.99,18,17.5,0.014906
1,0.99,19,18.5,0.012684
1,0.99,20,19.5,0.043982
1,0.99,21,20.5,0.0075222
