alpha,e,cost-f,access-f,e-rand,cost-f-rand,access-f-rand,e-u,cost-f-u,access-f-u
1,-0.51575,-0.14876,-0.12461,-0.74075,-0.35165,-0.12258,-0.51575,-0.15593,-0.1381
0.99,-0.51575,-0.10157,-0.05468,-0.74075,-0.35165,-0.12258,-0.51575,-0.15593,-0.1381
0.98,-0.518,-0.098614,-0.041637,-0.74075,-0.35165,-0.12258,-0.51575,-0.15593,-0.1381
0.97,-0.527,-0.11207,-0.04312,-0.74075,-0.35165,-0.12258,-0.51575,-0.15593,-0.1381
0.96,-0.52475,-0.11161,-0.03751,-0.74075,-0.35165,-0.12258,-0.51575,-0.15593,-0.1381
0.95,-0.52925,-0.11976,-0.038827,-0.74075,-0.35165,-0.12258,-0.51575,-0.15593,-0.1381
0.9,-0.53375,-0.12987,-0.03751,-0.74075,-0.35165,-0.12258,-0.51575,-0.15593,-0.1381
0.85,-0.5405,-0.13313,-0.041335,-0.74075,-0.35165,-0.12258,-0.51575,-0.15593,-0.1381
0.8,-0.5585,-0.17941,-0.041029,-0.74075,-0.35165,-0.12258,-0.51575,-0.15593,-0.1381
0.75,-0.56525,-0.17,-0.042827,-0.74075,-0.35165,-0.12258,-0.51575,-0.15593,-0.1381
0.7,-0.56975,-0.18861,-0.04312,-0.74075,-0.35165,-0.12258,-0.51575,-0.15593,-0.1381
0.65,-0.58775,-0.20035,-0.045666,-0.74075,-0.35165,-0.12258,-0.51575,-0.15593,-0.1381
0.6,-0.5855,-0.21674,-0.047022,-0.74075,-0.35165,-0.12258,-0.51575,-0.15593,-0.1381
0.55,-0.58325,-0.22295,-0.050125,-0.74075,-0.35165,-0.12258,-0.51575,-0.15593,-0.1381
0.5,-0.60125,-0.22675,-0.051363,-0.74075,-0.35165,-0.12258,-0.51575,-0.15593,-0.1381
0.45,-0.608,-0.2318,-0.050872,-0.74075,-0.35165,-0.12258,-0.51575,-0.15593,-0.1381
0.4,-0.6035,-0.24071,-0.053987,-0.74075,-0.35165,-0.12258,-0.51575,-0.15593,-0.1381
0.35,-0.6305,-0.25385,-0.05468,-0.74075,-0.35165,-0.12258,-0.51575,-0.15593,-0.1381
0.3,-0.62375,-0.26935,-0.053284,-0.74075,-0.35165,-0.12258,-0.51575,-0.15593,-0.1381
0.25,-0.6485,-0.26238,-0.055817,-0.74075,-0.35165,-0.12258,-0.51575,-0.15593,-0.1381
0.2,-0.65075,-0.28104,-0.060567,-0.74075,-0.35165,-0.12258,-0.51575,-0.15593,-0.1381
0.15,-0.6665,-0.28075,-0.060151,-0.74075,-0.35165,-0.12258,-0.51575,-0.15593,-0.1381
0,-0.743,-0.3504,-0.10692,-0.74075,-0.35165,-0.12258,-0.51575,-0.15593,-0.1381
