alpha,e,cost-f,access-f,e-rand,cost-f-rand,access-f-rand,e-u,cost-f-u,access-f-u
1,-0.5135,-0.13325,-0.11386,-0.73175,-0.34339,-0.11518,-0.5135,-0.14334,-0.13252
0.99,-0.5135,-0.092115,-0.050624,-0.73175,-0.34339,-0.11518,-0.5135,-0.14334,-0.13252
0.98,-0.5135,-0.086342,-0.039149,-0.73175,-0.34339,-0.11518,-0.5135,-0.14334,-0.13252
0.97,-0.527,-0.11207,-0.039149,-0.73175,-0.34339,-0.11518,-0.5135,-0.14334,-0.13252
0.96,-0.52475,-0.10913,-0.033249,-0.73175,-0.34339,-0.11518,-0.5135,-0.14334,-0.13252
0.95,-0.52925,-0.11907,-0.036835,-0.73175,-0.34339,-0.11518,-0.5135,-0.14334,-0.13252
0.9,-0.5315,-0.12987,-0.036835,-0.73175,-0.34339,-0.11518,-0.5135,-0.14334,-0.13252
0.85,-0.5405,-0.13313,-0.038827,-0.73175,-0.34339,-0.11518,-0.5135,-0.14334,-0.13252
0.8,-0.5585,-0.17941,-0.038502,-0.73175,-0.34339,-0.11518,-0.5135,-0.14334,-0.13252
0.75,-0.56525,-0.17,-0.040412,-0.73175,-0.34339,-0.11518,-0.5135,-0.14334,-0.13252
0.7,-0.563,-0.16919,-0.04312,-0.73175,-0.34339,-0.11518,-0.5135,-0.14334,-0.13252
0.65,-0.58775,-0.20035,-0.045666,-0.73175,-0.34339,-0.11518,-0.5135,-0.14334,-0.13252
0.6,-0.5855,-0.21674,-0.045666,-0.73175,-0.34339,-0.11518,-0.5135,-0.14334,-0.13252
0.55,-0.57875,-0.21404,-0.049113,-0.73175,-0.34339,-0.11518,-0.5135,-0.14334,-0.13252
0.5,-0.59225,-0.19652,-0.045391,-0.73175,-0.34339,-0.11518,-0.5135,-0.14334,-0.13252
0.45,-0.608,-0.22559,-0.047288,-0.73175,-0.34339,-0.11518,-0.5135,-0.14334,-0.13252
0.4,-0.6035,-0.21806,-0.053987,-0.73175,-0.34339,-0.11518,-0.5135,-0.14334,-0.13252
0.35,-0.61475,-0.23327,-0.051363,-0.73175,-0.34339,-0.11518,-0.5135,-0.14334,-0.13252
0.3,-0.62375,-0.23924,-0.049113,-0.73175,-0.34339,-0.11518,-0.5135,-0.14334,-0.13252
0.25,-0.6305,-0.25651,-0.055592,-0.73175,-0.34339,-0.11518,-0.5135,-0.14334,-0.13252
0.2,-0.6305,-0.24981,-0.05759,-0.73175,-0.34339,-0.11518,-0.5135,-0.14334,-0.13252
0.15,-0.6395,-0.2636,-0.053754,-0.73175,-0.34339,-0.11518,-0.5135,-0.14334,-0.13252
0,-0.7295,-0.32455,-0.092563,-0.73175,-0.34339,-0.11518,-0.5135,-0.14334,-0.13252
