alpha,e,cost-f,access-f,e-rand,cost-f-rand,access-f-rand,e-u,cost-f-u,access-f-u
1,-0.50788,-0.04096,-0.036712,-0.69642,-0.10423,-0.037484,-0.50788,-0.043792,-0.040157
0.99,-0.50877,-0.024732,-0.0082669,-0.69642,-0.10423,-0.037484,-0.50788,-0.043792,-0.040157
0.98,-0.5099,-0.02328,-0.0070888,-0.69642,-0.10423,-0.037484,-0.50788,-0.043792,-0.040157
0.97,-0.51148,-0.023203,-0.0075355,-0.69642,-0.10423,-0.037484,-0.50788,-0.043792,-0.040157
0.96,-0.51215,-0.023748,-0.0076677,-0.69642,-0.10423,-0.037484,-0.50788,-0.043792,-0.040157
0.95,-0.5153,-0.027749,-0.0074517,-0.69642,-0.10423,-0.037484,-0.50788,-0.043792,-0.040157
0.9,-0.52273,-0.032899,-0.0083275,-0.69642,-0.10423,-0.037484,-0.50788,-0.043792,-0.040157
0.85,-0.52948,-0.035018,-0.0082212,-0.69642,-0.10423,-0.037484,-0.50788,-0.043792,-0.040157
0.8,-0.53577,-0.040661,-0.0099117,-0.69642,-0.10423,-0.037484,-0.50788,-0.043792,-0.040157
0.75,-0.54253,-0.042412,-0.010809,-0.69642,-0.10423,-0.037484,-0.50788,-0.043792,-0.040157
0.7,-0.55242,-0.04836,-0.01097,-0.69642,-0.10423,-0.037484,-0.50788,-0.043792,-0.040157
0.65,-0.55175,-0.044411,-0.011787,-0.69642,-0.10423,-0.037484,-0.50788,-0.043792,-0.040157
0.6,-0.56075,-0.049527,-0.013617,-0.69642,-0.10423,-0.037484,-0.50788,-0.043792,-0.040157
0.55,-0.56502,-0.057027,-0.012661,-0.69642,-0.10423,-0.037484,-0.50788,-0.043792,-0.040157
0.5,-0.5756,-0.057023,-0.013543,-0.69642,-0.10423,-0.037484,-0.50788,-0.043792,-0.040157
0.45,-0.58663,-0.062365,-0.01399,-0.69642,-0.10423,-0.037484,-0.50788,-0.043792,-0.040157
0.4,-0.59203,-0.065596,-0.013033,-0.69642,-0.10423,-0.037484,-0.50788,-0.043792,-0.040157
0.35,-0.6008,-0.066415,-0.015442,-0.69642,-0.10423,-0.037484,-0.50788,-0.043792,-0.040157
0.3,-0.61093,-0.066744,-0.015708,-0.69642,-0.10423,-0.037484,-0.50788,-0.043792,-0.040157
0.25,-0.6188,-0.067722,-0.015611,-0.69642,-0.10423,-0.037484,-0.50788,-0.043792,-0.040157
0.2,-0.63545,-0.071802,-0.017472,-0.69642,-0.10423,-0.037484,-0.50788,-0.043792,-0.040157
0.15,-0.6332,-0.071439,-0.016969,-0.69642,-0.10423,-0.037484,-0.50788,-0.043792,-0.040157
0,-0.69755,-0.10255,-0.036388,-0.69642,-0.10423,-0.037484,-0.50788,-0.043792,-0.040157
