alpha,e,cost-f,access-f,e-rand,cost-f-rand,access-f-rand,e-u,cost-f-u,access-f-u
1,-0.5045,-0.09301,-0.08034,-0.6695,-0.23236,-0.082534,-0.5045,-0.10352,-0.094458
0.99,-0.5045,-0.048504,-0.033749,-0.6695,-0.23236,-0.082534,-0.5045,-0.10352,-0.094458
0.98,-0.5045,-0.045535,-0.026099,-0.6695,-0.23236,-0.082534,-0.5045,-0.10352,-0.094458
0.97,-0.509,-0.056977,-0.026313,-0.6695,-0.23236,-0.082534,-0.5045,-0.10352,-0.094458
0.96,-0.5075,-0.052777,-0.024097,-0.6695,-0.23236,-0.082534,-0.5045,-0.10352,-0.094458
0.95,-0.5105,-0.061489,-0.024097,-0.6695,-0.23236,-0.082534,-0.5045,-0.10352,-0.094458
0.9,-0.5165,-0.071045,-0.025229,-0.6695,-0.23236,-0.082534,-0.5045,-0.10352,-0.094458
0.85,-0.518,-0.074186,-0.025007,-0.6695,-0.23236,-0.082534,-0.5045,-0.10352,-0.094458
0.8,-0.5285,-0.09869,-0.025229,-0.6695,-0.23236,-0.082534,-0.5045,-0.10352,-0.094458
0.75,-0.536,-0.10742,-0.029513,-0.6695,-0.23236,-0.082534,-0.5045,-0.10352,-0.094458
0.7,-0.5405,-0.10768,-0.029323,-0.6695,-0.23236,-0.082534,-0.5045,-0.10352,-0.094458
0.65,-0.5345,-0.11185,-0.03099,-0.6695,-0.23236,-0.082534,-0.5045,-0.10352,-0.094458
0.6,-0.5435,-0.12169,-0.032226,-0.6695,-0.23236,-0.082534,-0.5045,-0.10352,-0.094458
0.55,-0.5555,-0.12726,-0.034242,-0.6695,-0.23236,-0.082534,-0.5045,-0.10352,-0.094458
0.5,-0.548,-0.12005,-0.034728,-0.6695,-0.23236,-0.082534,-0.5045,-0.10352,-0.094458
0.45,-0.5735,-0.14563,-0.035523,-0.6695,-0.23236,-0.082534,-0.5045,-0.10352,-0.094458
0.4,-0.5765,-0.15716,-0.034405,-0.6695,-0.23236,-0.082534,-0.5045,-0.10352,-0.094458
0.35,-0.5855,-0.15941,-0.038101,-0.6695,-0.23236,-0.082534,-0.5045,-0.10352,-0.094458
0.3,-0.59,-0.17492,-0.037659,-0.6695,-0.23236,-0.082534,-0.5045,-0.10352,-0.094458
0.25,-0.5945,-0.17062,-0.038971,-0.6695,-0.23236,-0.082534,-0.5045,-0.10352,-0.094458
0.2,-0.5945,-0.17016,-0.039961,-0.6695,-0.23236,-0.082534,-0.5045,-0.10352,-0.094458
0.15,-0.6125,-0.19236,-0.041738,-0.6695,-0.23236,-0.082534,-0.5045,-0.10352,-0.094458
0,-0.665,-0.23303,-0.070967,-0.6695,-0.23236,-0.082534,-0.5045,-0.10352,-0.094458
