alpha,e,cost-f,access-f,e-rand,cost-f-rand,access-f-rand,e-u,cost-f-u,access-f-u
1,-0.51417,-0.027437,-0.023112,-0.70925,-0.06667,-0.023514,-0.51103,-0.02797,-0.024783
0.99,-0.51178,-0.01332,-0.0047052,-0.70925,-0.06667,-0.023514,-0.51103,-0.02797,-0.024783
0.98,-0.5129,-0.014638,-0.004357,-0.70925,-0.06667,-0.023514,-0.51103,-0.02797,-0.024783
0.97,-0.51485,-0.014681,-0.0049762,-0.70925,-0.06667,-0.023514,-0.51103,-0.02797,-0.024783
0.96,-0.51643,-0.016705,-0.0047553,-0.70925,-0.06667,-0.023514,-0.51103,-0.02797,-0.024783
0.95,-0.51718,-0.016977,-0.004717,-0.70925,-0.06667,-0.023514,-0.51103,-0.02797,-0.024783
0.9,-0.52408,-0.019803,-0.0050927,-0.70925,-0.06667,-0.023514,-0.51103,-0.02797,-0.024783
0.85,-0.53113,-0.023274,-0.0057614,-0.70925,-0.06667,-0.023514,-0.51103,-0.02797,-0.024783
0.8,-0.54297,-0.025107,-0.0065909,-0.70925,-0.06667,-0.023514,-0.51103,-0.02797,-0.024783
0.75,-0.54733,-0.029353,-0.0066959,-0.70925,-0.06667,-0.023514,-0.51103,-0.02797,-0.024783
0.7,-0.5558,-0.029962,-0.007171,-0.70925,-0.06667,-0.023514,-0.51103,-0.02797,-0.024783
0.65,-0.56113,-0.033188,-0.0077762,-0.70925,-0.06667,-0.023514,-0.51103,-0.02797,-0.024783
0.6,-0.56915,-0.033765,-0.0084175,-0.70925,-0.06667,-0.023514,-0.51103,-0.02797,-0.024783
0.55,-0.57665,-0.0352,-0.0081204,-0.70925,-0.06667,-0.023514,-0.51103,-0.02797,-0.024783
0.5,-0.58745,-0.038441,-0.0084687,-0.70925,-0.06667,-0.023514,-0.51103,-0.02797,-0.024783
0.45,-0.59165,-0.037411,-0.0088508,-0.70925,-0.06667,-0.023514,-0.51103,-0.02797,-0.024783
0.4,-0.60125,-0.039158,-0.0089838,-0.70925,-0.06667,-0.023514,-0.51103,-0.02797,-0.024783
0.35,-0.6125,-0.042401,-0.0092124,-0.70925,-0.06667,-0.023514,-0.51103,-0.02797,-0.024783
0.3,-0.61895,-0.047114,-0.0095385,-0.70925,-0.06667,-0.023514,-0.51103,-0.02797,-0.024783
0.25,-0.63133,-0.045817,-0.0097469,-0.70925,-0.06667,-0.023514,-0.51103,-0.02797,-0.024783
0.2,-0.6431,-0.047777,-0.010067,-0.70925,-0.06667,-0.023514,-0.51103,-0.02797,-0.024783
0.15,-0.65285,-0.048568,-0.010285,-0.70925,-0.06667,-0.023514,-0.51103,-0.02797,-0.024783
0,-0.71038,-0.065348,-0.023113,-0.70925,-0.06667,-0.023514,-0.51103,-0.02797,-0.024783
