alpha,e,cost-f,access-f,e-rand,cost-f-rand,access-f-rand,e-u,cost-f-u,access-f-u
1,-0.5132,-0.025199,-0.021155,-0.7037,-0.06667,-0.021438,-0.51035,-0.025259,-0.023558
0.99,-0.5111,-0.012963,-0.004389,-0.7037,-0.06667,-0.021438,-0.51035,-0.025259,-0.023558
0.98,-0.51245,-0.013709,-0.0040412,-0.7037,-0.06667,-0.021438,-0.51035,-0.025259,-0.023558
0.97,-0.51485,-0.01447,-0.0046604,-0.7037,-0.06667,-0.021438,-0.51035,-0.025259,-0.023558
0.96,-0.51485,-0.016705,-0.0045329,-0.7037,-0.06667,-0.021438,-0.51035,-0.025259,-0.023558
0.95,-0.51718,-0.016977,-0.0045544,-0.7037,-0.06667,-0.021438,-0.51035,-0.025259,-0.023558
0.9,-0.52392,-0.019279,-0.0045758,-0.7037,-0.06667,-0.021438,-0.51035,-0.025259,-0.023558
0.85,-0.53113,-0.023274,-0.005409,-0.7037,-0.06667,-0.021438,-0.51035,-0.025259,-0.023558
0.8,-0.53795,-0.024973,-0.0065909,-0.7037,-0.06667,-0.021438,-0.51035,-0.025259,-0.023558
0.75,-0.5465,-0.029353,-0.0065398,-0.7037,-0.06667,-0.021438,-0.51035,-0.025259,-0.023558
0.7,-0.55092,-0.02831,-0.0065675,-0.7037,-0.06667,-0.021438,-0.51035,-0.025259,-0.023558
0.65,-0.55835,-0.029609,-0.0065206,-0.7037,-0.06667,-0.021438,-0.51035,-0.025259,-0.023558
0.6,-0.56892,-0.033191,-0.007578,-0.7037,-0.06667,-0.021438,-0.51035,-0.025259,-0.023558
0.55,-0.57605,-0.0352,-0.0080773,-0.7037,-0.06667,-0.021438,-0.51035,-0.025259,-0.023558
0.5,-0.58303,-0.038299,-0.0071593,-0.7037,-0.06667,-0.021438,-0.51035,-0.025259,-0.023558
0.45,-0.5903,-0.036294,-0.0085931,-0.7037,-0.06667,-0.021438,-0.51035,-0.025259,-0.023558
0.4,-0.60028,-0.037713,-0.0089589,-0.7037,-0.06667,-0.021438,-0.51035,-0.025259,-0.023558
0.35,-0.6089,-0.041638,-0.0089947,-0.7037,-0.06667,-0.021438,-0.51035,-0.025259,-0.023558
0.3,-0.61813,-0.040334,-0.0091379,-0.7037,-0.06667,-0.021438,-0.51035,-0.025259,-0.023558
0.25,-0.62608,-0.045727,-0.0086836,-0.7037,-0.06667,-0.021438,-0.51035,-0.025259,-0.023558
0.2,-0.63515,-0.047777,-0.0084042,-0.7037,-0.06667,-0.021438,-0.51035,-0.025259,-0.023558
0.15,-0.64985,-0.047107,-0.010198,-0.7037,-0.06667,-0.021438,-0.51035,-0.025259,-0.023558
0,-0.7037,-0.065348,-0.020696,-0.7037,-0.06667,-0.021438,-0.51035,-0.025259,-0.023558
