alpha,e,cost-f,access-f,e-rand,cost-f-rand,access-f-rand,e-u,cost-f-u,access-f-u
1,-0.5114,-0.026052,-0.020479,-0.7001,-0.060499,-0.020535,-0.5093,-0.02687,-0.023137
0.99,-0.5102,-0.01332,-0.0044364,-0.7001,-0.060499,-0.020535,-0.5093,-0.02687,-0.023137
0.98,-0.51148,-0.014638,-0.0035444,-0.7001,-0.060499,-0.020535,-0.5093,-0.02687,-0.023137
0.97,-0.51357,-0.014157,-0.0042631,-0.7001,-0.060499,-0.020535,-0.5093,-0.02687,-0.023137
0.96,-0.51455,-0.016158,-0.0042203,-0.7001,-0.060499,-0.020535,-0.5093,-0.02687,-0.023137
0.95,-0.51568,-0.015788,-0.0042631,-0.7001,-0.060499,-0.020535,-0.5093,-0.02687,-0.023137
0.9,-0.52265,-0.019803,-0.0048828,-0.7001,-0.060499,-0.020535,-0.5093,-0.02687,-0.023137
0.85,-0.52895,-0.022398,-0.005378,-0.7001,-0.060499,-0.020535,-0.5093,-0.02687,-0.023137
0.8,-0.53765,-0.02488,-0.0056661,-0.7001,-0.060499,-0.020535,-0.5093,-0.02687,-0.023137
0.75,-0.5432,-0.024556,-0.0065334,-0.7001,-0.060499,-0.020535,-0.5093,-0.02687,-0.023137
0.7,-0.55115,-0.025284,-0.0071515,-0.7001,-0.060499,-0.020535,-0.5093,-0.02687,-0.023137
0.65,-0.5567,-0.028314,-0.0070947,-0.7001,-0.060499,-0.020535,-0.5093,-0.02687,-0.023137
0.6,-0.56608,-0.031593,-0.0070987,-0.7001,-0.060499,-0.020535,-0.5093,-0.02687,-0.023137
0.55,-0.57252,-0.031696,-0.0079484,-0.7001,-0.060499,-0.020535,-0.5093,-0.02687,-0.023137
0.5,-0.5786,-0.037285,-0.0082314,-0.7001,-0.060499,-0.020535,-0.5093,-0.02687,-0.023137
0.45,-0.5876,-0.035673,-0.0086207,-0.7001,-0.060499,-0.020535,-0.5093,-0.02687,-0.023137
0.4,-0.60035,-0.037218,-0.0084984,-0.7001,-0.060499,-0.020535,-0.5093,-0.02687,-0.023137
0.35,-0.60057,-0.03902,-0.0086336,-0.7001,-0.060499,-0.020535,-0.5093,-0.02687,-0.023137
0.3,-0.61895,-0.039805,-0.0089993,-0.7001,-0.060499,-0.020535,-0.5093,-0.02687,-0.023137
0.25,-0.62698,-0.045817,-0.0083843,-0.7001,-0.060499,-0.020535,-0.5093,-0.02687,-0.023137
0.2,-0.63463,-0.043899,-0.0093925,-0.7001,-0.060499,-0.020535,-0.5093,-0.02687,-0.023137
0.15,-0.6509,-0.04724,-0.0099384,-0.7001,-0.060499,-0.020535,-0.5093,-0.02687,-0.023137
0,-0.70122,-0.060434,-0.019973,-0.7001,-0.060499,-0.020535,-0.5093,-0.02687,-0.023137
