alpha,e,cost-f,access-f,e-rand,cost-f-rand,access-f-rand,e-u,cost-f-u,access-f-u
1,-0.51344,-0.025801,-0.019176,-0.70188,-0.049716,-0.019084,-0.50816,-0.023503,-0.0211
0.99,-0.50917,-0.011395,-0.0038726,-0.70188,-0.049716,-0.019084,-0.50816,-0.023503,-0.0211
0.98,-0.51052,-0.011017,-0.0034478,-0.70188,-0.049716,-0.019084,-0.50816,-0.023503,-0.0211
0.97,-0.51114,-0.0108,-0.0040548,-0.70188,-0.049716,-0.019084,-0.50816,-0.023503,-0.0211
0.96,-0.51226,-0.012911,-0.0039189,-0.70188,-0.049716,-0.019084,-0.50816,-0.023503,-0.0211
0.95,-0.5144,-0.013194,-0.0037258,-0.70188,-0.049716,-0.019084,-0.50816,-0.023503,-0.0211
0.9,-0.52109,-0.015687,-0.0039924,-0.70188,-0.049716,-0.019084,-0.50816,-0.023503,-0.0211
0.85,-0.52902,-0.019365,-0.0048177,-0.70188,-0.049716,-0.019084,-0.50816,-0.023503,-0.0211
0.8,-0.53712,-0.020125,-0.0052467,-0.70188,-0.049716,-0.019084,-0.50816,-0.023503,-0.0211
0.75,-0.5441,-0.020705,-0.0051287,-0.70188,-0.049716,-0.019084,-0.50816,-0.023503,-0.0211
0.7,-0.54725,-0.023523,-0.0059084,-0.70188,-0.049716,-0.019084,-0.50816,-0.023503,-0.0211
0.65,-0.55884,-0.024914,-0.0061697,-0.70188,-0.049716,-0.019084,-0.50816,-0.023503,-0.0211
0.6,-0.56733,-0.02668,-0.0068224,-0.70188,-0.049716,-0.019084,-0.50816,-0.023503,-0.0211
0.55,-0.57206,-0.029368,-0.0067924,-0.70188,-0.049716,-0.019084,-0.50816,-0.023503,-0.0211
0.5,-0.57695,-0.032821,-0.0072973,-0.70188,-0.049716,-0.019084,-0.50816,-0.023503,-0.0211
0.45,-0.58826,-0.031459,-0.0068465,-0.70188,-0.049716,-0.019084,-0.50816,-0.023503,-0.0211
0.4,-0.59759,-0.031741,-0.0071253,-0.70188,-0.049716,-0.019084,-0.50816,-0.023503,-0.0211
0.35,-0.60642,-0.034061,-0.0072908,-0.70188,-0.049716,-0.019084,-0.50816,-0.023503,-0.0211
0.3,-0.60946,-0.036431,-0.0075594,-0.70188,-0.049716,-0.019084,-0.50816,-0.023503,-0.0211
0.25,-0.62307,-0.03784,-0.0074591,-0.70188,-0.049716,-0.019084,-0.50816,-0.023503,-0.0211
0.2,-0.63185,-0.037021,-0.0085498,-0.70188,-0.049716,-0.019084,-0.50816,-0.023503,-0.0211
0.15,-0.64715,-0.038227,-0.0086312,-0.70188,-0.049716,-0.019084,-0.50816,-0.023503,-0.0211
0,-0.70126,-0.049831,-0.018979,-0.70188,-0.049716,-0.019084,-0.50816,-0.023503,-0.0211
