mu,alpha,k,k2,P(k)
1,0.7,0,-0.5,6.0869e-58
1,0.7,1,0.5,8.9301e-55
1,0.7,2,1.5,4.2657e-53
1,0.7,3,2.5,1.0581e-51
1,0.7,4,3.5,0.0035485
1,0.7,5,4.5,0.14661
1,0.7,6,5.5,0.181
1,0.7,7,6.5,0.064974
1,0.7,8,7.5,0.04293
1,0.7,9,8.5,0.029834
1,0.7,10,9.5,0.13089
1,0.7,11,10.5,0.15823
1,0.7,12,11.5,0.052256
1,0.7,13,12.5,0.033538
1,0.7,14,13.5,0.039296
1,0.7,15,14.5,0.056545
1,0.7,16,15.5,0.027173
1,0.7,17,16.5,0.011104
1,0.7,18,17.5,0.0082502
1,0.7,19,18.5,0.0078736
1,0.7,20,19.5,0.0033459
1,0.7,21,20.5,0.0016257
1,0.7,22,21.5,0.00070918
1,0.7,23,22.5,0.00021596
1,0.7,24,23.5,4.8503e-05
1,0.7,25,24.5,6.6044e-06
1,0.7,26,25.5,9.3202e-07
1,0.7,27,26.5,5.1066e-08
1,0.7,28,27.5,7.078e-10
1,0.7,29,28.5,1.9125e-12
1,0.7,30,29.5,0
1,0.7,31,30.5,0
1,0.99,0,-0.5,-1.0904e-57
1,0.99,1,0.5,1.3193e-56
1,0.99,2,1.5,3.0923e-54
1,0.99,3,2.5,8.235e-53
1,0.99,4,3.5,0.00079567
1,0.99,5,4.5,0.033654
1,0.99,6,5.5,0.073837
1,0.99,7,6.5,0.085164
1,0.99,8,7.5,0.090742
1,0.99,9,8.5,0.092047
1,0.99,10,9.5,0.078793
1,0.99,11,10.5,0.098365
1,0.99,12,11.5,0.088122
1,0.99,13,12.5,0.077061
1,0.99,14,13.5,0.063234
1,0.99,15,14.5,0.059033
1,0.99,16,15.5,0.052663
1,0.99,17,16.5,0.040992
1,0.99,18,17.5,0.023672
1,0.99,19,18.5,0.016508
1,0.99,20,19.5,0.013044
1,0.99,21,20.5,0.0073892
1,0.99,22,21.5,0.0026605
1,0.99,23,22.5,0.0015821
1,0.99,24,23.5,0.00048353
1,0.99,25,24.5,0.00012947
1,0.99,26,25.5,2.5135e-05
1,0.99,27,26.5,1.7712e-06
1,0.99,28,27.5,4.9037e-08
1,0.99,29,28.5,4.6529e-10
1,0.99,30,29.5,0
1,0.99,31,30.5,0
