mu,alpha,i-u,u,k,b
1,0.7,1,1,0,0
1,0.7,1,1,1,0.99794
1,0.7,1,1,2,1.8869
1,0.7,1,1,3,3
1,0.7,1,1,4,4
1,0.7,1,1,5,5
1,0.7,1,1,6,6
1,0.7,1,1,7,7
1,0.7,1,1,8,7.0001
1,0.7,1,1,9,8
1,0.7,1,1,10,8
1,0.7,1,1,11,8
1,0.7,1,1,12,8
1,0.7,1,1,13,8
1,0.7,1,1,14,8
1,0.7,1,1,15,8
1,0.7,1,1,16,8
1,0.7,1,1,17,8
1,0.7,1,1,18,8.0009
1,0.7,1,1,19,8.0069
1,0.7,1,1,20,8.0129
1,0.7,2,1,0,0
1,0.7,2,1,1,0.75976
1,0.7,2,1,2,0.71243
1,0.7,2,1,3,0.098889
1,0.7,2,1,4,0.091566
1,0.7,2,1,5,0.90575
1,0.7,2,1,6,1.0247
1,0.7,2,1,7,2.9392
1,0.7,2,1,8,3.0195
1,0.7,2,1,9,4
1,0.7,2,1,10,5
1,0.7,2,1,11,6
1,0.7,2,1,12,7
1,0.7,2,1,13,7
1,0.7,2,1,14,8
1,0.7,2,1,15,8
1,0.7,2,1,16,8
1,0.7,2,1,17,8
1,0.7,2,1,18,8
1,0.7,2,1,19,8
1,0.7,2,1,20,8
1,0.7,3,10,0,0
1,0.7,3,10,1,1
1,0.7,3,10,2,2
1,0.7,3,10,3,3
1,0.7,3,10,4,4
1,0.7,3,10,5,5
1,0.7,3,10,6,6
1,0.7,3,10,7,7
1,0.7,3,10,8,8
1,0.7,3,10,9,9
1,0.7,3,10,10,10
1,0.7,3,10,11,11
1,0.7,3,10,12,11
1,0.7,3,10,13,11
1,0.7,3,10,14,11
1,0.7,3,10,15,11
1,0.7,3,10,16,11
1,0.7,3,10,17,11
1,0.7,3,10,18,11
1,0.7,3,10,19,11
1,0.7,3,10,20,11.041
1,0.99,1,1,0,0
1,0.99,1,1,1,0.99487
1,0.99,1,1,2,1.6369
1,0.99,1,1,3,3
1,0.99,1,1,4,4
1,0.99,1,1,5,4.0376
1,0.99,1,1,6,4.9993
1,0.99,1,1,7,5.8986
1,0.99,1,1,8,6
1,0.99,1,1,9,6
1,0.99,1,1,10,6
1,0.99,1,1,11,6
1,0.99,1,1,12,6.001
1,0.99,1,1,13,6.0305
1,0.99,1,1,14,6.3824
1,0.99,1,1,15,6.8839
1,0.99,1,1,16,6.9826
1,0.99,1,1,17,6.9956
1,0.99,1,1,18,6.9987
1,0.99,1,1,19,6.9998
1,0.99,1,1,20,7
1,0.99,2,1,0,0
1,0.99,2,1,1,0.046212
1,0.99,2,1,2,0.071759
1,0.99,2,1,3,0.0018238
1,0.99,2,1,4,0.0021509
1,0.99,2,1,5,0.55784
1,0.99,2,1,6,0.99216
1,0.99,2,1,7,1.4409
1,0.99,2,1,8,3
1,0.99,2,1,9,4
1,0.99,2,1,10,4
1,0.99,2,1,11,4.9989
1,0.99,2,1,12,5.7743
1,0.99,2,1,13,6
1,0.99,2,1,14,6
1,0.99,2,1,15,6
1,0.99,2,1,16,6
1,0.99,2,1,17,6.0006
1,0.99,2,1,18,6.0247
1,0.99,2,1,19,6.3633
1,0.99,2,1,20,6.9039
1,0.99,3,10,0,0
1,0.99,3,10,1,1
1,0.99,3,10,2,2
1,0.99,3,10,3,3
1,0.99,3,10,4,4
1,0.99,3,10,5,5
1,0.99,3,10,6,6
1,0.99,3,10,7,7
1,0.99,3,10,8,8
1,0.99,3,10,9,9
1,0.99,3,10,10,9
1,0.99,3,10,11,9
1,0.99,3,10,12,9.0001
1,0.99,3,10,13,9.006
1,0.99,3,10,14,9.0588
1,0.99,3,10,15,9.9026
1,0.99,3,10,16,9.9884
1,0.99,3,10,17,9.9982
1,0.99,3,10,18,10
1,0.99,3,10,19,10.002
1,0.99,3,10,20,10.011
