mu,alpha,i-u,u,k,k2,P(k),norm-P(k)
1,0.95,1,1,0,-0.5,0.018303,0.021193
1,0.95,1,1,1,0.5,0.026928,0.03118
1,0.95,1,1,2,1.5,0.022526,0.026082
1,0.95,1,1,3,2.5,0.063639,0.073688
1,0.95,1,1,4,3.5,0.033972,0.039336
1,0.95,1,1,5,4.5,0.066773,0.077316
1,0.95,1,1,6,5.5,0.061975,0.071761
1,0.95,1,1,7,6.5,0.0017116,0.037656
1,0.95,1,1,8,7.5,0.059251,0.068606
1,0.95,1,1,9,8.5,0.042882,0.049653
1,0.95,1,1,10,9.5,0.06575,0.076131
1,0.95,1,1,11,10.5,0.059926,0.069388
1,0.95,1,1,12,11.5,0.048091,0.055685
1,0.95,1,1,13,12.5,0.029906,0.034628
1,0.95,1,1,14,13.5,0.024336,0.028178
1,0.95,1,1,15,14.5,0.036926,0.042757
1,0.95,1,1,16,15.5,0.029367,0.034004
1,0.95,1,1,17,16.5,0.022773,0.026369
1,0.95,1,1,18,17.5,0.016851,0.019512
1,0.95,1,1,19,18.5,0.014353,0.016619
1,0.95,1,1,20,19.5,0.059832,0.06928
1,0.95,1,1,21,20.5,0.01128,0.013061
1,0.95,2,1,0,-0.5,0.00098079,0.010789
1,0.95,2,1,1,0.5,0.0014885,0.016374
1,0.95,2,1,2,1.5,0.0012278,0.013506
1,0.95,2,1,3,2.5,0.0034967,0.038464
1,0.95,2,1,4,3.5,0.0020838,0.022922
1,0.95,2,1,5,4.5,0.0041384,0.045523
1,0.95,2,1,6,5.5,0.0049735,0.054709
1,0.95,2,1,7,6.5,0.0056919,0.062611
1,0.95,2,1,8,7.5,0.005656,0.062216
1,0.95,2,1,9,8.5,0.0057692,0.063461
1,0.95,2,1,10,9.5,0.0070791,0.07787
1,0.95,2,1,11,10.5,0.0068858,0.075744
1,0.95,2,1,12,11.5,0.0060907,0.066997
1,0.95,2,1,13,12.5,0.004859,0.053449
1,0.95,2,1,14,13.5,0.0042798,0.047078
1,0.95,2,1,15,14.5,0.0049161,0.054077
1,0.95,2,1,16,15.5,0.0044004,0.048405
1,0.95,2,1,17,16.5,0.0036542,0.040196
1,0.95,2,1,18,17.5,0.0026434,0.029078
1,0.95,2,1,19,18.5,0.0017916,0.019707
1,0.95,2,1,20,19.5,0.0088023,0.096826
1,0.95,2,1,21,20.5,0.0016318,0.017949
1,0.95,3,10,0,-0.5,1.747e-05,0.00038433
1,0.95,3,10,1,0.5,7.1251e-05,0.0015675
1,0.95,3,10,2,1.5,4.2217e-05,0.00092878
1,0.95,3,10,3,2.5,0.00014725,0.0032396
1,0.95,3,10,4,3.5,0.00029579,0.0065073
1,0.95,3,10,5,4.5,0.00062406,0.013729
1,0.95,3,10,6,5.5,0.0017116,0.037656
1,0.95,3,10,7,6.5,0.0025722,0.056588
1,0.95,3,10,8,7.5,0.0025376,0.055826
1,0.95,3,10,9,8.5,0.0035123,0.07727
1,0.95,3,10,10,9.5,0.0036186,0.079609
1,0.95,3,10,11,10.5,0.0037318,0.0821
1,0.95,3,10,12,11.5,0.0035595,0.07831
1,0.95,3,10,13,12.5,0.003285,0.072269
1,0.95,3,10,14,13.5,0.002999,0.065977
1,0.95,3,10,15,14.5,0.0029726,0.065397
1,0.95,3,10,16,15.5,0.0028548,0.062806
1,0.95,3,10,17,16.5,0.0024556,0.054023
1,0.95,3,10,18,17.5,0.0017565,0.038644
1,0.95,3,10,19,18.5,0.0010362,0.022796
1,0.95,3,10,20,19.5,0.0056533,0.12437
1,0.95,3,10,21,20.5,0.0010381,0.022838
