alpha,e,cost-f,access-f,e-rand,cost-f-rand,access-f-rand,e-u,cost-f-u,access-f-u,e-cf,cost-f-cf,access-f-cf,e-af,cost-f-af,access-f-af
1,-0.51089,-0.017807,-0.015873,-0.70543,-0.045347,-0.015308,-0.50963,-0.019355,-0.017942,-0.50995,-0.00057762,-0.0088919,-0.50995,-0.00057762,-0.0088919
0.99,-0.51193,-0.010201,-0.0035088,-0.70543,-0.045347,-0.015308,-0.50963,-0.019355,-0.017942,-0.50995,-0.00057762,-0.0088919,-0.50995,-0.00057762,-0.0088919
0.98,-0.51265,-0.010541,-0.0036643,-0.70543,-0.045347,-0.015308,-0.50963,-0.019355,-0.017942,-0.50995,-0.00057762,-0.0088919,-0.50995,-0.00057762,-0.0088919
0.97,-0.51269,-0.010516,-0.0033878,-0.70543,-0.045347,-0.015308,-0.50963,-0.019355,-0.017942,-0.50995,-0.00057762,-0.0088919,-0.50995,-0.00057762,-0.0088919
0.96,-0.514,-0.011353,-0.0033189,-0.70543,-0.045347,-0.015308,-0.50963,-0.019355,-0.017942,-0.50995,-0.00057762,-0.0088919,-0.50995,-0.00057762,-0.0088919
0.95,-0.51305,-0.011638,-0.0033565,-0.70543,-0.045347,-0.015308,-0.50963,-0.019355,-0.017942,-0.50995,-0.00057762,-0.0088919,-0.50995,-0.00057762,-0.0088919
0.9,-0.51841,-0.013816,-0.0035416,-0.70543,-0.045347,-0.015308,-0.50963,-0.019355,-0.017942,-0.50995,-0.00057762,-0.0088919,-0.50995,-0.00057762,-0.0088919
0.85,-0.51899,-0.013057,-0.0038956,-0.70543,-0.045347,-0.015308,-0.50963,-0.019355,-0.017942,-0.50995,-0.00057762,-0.0088919,-0.50995,-0.00057762,-0.0088919
0.8,-0.51993,-0.014195,-0.0043038,-0.70543,-0.045347,-0.015308,-0.50963,-0.019355,-0.017942,-0.50995,-0.00057762,-0.0088919,-0.50995,-0.00057762,-0.0088919
0.75,-0.52192,-0.014678,-0.004499,-0.70543,-0.045347,-0.015308,-0.50963,-0.019355,-0.017942,-0.50995,-0.00057762,-0.0088919,-0.50995,-0.00057762,-0.0088919
0.7,-0.52201,-0.015193,-0.0049205,-0.70543,-0.045347,-0.015308,-0.50963,-0.019355,-0.017942,-0.50995,-0.00057762,-0.0088919,-0.50995,-0.00057762,-0.0088919
0.65,-0.52435,-0.016344,-0.004812,-0.70543,-0.045347,-0.015308,-0.50963,-0.019355,-0.017942,-0.50995,-0.00057762,-0.0088919,-0.50995,-0.00057762,-0.0088919
0.6,-0.52948,-0.017029,-0.005215,-0.70543,-0.045347,-0.015308,-0.50963,-0.019355,-0.017942,-0.50995,-0.00057762,-0.0088919,-0.50995,-0.00057762,-0.0088919
0.55,-0.53092,-0.016699,-0.0055745,-0.70543,-0.045347,-0.015308,-0.50963,-0.019355,-0.017942,-0.50995,-0.00057762,-0.0088919,-0.50995,-0.00057762,-0.0088919
0.5,-0.53443,-0.019991,-0.0055492,-0.70543,-0.045347,-0.015308,-0.50963,-0.019355,-0.017942,-0.50995,-0.00057762,-0.0088919,-0.50995,-0.00057762,-0.0088919
0.45,-0.53974,-0.019294,-0.0057143,-0.70543,-0.045347,-0.015308,-0.50963,-0.019355,-0.017942,-0.50995,-0.00057762,-0.0088919,-0.50995,-0.00057762,-0.0088919
0.4,-0.54212,-0.020006,-0.0062655,-0.70543,-0.045347,-0.015308,-0.50963,-0.019355,-0.017942,-0.50995,-0.00057762,-0.0088919,-0.50995,-0.00057762,-0.0088919
0.35,-0.54986,-0.022215,-0.0059216,-0.70543,-0.045347,-0.015308,-0.50963,-0.019355,-0.017942,-0.50995,-0.00057762,-0.0088919,-0.50995,-0.00057762,-0.0088919
0.3,-0.55805,-0.022533,-0.0061293,-0.70543,-0.045347,-0.015308,-0.50963,-0.019355,-0.017942,-0.50995,-0.00057762,-0.0088919,-0.50995,-0.00057762,-0.0088919
0.25,-0.56206,-0.025192,-0.0062333,-0.70543,-0.045347,-0.015308,-0.50963,-0.019355,-0.017942,-0.50995,-0.00057762,-0.0088919,-0.50995,-0.00057762,-0.0088919
0.2,-0.57385,-0.027732,-0.006856,-0.70543,-0.045347,-0.015308,-0.50963,-0.019355,-0.017942,-0.50995,-0.00057762,-0.0088919,-0.50995,-0.00057762,-0.0088919
0.15,-0.6336,-0.035907,-0.0069144,-0.70543,-0.045347,-0.015308,-0.50963,-0.019355,-0.017942,-0.50995,-0.00057762,-0.0088919,-0.50995,-0.00057762,-0.0088919
0.1,-0.64864,-0.038371,-0.007076,-0.70543,-0.045347,-0.015308,-0.50963,-0.019355,-0.017942,-0.50995,-0.00057762,-0.0088919,-0.50995,-0.00057762,-0.0088919
0.05,-0.67721,-0.04079,-0.0076059,-0.70543,-0.045347,-0.015308,-0.50963,-0.019355,-0.017942,-0.50995,-0.00057762,-0.0088919,-0.50995,-0.00057762,-0.0088919
0,-0.70124,-0.04352,-0.0076191,-0.70543,-0.045347,-0.015308,-0.50963,-0.019355,-0.017942,-0.50995,-0.00057762,-0.0088919,-0.50995,-0.00057762,-0.0088919
