mu,alpha,k,k2,P(k)
1,0.7,0,-0.5,1.1604e-27
1,0.7,1,0.5,1.9553e-24
1,0.7,2,1.5,1.9082e-22
1,0.7,3,2.5,2.2885e-20
1,0.7,4,3.5,0.20887
1,0.7,5,4.5,0.093235
1,0.7,6,5.5,0.038499
1,0.7,7,6.5,0.052607
1,0.7,8,7.5,0.18826
1,0.7,9,8.5,0.11937
1,0.7,10,9.5,0.059909
1,0.7,11,10.5,0.045052
1,0.7,12,11.5,0.08407
1,0.7,13,12.5,0.041011
1,0.7,14,13.5,0.019035
1,0.7,15,14.5,0.012457
1,0.7,16,15.5,0.017562
1,0.7,17,16.5,0.011206
1,0.7,18,17.5,0.004889
1,0.7,19,18.5,0.0014334
1,0.7,20,19.5,0.0025327
1,0.7,21,20.5,0.00082829
1,0.95,0,-0.5,-7.6678e-28
1,0.95,1,0.5,6.1197e-26
1,0.95,2,1.5,7.8075e-24
1,0.95,3,2.5,1.8165e-21
1,0.95,4,3.5,0.027393
1,0.95,5,4.5,0.041527
1,0.95,6,5.5,0.084606
1,0.95,7,6.5,0.06517
1,0.95,8,7.5,0.062281
1,0.95,9,8.5,0.075987
1,0.95,10,9.5,0.12318
1,0.95,11,10.5,0.092972
1,0.95,12,11.5,0.074265
1,0.95,13,12.5,0.071465
1,0.95,14,13.5,0.070014
1,0.95,15,14.5,0.053519
1,0.95,16,15.5,0.040687
1,0.95,17,16.5,0.036468
1,0.95,18,17.5,0.030909
1,0.95,19,18.5,0.01582
1,0.95,20,19.5,0.033734
1,0.95,21,20.5,0.007941
