alpha,e,cost-f,access-f,e-rand,cost-f-rand,access-f-rand,e-u,cost-f-u,access-f-u
1,-0.51337,-0.019796,-0.01395,-0.69732,-0.042957,-0.014765,-0.5081,-0.019355,-0.016574
0.99,-0.50887,-0.0095369,-0.0030981,-0.69732,-0.042957,-0.014765,-0.5081,-0.019355,-0.016574
0.98,-0.5099,-0.0095961,-0.0028567,-0.69732,-0.042957,-0.014765,-0.5081,-0.019355,-0.016574
0.97,-0.51148,-0.00989,-0.0033037,-0.69732,-0.042957,-0.014765,-0.5081,-0.019355,-0.016574
0.96,-0.51206,-0.010089,-0.0030109,-0.69732,-0.042957,-0.014765,-0.5081,-0.019355,-0.016574
0.95,-0.51395,-0.011059,-0.0030572,-0.69732,-0.042957,-0.014765,-0.5081,-0.019355,-0.016574
0.9,-0.51998,-0.012695,-0.0034452,-0.69732,-0.042957,-0.014765,-0.5081,-0.019355,-0.016574
0.85,-0.52624,-0.015029,-0.0038003,-0.69732,-0.042957,-0.014765,-0.5081,-0.019355,-0.016574
0.8,-0.53573,-0.01756,-0.0041866,-0.69732,-0.042957,-0.014765,-0.5081,-0.019355,-0.016574
0.75,-0.5405,-0.018042,-0.0044643,-0.69732,-0.042957,-0.014765,-0.5081,-0.019355,-0.016574
0.7,-0.54815,-0.01842,-0.0048026,-0.69732,-0.042957,-0.014765,-0.5081,-0.019355,-0.016574
0.65,-0.55405,-0.020319,-0.0048753,-0.69732,-0.042957,-0.014765,-0.5081,-0.019355,-0.016574
0.6,-0.56183,-0.023133,-0.0053454,-0.69732,-0.042957,-0.014765,-0.5081,-0.019355,-0.016574
0.55,-0.56759,-0.024149,-0.0056221,-0.69732,-0.042957,-0.014765,-0.5081,-0.019355,-0.016574
0.5,-0.57574,-0.025234,-0.0056051,-0.69732,-0.042957,-0.014765,-0.5081,-0.019355,-0.016574
0.45,-0.58428,-0.024712,-0.0058833,-0.69732,-0.042957,-0.014765,-0.5081,-0.019355,-0.016574
0.4,-0.59283,-0.026865,-0.0059029,-0.69732,-0.042957,-0.014765,-0.5081,-0.019355,-0.016574
0.35,-0.60102,-0.028239,-0.006153,-0.69732,-0.042957,-0.014765,-0.5081,-0.019355,-0.016574
0.3,-0.61065,-0.027551,-0.0060766,-0.69732,-0.042957,-0.014765,-0.5081,-0.019355,-0.016574
0.25,-0.62019,-0.029834,-0.0063728,-0.69732,-0.042957,-0.014765,-0.5081,-0.019355,-0.016574
0.2,-0.63338,-0.032139,-0.0067086,-0.69732,-0.042957,-0.014765,-0.5081,-0.019355,-0.016574
0.15,-0.64413,-0.033419,-0.0065785,-0.69732,-0.042957,-0.014765,-0.5081,-0.019355,-0.016574
0,-0.69737,-0.042545,-0.014777,-0.69732,-0.042957,-0.014765,-0.5081,-0.019355,-0.016574
