mu,alpha,i-u,u,k,b
1,0.7,1,1,0,0
1,0.7,1,1,1,0.95215
1,0.7,1,1,2,2
1,0.7,1,1,3,3
1,0.7,1,1,4,4
1,0.7,1,1,5,5
1,0.7,1,1,6,5
1,0.7,1,1,7,5
1,0.7,1,1,8,5
1,0.7,1,1,9,5
1,0.7,1,1,10,5
1,0.7,1,1,11,5
1,0.7,1,1,12,5
1,0.7,1,1,13,5
1,0.7,1,1,14,5
1,0.7,1,1,15,5
1,0.7,1,1,16,5
1,0.7,1,1,17,5.0824
1,0.7,1,1,18,5.7346
1,0.7,1,1,19,5.9823
1,0.7,1,1,20,6
1,0.7,1,1,21,6.0002
1,0.7,1,1,22,6.0007
1,0.7,1,1,23,6.0018
1,0.7,1,1,24,6.0206
1,0.7,1,1,25,6.5925
1,0.7,1,1,26,6.7753
1,0.7,1,1,27,6.8958
1,0.7,1,1,28,6.9836
1,0.7,1,1,29,6.9983
1,0.7,1,1,30,6.9998
1,0.7,2,1,0,0
1,0.7,2,1,1,0.27543
1,0.7,2,1,2,0.0061896
1,0.7,2,1,3,0.029214
1,0.7,2,1,4,0.94178
1,0.7,2,1,5,2
1,0.7,2,1,6,3
1,0.7,2,1,7,4
1,0.7,2,1,8,5
1,0.7,2,1,9,5
1,0.7,2,1,10,5
1,0.7,2,1,11,5
1,0.7,2,1,12,5
1,0.7,2,1,13,5
1,0.7,2,1,14,5
1,0.7,2,1,15,5
1,0.7,2,1,16,5
1,0.7,2,1,17,5
1,0.7,2,1,18,5
1,0.7,2,1,19,5.0005
1,0.7,2,1,20,5.3166
1,0.7,2,1,21,5.8572
1,0.7,2,1,22,5.9978
1,0.7,2,1,23,6
1,0.7,2,1,24,6.0004
1,0.7,2,1,25,6.0015
1,0.7,2,1,26,6.0087
1,0.7,2,1,27,6.2853
1,0.7,2,1,28,6.7918
1,0.7,2,1,29,6.9013
1,0.7,2,1,30,6.9798
1,0.7,3,10,0,0
1,0.7,3,10,1,1
1,0.7,3,10,2,2
1,0.7,3,10,3,3
1,0.7,3,10,4,4
1,0.7,3,10,5,5
1,0.7,3,10,6,6
1,0.7,3,10,7,7
1,0.7,3,10,8,7
1,0.7,3,10,9,7
1,0.7,3,10,10,7
1,0.7,3,10,11,7
1,0.7,3,10,12,7
1,0.7,3,10,13,7
1,0.7,3,10,14,7.0049
1,0.7,3,10,15,7.0003
1,0.7,3,10,16,8
1,0.7,3,10,17,8
1,0.7,3,10,18,8
1,0.7,3,10,19,8
1,0.7,3,10,20,8
1,0.7,3,10,21,8
1,0.7,3,10,22,8
1,0.7,3,10,23,8
1,0.7,3,10,24,8
1,0.7,3,10,25,8
1,0.7,3,10,26,8
1,0.7,3,10,27,8
1,0.7,3,10,28,8
1,0.7,3,10,29,8
1,0.7,3,10,30,8
1,0.99,1,1,0,0
1,0.99,1,1,1,0.89032
1,0.99,1,1,2,1.9992
1,0.99,1,1,3,2.9996
1,0.99,1,1,4,3
1,0.99,1,1,5,4
1,0.99,1,1,6,4
1,0.99,1,1,7,4
1,0.99,1,1,8,4
1,0.99,1,1,9,4
1,0.99,1,1,10,4
1,0.99,1,1,11,4
1,0.99,1,1,12,4
1,0.99,1,1,13,4
1,0.99,1,1,14,4
1,0.99,1,1,15,4
1,0.99,1,1,16,4
1,0.99,1,1,17,4
1,0.99,1,1,18,4.0012
1,0.99,1,1,19,4.0479
1,0.99,1,1,20,4.5656
1,0.99,1,1,21,4.9233
1,0.99,1,1,22,4.9828
1,0.99,1,1,23,4.9923
1,0.99,1,1,24,4.9989
1,0.99,1,1,25,4.9998
1,0.99,1,1,26,4.9999
1,0.99,1,1,27,5
1,0.99,1,1,28,5
1,0.99,1,1,29,5
1,0.99,1,1,30,5
1,0.99,2,1,0,0
1,0.99,2,1,1,0.01124
1,0.99,2,1,2,0.00014288
1,0.99,2,1,3,0.0016018
1,0.99,2,1,4,0.89339
1,0.99,2,1,5,1.9986
1,0.99,2,1,6,2.9991
1,0.99,2,1,7,3
1,0.99,2,1,8,3.9999
1,0.99,2,1,9,4
1,0.99,2,1,10,4
1,0.99,2,1,11,4
1,0.99,2,1,12,4
1,0.99,2,1,13,4
1,0.99,2,1,14,4
1,0.99,2,1,15,4
1,0.99,2,1,16,4
1,0.99,2,1,17,4
1,0.99,2,1,18,4
1,0.99,2,1,19,4
1,0.99,2,1,20,4
1,0.99,2,1,21,4
1,0.99,2,1,22,4.0015
1,0.99,2,1,23,4.1556
1,0.99,2,1,24,4.8303
1,0.99,2,1,25,4.9872
1,0.99,2,1,26,4.9971
1,0.99,2,1,27,4.9994
1,0.99,2,1,28,4.9999
1,0.99,2,1,29,5
1,0.99,2,1,30,5
1,0.99,3,10,0,0
1,0.99,3,10,1,1
1,0.99,3,10,2,2
1,0.99,3,10,3,3
1,0.99,3,10,4,4
1,0.99,3,10,5,5
1,0.99,3,10,6,6
1,0.99,3,10,7,6
1,0.99,3,10,8,6
1,0.99,3,10,9,6
1,0.99,3,10,10,6
1,0.99,3,10,11,6
1,0.99,3,10,12,6.0001
1,0.99,3,10,13,6.0006
1,0.99,3,10,14,6.9591
1,0.99,3,10,15,6.9985
1,0.99,3,10,16,7
1,0.99,3,10,17,7
1,0.99,3,10,18,7
1,0.99,3,10,19,7
1,0.99,3,10,20,7
1,0.99,3,10,21,7
1,0.99,3,10,22,7
1,0.99,3,10,23,7
1,0.99,3,10,24,7
1,0.99,3,10,25,7
1,0.99,3,10,26,7
1,0.99,3,10,27,7
1,0.99,3,10,28,7
1,0.99,3,10,29,7
1,0.99,3,10,30,7
