alpha,e,cost-f,access-f,e-rand,cost-f-rand,access-f-rand,e-u,cost-f-u,access-f-u,e-cf,cost-f-cf,access-f-cf,e-af,cost-f-af,access-f-af
1,-0.51049,-0.019495,-0.014591,-0.69876,-0.048577,-0.015075,-0.50923,-0.019814,-0.01677,-0.50981,-0.00091547,-0.009326,-0.50981,-0.00091547,-0.009326
0.99,-0.51049,-0.010409,-0.0037417,-0.69876,-0.048577,-0.015075,-0.50923,-0.019814,-0.01677,-0.50981,-0.00091547,-0.009326,-0.50981,-0.00091547,-0.009326
0.98,-0.51179,-0.010954,-0.004025,-0.69876,-0.048577,-0.015075,-0.50923,-0.019814,-0.01677,-0.50981,-0.00091547,-0.009326,-0.50981,-0.00091547,-0.009326
0.97,-0.51314,-0.011542,-0.0039697,-0.69876,-0.048577,-0.015075,-0.50923,-0.019814,-0.01677,-0.50981,-0.00091547,-0.009326,-0.50981,-0.00091547,-0.009326
0.96,-0.51431,-0.012159,-0.0037884,-0.69876,-0.048577,-0.015075,-0.50923,-0.019814,-0.01677,-0.50981,-0.00091547,-0.009326,-0.50981,-0.00091547,-0.009326
0.95,-0.51219,-0.011001,-0.0032252,-0.69876,-0.048577,-0.015075,-0.50923,-0.019814,-0.01677,-0.50981,-0.00091547,-0.009326,-0.50981,-0.00091547,-0.009326
0.9,-0.51764,-0.011826,-0.003667,-0.69876,-0.048577,-0.015075,-0.50923,-0.019814,-0.01677,-0.50981,-0.00091547,-0.009326,-0.50981,-0.00091547,-0.009326
0.85,-0.51872,-0.013719,-0.00403,-0.69876,-0.048577,-0.015075,-0.50923,-0.019814,-0.01677,-0.50981,-0.00091547,-0.009326,-0.50981,-0.00091547,-0.009326
0.8,-0.51877,-0.01396,-0.0043131,-0.69876,-0.048577,-0.015075,-0.50923,-0.019814,-0.01677,-0.50981,-0.00091547,-0.009326,-0.50981,-0.00091547,-0.009326
0.75,-0.52115,-0.015454,-0.0043422,-0.69876,-0.048577,-0.015075,-0.50923,-0.019814,-0.01677,-0.50981,-0.00091547,-0.009326,-0.50981,-0.00091547,-0.009326
0.7,-0.5212,-0.014983,-0.005318,-0.69876,-0.048577,-0.015075,-0.50923,-0.019814,-0.01677,-0.50981,-0.00091547,-0.009326,-0.50981,-0.00091547,-0.009326
0.65,-0.52561,-0.016489,-0.0049041,-0.69876,-0.048577,-0.015075,-0.50923,-0.019814,-0.01677,-0.50981,-0.00091547,-0.009326,-0.50981,-0.00091547,-0.009326
0.6,-0.5275,-0.015625,-0.0052639,-0.69876,-0.048577,-0.015075,-0.50923,-0.019814,-0.01677,-0.50981,-0.00091547,-0.009326,-0.50981,-0.00091547,-0.009326
0.55,-0.53042,-0.018202,-0.0058007,-0.69876,-0.048577,-0.015075,-0.50923,-0.019814,-0.01677,-0.50981,-0.00091547,-0.009326,-0.50981,-0.00091547,-0.009326
0.5,-0.53227,-0.018442,-0.0055844,-0.69876,-0.048577,-0.015075,-0.50923,-0.019814,-0.01677,-0.50981,-0.00091547,-0.009326,-0.50981,-0.00091547,-0.009326
0.45,-0.53695,-0.019641,-0.0058499,-0.69876,-0.048577,-0.015075,-0.50923,-0.019814,-0.01677,-0.50981,-0.00091547,-0.009326,-0.50981,-0.00091547,-0.009326
0.4,-0.54257,-0.020171,-0.0051976,-0.69876,-0.048577,-0.015075,-0.50923,-0.019814,-0.01677,-0.50981,-0.00091547,-0.009326,-0.50981,-0.00091547,-0.009326
0.35,-0.54923,-0.021459,-0.0061013,-0.69876,-0.048577,-0.015075,-0.50923,-0.019814,-0.01677,-0.50981,-0.00091547,-0.009326,-0.50981,-0.00091547,-0.009326
0.3,-0.5558,-0.021584,-0.0055907,-0.69876,-0.048577,-0.015075,-0.50923,-0.019814,-0.01677,-0.50981,-0.00091547,-0.009326,-0.50981,-0.00091547,-0.009326
0.25,-0.56552,-0.024725,-0.0064426,-0.69876,-0.048577,-0.015075,-0.50923,-0.019814,-0.01677,-0.50981,-0.00091547,-0.009326,-0.50981,-0.00091547,-0.009326
0.2,-0.57034,-0.026354,-0.0069151,-0.69876,-0.048577,-0.015075,-0.50923,-0.019814,-0.01677,-0.50981,-0.00091547,-0.009326,-0.50981,-0.00091547,-0.009326
0.15,-0.631,-0.034111,-0.0061685,-0.69876,-0.048577,-0.015075,-0.50923,-0.019814,-0.01677,-0.50981,-0.00091547,-0.009326,-0.50981,-0.00091547,-0.009326
0.1,-0.64297,-0.036194,-0.0065632,-0.69876,-0.048577,-0.015075,-0.50923,-0.019814,-0.01677,-0.50981,-0.00091547,-0.009326,-0.50981,-0.00091547,-0.009326
0.05,-0.67289,-0.041381,-0.0074057,-0.69876,-0.048577,-0.015075,-0.50923,-0.019814,-0.01677,-0.50981,-0.00091547,-0.009326,-0.50981,-0.00091547,-0.009326
0,-0.69494,-0.044348,-0.0082675,-0.69876,-0.048577,-0.015075,-0.50923,-0.019814,-0.01677,-0.50981,-0.00091547,-0.009326,-0.50981,-0.00091547,-0.009326
