mu,alpha,i-u,u,k,b
1,0.7,1,1,0,0
1,0.7,1,1,1,0.99533
1,0.7,1,1,2,1.9706
1,0.7,1,1,3,2.9683
1,0.7,1,1,4,4
1,0.7,1,1,5,5
1,0.7,1,1,6,6
1,0.7,1,1,7,7
1,0.7,1,1,8,8
1,0.7,1,1,9,8.694
1,0.7,1,1,10,9
1,0.7,1,1,11,9
1,0.7,1,1,12,9
1,0.7,1,1,13,9
1,0.7,1,1,14,9
1,0.7,1,1,15,9
1,0.7,1,1,16,9
1,0.7,1,1,17,9
1,0.7,1,1,18,9
1,0.7,1,1,19,9
1,0.7,1,1,20,9
1,0.7,2,1,0,0
1,0.7,2,1,1,0.77005
1,0.7,2,1,2,0.89908
1,0.7,2,1,3,0.65651
1,0.7,2,1,4,0.032231
1,0.7,2,1,5,0.23512
1,0.7,2,1,6,0.99354
1,0.7,2,1,7,1.9427
1,0.7,2,1,8,2.9182
1,0.7,2,1,9,4
1,0.7,2,1,10,5
1,0.7,2,1,11,6
1,0.7,2,1,12,7
1,0.7,2,1,13,8
1,0.7,2,1,14,8
1,0.7,2,1,15,9
1,0.7,2,1,16,9
1,0.7,2,1,17,9
1,0.7,2,1,18,9
1,0.7,2,1,19,9
1,0.7,2,1,20,9
1,0.7,3,10,0,0
1,0.7,3,10,1,1
1,0.7,3,10,2,2
1,0.7,3,10,3,3
1,0.7,3,10,4,4
1,0.7,3,10,5,5
1,0.7,3,10,6,6
1,0.7,3,10,7,7
1,0.7,3,10,8,8
1,0.7,3,10,9,9
1,0.7,3,10,10,10
1,0.7,3,10,11,11
1,0.7,3,10,12,12
1,0.7,3,10,13,12
1,0.7,3,10,14,12
1,0.7,3,10,15,12
1,0.7,3,10,16,12
1,0.7,3,10,17,12.997
1,0.7,3,10,18,12.997
1,0.7,3,10,19,13
1,0.7,3,10,20,13
1,0.95,1,1,0,0
1,0.95,1,1,1,0.99142
1,0.95,1,1,2,1.91
1,0.95,1,1,3,2.8179
1,0.95,1,1,4,4
1,0.95,1,1,5,5
1,0.95,1,1,6,5.9999
1,0.95,1,1,7,6.0003
1,0.95,1,1,8,7
1,0.95,1,1,9,7.0053
1,0.95,1,1,10,7.9988
1,0.95,1,1,11,8
1,0.95,1,1,12,8
1,0.95,1,1,13,8
1,0.95,1,1,14,8
1,0.95,1,1,15,8
1,0.95,1,1,16,8
1,0.95,1,1,17,8
1,0.95,1,1,18,8
1,0.95,1,1,19,8
1,0.95,1,1,20,8
1,0.95,2,1,0,0
1,0.95,2,1,1,0.13306
1,0.95,2,1,2,0.57058
1,0.95,2,1,3,0.16599
1,0.95,2,1,4,0.0011871
1,0.95,2,1,5,0.026068
1,0.95,2,1,6,0.98771
1,0.95,2,1,7,1.8428
1,0.95,2,1,8,2.6253
1,0.95,2,1,9,4
1,0.95,2,1,10,5
1,0.95,2,1,11,5.1225
1,0.95,2,1,12,6
1,0.95,2,1,13,6.9982
1,0.95,2,1,14,7
1,0.95,2,1,15,7.7792
1,0.95,2,1,16,8
1,0.95,2,1,17,8
1,0.95,2,1,18,8
1,0.95,2,1,19,8
1,0.95,2,1,20,8
1,0.95,3,10,0,0
1,0.95,3,10,1,1
1,0.95,3,10,2,2
1,0.95,3,10,3,3
1,0.95,3,10,4,4
1,0.95,3,10,5,5
1,0.95,3,10,6,6
1,0.95,3,10,7,7
1,0.95,3,10,8,8
1,0.95,3,10,9,9
1,0.95,3,10,10,10
1,0.95,3,10,11,10
1,0.95,3,10,12,10.001
1,0.95,3,10,13,10.904
1,0.95,3,10,14,11.082
1,0.95,3,10,15,11.13
1,0.95,3,10,16,12
1,0.95,3,10,17,12
1,0.95,3,10,18,12
1,0.95,3,10,19,12
1,0.95,3,10,20,12
