mu,alpha,i-u,u,k,k2,P(k)
1,0.98,1,1,0,-0.5,0.0079767
1,0.98,1,1,1,0.5,0.020158
1,0.98,1,1,2,1.5,0.018357
1,0.98,1,1,3,2.5,0.019095
1,0.98,1,1,4,3.5,0.084238
1,0.98,1,1,5,4.5,0.073421
1,0.98,1,1,6,5.5,0.055483
1,0.98,1,1,7,6.5,0.0562
1,0.98,1,1,8,7.5,0.08729
1,0.98,1,1,9,8.5,0.0747
1,0.98,1,1,10,9.5,0.060503
1,0.98,1,1,11,10.5,0.05017
1,0.98,1,1,12,11.5,0.0401
1,0.98,1,1,13,12.5,0.034845
1,0.98,1,1,14,13.5,0.02918
1,0.98,1,1,15,14.5,0.025095
1,0.98,1,1,16,15.5,0.020448
1,0.98,1,1,17,16.5,0.017458
1,0.98,1,1,18,17.5,0.014553
1,0.98,1,1,19,18.5,0.012335
1,0.98,1,1,20,19.5,0.062031
1,0.98,1,1,21,20.5,0.0087278
1,0.98,2,1,0,-0.5,0.00042452
1,0.98,2,1,1,0.5,0.0010785
1,0.98,2,1,2,1.5,0.00099559
1,0.98,2,1,3,2.5,0.0011104
1,0.98,2,1,4,3.5,0.0048049
1,0.98,2,1,5,4.5,0.0057319
1,0.98,2,1,6,5.5,0.0045055
1,0.98,2,1,7,6.5,0.0049565
1,0.98,2,1,8,7.5,0.0089968
1,0.98,2,1,9,8.5,0.0085495
1,0.98,2,1,10,9.5,0.0069421
1,0.98,2,1,11,10.5,0.0062085
1,0.98,2,1,12,11.5,0.006426
1,0.98,2,1,13,12.5,0.0056866
1,0.98,2,1,14,13.5,0.0047795
1,0.98,2,1,15,14.5,0.0039789
1,0.98,2,1,16,15.5,0.0029143
1,0.98,2,1,17,16.5,0.0022139
1,0.98,2,1,18,17.5,0.0018617
1,0.98,2,1,19,18.5,0.0015753
1,0.98,2,1,20,19.5,0.0071684
1,0.98,2,1,21,20.5,0.0010241
1,0.98,3,10,0,-0.5,4.6946e-06
1,0.98,3,10,1,0.5,1.7515e-05
1,0.98,3,10,2,1.5,2.9454e-05
1,0.98,3,10,3,2.5,0.00010535
1,0.98,3,10,4,3.5,0.0003713
1,0.98,3,10,5,4.5,0.0018676
1,0.98,3,10,6,5.5,0.0015853
1,0.98,3,10,7,6.5,0.0019986
1,0.98,3,10,8,7.5,0.0044025
1,0.98,3,10,9,8.5,0.0046179
1,0.98,3,10,10,9.5,0.0037577
1,0.98,3,10,11,10.5,0.003568
1,0.98,3,10,12,11.5,0.0043155
1,0.98,3,10,13,12.5,0.0038527
1,0.98,3,10,14,13.5,0.0032438
1,0.98,3,10,15,14.5,0.0026581
1,0.98,3,10,16,15.5,0.0018381
1,0.98,3,10,17,16.5,0.0012951
1,0.98,3,10,18,17.5,0.0010958
1,0.98,3,10,19,18.5,0.00092608
1,0.98,3,10,20,19.5,0.0039036
1,0.98,3,10,21,20.5,0.00056477
