mu,alpha,i-u,u,k,b
1,0.7,1,1,0,0
1,0.7,1,1,1,0.99846
1,0.7,1,1,2,1.9995
1,0.7,1,1,3,2.9699
1,0.7,1,1,4,3.9999
1,0.7,1,1,5,5
1,0.7,1,1,6,6
1,0.7,1,1,7,7
1,0.7,1,1,8,8
1,0.7,1,1,9,9
1,0.7,1,1,10,10
1,0.7,1,1,11,10
1,0.7,1,1,12,10
1,0.7,1,1,13,10
1,0.7,1,1,14,10.004
1,0.7,1,1,15,10.289
1,0.7,1,1,16,11
1,0.7,1,1,17,11
1,0.7,1,1,18,11
1,0.7,1,1,19,11
1,0.7,1,1,20,11
1,0.7,1,1,21,11
1,0.7,1,1,22,11
1,0.7,1,1,23,11
1,0.7,1,1,24,11
1,0.7,1,1,25,11
1,0.7,1,1,26,11
1,0.7,1,1,27,11
1,0.7,1,1,28,11
1,0.7,1,1,29,11
1,0.7,1,1,30,11
1,0.7,2,1,0,0
1,0.7,2,1,1,0.95897
1,0.7,2,1,2,0.9881
1,0.7,2,1,3,0.95985
1,0.7,2,1,4,0.89518
1,0.7,2,1,5,0.85178
1,0.7,2,1,6,0.96228
1,0.7,2,1,7,1.3888
1,0.7,2,1,8,1.9981
1,0.7,2,1,9,2.7119
1,0.7,2,1,10,3.9941
1,0.7,2,1,11,5
1,0.7,2,1,12,6
1,0.7,2,1,13,7
1,0.7,2,1,14,7.6814
1,0.7,2,1,15,8.0586
1,0.7,2,1,16,9
1,0.7,2,1,17,10
1,0.7,2,1,18,10
1,0.7,2,1,19,10.458
1,0.7,2,1,20,10.974
1,0.7,2,1,21,10.998
1,0.7,2,1,22,11
1,0.7,2,1,23,11
1,0.7,2,1,24,11
1,0.7,2,1,25,11
1,0.7,2,1,26,11
1,0.7,2,1,27,11
1,0.7,2,1,28,11
1,0.7,2,1,29,11
1,0.7,2,1,30,11
1,0.7,3,10,0,0
1,0.7,3,10,1,1
1,0.7,3,10,2,2
1,0.7,3,10,3,3
1,0.7,3,10,4,4
1,0.7,3,10,5,5
1,0.7,3,10,6,6
1,0.7,3,10,7,7
1,0.7,3,10,8,8
1,0.7,3,10,9,9
1,0.7,3,10,10,10
1,0.7,3,10,11,11
1,0.7,3,10,12,12
1,0.7,3,10,13,13
1,0.7,3,10,14,13.997
1,0.7,3,10,15,14
1,0.7,3,10,16,14
1,0.7,3,10,17,14
1,0.7,3,10,18,14
1,0.7,3,10,19,14
1,0.7,3,10,20,14
1,0.7,3,10,21,14.089
1,0.7,3,10,22,14.419
1,0.7,3,10,23,14.784
1,0.7,3,10,24,14.955
1,0.7,3,10,25,14.989
1,0.7,3,10,26,14.992
1,0.7,3,10,27,14.999
1,0.7,3,10,28,15
1,0.7,3,10,29,15
1,0.7,3,10,30,15
1,0.99,1,1,0,0
1,0.99,1,1,1,0.99764
1,0.99,1,1,2,1.9983
1,0.99,1,1,3,2.8703
1,0.99,1,1,4,3.997
1,0.99,1,1,5,5
1,0.99,1,1,6,6
1,0.99,1,1,7,7
1,0.99,1,1,8,7.5421
1,0.99,1,1,9,8
1,0.99,1,1,10,8.5468
1,0.99,1,1,11,9
1,0.99,1,1,12,9.0011
1,0.99,1,1,13,9.3192
1,0.99,1,1,14,9.9787
1,0.99,1,1,15,9.9999
1,0.99,1,1,16,10
1,0.99,1,1,17,10
1,0.99,1,1,18,10
1,0.99,1,1,19,10
1,0.99,1,1,20,10
1,0.99,1,1,21,10
1,0.99,1,1,22,10
1,0.99,1,1,23,10
1,0.99,1,1,24,10.041
1,0.99,1,1,25,10.482
1,0.99,1,1,26,10.831
1,0.99,1,1,27,10.976
1,0.99,1,1,28,10.998
1,0.99,1,1,29,11
1,0.99,1,1,30,11
1,0.99,2,1,0,0
1,0.99,2,1,1,0.67512
1,0.99,2,1,2,0.70687
1,0.99,2,1,3,0.68606
1,0.99,2,1,4,0.4922
1,0.99,2,1,5,0.38956
1,0.99,2,1,6,0.83042
1,0.99,2,1,7,1.0032
1,0.99,2,1,8,1.9808
1,0.99,2,1,9,2.193
1,0.99,2,1,10,3.5694
1,0.99,2,1,11,4.9999
1,0.99,2,1,12,5.9347
1,0.99,2,1,13,6
1,0.99,2,1,14,7
1,0.99,2,1,15,8
1,0.99,2,1,16,8.9917
1,0.99,2,1,17,9
1,0.99,2,1,18,9.0066
1,0.99,2,1,19,9.6889
1,0.99,2,1,20,10
1,0.99,2,1,21,10
1,0.99,2,1,22,10
1,0.99,2,1,23,10
1,0.99,2,1,24,10
1,0.99,2,1,25,10
1,0.99,2,1,26,10
1,0.99,2,1,27,10
1,0.99,2,1,28,10.002
1,0.99,2,1,29,10.286
1,0.99,2,1,30,10.785
1,0.99,3,10,0,0
1,0.99,3,10,1,1
1,0.99,3,10,2,2
1,0.99,3,10,3,3
1,0.99,3,10,4,4
1,0.99,3,10,5,5
1,0.99,3,10,6,6
1,0.99,3,10,7,7
1,0.99,3,10,8,8
1,0.99,3,10,9,9
1,0.99,3,10,10,10
1,0.99,3,10,11,11
1,0.99,3,10,12,11
1,0.99,3,10,13,11.989
1,0.99,3,10,14,12
1,0.99,3,10,15,12.881
1,0.99,3,10,16,13.018
1,0.99,3,10,17,13.633
1,0.99,3,10,18,13.964
1,0.99,3,10,19,13.98
1,0.99,3,10,20,14
1,0.99,3,10,21,14
1,0.99,3,10,22,14
1,0.99,3,10,23,14
1,0.99,3,10,24,14
1,0.99,3,10,25,14
1,0.99,3,10,26,14
1,0.99,3,10,27,14
1,0.99,3,10,28,14
1,0.99,3,10,29,14
1,0.99,3,10,30,14
