mu,alpha,i-u,u,k,b
1,0.99,1,1,0,0
1,0.99,1,1,1,0.99944
1,0.99,1,1,2,2
1,0.99,1,1,3,2
1,0.99,1,1,4,2
1,0.99,1,1,5,2.0318
1,0.99,1,1,6,2.9998
1,0.99,1,1,7,3
1,0.99,1,1,8,3
1,0.99,1,1,9,3
1,0.99,1,1,10,3
1,0.99,1,1,11,3
1,0.99,1,1,12,3
1,0.99,1,1,13,3
1,0.99,1,1,14,3
1,0.99,1,1,15,3
1,0.99,1,1,16,3
1,0.99,1,1,17,3
1,0.99,1,1,18,3
1,0.99,1,1,19,3
1,0.99,1,1,20,3
1,0.99,2,1,0,0
1,0.99,2,1,1,1.2314e-06
1,0.99,2,1,2,1.2911e-10
1,0.99,2,1,3,3.164e-20
1,0.99,2,1,4,5.433e-10
1,0.99,2,1,5,0.99977
1,0.99,2,1,6,2
1,0.99,2,1,7,2
1,0.99,2,1,8,2
1,0.99,2,1,9,2.4784
1,0.99,2,1,10,2.9997
1,0.99,2,1,11,3
1,0.99,2,1,12,3
1,0.99,2,1,13,3
1,0.99,2,1,14,3
1,0.99,2,1,15,3
1,0.99,2,1,16,3
1,0.99,2,1,17,3
1,0.99,2,1,18,3
1,0.99,2,1,19,3
1,0.99,2,1,20,3
1,0.99,3,10,0,0
1,0.99,3,10,1,1
1,0.99,3,10,2,2
1,0.99,3,10,3,3
1,0.99,3,10,4,4
1,0.99,3,10,5,4
1,0.99,3,10,6,4
1,0.99,3,10,7,4.0136
1,0.99,3,10,8,4.9999
1,0.99,3,10,9,5
1,0.99,3,10,10,4.9998
1,0.99,3,10,11,5
1,0.99,3,10,12,5
1,0.99,3,10,13,5.0039
1,0.99,3,10,14,5
1,0.99,3,10,15,5.0022
1,0.99,3,10,16,5.3865
1,0.99,3,10,17,5.0113
1,0.99,3,10,18,5.6297
1,0.99,3,10,19,5.9913
1,0.99,3,10,20,5.9202
